%!PS-Adobe-2.0 EPSF-2.0
%%BoundingBox:  0 0 567 384
%%Title: pionDir/pixHits_posZ/pixClus_r.eps: c1_n65
%%Creator: ROOT Version 6.04/12
%%CreationDate: Tue Apr 19 16:53:29 2016
%%DocumentNeededResources: ProcSet (FontSetInit)
%%EndComments
%%BeginProlog
80 dict begin
/s {stroke} def /l {lineto} def /m {moveto} def /t {translate} def
/r {rotate} def /rl {roll}  def /R {repeat} def
/d {rlineto} def /rm {rmoveto} def /gr {grestore} def /f {eofill} def
/c {setrgbcolor} def /black {0 setgray} def /sd {setdash} def
/cl {closepath} def /sf {scalefont setfont} def /lw {setlinewidth} def
/box {m dup 0 exch d exch 0 d 0 exch neg d cl} def
/NC{systemdict begin initclip end}def/C{NC box clip newpath}def
/bl {box s} def /bf {gsave box gsave f grestore 1 lw [] 0 sd s grestore} def /Y { 0 exch d} def /X { 0 d} def 
/K {{pop pop 0 moveto} exch kshow} bind def
/ita {/ang 15 def gsave [1 0 ang dup sin exch cos div 1 0 0] concat} def 
/mp {newpath /y exch def /x exch def} def
/side {[w .77 mul w .23 mul] .385 w mul sd w 0 l currentpoint t -144 r} def
/mr {mp x y w2 0 360 arc} def /m24 {mr s} def /m20 {mr f} def
/mb {mp x y w2 add m w2 neg 0 d 0 w neg d w 0 d 0 w d cl} def
/mt {mp x y w2 add m w2 neg w neg d w 0 d cl} def
/m21 {mb f} def /m25 {mb s} def /m22 {mt f} def /m26{mt s} def
/m23 {mp x y w2 sub m w2 w d w neg 0 d cl f} def
/m27 {mp x y w2 add m w3 neg w2 neg d w3 w2 neg d w3 w2 d cl s} def
/m28 {mp x w2 sub y w2 sub w3 add m w3 0 d  0 w3 neg d w3 0 d 0 w3 d w3 0 d  0 w3 d w3 neg 0 d 0 w3 d w3 neg 0 d 0 w3 neg d w3 neg 0 d cl s } def
/m29 {mp gsave x w2 sub y w2 add w3 sub m currentpoint t 4 {side} repeat cl fill gr} def
/m30 {mp gsave x w2 sub y w2 add w3 sub m currentpoint t 4 {side} repeat cl s gr} def
/m31 {mp x y w2 sub m 0 w d x w2 sub y m w 0 d x w2 sub y w2 add m w w neg d x w2 sub y w2 sub m w w d s} def
/m32 {mp x y w2 sub m w2 w d w neg 0 d cl s} def
/m33 {mp x y w2 add m w3 neg w2 neg d w3 w2 neg d w3 w2 d cl f} def
/m34 {mp x w2 sub y w2 sub w3 add m w3 0 d  0 w3 neg d w3 0 d 0 w3 d w3 0 d  0 w3 d w3 neg 0 d 0 w3 d w3 neg 0 d 0 w3 neg d w3 neg 0 d cl f } def
/m2 {mp x y w2 sub m 0 w d x w2 sub y m w 0 d s} def
/m5 {mp x w2 sub y w2 sub m w w d x w2 sub y w2 add m w w neg d s} def
%%IncludeResource: ProcSet (FontSetInit)
%%IncludeResource: font Times-Roman
%%IncludeResource: font Times-Italic
%%IncludeResource: font Times-Bold
%%IncludeResource: font Times-BoldItalic
%%IncludeResource: font Helvetica
%%IncludeResource: font Helvetica-Oblique
%%IncludeResource: font Helvetica-Bold
%%IncludeResource: font Helvetica-BoldOblique
%%IncludeResource: font Courier
%%IncludeResource: font Courier-Oblique
%%IncludeResource: font Courier-Bold
%%IncludeResource: font Courier-BoldOblique
%%IncludeResource: font Symbol
%%IncludeResource: font ZapfDingbats
/reEncode {exch findfont dup length dict begin {1 index /FID eq  {pop pop} {def} ifelse } forall /Encoding exch def currentdict end dup /FontName get exch definefont pop } def [/Times-Bold /Times-Italic /Times-BoldItalic /Helvetica /Helvetica-Oblique
 /Helvetica-Bold /Helvetica-BoldOblique /Courier /Courier-Oblique /Courier-Bold /Courier-BoldOblique /Times-Roman /AvantGarde-Book /AvantGarde-BookOblique /AvantGarde-Demi /AvantGarde-DemiOblique /Bookman-Demi /Bookman-DemiItalic /Bookman-Light
 /Bookman-LightItalic /Helvetica-Narrow /Helvetica-Narrow-Bold /Helvetica-Narrow-BoldOblique /Helvetica-Narrow-Oblique /NewCenturySchlbk-Roman /NewCenturySchlbk-Bold /NewCenturySchlbk-BoldItalic /NewCenturySchlbk-Italic /Palatino-Bold
 /Palatino-BoldItalic /Palatino-Italic /Palatino-Roman ] {ISOLatin1Encoding reEncode } forall
%%EndProlog
%%BeginSetup
%%EndSetup
newpath  gsave  .25 .25 scale  gsave  0 0 t black[  ] 0 sd 3 lw 1 1 1 c 2268 1538 0 0 bf black 1 1 1 c 1814 1307 227 154 bf black 1814 1307 227 154 bl 1 1 1 c 1814 1307 227 154 bf black 1814 1307 227 154 bl 1 1 1 c black 227 154 m 192 X 503 Y 5 X 329
 Y 5 X -317 Y 5 X -6 Y 5 X -153 Y 5 X -356 Y 156 X 334 Y 5 X 198 Y 5 X -85 Y 6 X -79 Y 5 X -108 Y 5 X -79 Y 5 X -79 Y 5 X 45 Y 5 X 447 Y 6 X 379 Y 5 X 159 Y 5 X -12 Y 5 X -215 Y 5 X 283 Y 6 X -96 Y 5 X -62 Y 5 X -221 Y 5 X 187 Y 5 X -159 Y 5 X 147 Y
 6 X 17 Y 5 X -237 Y 5 X 90 Y 5 X 12 Y 5 X -210 Y 6 X 181 Y 5 X 17 Y 5 X -158 Y 5 X 136 Y 5 X -215 Y 5 X 118 Y 6 X -39 Y 10 X 34 Y 5 X -193 Y 5 X 187 Y 6 X -136 Y 5 X 170 Y 5 X -119 Y 5 X -62 Y 5 X 96 Y 5 X 17 Y 6 X 6 Y 5 X -215 Y 5 X 102 Y 5 X 90 Y
 5 X -85 Y 6 X 46 Y 5 X -244 Y 5 X -362 Y 5 X -28 Y 145 X 373 Y 5 X 193 Y 6 X 85 Y 5 X -40 Y 5 X -28 Y 5 X -63 Y 5 X 80 Y 6 X -148 Y 5 X 6 Y 5 X 96 Y 5 X -192 Y 5 X 74 Y 5 X -40 Y 6 X 113 Y 5 X -57 Y 10 X -107 Y 5 X 181 Y 6 X -85 Y 5 X -11 Y 5 X -57
 Y 5 X -11 Y 5 X 11 Y 5 X 34 Y 6 X -51 Y 5 X -5 Y 5 X 5 Y 5 X 12 Y 5 X -51 Y 6 X 5 Y 5 X 17 Y 5 X -85 Y 5 X 131 Y 5 X 34 Y 6 X -46 Y 5 X -39 Y 5 X -97 Y 5 X 57 Y 5 X -68 Y 5 X 74 Y 6 X -74 Y 5 X -226 Y 109 X 56 Y 5 X 187 Y 5 X 79 Y 5 X 68 Y 5 X -107
 Y 6 X 73 Y 5 X -96 Y 5 X 45 Y 5 X -68 Y 5 X 91 Y 5 X -102 Y 6 X 45 Y 5 X -17 Y 5 X -56 Y 5 X 62 Y 5 X 6 Y 6 X -23 Y 5 X 17 Y 5 X -6 Y 5 X -11 Y 5 X -23 Y 5 X 40 Y 6 X -79 Y 5 X 39 Y 5 X -11 Y 5 X 17 Y 5 X 62 Y 6 X -68 Y 5 X 74 Y 5 X -136 Y 5 X 46 Y
 5 X 22 Y 11 X -51 Y 5 X 57 Y 5 X -28 Y 5 X -29 Y 5 X -68 Y 6 X 74 Y 5 X 51 Y 5 X -85 Y 5 X -147 Y 114 X 141 Y 5 X 159 Y 6 X -68 Y 5 X 22 Y 5 X -56 Y 10 X 22 Y 5 X -67 Y 6 X 73 Y 5 X -56 Y 5 X 5 Y 5 X 113 Y 5 X -113 Y 11 X -11 Y 5 X -23 Y 5 X 17 Y 5
 X -28 Y 5 X 34 Y 6 X 23 Y 5 X 11 Y 5 X 28 Y 5 X -17 Y 5 X -90 Y 6 X 68 Y 10 X -17 Y 5 X -34 Y 5 X 56 Y 6 X -62 Y 5 X 90 Y 5 X -28 Y 5 X 34 Y 5 X -107 Y 5 X 28 Y 6 X -45 Y 5 X 17 Y 5 X 28 Y 5 X -45 Y 5 X 96 Y 6 X -96 Y 5 X -102 Y 176 X s 227 154 m
 1814 X s 227 191 m -37 Y s 279 172 m -18 Y s 330 172 m -18 Y s 382 172 m -18 Y s 434 172 m -18 Y s 486 191 m -37 Y s 538 172 m -18 Y s 590 172 m -18 Y s 641 172 m -18 Y s 693 172 m -18 Y s 745 191 m -37 Y s 797 172 m -18 Y s 849 172 m -18 Y s 901
 172 m -18 Y s 952 172 m -18 Y s 1004 191 m -37 Y s 1056 172 m -18 Y s 1108 172 m -18 Y s 1160 172 m -18 Y s 1212 172 m -18 Y s 1263 191 m -37 Y s 1315 172 m -18 Y s 1367 172 m -18 Y s 1419 172 m -18 Y s 1471 172 m -18 Y s 1523 191 m -37 Y s 1574 172
 m -18 Y s 1626 172 m -18 Y s 1678 172 m -18 Y s 1730 172 m -18 Y s 1782 191 m -37 Y s 1834 172 m -18 Y s 1885 172 m -18 Y s 1937 172 m -18 Y s 1989 172 m -18 Y s 2041 191 m -37 Y s
 gsave  2268 1538 0 0 C 208.526 97.7464 t 0 r /Helvetica-Bold findfont 58.6478 sf 0 0 m (0) show NC gr 
 gsave  2268 1538 0 0 C 452.892 97.7464 t 0 r /Helvetica-Bold findfont 58.6478 sf 0 0 m (50) show NC gr 
 gsave  2268 1538 0 0 C 693.999 97.7464 t 0 r /Helvetica-Bold findfont 58.6478 sf 0 0 m (100) show NC gr 
 gsave  2268 1538 0 0 C 954.657 97.7464 t 0 r /Helvetica-Bold findfont 58.6478 sf 0 0 m (150) show NC gr 
 gsave  2268 1538 0 0 C 1212.06 97.7464 t 0 r /Helvetica-Bold findfont 58.6478 sf 0 0 m (200) show NC gr 
 gsave  2268 1538 0 0 C 1472.71 97.7464 t 0 r /Helvetica-Bold findfont 58.6478 sf 0 0 m (250) show NC gr 
 gsave  2268 1538 0 0 C 1730.11 97.7464 t 0 r /Helvetica-Bold findfont 58.6478 sf 0 0 m (300) show NC gr 
 gsave  2268 1538 0 0 C 1990.77 97.7464 t 0 r /Helvetica-Bold findfont 58.6478 sf 0 0 m (350) show NC gr  227 1461 m 1814 X s 227 1424 m 37 Y s 279 1443 m 18 Y s 330 1443 m 18 Y s 382 1443 m 18 Y s 434 1443 m 18 Y s 486 1424 m 37 Y s 538 1443 m 18 Y
 s 590 1443 m 18 Y s 641 1443 m 18 Y s 693 1443 m 18 Y s 745 1424 m 37 Y s 797 1443 m 18 Y s 849 1443 m 18 Y s 901 1443 m 18 Y s 952 1443 m 18 Y s 1004 1424 m 37 Y s 1056 1443 m 18 Y s 1108 1443 m 18 Y s 1160 1443 m 18 Y s 1212 1443 m 18 Y s 1263
 1424 m 37 Y s 1315 1443 m 18 Y s 1367 1443 m 18 Y s 1419 1443 m 18 Y s 1471 1443 m 18 Y s 1523 1424 m 37 Y s 1574 1443 m 18 Y s 1626 1443 m 18 Y s 1678 1443 m 18 Y s 1730 1443 m 18 Y s 1782 1424 m 37 Y s 1834 1443 m 18 Y s 1885 1443 m 18 Y s 1937
 1443 m 18 Y s 1989 1443 m 18 Y s 2041 1424 m 37 Y s 227 154 m 1307 Y s 285 154 m -58 X s 256 182 m -29 X s 256 210 m -29 X s 256 239 m -29 X s 285 267 m -58 X s 256 295 m -29 X s 256 324 m -29 X s 256 352 m -29 X s 285 380 m -58 X s 256 408 m -29 X
 s 256 437 m -29 X s 256 465 m -29 X s 285 493 m -58 X s 256 522 m -29 X s 256 550 m -29 X s 256 578 m -29 X s 285 606 m -58 X s 256 635 m -29 X s 256 663 m -29 X s 256 691 m -29 X s 285 720 m -58 X s 256 748 m -29 X s 256 776 m -29 X s 256 805 m -29
 X s 285 833 m -58 X s 256 861 m -29 X s 256 889 m -29 X s 256 918 m -29 X s 285 946 m -58 X s 256 974 m -29 X s 256 1003 m -29 X s 256 1031 m -29 X s 285 1059 m -58 X s 256 1087 m -29 X s 256 1116 m -29 X s 256 1144 m -29 X s 285 1172 m -58 X s 256
 1201 m -29 X s 256 1229 m -29 X s 256 1257 m -29 X s 285 1286 m -58 X s 256 1314 m -29 X s 256 1342 m -29 X s 256 1370 m -29 X s 285 1399 m -58 X s 285 1399 m -58 X s 256 1427 m -29 X s 256 1455 m -29 X s
 gsave  2268 1538 0 0 C 182.46 133.587 t 0 r /Helvetica-Bold findfont 58.6478 sf 0 0 m (0) show NC gr 
 gsave  2268 1538 0 0 C 149.878 244.366 t 0 r /Helvetica-Bold findfont 58.6478 sf 0 0 m (20) show NC gr 
 gsave  2268 1538 0 0 C 149.878 358.403 t 0 r /Helvetica-Bold findfont 58.6478 sf 0 0 m (40) show NC gr 
 gsave  2268 1538 0 0 C 149.878 472.441 t 0 r /Helvetica-Bold findfont 58.6478 sf 0 0 m (60) show NC gr 
 gsave  2268 1538 0 0 C 149.878 586.478 t 0 r /Helvetica-Bold findfont 58.6478 sf 0 0 m (80) show NC gr 
 gsave  2268 1538 0 0 C 117.296 697.258 t 0 r /Helvetica-Bold findfont 58.6478 sf 0 0 m (100) show NC gr 
 gsave  2268 1538 0 0 C 117.296 811.295 t 0 r /Helvetica-Bold findfont 58.6478 sf 0 0 m (120) show NC gr 
 gsave  2268 1538 0 0 C 117.296 925.333 t 0 r /Helvetica-Bold findfont 58.6478 sf 0 0 m (140) show NC gr 
 gsave  2268 1538 0 0 C 117.296 1039.37 t 0 r /Helvetica-Bold findfont 58.6478 sf 0 0 m (160) show NC gr 
 gsave  2268 1538 0 0 C 117.296 1150.15 t 0 r /Helvetica-Bold findfont 58.6478 sf 0 0 m (180) show NC gr 
 gsave  2268 1538 0 0 C 117.296 1264.19 t 0 r /Helvetica-Bold findfont 58.6478 sf 0 0 m (200) show NC gr 
 gsave  2268 1538 0 0 C 117.296 1378.22 t 0 r /Helvetica-Bold findfont 58.6478 sf 0 0 m (220) show NC gr  2041 154 m 1307 Y s 1983 154 m 58 X s 2012 182 m 29 X s 2012 210 m 29 X s 2012 239 m 29 X s 1983 267 m 58 X s 2012 295 m 29 X s 2012 324 m 29 X
 s 2012 352 m 29 X s 1983 380 m 58 X s 2012 408 m 29 X s 2012 437 m 29 X s 2012 465 m 29 X s 1983 493 m 58 X s 2012 522 m 29 X s 2012 550 m 29 X s 2012 578 m 29 X s 1983 606 m 58 X s 2012 635 m 29 X s 2012 663 m 29 X s 2012 691 m 29 X s 1983 720 m 58
 X s 2012 748 m 29 X s 2012 776 m 29 X s 2012 805 m 29 X s 1983 833 m 58 X s 2012 861 m 29 X s 2012 889 m 29 X s 2012 918 m 29 X s 1983 946 m 58 X s 2012 974 m 29 X s 2012 1003 m 29 X s 2012 1031 m 29 X s 1983 1059 m 58 X s 2012 1087 m 29 X s 2012
 1116 m 29 X s 2012 1144 m 29 X s 1983 1172 m 58 X s 2012 1201 m 29 X s 2012 1229 m 29 X s 2012 1257 m 29 X s 1983 1286 m 58 X s 2012 1314 m 29 X s 2012 1342 m 29 X s 2012 1370 m 29 X s 1983 1399 m 58 X s 1983 1399 m 58 X s 2012 1427 m 29 X s 2012
 1455 m 29 X s
 gsave  2268 1538 0 0 C 1326.09 1172.96 t 0 r /Helvetica-Bold findfont 58.6478 sf 0 0 m (Pixel Occupancies) show NC gr  1124 1192 m 167 X s
 gr  gr showpage
end
%%EOF
