%!PS-Adobe-2.0 EPSF-2.0
%%BoundingBox:  0 0 567 384
%%Title: pionDir/pixHits_posZ/pixClus_x.eps: c1_n69
%%Creator: ROOT Version 6.04/12
%%CreationDate: Tue Apr 19 16:53:30 2016
%%DocumentNeededResources: ProcSet (FontSetInit)
%%EndComments
%%BeginProlog
80 dict begin
/s {stroke} def /l {lineto} def /m {moveto} def /t {translate} def
/r {rotate} def /rl {roll}  def /R {repeat} def
/d {rlineto} def /rm {rmoveto} def /gr {grestore} def /f {eofill} def
/c {setrgbcolor} def /black {0 setgray} def /sd {setdash} def
/cl {closepath} def /sf {scalefont setfont} def /lw {setlinewidth} def
/box {m dup 0 exch d exch 0 d 0 exch neg d cl} def
/NC{systemdict begin initclip end}def/C{NC box clip newpath}def
/bl {box s} def /bf {gsave box gsave f grestore 1 lw [] 0 sd s grestore} def /Y { 0 exch d} def /X { 0 d} def 
/K {{pop pop 0 moveto} exch kshow} bind def
/ita {/ang 15 def gsave [1 0 ang dup sin exch cos div 1 0 0] concat} def 
/mp {newpath /y exch def /x exch def} def
/side {[w .77 mul w .23 mul] .385 w mul sd w 0 l currentpoint t -144 r} def
/mr {mp x y w2 0 360 arc} def /m24 {mr s} def /m20 {mr f} def
/mb {mp x y w2 add m w2 neg 0 d 0 w neg d w 0 d 0 w d cl} def
/mt {mp x y w2 add m w2 neg w neg d w 0 d cl} def
/m21 {mb f} def /m25 {mb s} def /m22 {mt f} def /m26{mt s} def
/m23 {mp x y w2 sub m w2 w d w neg 0 d cl f} def
/m27 {mp x y w2 add m w3 neg w2 neg d w3 w2 neg d w3 w2 d cl s} def
/m28 {mp x w2 sub y w2 sub w3 add m w3 0 d  0 w3 neg d w3 0 d 0 w3 d w3 0 d  0 w3 d w3 neg 0 d 0 w3 d w3 neg 0 d 0 w3 neg d w3 neg 0 d cl s } def
/m29 {mp gsave x w2 sub y w2 add w3 sub m currentpoint t 4 {side} repeat cl fill gr} def
/m30 {mp gsave x w2 sub y w2 add w3 sub m currentpoint t 4 {side} repeat cl s gr} def
/m31 {mp x y w2 sub m 0 w d x w2 sub y m w 0 d x w2 sub y w2 add m w w neg d x w2 sub y w2 sub m w w d s} def
/m32 {mp x y w2 sub m w2 w d w neg 0 d cl s} def
/m33 {mp x y w2 add m w3 neg w2 neg d w3 w2 neg d w3 w2 d cl f} def
/m34 {mp x w2 sub y w2 sub w3 add m w3 0 d  0 w3 neg d w3 0 d 0 w3 d w3 0 d  0 w3 d w3 neg 0 d 0 w3 d w3 neg 0 d 0 w3 neg d w3 neg 0 d cl f } def
/m2 {mp x y w2 sub m 0 w d x w2 sub y m w 0 d s} def
/m5 {mp x w2 sub y w2 sub m w w d x w2 sub y w2 add m w w neg d s} def
%%IncludeResource: ProcSet (FontSetInit)
%%IncludeResource: font Times-Roman
%%IncludeResource: font Times-Italic
%%IncludeResource: font Times-Bold
%%IncludeResource: font Times-BoldItalic
%%IncludeResource: font Helvetica
%%IncludeResource: font Helvetica-Oblique
%%IncludeResource: font Helvetica-Bold
%%IncludeResource: font Helvetica-BoldOblique
%%IncludeResource: font Courier
%%IncludeResource: font Courier-Oblique
%%IncludeResource: font Courier-Bold
%%IncludeResource: font Courier-BoldOblique
%%IncludeResource: font Symbol
%%IncludeResource: font ZapfDingbats
/reEncode {exch findfont dup length dict begin {1 index /FID eq  {pop pop} {def} ifelse } forall /Encoding exch def currentdict end dup /FontName get exch definefont pop } def [/Times-Bold /Times-Italic /Times-BoldItalic /Helvetica /Helvetica-Oblique
 /Helvetica-Bold /Helvetica-BoldOblique /Courier /Courier-Oblique /Courier-Bold /Courier-BoldOblique /Times-Roman /AvantGarde-Book /AvantGarde-BookOblique /AvantGarde-Demi /AvantGarde-DemiOblique /Bookman-Demi /Bookman-DemiItalic /Bookman-Light
 /Bookman-LightItalic /Helvetica-Narrow /Helvetica-Narrow-Bold /Helvetica-Narrow-BoldOblique /Helvetica-Narrow-Oblique /NewCenturySchlbk-Roman /NewCenturySchlbk-Bold /NewCenturySchlbk-BoldItalic /NewCenturySchlbk-Italic /Palatino-Bold
 /Palatino-BoldItalic /Palatino-Italic /Palatino-Roman ] {ISOLatin1Encoding reEncode } forall
%%EndProlog
%%BeginSetup
%%EndSetup
newpath  gsave  .25 .25 scale  gsave  0 0 t black[  ] 0 sd 3 lw 1 1 1 c 2268 1538 0 0 bf black 1 1 1 c 1814 1307 227 154 bf black 1814 1307 227 154 bl 1 1 1 c 1814 1307 227 154 bf black 1814 1307 227 154 bl 1 1 1 c black 227 629 m 5 X -34 Y 5 X 187 Y
 5 X -153 Y 6 X -34 Y 5 X -17 Y 5 X -51 Y 5 X 85 Y 10 X -136 Y 6 X 306 Y 5 X 136 Y 5 X 17 Y 5 X 152 Y 5 X 51 Y 6 X -118 Y 5 X -34 Y 5 X -442 Y 5 X 187 Y 5 X -17 Y 11 X -34 Y 5 X -34 Y 5 X 17 Y 5 X -187 Y 11 X 153 Y 5 X 51 Y 5 X 170 Y 5 X -136 Y 5 X
 51 Y 5 X 102 Y 6 X -102 Y 5 X -51 Y 5 X 68 Y 5 X 68 Y 5 X 136 Y 6 X -102 Y 5 X 102 Y 5 X 135 Y 5 X 102 Y 5 X -305 Y 5 X -85 Y 6 X -187 Y 5 X 221 Y 5 X -391 Y 5 X 204 Y 5 X 17 Y 6 X 136 Y 10 X -85 Y 5 X 187 Y 5 X -204 Y 5 X 187 Y 6 X -238 Y 5 X 340 Y
 5 X -272 Y 5 X -136 Y 5 X 221 Y 6 X 17 Y 5 X -51 Y 5 X -68 Y 5 X -136 Y 5 X 204 Y 6 X 136 Y 5 X 119 Y 5 X 50 Y 5 X -237 Y 5 X 170 Y 5 X 84 Y 6 X -135 Y 5 X -85 Y 5 X 102 Y 5 X 101 Y 5 X -135 Y 6 X 34 Y 5 X -68 Y 5 X 119 Y 5 X 288 Y 5 X -288 Y 5 X
 -34 Y 6 X 237 Y 5 X -68 Y 5 X -441 Y 5 X 323 Y 5 X 101 Y 6 X -34 Y 5 X -135 Y 5 X 34 Y 5 X -221 Y 10 X 34 Y 11 X -34 Y 5 X 271 Y 5 X -169 Y 5 X -136 Y 11 X 17 Y 5 X -136 Y 5 X -34 Y 5 X 136 Y 5 X -51 Y 6 X -51 Y 5 X -34 Y 5 X -119 Y 5 X 102 Y 5 X 34
 Y 6 X 68 Y 5 X 17 Y 5 X -221 Y 5 X 272 Y 5 X -85 Y 5 X -187 Y 6 X -136 Y 5 X 153 Y 5 X 68 Y 5 X -221 Y 5 X 119 Y 6 X -152 Y 5 X -17 Y 5 X 50 Y 5 X 119 Y 5 X -220 Y 6 X 220 Y 5 X -186 Y 5 X 101 Y 5 X -67 Y 5 X 101 Y 5 X 51 Y 6 X -68 Y 5 X -17 Y 10 X
 -84 Y 5 X -17 Y 6 X 203 Y 5 X -68 Y 5 X -17 Y 5 X -34 Y 5 X 34 Y 5 X -67 Y 6 X 118 Y 5 X -169 Y 5 X 17 Y 5 X 67 Y 5 X 136 Y 6 X -136 Y 5 X 34 Y 5 X 51 Y 5 X 17 Y 5 X 68 Y 5 X -17 Y 6 X -102 Y 5 X -17 Y 5 X -17 Y 5 X 68 Y 5 X -135 Y 6 X 135 Y 5 X -68
 Y 10 X 85 Y 5 X -34 Y 5 X 119 Y 6 X -153 Y 5 X -51 Y 5 X -33 Y 5 X 17 Y 5 X 67 Y 6 X -67 Y 10 X -17 Y 5 X 84 Y 5 X -101 Y 5 X 50 Y 6 X -33 Y 5 X -85 Y 5 X 118 Y 5 X -101 Y 5 X 51 Y 6 X 84 Y 5 X 17 Y 5 X -101 Y 5 X -68 Y 5 X 152 Y 6 X -135 Y 5 X 68 Y
 5 X -51 Y 5 X 17 Y 10 X -68 Y 6 X 34 Y 5 X 34 Y 5 X -51 Y 5 X -85 Y 5 X 68 Y 6 X 51 Y 10 X 17 Y 5 X -85 Y 5 X 34 Y 5 X -17 Y 6 X 17 Y 5 X 68 Y 5 X -68 Y 10 X 17 Y 6 X -17 Y 5 X -17 Y 5 X 102 Y 5 X -153 Y 5 X 119 Y 5 X -17 Y 11 X 34 Y 5 X -68 Y 5 X
 169 Y 5 X -152 Y 6 X 51 Y 5 X -51 Y 5 X 51 Y 5 X -51 Y 5 X 68 Y 5 X -51 Y 6 X -68 Y 5 X 68 Y 10 X -51 Y 5 X 51 Y 6 X -34 Y 5 X 102 Y 5 X -170 Y 5 X 51 Y 5 X -85 Y 5 X 102 Y 6 X 34 Y 5 X -34 Y 5 X -68 Y 10 X 68 Y 6 X -34 Y 5 X 17 Y 5 X -34 Y 5 X 102
 Y 5 X -119 Y 6 X 51 Y 5 X 34 Y 5 X -17 Y 5 X -51 Y 5 X -51 Y 5 X 34 Y 6 X 17 Y 5 X 17 Y 5 X -17 Y 5 X 17 Y 5 X -34 Y 6 X 17 Y 5 X -17 Y 5 X 17 Y 5 X -17 Y 5 X 51 Y 5 X -17 Y 6 X -34 Y 5 X 17 Y 5 X 17 Y 5 X -17 Y 5 X 17 Y 6 X 51 Y 5 X -119 Y 5 X 68 Y
 5 X -34 Y 5 X 34 Y 5 X -34 Y 6 X 51 Y 5 X -17 Y 5 X 51 Y 5 X -34 Y 21 X 34 Y 5 X -51 Y 5 X 51 Y 5 X -68 Y 6 X 68 Y 5 X -34 Y 5 X -68 Y 10 X 85 Y 6 X -68 Y 5 X 34 Y 5 X -51 Y 5 X 17 Y 5 X -17 Y 16 X 68 Y 5 X -51 Y 5 X -17 Y 5 X 17 Y 6 X -34 Y 15 X 34
 Y 5 X -17 Y 6 X 17 Y 5 X 17 Y 5 X -34 Y 10 X 17 Y 11 X -34 Y 5 X 17 Y 15 X -17 Y 187 X s 227 154 m 1814 X s 227 191 m -37 Y s 279 172 m -18 Y s 330 172 m -18 Y s 382 172 m -18 Y s 434 172 m -18 Y s 486 191 m -37 Y s 538 172 m -18 Y s 590 172 m -18 Y
 s 641 172 m -18 Y s 693 172 m -18 Y s 745 191 m -37 Y s 797 172 m -18 Y s 849 172 m -18 Y s 901 172 m -18 Y s 952 172 m -18 Y s 1004 191 m -37 Y s 1056 172 m -18 Y s 1108 172 m -18 Y s 1160 172 m -18 Y s 1212 172 m -18 Y s 1263 191 m -37 Y s 1315
 172 m -18 Y s 1367 172 m -18 Y s 1419 172 m -18 Y s 1471 172 m -18 Y s 1523 191 m -37 Y s 1574 172 m -18 Y s 1626 172 m -18 Y s 1678 172 m -18 Y s 1730 172 m -18 Y s 1782 191 m -37 Y s 1834 172 m -18 Y s 1885 172 m -18 Y s 1937 172 m -18 Y s 1989
 172 m -18 Y s 2041 191 m -37 Y s
 gsave  2268 1538 0 0 C 208.526 97.7464 t 0 r /Helvetica-Bold findfont 58.6478 sf 0 0 m (0) show NC gr 
 gsave  2268 1538 0 0 C 452.892 97.7464 t 0 r /Helvetica-Bold findfont 58.6478 sf 0 0 m (50) show NC gr 
 gsave  2268 1538 0 0 C 693.999 97.7464 t 0 r /Helvetica-Bold findfont 58.6478 sf 0 0 m (100) show NC gr 
 gsave  2268 1538 0 0 C 954.657 97.7464 t 0 r /Helvetica-Bold findfont 58.6478 sf 0 0 m (150) show NC gr 
 gsave  2268 1538 0 0 C 1212.06 97.7464 t 0 r /Helvetica-Bold findfont 58.6478 sf 0 0 m (200) show NC gr 
 gsave  2268 1538 0 0 C 1472.71 97.7464 t 0 r /Helvetica-Bold findfont 58.6478 sf 0 0 m (250) show NC gr 
 gsave  2268 1538 0 0 C 1730.11 97.7464 t 0 r /Helvetica-Bold findfont 58.6478 sf 0 0 m (300) show NC gr 
 gsave  2268 1538 0 0 C 1990.77 97.7464 t 0 r /Helvetica-Bold findfont 58.6478 sf 0 0 m (350) show NC gr  227 1461 m 1814 X s 227 1424 m 37 Y s 279 1443 m 18 Y s 330 1443 m 18 Y s 382 1443 m 18 Y s 434 1443 m 18 Y s 486 1424 m 37 Y s 538 1443 m 18 Y
 s 590 1443 m 18 Y s 641 1443 m 18 Y s 693 1443 m 18 Y s 745 1424 m 37 Y s 797 1443 m 18 Y s 849 1443 m 18 Y s 901 1443 m 18 Y s 952 1443 m 18 Y s 1004 1424 m 37 Y s 1056 1443 m 18 Y s 1108 1443 m 18 Y s 1160 1443 m 18 Y s 1212 1443 m 18 Y s 1263
 1424 m 37 Y s 1315 1443 m 18 Y s 1367 1443 m 18 Y s 1419 1443 m 18 Y s 1471 1443 m 18 Y s 1523 1424 m 37 Y s 1574 1443 m 18 Y s 1626 1443 m 18 Y s 1678 1443 m 18 Y s 1730 1443 m 18 Y s 1782 1424 m 37 Y s 1834 1443 m 18 Y s 1885 1443 m 18 Y s 1937
 1443 m 18 Y s 1989 1443 m 18 Y s 2041 1424 m 37 Y s 227 154 m 1307 Y s 285 154 m -58 X s 256 188 m -29 X s 256 222 m -29 X s 256 256 m -29 X s 256 290 m -29 X s 285 324 m -58 X s 256 358 m -29 X s 256 391 m -29 X s 256 425 m -29 X s 256 459 m -29 X
 s 285 493 m -58 X s 256 527 m -29 X s 256 561 m -29 X s 256 595 m -29 X s 256 629 m -29 X s 285 663 m -58 X s 256 697 m -29 X s 256 731 m -29 X s 256 765 m -29 X s 256 799 m -29 X s 285 833 m -58 X s 256 867 m -29 X s 256 901 m -29 X s 256 935 m -29
 X s 256 969 m -29 X s 285 1003 m -58 X s 256 1037 m -29 X s 256 1071 m -29 X s 256 1104 m -29 X s 256 1138 m -29 X s 285 1172 m -58 X s 256 1206 m -29 X s 256 1240 m -29 X s 256 1274 m -29 X s 256 1308 m -29 X s 285 1342 m -58 X s 285 1342 m -58 X s
 256 1376 m -29 X s 256 1410 m -29 X s 256 1444 m -29 X s
 gsave  2268 1538 0 0 C 182.46 133.587 t 0 r /Helvetica-Bold findfont 58.6478 sf 0 0 m (0) show NC gr 
 gsave  2268 1538 0 0 C 149.878 303.014 t 0 r /Helvetica-Bold findfont 58.6478 sf 0 0 m (10) show NC gr 
 gsave  2268 1538 0 0 C 149.878 472.441 t 0 r /Helvetica-Bold findfont 58.6478 sf 0 0 m (20) show NC gr 
 gsave  2268 1538 0 0 C 149.878 641.868 t 0 r /Helvetica-Bold findfont 58.6478 sf 0 0 m (30) show NC gr 
 gsave  2268 1538 0 0 C 149.878 811.295 t 0 r /Helvetica-Bold findfont 58.6478 sf 0 0 m (40) show NC gr 
 gsave  2268 1538 0 0 C 149.878 980.722 t 0 r /Helvetica-Bold findfont 58.6478 sf 0 0 m (50) show NC gr 
 gsave  2268 1538 0 0 C 149.878 1150.15 t 0 r /Helvetica-Bold findfont 58.6478 sf 0 0 m (60) show NC gr 
 gsave  2268 1538 0 0 C 149.878 1319.58 t 0 r /Helvetica-Bold findfont 58.6478 sf 0 0 m (70) show NC gr  2041 154 m 1307 Y s 1983 154 m 58 X s 2012 188 m 29 X s 2012 222 m 29 X s 2012 256 m 29 X s 2012 290 m 29 X s 1983 324 m 58 X s 2012 358 m 29 X s
 2012 391 m 29 X s 2012 425 m 29 X s 2012 459 m 29 X s 1983 493 m 58 X s 2012 527 m 29 X s 2012 561 m 29 X s 2012 595 m 29 X s 2012 629 m 29 X s 1983 663 m 58 X s 2012 697 m 29 X s 2012 731 m 29 X s 2012 765 m 29 X s 2012 799 m 29 X s 1983 833 m 58 X
 s 2012 867 m 29 X s 2012 901 m 29 X s 2012 935 m 29 X s 2012 969 m 29 X s 1983 1003 m 58 X s 2012 1037 m 29 X s 2012 1071 m 29 X s 2012 1104 m 29 X s 2012 1138 m 29 X s 1983 1172 m 58 X s 2012 1206 m 29 X s 2012 1240 m 29 X s 2012 1274 m 29 X s 2012
 1308 m 29 X s 1983 1342 m 58 X s 1983 1342 m 58 X s 2012 1376 m 29 X s 2012 1410 m 29 X s 2012 1444 m 29 X s
 gsave  2268 1538 0 0 C 1326.09 1172.96 t 0 r /Helvetica-Bold findfont 58.6478 sf 0 0 m (Pixel Occupancies) show NC gr  1124 1192 m 167 X s
 gr  gr showpage
end
%%EOF
