%!PS-Adobe-2.0 EPSF-2.0
%%BoundingBox:  0 0 567 384
%%Title: pionDir/pixHits_negZ/pixClus_r.eps: c1_n73
%%Creator: ROOT Version 6.04/12
%%CreationDate: Tue Apr 19 16:53:30 2016
%%DocumentNeededResources: ProcSet (FontSetInit)
%%EndComments
%%BeginProlog
80 dict begin
/s {stroke} def /l {lineto} def /m {moveto} def /t {translate} def
/r {rotate} def /rl {roll}  def /R {repeat} def
/d {rlineto} def /rm {rmoveto} def /gr {grestore} def /f {eofill} def
/c {setrgbcolor} def /black {0 setgray} def /sd {setdash} def
/cl {closepath} def /sf {scalefont setfont} def /lw {setlinewidth} def
/box {m dup 0 exch d exch 0 d 0 exch neg d cl} def
/NC{systemdict begin initclip end}def/C{NC box clip newpath}def
/bl {box s} def /bf {gsave box gsave f grestore 1 lw [] 0 sd s grestore} def /Y { 0 exch d} def /X { 0 d} def 
/K {{pop pop 0 moveto} exch kshow} bind def
/ita {/ang 15 def gsave [1 0 ang dup sin exch cos div 1 0 0] concat} def 
/mp {newpath /y exch def /x exch def} def
/side {[w .77 mul w .23 mul] .385 w mul sd w 0 l currentpoint t -144 r} def
/mr {mp x y w2 0 360 arc} def /m24 {mr s} def /m20 {mr f} def
/mb {mp x y w2 add m w2 neg 0 d 0 w neg d w 0 d 0 w d cl} def
/mt {mp x y w2 add m w2 neg w neg d w 0 d cl} def
/m21 {mb f} def /m25 {mb s} def /m22 {mt f} def /m26{mt s} def
/m23 {mp x y w2 sub m w2 w d w neg 0 d cl f} def
/m27 {mp x y w2 add m w3 neg w2 neg d w3 w2 neg d w3 w2 d cl s} def
/m28 {mp x w2 sub y w2 sub w3 add m w3 0 d  0 w3 neg d w3 0 d 0 w3 d w3 0 d  0 w3 d w3 neg 0 d 0 w3 d w3 neg 0 d 0 w3 neg d w3 neg 0 d cl s } def
/m29 {mp gsave x w2 sub y w2 add w3 sub m currentpoint t 4 {side} repeat cl fill gr} def
/m30 {mp gsave x w2 sub y w2 add w3 sub m currentpoint t 4 {side} repeat cl s gr} def
/m31 {mp x y w2 sub m 0 w d x w2 sub y m w 0 d x w2 sub y w2 add m w w neg d x w2 sub y w2 sub m w w d s} def
/m32 {mp x y w2 sub m w2 w d w neg 0 d cl s} def
/m33 {mp x y w2 add m w3 neg w2 neg d w3 w2 neg d w3 w2 d cl f} def
/m34 {mp x w2 sub y w2 sub w3 add m w3 0 d  0 w3 neg d w3 0 d 0 w3 d w3 0 d  0 w3 d w3 neg 0 d 0 w3 d w3 neg 0 d 0 w3 neg d w3 neg 0 d cl f } def
/m2 {mp x y w2 sub m 0 w d x w2 sub y m w 0 d s} def
/m5 {mp x w2 sub y w2 sub m w w d x w2 sub y w2 add m w w neg d s} def
%%IncludeResource: ProcSet (FontSetInit)
%%IncludeResource: font Times-Roman
%%IncludeResource: font Times-Italic
%%IncludeResource: font Times-Bold
%%IncludeResource: font Times-BoldItalic
%%IncludeResource: font Helvetica
%%IncludeResource: font Helvetica-Oblique
%%IncludeResource: font Helvetica-Bold
%%IncludeResource: font Helvetica-BoldOblique
%%IncludeResource: font Courier
%%IncludeResource: font Courier-Oblique
%%IncludeResource: font Courier-Bold
%%IncludeResource: font Courier-BoldOblique
%%IncludeResource: font Symbol
%%IncludeResource: font ZapfDingbats
/reEncode {exch findfont dup length dict begin {1 index /FID eq  {pop pop} {def} ifelse } forall /Encoding exch def currentdict end dup /FontName get exch definefont pop } def [/Times-Bold /Times-Italic /Times-BoldItalic /Helvetica /Helvetica-Oblique
 /Helvetica-Bold /Helvetica-BoldOblique /Courier /Courier-Oblique /Courier-Bold /Courier-BoldOblique /Times-Roman /AvantGarde-Book /AvantGarde-BookOblique /AvantGarde-Demi /AvantGarde-DemiOblique /Bookman-Demi /Bookman-DemiItalic /Bookman-Light
 /Bookman-LightItalic /Helvetica-Narrow /Helvetica-Narrow-Bold /Helvetica-Narrow-BoldOblique /Helvetica-Narrow-Oblique /NewCenturySchlbk-Roman /NewCenturySchlbk-Bold /NewCenturySchlbk-BoldItalic /NewCenturySchlbk-Italic /Palatino-Bold
 /Palatino-BoldItalic /Palatino-Italic /Palatino-Roman ] {ISOLatin1Encoding reEncode } forall
%%EndProlog
%%BeginSetup
%%EndSetup
newpath  gsave  .25 .25 scale  gsave  0 0 t black[  ] 0 sd 3 lw 1 1 1 c 2268 1538 0 0 bf black 1 1 1 c 1814 1307 227 154 bf black 1814 1307 227 154 bl 1 1 1 c 1814 1307 227 154 bf black 1814 1307 227 154 bl 1 1 1 c black 227 154 m 192 X 413 Y 5 X 775
 Y 5 X -700 Y 5 X -46 Y 5 X -159 Y 5 X -283 Y 156 X 321 Y 5 X 167 Y 11 X -271 Y 10 X -42 Y 5 X -38 Y 5 X 42 Y 5 X 380 Y 6 X 125 Y 5 X 208 Y 5 X -154 Y 5 X 117 Y 5 X -130 Y 6 X 134 Y 5 X -175 Y 5 X 4 Y 5 X -63 Y 5 X 134 Y 5 X -125 Y 6 X -80 Y 5 X 125
 Y 5 X 5 Y 5 X -134 Y 5 X 25 Y 6 X 17 Y 5 X 137 Y 5 X -195 Y 5 X 108 Y 5 X -117 Y 5 X 50 Y 6 X 50 Y 5 X -83 Y 5 X -25 Y 5 X 33 Y 5 X 17 Y 6 X -59 Y 5 X 30 Y 5 X -50 Y 5 X 29 Y 5 X 12 Y 5 X -4 Y 6 X -129 Y 5 X 54 Y 5 X 17 Y 5 X -38 Y 5 X -8 Y 6 X -50
 Y 5 X -29 Y 5 X -309 Y 5 X -33 Y 145 X 304 Y 5 X 146 Y 6 X 25 Y 5 X -133 Y 5 X 16 Y 5 X 80 Y 5 X 4 Y 6 X -13 Y 5 X -75 Y 5 X 84 Y 5 X -46 Y 5 X -21 Y 5 X 8 Y 6 X 9 Y 5 X 58 Y 5 X -92 Y 5 X -46 Y 5 X -50 Y 6 X 59 Y 5 X 54 Y 5 X -88 Y 5 X 4 Y 5 X -8 Y
 5 X 46 Y 6 X -17 Y 5 X -41 Y 5 X 54 Y 5 X -117 Y 5 X 42 Y 6 X 46 Y 5 X -17 Y 5 X 63 Y 5 X -38 Y 5 X -83 Y 6 X 41 Y 10 X -41 Y 5 X 20 Y 5 X -20 Y 5 X 54 Y 6 X -142 Y 5 X -129 Y 109 X 62 Y 5 X 138 Y 5 X 54 Y 5 X -8 Y 5 X 33 Y 6 X 34 Y 5 X -71 Y 5 X
 -67 Y 5 X 12 Y 5 X 38 Y 5 X -17 Y 6 X -33 Y 5 X 83 Y 5 X -54 Y 5 X -4 Y 5 X -25 Y 6 X 21 Y 5 X -13 Y 5 X -4 Y 5 X 25 Y 5 X -12 Y 5 X 16 Y 6 X -16 Y 5 X -38 Y 5 X -12 Y 5 X -5 Y 5 X 50 Y 6 X -70 Y 5 X 25 Y 5 X 16 Y 5 X -46 Y 5 X 13 Y 11 X 21 Y 5 X
 -50 Y 5 X 33 Y 5 X 63 Y 5 X -38 Y 6 X -50 Y 5 X 79 Y 5 X -54 Y 5 X -108 Y 5 X -21 Y 109 X 112 Y 5 X 71 Y 6 X -50 Y 5 X 25 Y 5 X -66 Y 5 X 45 Y 5 X -8 Y 5 X 17 Y 6 X 4 Y 5 X 17 Y 5 X -13 Y 5 X -50 Y 5 X 29 Y 6 X -8 Y 5 X -25 Y 5 X 37 Y 5 X -12 Y 5 X
 4 Y 5 X 21 Y 6 X -71 Y 5 X -29 Y 5 X 54 Y 5 X -12 Y 5 X 16 Y 6 X 17 Y 5 X 8 Y 5 X -37 Y 5 X 4 Y 11 X 4 Y 5 X 21 Y 5 X -38 Y 5 X 25 Y 5 X 5 Y 5 X -25 Y 6 X -9 Y 5 X 13 Y 5 X 8 Y 5 X 21 Y 5 X -50 Y 6 X -29 Y 5 X -46 Y 176 X s 227 154 m 1814 X s 227
 191 m -37 Y s 279 172 m -18 Y s 330 172 m -18 Y s 382 172 m -18 Y s 434 172 m -18 Y s 486 191 m -37 Y s 538 172 m -18 Y s 590 172 m -18 Y s 641 172 m -18 Y s 693 172 m -18 Y s 745 191 m -37 Y s 797 172 m -18 Y s 849 172 m -18 Y s 901 172 m -18 Y s
 952 172 m -18 Y s 1004 191 m -37 Y s 1056 172 m -18 Y s 1108 172 m -18 Y s 1160 172 m -18 Y s 1212 172 m -18 Y s 1263 191 m -37 Y s 1315 172 m -18 Y s 1367 172 m -18 Y s 1419 172 m -18 Y s 1471 172 m -18 Y s 1523 191 m -37 Y s 1574 172 m -18 Y s
 1626 172 m -18 Y s 1678 172 m -18 Y s 1730 172 m -18 Y s 1782 191 m -37 Y s 1834 172 m -18 Y s 1885 172 m -18 Y s 1937 172 m -18 Y s 1989 172 m -18 Y s 2041 191 m -37 Y s
 gsave  2268 1538 0 0 C 208.526 97.7464 t 0 r /Helvetica-Bold findfont 58.6478 sf 0 0 m (0) show NC gr 
 gsave  2268 1538 0 0 C 452.892 97.7464 t 0 r /Helvetica-Bold findfont 58.6478 sf 0 0 m (50) show NC gr 
 gsave  2268 1538 0 0 C 693.999 97.7464 t 0 r /Helvetica-Bold findfont 58.6478 sf 0 0 m (100) show NC gr 
 gsave  2268 1538 0 0 C 954.657 97.7464 t 0 r /Helvetica-Bold findfont 58.6478 sf 0 0 m (150) show NC gr 
 gsave  2268 1538 0 0 C 1212.06 97.7464 t 0 r /Helvetica-Bold findfont 58.6478 sf 0 0 m (200) show NC gr 
 gsave  2268 1538 0 0 C 1472.71 97.7464 t 0 r /Helvetica-Bold findfont 58.6478 sf 0 0 m (250) show NC gr 
 gsave  2268 1538 0 0 C 1730.11 97.7464 t 0 r /Helvetica-Bold findfont 58.6478 sf 0 0 m (300) show NC gr 
 gsave  2268 1538 0 0 C 1990.77 97.7464 t 0 r /Helvetica-Bold findfont 58.6478 sf 0 0 m (350) show NC gr  227 1461 m 1814 X s 227 1424 m 37 Y s 279 1443 m 18 Y s 330 1443 m 18 Y s 382 1443 m 18 Y s 434 1443 m 18 Y s 486 1424 m 37 Y s 538 1443 m 18 Y
 s 590 1443 m 18 Y s 641 1443 m 18 Y s 693 1443 m 18 Y s 745 1424 m 37 Y s 797 1443 m 18 Y s 849 1443 m 18 Y s 901 1443 m 18 Y s 952 1443 m 18 Y s 1004 1424 m 37 Y s 1056 1443 m 18 Y s 1108 1443 m 18 Y s 1160 1443 m 18 Y s 1212 1443 m 18 Y s 1263
 1424 m 37 Y s 1315 1443 m 18 Y s 1367 1443 m 18 Y s 1419 1443 m 18 Y s 1471 1443 m 18 Y s 1523 1424 m 37 Y s 1574 1443 m 18 Y s 1626 1443 m 18 Y s 1678 1443 m 18 Y s 1730 1443 m 18 Y s 1782 1424 m 37 Y s 1834 1443 m 18 Y s 1885 1443 m 18 Y s 1937
 1443 m 18 Y s 1989 1443 m 18 Y s 2041 1424 m 37 Y s 227 154 m 1307 Y s 285 154 m -58 X s 256 195 m -29 X s 256 237 m -29 X s 256 279 m -29 X s 256 321 m -29 X s 285 362 m -58 X s 256 404 m -29 X s 256 446 m -29 X s 256 487 m -29 X s 256 529 m -29 X
 s 285 571 m -58 X s 256 612 m -29 X s 256 654 m -29 X s 256 696 m -29 X s 256 738 m -29 X s 285 779 m -58 X s 256 821 m -29 X s 256 863 m -29 X s 256 904 m -29 X s 256 946 m -29 X s 285 988 m -58 X s 256 1029 m -29 X s 256 1071 m -29 X s 256 1113 m
 -29 X s 256 1155 m -29 X s 285 1196 m -58 X s 256 1238 m -29 X s 256 1280 m -29 X s 256 1321 m -29 X s 256 1363 m -29 X s 285 1405 m -58 X s 285 1405 m -58 X s 256 1446 m -29 X s
 gsave  2268 1538 0 0 C 182.46 133.587 t 0 r /Helvetica-Bold findfont 58.6478 sf 0 0 m (0) show NC gr 
 gsave  2268 1538 0 0 C 149.878 342.112 t 0 r /Helvetica-Bold findfont 58.6478 sf 0 0 m (50) show NC gr 
 gsave  2268 1538 0 0 C 117.296 550.638 t 0 r /Helvetica-Bold findfont 58.6478 sf 0 0 m (100) show NC gr 
 gsave  2268 1538 0 0 C 117.296 759.164 t 0 r /Helvetica-Bold findfont 58.6478 sf 0 0 m (150) show NC gr 
 gsave  2268 1538 0 0 C 117.296 967.689 t 0 r /Helvetica-Bold findfont 58.6478 sf 0 0 m (200) show NC gr 
 gsave  2268 1538 0 0 C 117.296 1176.21 t 0 r /Helvetica-Bold findfont 58.6478 sf 0 0 m (250) show NC gr 
 gsave  2268 1538 0 0 C 117.296 1384.74 t 0 r /Helvetica-Bold findfont 58.6478 sf 0 0 m (300) show NC gr  2041 154 m 1307 Y s 1983 154 m 58 X s 2012 195 m 29 X s 2012 237 m 29 X s 2012 279 m 29 X s 2012 321 m 29 X s 1983 362 m 58 X s 2012 404 m 29 X
 s 2012 446 m 29 X s 2012 487 m 29 X s 2012 529 m 29 X s 1983 571 m 58 X s 2012 612 m 29 X s 2012 654 m 29 X s 2012 696 m 29 X s 2012 738 m 29 X s 1983 779 m 58 X s 2012 821 m 29 X s 2012 863 m 29 X s 2012 904 m 29 X s 2012 946 m 29 X s 1983 988 m 58
 X s 2012 1029 m 29 X s 2012 1071 m 29 X s 2012 1113 m 29 X s 2012 1155 m 29 X s 1983 1196 m 58 X s 2012 1238 m 29 X s 2012 1280 m 29 X s 2012 1321 m 29 X s 2012 1363 m 29 X s 1983 1405 m 58 X s 1983 1405 m 58 X s 2012 1446 m 29 X s
 gsave  2268 1538 0 0 C 1326.09 1172.96 t 0 r /Helvetica-Bold findfont 58.6478 sf 0 0 m (Pixel Occupancies) show NC gr  1124 1192 m 167 X s
 gr  gr showpage
end
%%EOF
