%!PS-Adobe-2.0 EPSF-2.0
%%BoundingBox:  0 0 567 384
%%Title: pionDir/pixel_occupancy/clus_z_pixlayer_1_pos.eps: c1_n43
%%Creator: ROOT Version 6.04/12
%%CreationDate: Tue Apr 19 16:53:28 2016
%%DocumentNeededResources: ProcSet (FontSetInit)
%%EndComments
%%BeginProlog
80 dict begin
/s {stroke} def /l {lineto} def /m {moveto} def /t {translate} def
/r {rotate} def /rl {roll}  def /R {repeat} def
/d {rlineto} def /rm {rmoveto} def /gr {grestore} def /f {eofill} def
/c {setrgbcolor} def /black {0 setgray} def /sd {setdash} def
/cl {closepath} def /sf {scalefont setfont} def /lw {setlinewidth} def
/box {m dup 0 exch d exch 0 d 0 exch neg d cl} def
/NC{systemdict begin initclip end}def/C{NC box clip newpath}def
/bl {box s} def /bf {gsave box gsave f grestore 1 lw [] 0 sd s grestore} def /Y { 0 exch d} def /X { 0 d} def 
/K {{pop pop 0 moveto} exch kshow} bind def
/ita {/ang 15 def gsave [1 0 ang dup sin exch cos div 1 0 0] concat} def 
/mp {newpath /y exch def /x exch def} def
/side {[w .77 mul w .23 mul] .385 w mul sd w 0 l currentpoint t -144 r} def
/mr {mp x y w2 0 360 arc} def /m24 {mr s} def /m20 {mr f} def
/mb {mp x y w2 add m w2 neg 0 d 0 w neg d w 0 d 0 w d cl} def
/mt {mp x y w2 add m w2 neg w neg d w 0 d cl} def
/m21 {mb f} def /m25 {mb s} def /m22 {mt f} def /m26{mt s} def
/m23 {mp x y w2 sub m w2 w d w neg 0 d cl f} def
/m27 {mp x y w2 add m w3 neg w2 neg d w3 w2 neg d w3 w2 d cl s} def
/m28 {mp x w2 sub y w2 sub w3 add m w3 0 d  0 w3 neg d w3 0 d 0 w3 d w3 0 d  0 w3 d w3 neg 0 d 0 w3 d w3 neg 0 d 0 w3 neg d w3 neg 0 d cl s } def
/m29 {mp gsave x w2 sub y w2 add w3 sub m currentpoint t 4 {side} repeat cl fill gr} def
/m30 {mp gsave x w2 sub y w2 add w3 sub m currentpoint t 4 {side} repeat cl s gr} def
/m31 {mp x y w2 sub m 0 w d x w2 sub y m w 0 d x w2 sub y w2 add m w w neg d x w2 sub y w2 sub m w w d s} def
/m32 {mp x y w2 sub m w2 w d w neg 0 d cl s} def
/m33 {mp x y w2 add m w3 neg w2 neg d w3 w2 neg d w3 w2 d cl f} def
/m34 {mp x w2 sub y w2 sub w3 add m w3 0 d  0 w3 neg d w3 0 d 0 w3 d w3 0 d  0 w3 d w3 neg 0 d 0 w3 d w3 neg 0 d 0 w3 neg d w3 neg 0 d cl f } def
/m2 {mp x y w2 sub m 0 w d x w2 sub y m w 0 d s} def
/m5 {mp x w2 sub y w2 sub m w w d x w2 sub y w2 add m w w neg d s} def
%%IncludeResource: ProcSet (FontSetInit)
%%IncludeResource: font Times-Roman
%%IncludeResource: font Times-Italic
%%IncludeResource: font Times-Bold
%%IncludeResource: font Times-BoldItalic
%%IncludeResource: font Helvetica
%%IncludeResource: font Helvetica-Oblique
%%IncludeResource: font Helvetica-Bold
%%IncludeResource: font Helvetica-BoldOblique
%%IncludeResource: font Courier
%%IncludeResource: font Courier-Oblique
%%IncludeResource: font Courier-Bold
%%IncludeResource: font Courier-BoldOblique
%%IncludeResource: font Symbol
%%IncludeResource: font ZapfDingbats
/reEncode {exch findfont dup length dict begin {1 index /FID eq  {pop pop} {def} ifelse } forall /Encoding exch def currentdict end dup /FontName get exch definefont pop } def [/Times-Bold /Times-Italic /Times-BoldItalic /Helvetica /Helvetica-Oblique
 /Helvetica-Bold /Helvetica-BoldOblique /Courier /Courier-Oblique /Courier-Bold /Courier-BoldOblique /Times-Roman /AvantGarde-Book /AvantGarde-BookOblique /AvantGarde-Demi /AvantGarde-DemiOblique /Bookman-Demi /Bookman-DemiItalic /Bookman-Light
 /Bookman-LightItalic /Helvetica-Narrow /Helvetica-Narrow-Bold /Helvetica-Narrow-BoldOblique /Helvetica-Narrow-Oblique /NewCenturySchlbk-Roman /NewCenturySchlbk-Bold /NewCenturySchlbk-BoldItalic /NewCenturySchlbk-Italic /Palatino-Bold
 /Palatino-BoldItalic /Palatino-Italic /Palatino-Roman ] {ISOLatin1Encoding reEncode } forall
%%EndProlog
%%BeginSetup
%%EndSetup
newpath  gsave  .25 .25 scale  gsave  0 0 t black[  ] 0 sd 3 lw 1 1 1 c 2268 1538 0 0 bf black 1 1 1 c 1814 1230 227 154 bf black 1814 1230 227 154 bl 1 1 1 c 1814 1230 227 154 bf black 1814 1230 227 154 bl 227 154 m 1814 X s 265 191 m -37 Y s 322
 172 m -18 Y s 380 172 m -18 Y s 437 172 m -18 Y s 495 172 m -18 Y s 552 191 m -37 Y s 610 172 m -18 Y s 667 172 m -18 Y s 725 172 m -18 Y s 782 172 m -18 Y s 840 191 m -37 Y s 897 172 m -18 Y s 954 172 m -18 Y s 1012 172 m -18 Y s 1069 172 m -18 Y s
 1127 191 m -37 Y s 1184 172 m -18 Y s 1242 172 m -18 Y s 1299 172 m -18 Y s 1357 172 m -18 Y s 1414 191 m -37 Y s 1472 172 m -18 Y s 1529 172 m -18 Y s 1587 172 m -18 Y s 1644 172 m -18 Y s 1702 191 m -37 Y s 1759 172 m -18 Y s 1817 172 m -18 Y s
 1874 172 m -18 Y s 1932 172 m -18 Y s 1989 191 m -37 Y s 265 191 m -37 Y s 1989 191 m -37 Y s
 gsave  2268 1538 0 0 C 247.624 97.7464 t 0 r /Helvetica-Bold findfont 58.6478 sf 0 0 m (0) show NC gr 
 gsave  2268 1538 0 0 C 501.765 97.7464 t 0 r /Helvetica-Bold findfont 58.6478 sf 0 0 m (100) show NC gr 
 gsave  2268 1538 0 0 C 788.488 97.7464 t 0 r /Helvetica-Bold findfont 58.6478 sf 0 0 m (200) show NC gr 
 gsave  2268 1538 0 0 C 1075.21 97.7464 t 0 r /Helvetica-Bold findfont 58.6478 sf 0 0 m (300) show NC gr 
 gsave  2268 1538 0 0 C 1365.19 97.7464 t 0 r /Helvetica-Bold findfont 58.6478 sf 0 0 m (400) show NC gr 
 gsave  2268 1538 0 0 C 1651.91 97.7464 t 0 r /Helvetica-Bold findfont 58.6478 sf 0 0 m (500) show NC gr 
 gsave  2268 1538 0 0 C 1938.64 97.7464 t 0 r /Helvetica-Bold findfont 58.6478 sf 0 0 m (600) show NC gr  227 1384 m 1814 X s 265 1347 m 37 Y s 322 1366 m 18 Y s 380 1366 m 18 Y s 437 1366 m 18 Y s 495 1366 m 18 Y s 552 1347 m 37 Y s 610 1366 m 18 Y
 s 667 1366 m 18 Y s 725 1366 m 18 Y s 782 1366 m 18 Y s 840 1347 m 37 Y s 897 1366 m 18 Y s 954 1366 m 18 Y s 1012 1366 m 18 Y s 1069 1366 m 18 Y s 1127 1347 m 37 Y s 1184 1366 m 18 Y s 1242 1366 m 18 Y s 1299 1366 m 18 Y s 1357 1366 m 18 Y s 1414
 1347 m 37 Y s 1472 1366 m 18 Y s 1529 1366 m 18 Y s 1587 1366 m 18 Y s 1644 1366 m 18 Y s 1702 1347 m 37 Y s 1759 1366 m 18 Y s 1817 1366 m 18 Y s 1874 1366 m 18 Y s 1932 1366 m 18 Y s 1989 1347 m 37 Y s 265 1347 m 37 Y s 1989 1347 m 37 Y s 227 154
 m 1230 Y s 281 235 m -54 X s 254 291 m -27 X s 254 347 m -27 X s 254 403 m -27 X s 254 459 m -27 X s 281 516 m -54 X s 254 572 m -27 X s 254 628 m -27 X s 254 684 m -27 X s 254 740 m -27 X s 281 796 m -54 X s 254 852 m -27 X s 254 908 m -27 X s 254
 964 m -27 X s 254 1020 m -27 X s 281 1077 m -54 X s 254 1133 m -27 X s 254 1189 m -27 X s 254 1245 m -27 X s 254 1301 m -27 X s 281 1357 m -54 X s 281 235 m -54 X s 254 179 m -27 X s 281 1357 m -54 X s
 gsave  2268 1538 0 0 C 133.587 215.042 t 0 r /Helvetica-Bold findfont 58.6478 sf 0 0 m (0.5) show NC gr 
 gsave  2268 1538 0 0 C 192.235 495.248 t 0 r /Helvetica-Bold findfont 58.6478 sf 0 0 m (1) show NC gr 
 gsave  2268 1538 0 0 C 133.587 775.455 t 0 r /Helvetica-Bold findfont 58.6478 sf 0 0 m (1.5) show NC gr 
 gsave  2268 1538 0 0 C 182.46 1052.4 t 0 r /Helvetica-Bold findfont 58.6478 sf 0 0 m (2) show NC gr 
 gsave  2268 1538 0 0 C 133.587 1335.87 t 0 r /Helvetica-Bold findfont 58.6478 sf 0 0 m (2.5) show NC gr  2041 154 m 1230 Y s 1987 235 m 54 X s 2014 291 m 27 X s 2014 347 m 27 X s 2014 403 m 27 X s 2014 459 m 27 X s 1987 516 m 54 X s 2014 572 m 27 X
 s 2014 628 m 27 X s 2014 684 m 27 X s 2014 740 m 27 X s 1987 796 m 54 X s 2014 852 m 27 X s 2014 908 m 27 X s 2014 964 m 27 X s 2014 1020 m 27 X s 1987 1077 m 54 X s 2014 1133 m 27 X s 2014 1189 m 27 X s 2014 1245 m 27 X s 2014 1301 m 27 X s 1987
 1357 m 54 X s 1987 235 m 54 X s 2014 179 m 27 X s 1987 1357 m 54 X s 309 785 m 136 Y s 303 921 m 13 X s 309 785 m -137 Y s 303 648 m 13 X s 432 471 m 107 Y s 425 578 m 14 X s 432 471 m -108 Y s 425 363 m 14 X s 547 314 m 89 Y s 540 403 m 13 X s 547
 314 m -90 Y s 540 224 m 13 X s 670 314 m 89 Y s 664 403 m 13 X s 670 314 m -90 Y s 664 224 m 13 X s 793 291 m 87 Y s 787 378 m 13 X s 793 291 m -87 Y s 787 204 m 13 X s 909 650 m 125 Y s 902 775 m 13 X s 909 650 m -125 Y s 902 525 m 13 X s 1024 740
 m 133 Y s 1017 873 m 13 X s 1024 740 m -133 Y s 1017 607 m 13 X s 1145 426 m 103 Y s 1138 529 m 13 X s 1145 426 m -103 Y s 1138 323 m 13 X s 1255 471 m 107 Y s 1249 578 m 13 X s 1255 471 m -108 Y s 1249 363 m 13 X s 1370 516 m 112 Y s 1363 628 m 13
 X s 1370 516 m -113 Y s 1363 403 m 13 X s 1481 695 m 129 Y s 1474 824 m 13 X s 1481 695 m -129 Y s 1474 566 m 13 X s 1604 740 m 133 Y s 1597 873 m 13 X s 1604 740 m -133 Y s 1597 607 m 13 X s 1726 1054 m 157 Y s 1720 1211 m 13 X s 1726 1054 m -157 Y
 s 1720 897 m 13 X s 1835 673 m 127 Y s 1829 800 m 13 X s 1835 673 m -127 Y s 1829 546 m 13 X s 1958 538 m 114 Y s 1952 652 m 13 X s 1958 538 m -114 Y s 1952 424 m 13 X s 1 1 1 c black 309 785 m 123 -314 d 115 -157 d 123 X 123 -23 d 116 359 d 115 90
 d 121 -314 d 110 45 d 115 45 d 111 179 d 123 45 d 122 314 d 109 -381 d 123 -135 d s /w 2 def /w2 {w 2 div} def /w3 {w 3 div} def 309 785 432 471 547 314 670 314 793 291 909 650 1024 740 1145 426 1255 471 1370 516 1481 695 1604 740 1726 1054 1835 673
 1958 538 15 { m20} R
 gsave  2268 1538 0 0 C 1326.09 1172.96 t 0 r /Helvetica-Bold findfont 58.6478 sf 0 0 m (Pixel Occupancies) show NC gr  1124 1192 m 167 X s 1208 1192 m20
 gr  gr showpage
end
%%EOF
