%!PS-Adobe-2.0 EPSF-2.0
%%BoundingBox:  0 0 567 384
%%Title: pionDir/pixel_occupancy/clus_pixlayer_sides_mgz.eps: c1_n5
%%Creator: ROOT Version 6.04/12
%%CreationDate: Tue Apr 19 16:53:22 2016
%%DocumentNeededResources: ProcSet (FontSetInit)
%%EndComments
%%BeginProlog
80 dict begin
/s {stroke} def /l {lineto} def /m {moveto} def /t {translate} def
/r {rotate} def /rl {roll}  def /R {repeat} def
/d {rlineto} def /rm {rmoveto} def /gr {grestore} def /f {eofill} def
/c {setrgbcolor} def /black {0 setgray} def /sd {setdash} def
/cl {closepath} def /sf {scalefont setfont} def /lw {setlinewidth} def
/box {m dup 0 exch d exch 0 d 0 exch neg d cl} def
/NC{systemdict begin initclip end}def/C{NC box clip newpath}def
/bl {box s} def /bf {gsave box gsave f grestore 1 lw [] 0 sd s grestore} def /Y { 0 exch d} def /X { 0 d} def 
/K {{pop pop 0 moveto} exch kshow} bind def
/ita {/ang 15 def gsave [1 0 ang dup sin exch cos div 1 0 0] concat} def 
/mp {newpath /y exch def /x exch def} def
/side {[w .77 mul w .23 mul] .385 w mul sd w 0 l currentpoint t -144 r} def
/mr {mp x y w2 0 360 arc} def /m24 {mr s} def /m20 {mr f} def
/mb {mp x y w2 add m w2 neg 0 d 0 w neg d w 0 d 0 w d cl} def
/mt {mp x y w2 add m w2 neg w neg d w 0 d cl} def
/m21 {mb f} def /m25 {mb s} def /m22 {mt f} def /m26{mt s} def
/m23 {mp x y w2 sub m w2 w d w neg 0 d cl f} def
/m27 {mp x y w2 add m w3 neg w2 neg d w3 w2 neg d w3 w2 d cl s} def
/m28 {mp x w2 sub y w2 sub w3 add m w3 0 d  0 w3 neg d w3 0 d 0 w3 d w3 0 d  0 w3 d w3 neg 0 d 0 w3 d w3 neg 0 d 0 w3 neg d w3 neg 0 d cl s } def
/m29 {mp gsave x w2 sub y w2 add w3 sub m currentpoint t 4 {side} repeat cl fill gr} def
/m30 {mp gsave x w2 sub y w2 add w3 sub m currentpoint t 4 {side} repeat cl s gr} def
/m31 {mp x y w2 sub m 0 w d x w2 sub y m w 0 d x w2 sub y w2 add m w w neg d x w2 sub y w2 sub m w w d s} def
/m32 {mp x y w2 sub m w2 w d w neg 0 d cl s} def
/m33 {mp x y w2 add m w3 neg w2 neg d w3 w2 neg d w3 w2 d cl f} def
/m34 {mp x w2 sub y w2 sub w3 add m w3 0 d  0 w3 neg d w3 0 d 0 w3 d w3 0 d  0 w3 d w3 neg 0 d 0 w3 d w3 neg 0 d 0 w3 neg d w3 neg 0 d cl f } def
/m2 {mp x y w2 sub m 0 w d x w2 sub y m w 0 d s} def
/m5 {mp x w2 sub y w2 sub m w w d x w2 sub y w2 add m w w neg d s} def
%%IncludeResource: ProcSet (FontSetInit)
%%IncludeResource: font Times-Roman
%%IncludeResource: font Times-Italic
%%IncludeResource: font Times-Bold
%%IncludeResource: font Times-BoldItalic
%%IncludeResource: font Helvetica
%%IncludeResource: font Helvetica-Oblique
%%IncludeResource: font Helvetica-Bold
%%IncludeResource: font Helvetica-BoldOblique
%%IncludeResource: font Courier
%%IncludeResource: font Courier-Oblique
%%IncludeResource: font Courier-Bold
%%IncludeResource: font Courier-BoldOblique
%%IncludeResource: font Symbol
%%IncludeResource: font ZapfDingbats
/reEncode {exch findfont dup length dict begin {1 index /FID eq  {pop pop} {def} ifelse } forall /Encoding exch def currentdict end dup /FontName get exch definefont pop } def [/Times-Bold /Times-Italic /Times-BoldItalic /Helvetica /Helvetica-Oblique
 /Helvetica-Bold /Helvetica-BoldOblique /Courier /Courier-Oblique /Courier-Bold /Courier-BoldOblique /Times-Roman /AvantGarde-Book /AvantGarde-BookOblique /AvantGarde-Demi /AvantGarde-DemiOblique /Bookman-Demi /Bookman-DemiItalic /Bookman-Light
 /Bookman-LightItalic /Helvetica-Narrow /Helvetica-Narrow-Bold /Helvetica-Narrow-BoldOblique /Helvetica-Narrow-Oblique /NewCenturySchlbk-Roman /NewCenturySchlbk-Bold /NewCenturySchlbk-BoldItalic /NewCenturySchlbk-Italic /Palatino-Bold
 /Palatino-BoldItalic /Palatino-Italic /Palatino-Roman ] {ISOLatin1Encoding reEncode } forall
%%EndProlog
%%BeginSetup
%%EndSetup
newpath  gsave  .25 .25 scale  gsave  0 0 t black[  ] 0 sd 3 lw 1 1 1 c 2268 1538 0 0 bf black 1 1 1 c 1814 1230 227 154 bf black 1814 1230 227 154 bl 1 1 1 c 1814 1230 227 154 bf black 1814 1230 227 154 bl 227 154 m 1814 X s
 gsave  2268 1538 0 0 C 1853.92 35.8403 t 0 r /Helvetica-Bold findfont 58.6478 sf 0 0 m (z [mm]) show NC gr  265 191 m -37 Y s 322 172 m -18 Y s 380 172 m -18 Y s 437 172 m -18 Y s 495 172 m -18 Y s 552 191 m -37 Y s 610 172 m -18 Y s 667 172 m -18 Y
 s 725 172 m -18 Y s 782 172 m -18 Y s 840 191 m -37 Y s 897 172 m -18 Y s 954 172 m -18 Y s 1012 172 m -18 Y s 1069 172 m -18 Y s 1127 191 m -37 Y s 1184 172 m -18 Y s 1242 172 m -18 Y s 1299 172 m -18 Y s 1357 172 m -18 Y s 1414 191 m -37 Y s 1472
 172 m -18 Y s 1529 172 m -18 Y s 1587 172 m -18 Y s 1644 172 m -18 Y s 1702 191 m -37 Y s 1759 172 m -18 Y s 1817 172 m -18 Y s 1874 172 m -18 Y s 1932 172 m -18 Y s 1989 191 m -37 Y s 265 191 m -37 Y s 1989 191 m -37 Y s
 gsave  2268 1538 0 0 C 247.624 97.7464 t 0 r /Helvetica-Bold findfont 58.6478 sf 0 0 m (0) show NC gr 
 gsave  2268 1538 0 0 C 501.765 97.7464 t 0 r /Helvetica-Bold findfont 58.6478 sf 0 0 m (100) show NC gr 
 gsave  2268 1538 0 0 C 788.488 97.7464 t 0 r /Helvetica-Bold findfont 58.6478 sf 0 0 m (200) show NC gr 
 gsave  2268 1538 0 0 C 1075.21 97.7464 t 0 r /Helvetica-Bold findfont 58.6478 sf 0 0 m (300) show NC gr 
 gsave  2268 1538 0 0 C 1365.19 97.7464 t 0 r /Helvetica-Bold findfont 58.6478 sf 0 0 m (400) show NC gr 
 gsave  2268 1538 0 0 C 1651.91 97.7464 t 0 r /Helvetica-Bold findfont 58.6478 sf 0 0 m (500) show NC gr 
 gsave  2268 1538 0 0 C 1938.64 97.7464 t 0 r /Helvetica-Bold findfont 58.6478 sf 0 0 m (600) show NC gr  227 1384 m 1814 X s 265 1347 m 37 Y s 322 1366 m 18 Y s 380 1366 m 18 Y s 437 1366 m 18 Y s 495 1366 m 18 Y s 552 1347 m 37 Y s 610 1366 m 18 Y
 s 667 1366 m 18 Y s 725 1366 m 18 Y s 782 1366 m 18 Y s 840 1347 m 37 Y s 897 1366 m 18 Y s 954 1366 m 18 Y s 1012 1366 m 18 Y s 1069 1366 m 18 Y s 1127 1347 m 37 Y s 1184 1366 m 18 Y s 1242 1366 m 18 Y s 1299 1366 m 18 Y s 1357 1366 m 18 Y s 1414
 1347 m 37 Y s 1472 1366 m 18 Y s 1529 1366 m 18 Y s 1587 1366 m 18 Y s 1644 1366 m 18 Y s 1702 1347 m 37 Y s 1759 1366 m 18 Y s 1817 1366 m 18 Y s 1874 1366 m 18 Y s 1932 1366 m 18 Y s 1989 1347 m 37 Y s 265 1347 m 37 Y s 1989 1347 m 37 Y s 227 154
 m 1230 Y s
 gsave  2268 1538 0 0 C 97.7464 710.291 t 90 r /Helvetica-Bold findfont 58.6478 sf 0 0 m (Cluster per etaModuleID) show NC gr  281 282 m -54 X s 254 320 m -27 X s 254 359 m -27 X s 254 398 m -27 X s 254 436 m -27 X s 281 475 m -54 X s 254 514 m -27 X
 s 254 552 m -27 X s 254 591 m -27 X s 254 630 m -27 X s 281 668 m -54 X s 254 707 m -27 X s 254 746 m -27 X s 254 784 m -27 X s 254 823 m -27 X s 281 862 m -54 X s 254 900 m -27 X s 254 939 m -27 X s 254 978 m -27 X s 254 1016 m -27 X s 281 1055 m
 -54 X s 254 1094 m -27 X s 254 1132 m -27 X s 254 1171 m -27 X s 254 1210 m -27 X s 281 1248 m -54 X s 281 282 m -54 X s 254 243 m -27 X s 254 205 m -27 X s 254 166 m -27 X s 281 1248 m -54 X s 254 1287 m -27 X s 254 1326 m -27 X s 254 1364 m -27 X
 s
 gsave  2268 1538 0 0 C 133.587 260.657 t 0 r /Helvetica-Bold findfont 58.6478 sf 0 0 m (0.5) show NC gr 
 gsave  2268 1538 0 0 C 192.235 452.892 t 0 r /Helvetica-Bold findfont 58.6478 sf 0 0 m (1) show NC gr 
 gsave  2268 1538 0 0 C 133.587 648.384 t 0 r /Helvetica-Bold findfont 58.6478 sf 0 0 m (1.5) show NC gr 
 gsave  2268 1538 0 0 C 182.46 837.361 t 0 r /Helvetica-Bold findfont 58.6478 sf 0 0 m (2) show NC gr 
 gsave  2268 1538 0 0 C 133.587 1032.85 t 0 r /Helvetica-Bold findfont 58.6478 sf 0 0 m (2.5) show NC gr 
 gsave  2268 1538 0 0 C 182.46 1228.35 t 0 r /Helvetica-Bold findfont 58.6478 sf 0 0 m (3) show NC gr  2041 154 m 1230 Y s 1987 282 m 54 X s 2014 320 m 27 X s 2014 359 m 27 X s 2014 398 m 27 X s 2014 436 m 27 X s 1987 475 m 54 X s 2014 514 m 27 X s
 2014 552 m 27 X s 2014 591 m 27 X s 2014 630 m 27 X s 1987 668 m 54 X s 2014 707 m 27 X s 2014 746 m 27 X s 2014 784 m 27 X s 2014 823 m 27 X s 1987 862 m 54 X s 2014 900 m 27 X s 2014 939 m 27 X s 2014 978 m 27 X s 2014 1016 m 27 X s 1987 1055 m 54
 X s 2014 1094 m 27 X s 2014 1132 m 27 X s 2014 1171 m 27 X s 2014 1210 m 27 X s 1987 1248 m 54 X s 1987 282 m 54 X s 2014 243 m 27 X s 2014 205 m 27 X s 2014 166 m 27 X s 1987 1248 m 54 X s 2014 1287 m 27 X s 2014 1326 m 27 X s 2014 1364 m 27 X s[
 12 12] 0 sd 331 457 m 61 Y s 324 518 m 13 X s 331 431 m -61 Y s 324 370 m 13 X s 443 488 m 64 Y s 437 552 m 13 X s 443 462 m -64 Y s 437 398 m 13 X s 537 442 m 59 Y s 531 501 m 13 X s 537 416 m -60 Y s 531 356 m 13 X s 675 457 m 61 Y s 668 518 m 13
 X s 675 431 m -61 Y s 668 370 m 13 X s 790 550 m 70 Y s 784 620 m 13 X s 790 524 m -70 Y s 784 454 m 13 X s 910 627 m 77 Y s 904 704 m 13 X s 910 601 m -77 Y s 904 524 m 13 X s 1019 612 m 76 Y s 1013 688 m 13 X s 1019 586 m -76 Y s 1013 510 m 13 X s
 1124 442 m 59 Y s 1117 501 m 13 X s 1124 416 m -60 Y s 1117 356 m 13 X s 1269 535 m 68 Y s 1263 603 m 13 X s 1269 508 m -68 Y s 1263 440 m 13 X s 1378 658 m 80 Y s 1371 738 m 13 X s 1378 632 m -80 Y s 1371 552 m 13 X s 1492 504 m 65 Y s 1486 569 m
 13 X s 1492 478 m -66 Y s 1486 412 m 13 X s 1607 318 m 45 Y s 1600 363 m 13 X s 1607 292 m -45 Y s 1600 247 m 13 X s 1720 658 m 80 Y s 1713 738 m 13 X s 1720 632 m -80 Y s 1713 552 m 13 X s 1847 442 m 59 Y s 1841 501 m 13 X s 1847 416 m -60 Y s 1841
 356 m 13 X s 1958 395 m 55 Y s 1951 450 m 13 X s 1958 369 m -54 Y s 1951 315 m 13 X s 331 444 m 112 31 d 94 -46 d 138 15 d 115 93 d 120 77 d 109 -15 d 105 -170 d 145 93 d 109 123 d 114 -154 d 115 -186 d 113 340 d 127 -216 d 111 -47 d s[  ] 0 sd /w
 26 def /w2 {w 2 div} def /w3 {w 3 div} def 331 444 443 475 537 429 675 444 790 537 910 614 1019 599 1124 429 1269 522 1378 645 1492 491 1607 305 1720 645 1847 429 1958 382 15 { m21} R[ 12 12] 0 sd[  ] 0 sd 1935 844 m 94 Y s 1928 938 m 13 X s 1935
 818 m -94 Y s 1928 724 m 13 X s 1842 875 m 96 Y s 1835 971 m 13 X s 1842 849 m -97 Y s 1835 752 m 13 X s 1728 875 m 96 Y s 1722 971 m 13 X s 1728 849 m -97 Y s 1722 752 m 13 X s 1601 596 m 75 Y s 1594 671 m 13 X s 1601 570 m -74 Y s 1594 496 m 13 X
 s 1497 550 m 70 Y s 1491 620 m 13 X s 1497 524 m -70 Y s 1491 454 m 13 X s 1368 426 m 58 Y s 1362 484 m 13 X s 1368 400 m -58 Y s 1362 342 m 13 X s 1249 457 m 61 Y s 1242 518 m 13 X s 1249 431 m -61 Y s 1242 370 m 13 X s 1134 334 m 46 Y s 1127 380 m
 13 X s 1134 307 m -46 Y s 1127 261 m 13 X s 1019 658 m 80 Y s 1012 738 m 13 X s 1019 632 m -80 Y s 1012 552 m 13 X s 902 349 m 49 Y s 896 398 m 13 X s 902 323 m -49 Y s 896 274 m 13 X s 784 643 m 78 Y s 778 721 m 13 X s 784 617 m -79 Y s 778 538 m
 13 X s 672 658 m 80 Y s 665 738 m 13 X s 672 632 m -80 Y s 665 552 m 13 X s 566 411 m 56 Y s 560 467 m 13 X s 566 385 m -56 Y s 560 329 m 13 X s 426 581 m 73 Y s 420 654 m 13 X s 426 555 m -73 Y s 420 482 m 13 X s 319 380 m 52 Y s 313 432 m 13 X s
 319 354 m -53 Y s 313 301 m 13 X s 1935 831 m -93 31 d -114 X -127 -279 d -104 -46 d -129 -124 d -119 31 d -115 -124 d -115 325 d -117 -309 d -118 294 d -112 15 d -106 -247 d -140 170 d -107 -201 d s 1935 831 1842 862 1728 862 1601 583 1497 537 1368
 413 1249 444 1134 320 1019 645 902 336 784 630 672 645 566 398 426 568 319 367 15 { m20} R 1 0 0 c[ 12 12] 0 sd 309 674 m 81 Y s 303 755 m 13 X s 309 648 m -81 Y s 303 567 m 13 X s 432 457 m 61 Y s 425 518 m 14 X s 432 431 m -61 Y s 425 370 m 14 X s
 547 349 m 49 Y s 540 398 m 13 X s 547 323 m -49 Y s 540 274 m 13 X s 670 349 m 49 Y s 664 398 m 13 X s 670 323 m -49 Y s 664 274 m 13 X s 793 334 m 46 Y s 787 380 m 13 X s 793 307 m -46 Y s 787 261 m 13 X s 909 581 m 73 Y s 902 654 m 13 X s 909 555
 m -73 Y s 902 482 m 13 X s 1024 643 m 78 Y s 1017 721 m 13 X s 1024 617 m -79 Y s 1017 538 m 13 X s 1145 426 m 58 Y s 1138 484 m 13 X s 1145 400 m -58 Y s 1138 342 m 13 X s 1255 457 m 61 Y s 1249 518 m 13 X s 1255 431 m -61 Y s 1249 370 m 13 X s
 1370 488 m 64 Y s 1363 552 m 13 X s 1370 462 m -64 Y s 1363 398 m 13 X s 1481 612 m 76 Y s 1474 688 m 13 X s 1481 586 m -76 Y s 1474 510 m 13 X s 1604 643 m 78 Y s 1597 721 m 13 X s 1604 617 m -79 Y s 1597 538 m 13 X s 1726 859 m 95 Y s 1720 954 m
 13 X s 1726 833 m -95 Y s 1720 738 m 13 X s 1835 596 m 75 Y s 1829 671 m 13 X s 1835 570 m -74 Y s 1829 496 m 13 X s 1958 504 m 65 Y s 1952 569 m 13 X s 1958 478 m -66 Y s 1952 412 m 13 X s black 1 0 0 c 309 661 m 123 -217 d 115 -108 d 123 X 123 -16
 d 116 248 d 115 62 d 121 -217 d 110 31 d 115 31 d 111 124 d 123 31 d 122 216 d 109 -263 d 123 -92 d s[  ] 0 sd 309 661 432 444 547 336 670 336 793 320 909 568 1024 630 1145 413 1255 444 1370 475 1481 599 1604 630 1726 846 1835 583 1958 491 15 { m21}
 R[ 12 12] 0 sd[  ] 0 sd 1949 720 m 85 Y s 1943 805 m 13 X s 1949 694 m -85 Y s 1943 609 m 13 X s 1847 720 m 85 Y s 1840 805 m 13 X s 1847 694 m -85 Y s 1840 609 m 13 X s 1726 612 m 76 Y s 1719 688 m 13 X s 1726 586 m -76 Y s 1719 510 m 13 X s 1608
 689 m 82 Y s 1601 771 m 13 X s 1608 663 m -82 Y s 1601 581 m 13 X s 1479 689 m 82 Y s 1473 771 m 13 X s 1479 663 m -82 Y s 1473 581 m 13 X s 1361 411 m 56 Y s 1355 467 m 13 X s 1361 385 m -56 Y s 1355 329 m 13 X s 1251 411 m 56 Y s 1245 467 m 13 X s
 1251 385 m -56 Y s 1245 329 m 13 X s 1159 581 m 73 Y s 1152 654 m 13 X s 1159 555 m -73 Y s 1152 482 m 13 X s 1015 256 m 36 Y s 1009 292 m 13 X s 1015 230 m -36 Y s 1009 194 m 13 X s 917 349 m 49 Y s 911 398 m 13 X s 917 323 m -49 Y s 911 274 m 13 X
 s 785 797 m 91 Y s 779 888 m 13 X s 785 771 m -90 Y s 779 681 m 13 X s 670 658 m 80 Y s 664 738 m 13 X s 670 632 m -80 Y s 664 552 m 13 X s 557 426 m 58 Y s 550 484 m 13 X s 557 400 m -58 Y s 550 342 m 13 X s 453 504 m 65 Y s 447 569 m 13 X s 453
 478 m -66 Y s 447 412 m 13 X s 328 906 m 98 Y s 321 1004 m 13 X s 328 880 m -99 Y s 321 781 m 13 X s black 1 0 0 c 1949 707 m -102 X -121 -108 d -118 77 d -129 X -118 -278 d -110 X -92 170 d -144 -325 d -98 93 d -132 448 d -115 -139 d -113 -232 d
 -104 78 d -125 402 d s 1949 707 1847 707 1726 599 1608 676 1479 676 1361 398 1251 398 1159 568 1015 243 917 336 785 784 670 645 557 413 453 491 328 893 15 { m20} R 0 1 0 c[ 12 12] 0 sd 335 705 m 83 Y s 329 788 m 13 X s 335 679 m -84 Y s 329 595 m 13
 X s 439 272 m 38 Y s 432 310 m 13 X s 439 246 m -39 Y s 432 207 m 13 X s 556 349 m 49 Y s 549 398 m 13 X s 556 323 m -49 Y s 549 274 m 13 X s 683 550 m 70 Y s 676 620 m 13 X s 683 524 m -70 Y s 676 454 m 13 X s 795 457 m 61 Y s 789 518 m 13 X s 795
 431 m -61 Y s 789 370 m 13 X s 899 519 m 67 Y s 893 586 m 13 X s 899 493 m -67 Y s 893 426 m 13 X s 1042 457 m 61 Y s 1035 518 m 13 X s 1042 431 m -61 Y s 1035 370 m 13 X s 1132 380 m 52 Y s 1125 432 m 13 X s 1132 354 m -53 Y s 1125 301 m 13 X s
 1249 318 m 45 Y s 1242 363 m 13 X s 1249 292 m -45 Y s 1242 247 m 13 X s black 0 1 0 c 335 692 m 104 -433 d 117 77 d 127 201 d 112 -93 d 104 62 d 143 -62 d 90 -77 d 117 -62 d s[  ] 0 sd 335 692 439 259 556 336 683 537 795 444 899 506 1042 444 1132
 367 1249 305 9 { m21} R[ 12 12] 0 sd[  ] 0 sd 1263 581 m 73 Y s 1256 654 m 13 X s 1263 555 m -73 Y s 1256 482 m 13 X s 1133 457 m 61 Y s 1126 518 m 13 X s 1133 431 m -61 Y s 1126 370 m 13 X s 1018 844 m 94 Y s 1011 938 m 13 X s 1018 818 m -94 Y s
 1011 724 m 13 X s 902 457 m 61 Y s 895 518 m 13 X s 902 431 m -61 Y s 895 370 m 13 X s 787 581 m 73 Y s 781 654 m 13 X s 787 555 m -73 Y s 781 482 m 13 X s 677 395 m 55 Y s 670 450 m 13 X s 677 369 m -54 Y s 670 315 m 13 X s 551 504 m 65 Y s 545 569
 m 13 X s 551 478 m -66 Y s 545 412 m 13 X s 427 643 m 78 Y s 421 721 m 13 X s 427 617 m -79 Y s 421 538 m 13 X s 321 751 m 87 Y s 314 838 m 13 X s 321 725 m -87 Y s 314 638 m 13 X s black 0 1 0 c 1263 568 m -130 -124 d -115 387 d -116 -387 d -115
 124 d -110 -186 d -126 109 d -124 139 d -106 108 d s 1263 568 1133 444 1018 831 902 444 787 568 677 382 551 491 427 630 321 738 9 { m20} R 0 0 1 c[ 12 12] 0 sd 326 488 m 64 Y s 319 552 m 13 X s 326 462 m -64 Y s 319 398 m 13 X s 442 442 m 59 Y s 436
 501 m 13 X s 442 416 m -60 Y s 436 356 m 13 X s 562 457 m 61 Y s 556 518 m 13 X s 562 431 m -61 Y s 556 370 m 13 X s 669 334 m 46 Y s 663 380 m 13 X s 669 307 m -46 Y s 663 261 m 13 X s 803 519 m 67 Y s 796 586 m 13 X s 803 493 m -67 Y s 796 426 m
 13 X s 919 550 m 70 Y s 912 620 m 13 X s 919 524 m -70 Y s 912 454 m 13 X s 1016 411 m 56 Y s 1009 467 m 13 X s 1016 385 m -56 Y s 1009 329 m 13 X s 1142 411 m 56 Y s 1135 467 m 13 X s 1142 385 m -56 Y s 1135 329 m 13 X s 1264 674 m 81 Y s 1258 755
 m 13 X s 1264 648 m -81 Y s 1258 567 m 13 X s black 0 0 1 c 326 475 m 116 -46 d 120 15 d 107 -124 d 134 186 d 116 31 d 97 -139 d 126 X 122 263 d s[  ] 0 sd 326 475 442 429 562 444 669 320 803 506 919 537 1016 398 1142 398 1264 661 9 { m21} R[ 12 12]
 0 sd[  ] 0 sd 1253 457 m 61 Y s 1247 518 m 13 X s 1253 431 m -61 Y s 1247 370 m 13 X s 1136 442 m 59 Y s 1130 501 m 13 X s 1136 416 m -60 Y s 1130 356 m 13 X s 1021 504 m 65 Y s 1015 569 m 13 X s 1021 478 m -66 Y s 1015 412 m 13 X s 919 349 m 49 Y s
 913 398 m 13 X s 919 323 m -49 Y s 913 274 m 13 X s 785 442 m 59 Y s 778 501 m 13 X s 785 416 m -60 Y s 778 356 m 13 X s 675 504 m 65 Y s 669 569 m 13 X s 675 478 m -66 Y s 669 412 m 13 X s 553 287 m 41 Y s 546 328 m 13 X s 553 261 m -40 Y s 546 221
 m 13 X s 455 349 m 49 Y s 448 398 m 13 X s 455 323 m -49 Y s 448 274 m 13 X s 327 519 m 67 Y s 321 586 m 13 X s 327 493 m -67 Y s 321 426 m 13 X s black 0 0 1 c 1253 444 m -117 -15 d -115 62 d -102 -155 d -134 93 d -110 62 d -122 -217 d -98 62 d
 -128 170 d s 1253 444 1136 429 1021 491 919 336 785 429 675 491 553 274 455 336 327 506 9 { m20} R 1 1 0 c[ 12 12] 0 sd 326 565 m 72 Y s 319 637 m 13 X s 326 539 m -71 Y s 319 468 m 13 X s 436 318 m 45 Y s 430 363 m 13 X s 436 292 m -45 Y s 430 247
 m 13 X s 556 596 m 75 Y s 550 671 m 13 X s 556 570 m -74 Y s 550 496 m 13 X s 658 349 m 49 Y s 652 398 m 13 X s 658 323 m -49 Y s 652 274 m 13 X s 786 287 m 41 Y s 780 328 m 13 X s 786 261 m -40 Y s 780 221 m 13 X s 915 349 m 49 Y s 908 398 m 13 X s
 915 323 m -49 Y s 908 274 m 13 X s 1026 318 m 45 Y s 1020 363 m 13 X s 1026 292 m -45 Y s 1020 247 m 13 X s 1139 411 m 56 Y s 1133 467 m 13 X s 1139 385 m -56 Y s 1133 329 m 13 X s 1274 473 m 62 Y s 1267 535 m 13 X s 1274 447 m -63 Y s 1267 384 m 13
 X s black 1 1 0 c 326 552 m 110 -247 d 120 278 d 102 -247 d 128 -62 d 129 62 d 111 -31 d 113 93 d 135 62 d s[  ] 0 sd 326 552 436 305 556 583 658 336 786 274 915 336 1026 305 1139 398 1274 460 9 { m21} R[ 12 12] 0 sd[  ] 0 sd 1260 426 m 58 Y s 1253
 484 m 13 X s 1260 400 m -58 Y s 1253 342 m 13 X s 1140 473 m 62 Y s 1133 535 m 13 X s 1140 447 m -63 Y s 1133 384 m 13 X s 1008 565 m 72 Y s 1001 637 m 13 X s 1008 539 m -71 Y s 1001 468 m 13 X s 902 473 m 62 Y s 895 535 m 13 X s 902 447 m -63 Y s
 895 384 m 13 X s 793 426 m 58 Y s 786 484 m 13 X s 793 400 m -58 Y s 786 342 m 13 X s 672 380 m 52 Y s 666 432 m 13 X s 672 354 m -53 Y s 666 301 m 13 X s 555 689 m 82 Y s 549 771 m 13 X s 555 663 m -82 Y s 549 581 m 13 X s 439 844 m 94 Y s 432 938
 m 13 X s 439 818 m -94 Y s 432 724 m 13 X s 329 782 m 89 Y s 323 871 m 13 X s 329 756 m -90 Y s 323 666 m 13 X s black 1 1 0 c 1260 413 m -120 47 d -132 92 d -106 -92 d -109 -47 d -121 -46 d -117 309 d -116 155 d -110 -62 d s 1260 413 1140 460 1008
 552 902 460 793 413 672 367 555 676 439 831 329 769 9 { m20} R black
 gsave  2268 1538 0 0 C 1531.36 1052.4 t 0 r /Helvetica-Bold findfont 58.6478 sf 0 0 m (Pixel Barrel) show NC gr 
 gsave  2268 1538 0 0 C 1648.66 1016.56 t 0 r /Helvetica-Bold findfont 58.6478 sf 0 0 m (Layer 0 \(z>0\)) show NC gr [ 12 12] 0 sd 1539 1024 m 91 X s[  ] 0 sd 1585 1024 m21[ 12 12] 0 sd
 gsave  2268 1538 0 0 C 1648.66 983.98 t 0 r /Helvetica-Bold findfont 58.6478 sf 0 0 m (Layer 0 \(z<0\)) show NC gr [  ] 0 sd 1539 989 m 91 X s 1585 989 m20
 gsave  2268 1538 0 0 C 1648.66 948.14 t 0 r /Helvetica-Bold findfont 58.6478 sf 0 0 m (Layer 1 \(z>0\)) show NC gr  1 0 0 c[ 12 12] 0 sd 1539 954 m 91 X s[  ] 0 sd 1585 954 m21[ 12 12] 0 sd black
 gsave  2268 1538 0 0 C 1648.66 912.3 t 0 r /Helvetica-Bold findfont 58.6478 sf 0 0 m (Layer 1 \(z<0\)) show NC gr  1 0 0 c[  ] 0 sd 1539 919 m 91 X s 1585 919 m20 black
 gsave  2268 1538 0 0 C 1648.66 876.459 t 0 r /Helvetica-Bold findfont 58.6478 sf 0 0 m (Layer 2 \(z>0\)) show NC gr  0 1 0 c[ 12 12] 0 sd 1539 884 m 91 X s[  ] 0 sd 1585 884 m21[ 12 12] 0 sd black
 gsave  2268 1538 0 0 C 1648.66 843.877 t 0 r /Helvetica-Bold findfont 58.6478 sf 0 0 m (Layer 2 \(z<0\)) show NC gr  0 1 0 c[  ] 0 sd 1539 849 m 91 X s 1585 849 m20 black
 gsave  2268 1538 0 0 C 1648.66 808.037 t 0 r /Helvetica-Bold findfont 58.6478 sf 0 0 m (Layer 3 \(z>0\)) show NC gr  0 0 1 c[ 12 12] 0 sd 1539 814 m 91 X s[  ] 0 sd 1585 814 m21[ 12 12] 0 sd black
 gsave  2268 1538 0 0 C 1648.66 772.197 t 0 r /Helvetica-Bold findfont 58.6478 sf 0 0 m (Layer 3 \(z<0\)) show NC gr  0 0 1 c[  ] 0 sd 1539 779 m 91 X s 1585 779 m20 black
 gsave  2268 1538 0 0 C 1648.66 739.614 t 0 r /Helvetica-Bold findfont 58.6478 sf 0 0 m (Layer 4 \(z>0\)) show NC gr  1 1 0 c[ 12 12] 0 sd 1539 744 m 91 X s[  ] 0 sd 1585 744 m21[ 12 12] 0 sd black
 gsave  2268 1538 0 0 C 1648.66 703.774 t 0 r /Helvetica-Bold findfont 58.6478 sf 0 0 m (Layer 4 \(z<0\)) show NC gr  1 1 0 c[  ] 0 sd 1539 710 m 91 X s 1585 710 m20
 gr  gr showpage
end
%%EOF
