%!PS-Adobe-2.0 EPSF-2.0
%%BoundingBox:  0 0 567 384
%%Title: pionDir/pixel_occupancy/clus_z_pixlayer_4_neg.eps: c1_n50
%%Creator: ROOT Version 6.04/12
%%CreationDate: Tue Apr 19 16:53:29 2016
%%DocumentNeededResources: ProcSet (FontSetInit)
%%EndComments
%%BeginProlog
80 dict begin
/s {stroke} def /l {lineto} def /m {moveto} def /t {translate} def
/r {rotate} def /rl {roll}  def /R {repeat} def
/d {rlineto} def /rm {rmoveto} def /gr {grestore} def /f {eofill} def
/c {setrgbcolor} def /black {0 setgray} def /sd {setdash} def
/cl {closepath} def /sf {scalefont setfont} def /lw {setlinewidth} def
/box {m dup 0 exch d exch 0 d 0 exch neg d cl} def
/NC{systemdict begin initclip end}def/C{NC box clip newpath}def
/bl {box s} def /bf {gsave box gsave f grestore 1 lw [] 0 sd s grestore} def /Y { 0 exch d} def /X { 0 d} def 
/K {{pop pop 0 moveto} exch kshow} bind def
/ita {/ang 15 def gsave [1 0 ang dup sin exch cos div 1 0 0] concat} def 
/mp {newpath /y exch def /x exch def} def
/side {[w .77 mul w .23 mul] .385 w mul sd w 0 l currentpoint t -144 r} def
/mr {mp x y w2 0 360 arc} def /m24 {mr s} def /m20 {mr f} def
/mb {mp x y w2 add m w2 neg 0 d 0 w neg d w 0 d 0 w d cl} def
/mt {mp x y w2 add m w2 neg w neg d w 0 d cl} def
/m21 {mb f} def /m25 {mb s} def /m22 {mt f} def /m26{mt s} def
/m23 {mp x y w2 sub m w2 w d w neg 0 d cl f} def
/m27 {mp x y w2 add m w3 neg w2 neg d w3 w2 neg d w3 w2 d cl s} def
/m28 {mp x w2 sub y w2 sub w3 add m w3 0 d  0 w3 neg d w3 0 d 0 w3 d w3 0 d  0 w3 d w3 neg 0 d 0 w3 d w3 neg 0 d 0 w3 neg d w3 neg 0 d cl s } def
/m29 {mp gsave x w2 sub y w2 add w3 sub m currentpoint t 4 {side} repeat cl fill gr} def
/m30 {mp gsave x w2 sub y w2 add w3 sub m currentpoint t 4 {side} repeat cl s gr} def
/m31 {mp x y w2 sub m 0 w d x w2 sub y m w 0 d x w2 sub y w2 add m w w neg d x w2 sub y w2 sub m w w d s} def
/m32 {mp x y w2 sub m w2 w d w neg 0 d cl s} def
/m33 {mp x y w2 add m w3 neg w2 neg d w3 w2 neg d w3 w2 d cl f} def
/m34 {mp x w2 sub y w2 sub w3 add m w3 0 d  0 w3 neg d w3 0 d 0 w3 d w3 0 d  0 w3 d w3 neg 0 d 0 w3 d w3 neg 0 d 0 w3 neg d w3 neg 0 d cl f } def
/m2 {mp x y w2 sub m 0 w d x w2 sub y m w 0 d s} def
/m5 {mp x w2 sub y w2 sub m w w d x w2 sub y w2 add m w w neg d s} def
%%IncludeResource: ProcSet (FontSetInit)
%%IncludeResource: font Times-Roman
%%IncludeResource: font Times-Italic
%%IncludeResource: font Times-Bold
%%IncludeResource: font Times-BoldItalic
%%IncludeResource: font Helvetica
%%IncludeResource: font Helvetica-Oblique
%%IncludeResource: font Helvetica-Bold
%%IncludeResource: font Helvetica-BoldOblique
%%IncludeResource: font Courier
%%IncludeResource: font Courier-Oblique
%%IncludeResource: font Courier-Bold
%%IncludeResource: font Courier-BoldOblique
%%IncludeResource: font Symbol
%%IncludeResource: font ZapfDingbats
/reEncode {exch findfont dup length dict begin {1 index /FID eq  {pop pop} {def} ifelse } forall /Encoding exch def currentdict end dup /FontName get exch definefont pop } def [/Times-Bold /Times-Italic /Times-BoldItalic /Helvetica /Helvetica-Oblique
 /Helvetica-Bold /Helvetica-BoldOblique /Courier /Courier-Oblique /Courier-Bold /Courier-BoldOblique /Times-Roman /AvantGarde-Book /AvantGarde-BookOblique /AvantGarde-Demi /AvantGarde-DemiOblique /Bookman-Demi /Bookman-DemiItalic /Bookman-Light
 /Bookman-LightItalic /Helvetica-Narrow /Helvetica-Narrow-Bold /Helvetica-Narrow-BoldOblique /Helvetica-Narrow-Oblique /NewCenturySchlbk-Roman /NewCenturySchlbk-Bold /NewCenturySchlbk-BoldItalic /NewCenturySchlbk-Italic /Palatino-Bold
 /Palatino-BoldItalic /Palatino-Italic /Palatino-Roman ] {ISOLatin1Encoding reEncode } forall
%%EndProlog
%%BeginSetup
%%EndSetup
newpath  gsave  .25 .25 scale  gsave  0 0 t black[  ] 0 sd 3 lw 1 1 1 c 2268 1538 0 0 bf black 1 1 1 c 1814 1230 227 154 bf black 1814 1230 227 154 bl 1 1 1 c 1814 1230 227 154 bf black 1814 1230 227 154 bl 227 154 m 1814 X s 449 191 m -37 Y s 500
 172 m -18 Y s 551 172 m -18 Y s 602 172 m -18 Y s 653 172 m -18 Y s 704 191 m -37 Y s 755 172 m -18 Y s 806 172 m -18 Y s 857 172 m -18 Y s 908 172 m -18 Y s 959 191 m -37 Y s 1010 172 m -18 Y s 1061 172 m -18 Y s 1112 172 m -18 Y s 1163 172 m -18 Y
 s 1214 191 m -37 Y s 1265 172 m -18 Y s 1316 172 m -18 Y s 1367 172 m -18 Y s 1418 172 m -18 Y s 1469 191 m -37 Y s 1520 172 m -18 Y s 1570 172 m -18 Y s 1621 172 m -18 Y s 1672 172 m -18 Y s 1723 191 m -37 Y s 1774 172 m -18 Y s 1825 172 m -18 Y s
 1876 172 m -18 Y s 1927 172 m -18 Y s 1978 191 m -37 Y s 449 191 m -37 Y s 399 172 m -18 Y s 348 172 m -18 Y s 297 172 m -18 Y s 246 172 m -18 Y s 1978 191 m -37 Y s 2029 172 m -18 Y s
 gsave  2268 1538 0 0 C 413.793 97.7464 t 0 r /Helvetica-Bold findfont 58.6478 sf 0 0 m (50) show NC gr 
 gsave  2268 1538 0 0 C 654.901 97.7464 t 0 r /Helvetica-Bold findfont 58.6478 sf 0 0 m (100) show NC gr 
 gsave  2268 1538 0 0 C 909.042 97.7464 t 0 r /Helvetica-Bold findfont 58.6478 sf 0 0 m (150) show NC gr 
 gsave  2268 1538 0 0 C 1163.18 97.7464 t 0 r /Helvetica-Bold findfont 58.6478 sf 0 0 m (200) show NC gr 
 gsave  2268 1538 0 0 C 1417.32 97.7464 t 0 r /Helvetica-Bold findfont 58.6478 sf 0 0 m (250) show NC gr 
 gsave  2268 1538 0 0 C 1671.46 97.7464 t 0 r /Helvetica-Bold findfont 58.6478 sf 0 0 m (300) show NC gr 
 gsave  2268 1538 0 0 C 1928.86 97.7464 t 0 r /Helvetica-Bold findfont 58.6478 sf 0 0 m (350) show NC gr  227 1384 m 1814 X s 449 1347 m 37 Y s 500 1366 m 18 Y s 551 1366 m 18 Y s 602 1366 m 18 Y s 653 1366 m 18 Y s 704 1347 m 37 Y s 755 1366 m 18 Y
 s 806 1366 m 18 Y s 857 1366 m 18 Y s 908 1366 m 18 Y s 959 1347 m 37 Y s 1010 1366 m 18 Y s 1061 1366 m 18 Y s 1112 1366 m 18 Y s 1163 1366 m 18 Y s 1214 1347 m 37 Y s 1265 1366 m 18 Y s 1316 1366 m 18 Y s 1367 1366 m 18 Y s 1418 1366 m 18 Y s 1469
 1347 m 37 Y s 1520 1366 m 18 Y s 1570 1366 m 18 Y s 1621 1366 m 18 Y s 1672 1366 m 18 Y s 1723 1347 m 37 Y s 1774 1366 m 18 Y s 1825 1366 m 18 Y s 1876 1366 m 18 Y s 1927 1366 m 18 Y s 1978 1347 m 37 Y s 449 1347 m 37 Y s 399 1366 m 18 Y s 348 1366
 m 18 Y s 297 1366 m 18 Y s 246 1366 m 18 Y s 1978 1347 m 37 Y s 2029 1366 m 18 Y s 227 154 m 1230 Y s 281 234 m -54 X s 254 264 m -27 X s 254 295 m -27 X s 254 325 m -27 X s 281 355 m -54 X s 254 386 m -27 X s 254 416 m -27 X s 254 446 m -27 X s 281
 477 m -54 X s 254 507 m -27 X s 254 537 m -27 X s 254 568 m -27 X s 281 598 m -54 X s 254 628 m -27 X s 254 659 m -27 X s 254 689 m -27 X s 281 719 m -54 X s 254 750 m -27 X s 254 780 m -27 X s 254 810 m -27 X s 281 841 m -54 X s 254 871 m -27 X s
 254 901 m -27 X s 254 932 m -27 X s 281 962 m -54 X s 254 992 m -27 X s 254 1023 m -27 X s 254 1053 m -27 X s 281 1083 m -54 X s 254 1114 m -27 X s 254 1144 m -27 X s 254 1174 m -27 X s 281 1205 m -54 X s 254 1235 m -27 X s 254 1265 m -27 X s 254
 1296 m -27 X s 281 1326 m -54 X s 281 234 m -54 X s 254 204 m -27 X s 254 173 m -27 X s 281 1326 m -54 X s 254 1356 m -27 X s
 gsave  2268 1538 0 0 C 133.587 211.784 t 0 r /Helvetica-Bold findfont 58.6478 sf 0 0 m (0.6) show NC gr 
 gsave  2268 1538 0 0 C 133.587 335.596 t 0 r /Helvetica-Bold findfont 58.6478 sf 0 0 m (0.8) show NC gr 
 gsave  2268 1538 0 0 C 192.235 456.15 t 0 r /Helvetica-Bold findfont 58.6478 sf 0 0 m (1) show NC gr 
 gsave  2268 1538 0 0 C 133.587 573.446 t 0 r /Helvetica-Bold findfont 58.6478 sf 0 0 m (1.2) show NC gr 
 gsave  2268 1538 0 0 C 133.587 697.258 t 0 r /Helvetica-Bold findfont 58.6478 sf 0 0 m (1.4) show NC gr 
 gsave  2268 1538 0 0 C 133.587 817.812 t 0 r /Helvetica-Bold findfont 58.6478 sf 0 0 m (1.6) show NC gr 
 gsave  2268 1538 0 0 C 133.587 941.624 t 0 r /Helvetica-Bold findfont 58.6478 sf 0 0 m (1.8) show NC gr 
 gsave  2268 1538 0 0 C 182.46 1058.92 t 0 r /Helvetica-Bold findfont 58.6478 sf 0 0 m (2) show NC gr 
 gsave  2268 1538 0 0 C 133.587 1179.47 t 0 r /Helvetica-Bold findfont 58.6478 sf 0 0 m (2.2) show NC gr 
 gsave  2268 1538 0 0 C 133.587 1300.03 t 0 r /Helvetica-Bold findfont 58.6478 sf 0 0 m (2.4) show NC gr  2041 154 m 1230 Y s 1987 234 m 54 X s 2014 264 m 27 X s 2014 295 m 27 X s 2014 325 m 27 X s 1987 355 m 54 X s 2014 386 m 27 X s 2014 416 m 27 X
 s 2014 446 m 27 X s 1987 477 m 54 X s 2014 507 m 27 X s 2014 537 m 27 X s 2014 568 m 27 X s 1987 598 m 54 X s 2014 628 m 27 X s 2014 659 m 27 X s 2014 689 m 27 X s 1987 719 m 54 X s 2014 750 m 27 X s 2014 780 m 27 X s 2014 810 m 27 X s 1987 841 m 54
 X s 2014 871 m 27 X s 2014 901 m 27 X s 2014 932 m 27 X s 1987 962 m 54 X s 2014 992 m 27 X s 2014 1023 m 27 X s 2014 1053 m 27 X s 1987 1083 m 54 X s 2014 1114 m 27 X s 2014 1144 m 27 X s 2014 1174 m 27 X s 1987 1205 m 54 X s 2014 1235 m 27 X s
 2014 1265 m 27 X s 2014 1296 m 27 X s 1987 1326 m 54 X s 1987 234 m 54 X s 2014 204 m 27 X s 2014 173 m 27 X s 1987 1326 m 54 X s 2014 1356 m 27 X s 1958 379 m 112 Y s 1952 491 m 13 X s 1958 379 m -111 Y s 1952 268 m 13 X s 1746 452 m 119 Y s 1740
 571 m 13 X s 1746 452 m -119 Y s 1740 333 m 13 X s 1512 598 m 133 Y s 1506 731 m 13 X s 1512 598 m -133 Y s 1506 465 m 13 X s 1324 452 m 119 Y s 1317 571 m 13 X s 1324 452 m -119 Y s 1317 333 m 13 X s 1131 379 m 112 Y s 1124 491 m 13 X s 1131 379 m
 -111 Y s 1124 268 m 13 X s 917 307 m 103 Y s 911 410 m 13 X s 917 307 m -103 Y s 911 204 m 13 X s 710 792 m 150 Y s 703 942 m 13 X s 710 792 m -150 Y s 703 642 m 13 X s 503 1035 m 168 Y s 497 1203 m 13 X s 503 1035 m -168 Y s 497 867 m 13 X s 309
 938 m 161 Y s 303 1099 m 13 X s 309 938 m -161 Y s 303 777 m 13 X s 1 1 1 c black 1958 379 m -212 73 d -234 146 d -188 -146 d -193 -73 d -214 -72 d -207 485 d -207 243 d -194 -97 d s /w 2 def /w2 {w 2 div} def /w3 {w 3 div} def 1958 379 1746 452
 1512 598 1324 452 1131 379 917 307 710 792 503 1035 309 938 9 { m20} R
 gsave  2268 1538 0 0 C 1326.09 1172.96 t 0 r /Helvetica-Bold findfont 58.6478 sf 0 0 m (Pixel Occupancies) show NC gr  1124 1192 m 167 X s 1208 1192 m20
 gr  gr showpage
end
%%EOF
