%!PS-Adobe-2.0 EPSF-2.0
%%BoundingBox:  0 0 567 384
%%Title: pionDir/pixel_occupancy/clus_z_pixlayer_2_pos.eps: c1_n49
%%Creator: ROOT Version 6.04/12
%%CreationDate: Tue Apr 19 16:53:29 2016
%%DocumentNeededResources: ProcSet (FontSetInit)
%%EndComments
%%BeginProlog
80 dict begin
/s {stroke} def /l {lineto} def /m {moveto} def /t {translate} def
/r {rotate} def /rl {roll}  def /R {repeat} def
/d {rlineto} def /rm {rmoveto} def /gr {grestore} def /f {eofill} def
/c {setrgbcolor} def /black {0 setgray} def /sd {setdash} def
/cl {closepath} def /sf {scalefont setfont} def /lw {setlinewidth} def
/box {m dup 0 exch d exch 0 d 0 exch neg d cl} def
/NC{systemdict begin initclip end}def/C{NC box clip newpath}def
/bl {box s} def /bf {gsave box gsave f grestore 1 lw [] 0 sd s grestore} def /Y { 0 exch d} def /X { 0 d} def 
/K {{pop pop 0 moveto} exch kshow} bind def
/ita {/ang 15 def gsave [1 0 ang dup sin exch cos div 1 0 0] concat} def 
/mp {newpath /y exch def /x exch def} def
/side {[w .77 mul w .23 mul] .385 w mul sd w 0 l currentpoint t -144 r} def
/mr {mp x y w2 0 360 arc} def /m24 {mr s} def /m20 {mr f} def
/mb {mp x y w2 add m w2 neg 0 d 0 w neg d w 0 d 0 w d cl} def
/mt {mp x y w2 add m w2 neg w neg d w 0 d cl} def
/m21 {mb f} def /m25 {mb s} def /m22 {mt f} def /m26{mt s} def
/m23 {mp x y w2 sub m w2 w d w neg 0 d cl f} def
/m27 {mp x y w2 add m w3 neg w2 neg d w3 w2 neg d w3 w2 d cl s} def
/m28 {mp x w2 sub y w2 sub w3 add m w3 0 d  0 w3 neg d w3 0 d 0 w3 d w3 0 d  0 w3 d w3 neg 0 d 0 w3 d w3 neg 0 d 0 w3 neg d w3 neg 0 d cl s } def
/m29 {mp gsave x w2 sub y w2 add w3 sub m currentpoint t 4 {side} repeat cl fill gr} def
/m30 {mp gsave x w2 sub y w2 add w3 sub m currentpoint t 4 {side} repeat cl s gr} def
/m31 {mp x y w2 sub m 0 w d x w2 sub y m w 0 d x w2 sub y w2 add m w w neg d x w2 sub y w2 sub m w w d s} def
/m32 {mp x y w2 sub m w2 w d w neg 0 d cl s} def
/m33 {mp x y w2 add m w3 neg w2 neg d w3 w2 neg d w3 w2 d cl f} def
/m34 {mp x w2 sub y w2 sub w3 add m w3 0 d  0 w3 neg d w3 0 d 0 w3 d w3 0 d  0 w3 d w3 neg 0 d 0 w3 d w3 neg 0 d 0 w3 neg d w3 neg 0 d cl f } def
/m2 {mp x y w2 sub m 0 w d x w2 sub y m w 0 d s} def
/m5 {mp x w2 sub y w2 sub m w w d x w2 sub y w2 add m w w neg d s} def
%%IncludeResource: ProcSet (FontSetInit)
%%IncludeResource: font Times-Roman
%%IncludeResource: font Times-Italic
%%IncludeResource: font Times-Bold
%%IncludeResource: font Times-BoldItalic
%%IncludeResource: font Helvetica
%%IncludeResource: font Helvetica-Oblique
%%IncludeResource: font Helvetica-Bold
%%IncludeResource: font Helvetica-BoldOblique
%%IncludeResource: font Courier
%%IncludeResource: font Courier-Oblique
%%IncludeResource: font Courier-Bold
%%IncludeResource: font Courier-BoldOblique
%%IncludeResource: font Symbol
%%IncludeResource: font ZapfDingbats
/reEncode {exch findfont dup length dict begin {1 index /FID eq  {pop pop} {def} ifelse } forall /Encoding exch def currentdict end dup /FontName get exch definefont pop } def [/Times-Bold /Times-Italic /Times-BoldItalic /Helvetica /Helvetica-Oblique
 /Helvetica-Bold /Helvetica-BoldOblique /Courier /Courier-Oblique /Courier-Bold /Courier-BoldOblique /Times-Roman /AvantGarde-Book /AvantGarde-BookOblique /AvantGarde-Demi /AvantGarde-DemiOblique /Bookman-Demi /Bookman-DemiItalic /Bookman-Light
 /Bookman-LightItalic /Helvetica-Narrow /Helvetica-Narrow-Bold /Helvetica-Narrow-BoldOblique /Helvetica-Narrow-Oblique /NewCenturySchlbk-Roman /NewCenturySchlbk-Bold /NewCenturySchlbk-BoldItalic /NewCenturySchlbk-Italic /Palatino-Bold
 /Palatino-BoldItalic /Palatino-Italic /Palatino-Roman ] {ISOLatin1Encoding reEncode } forall
%%EndProlog
%%BeginSetup
%%EndSetup
newpath  gsave  .25 .25 scale  gsave  0 0 t black[  ] 0 sd 3 lw 1 1 1 c 2268 1538 0 0 bf black 1 1 1 c 1814 1230 227 154 bf black 1814 1230 227 154 bl 1 1 1 c 1814 1230 227 154 bf black 1814 1230 227 154 bl 227 154 m 1814 X s 441 191 m -37 Y s 493
 172 m -18 Y s 545 172 m -18 Y s 597 172 m -18 Y s 649 172 m -18 Y s 701 191 m -37 Y s 752 172 m -18 Y s 804 172 m -18 Y s 856 172 m -18 Y s 908 172 m -18 Y s 960 191 m -37 Y s 1012 172 m -18 Y s 1064 172 m -18 Y s 1116 172 m -18 Y s 1168 172 m -18 Y
 s 1219 191 m -37 Y s 1271 172 m -18 Y s 1323 172 m -18 Y s 1375 172 m -18 Y s 1427 172 m -18 Y s 1479 191 m -37 Y s 1531 172 m -18 Y s 1583 172 m -18 Y s 1635 172 m -18 Y s 1687 172 m -18 Y s 1738 191 m -37 Y s 1790 172 m -18 Y s 1842 172 m -18 Y s
 1894 172 m -18 Y s 1946 172 m -18 Y s 1998 191 m -37 Y s 441 191 m -37 Y s 389 172 m -18 Y s 337 172 m -18 Y s 285 172 m -18 Y s 234 172 m -18 Y s 1998 191 m -37 Y s
 gsave  2268 1538 0 0 C 407.277 97.7464 t 0 r /Helvetica-Bold findfont 58.6478 sf 0 0 m (50) show NC gr 
 gsave  2268 1538 0 0 C 651.643 97.7464 t 0 r /Helvetica-Bold findfont 58.6478 sf 0 0 m (100) show NC gr 
 gsave  2268 1538 0 0 C 909.042 97.7464 t 0 r /Helvetica-Bold findfont 58.6478 sf 0 0 m (150) show NC gr 
 gsave  2268 1538 0 0 C 1169.7 97.7464 t 0 r /Helvetica-Bold findfont 58.6478 sf 0 0 m (200) show NC gr 
 gsave  2268 1538 0 0 C 1427.1 97.7464 t 0 r /Helvetica-Bold findfont 58.6478 sf 0 0 m (250) show NC gr 
 gsave  2268 1538 0 0 C 1687.75 97.7464 t 0 r /Helvetica-Bold findfont 58.6478 sf 0 0 m (300) show NC gr 
 gsave  2268 1538 0 0 C 1948.41 97.7464 t 0 r /Helvetica-Bold findfont 58.6478 sf 0 0 m (350) show NC gr  227 1384 m 1814 X s 441 1347 m 37 Y s 493 1366 m 18 Y s 545 1366 m 18 Y s 597 1366 m 18 Y s 649 1366 m 18 Y s 701 1347 m 37 Y s 752 1366 m 18 Y
 s 804 1366 m 18 Y s 856 1366 m 18 Y s 908 1366 m 18 Y s 960 1347 m 37 Y s 1012 1366 m 18 Y s 1064 1366 m 18 Y s 1116 1366 m 18 Y s 1168 1366 m 18 Y s 1219 1347 m 37 Y s 1271 1366 m 18 Y s 1323 1366 m 18 Y s 1375 1366 m 18 Y s 1427 1366 m 18 Y s 1479
 1347 m 37 Y s 1531 1366 m 18 Y s 1583 1366 m 18 Y s 1635 1366 m 18 Y s 1687 1366 m 18 Y s 1738 1347 m 37 Y s 1790 1366 m 18 Y s 1842 1366 m 18 Y s 1894 1366 m 18 Y s 1946 1366 m 18 Y s 1998 1347 m 37 Y s 441 1347 m 37 Y s 389 1366 m 18 Y s 337 1366
 m 18 Y s 285 1366 m 18 Y s 234 1366 m 18 Y s 1998 1347 m 37 Y s 227 154 m 1230 Y s 281 269 m -54 X s 254 303 m -27 X s 254 337 m -27 X s 254 372 m -27 X s 281 406 m -54 X s 254 440 m -27 X s 254 474 m -27 X s 254 509 m -27 X s 281 543 m -54 X s 254
 577 m -27 X s 254 611 m -27 X s 254 646 m -27 X s 281 680 m -54 X s 254 714 m -27 X s 254 748 m -27 X s 254 783 m -27 X s 281 817 m -54 X s 254 851 m -27 X s 254 885 m -27 X s 254 920 m -27 X s 281 954 m -54 X s 254 988 m -27 X s 254 1022 m -27 X s
 254 1057 m -27 X s 281 1091 m -54 X s 254 1125 m -27 X s 254 1159 m -27 X s 254 1194 m -27 X s 281 1228 m -54 X s 254 1262 m -27 X s 254 1296 m -27 X s 254 1331 m -27 X s 281 1365 m -54 X s 281 269 m -54 X s 254 234 m -27 X s 254 200 m -27 X s 254
 166 m -27 X s 281 1365 m -54 X s
 gsave  2268 1538 0 0 C 133.587 247.624 t 0 r /Helvetica-Bold findfont 58.6478 sf 0 0 m (0.4) show NC gr 
 gsave  2268 1538 0 0 C 133.587 384.469 t 0 r /Helvetica-Bold findfont 58.6478 sf 0 0 m (0.6) show NC gr 
 gsave  2268 1538 0 0 C 133.587 521.314 t 0 r /Helvetica-Bold findfont 58.6478 sf 0 0 m (0.8) show NC gr 
 gsave  2268 1538 0 0 C 192.235 658.159 t 0 r /Helvetica-Bold findfont 58.6478 sf 0 0 m (1) show NC gr 
 gsave  2268 1538 0 0 C 133.587 791.746 t 0 r /Helvetica-Bold findfont 58.6478 sf 0 0 m (1.2) show NC gr 
 gsave  2268 1538 0 0 C 133.587 931.849 t 0 r /Helvetica-Bold findfont 58.6478 sf 0 0 m (1.4) show NC gr 
 gsave  2268 1538 0 0 C 133.587 1068.69 t 0 r /Helvetica-Bold findfont 58.6478 sf 0 0 m (1.6) show NC gr 
 gsave  2268 1538 0 0 C 133.587 1205.54 t 0 r /Helvetica-Bold findfont 58.6478 sf 0 0 m (1.8) show NC gr 
 gsave  2268 1538 0 0 C 182.46 1339.13 t 0 r /Helvetica-Bold findfont 58.6478 sf 0 0 m (2) show NC gr  2041 154 m 1230 Y s 1987 269 m 54 X s 2014 303 m 27 X s 2014 337 m 27 X s 2014 372 m 27 X s 1987 406 m 54 X s 2014 440 m 27 X s 2014 474 m 27 X s
 2014 509 m 27 X s 1987 543 m 54 X s 2014 577 m 27 X s 2014 611 m 27 X s 2014 646 m 27 X s 1987 680 m 54 X s 2014 714 m 27 X s 2014 748 m 27 X s 2014 783 m 27 X s 1987 817 m 54 X s 2014 851 m 27 X s 2014 885 m 27 X s 2014 920 m 27 X s 1987 954 m 54 X
 s 2014 988 m 27 X s 2014 1022 m 27 X s 2014 1057 m 27 X s 1987 1091 m 54 X s 2014 1125 m 27 X s 2014 1159 m 27 X s 2014 1194 m 27 X s 1987 1228 m 54 X s 2014 1262 m 27 X s 2014 1296 m 27 X s 2014 1331 m 27 X s 1987 1365 m 54 X s 1987 269 m 54 X s
 2014 234 m 27 X s 2014 200 m 27 X s 2014 166 m 27 X s 1987 1365 m 54 X s 309 1063 m 172 Y s 303 1235 m 13 X s 309 1063 m -171 Y s 303 892 m 13 X s 496 296 m 91 Y s 490 387 m 13 X s 496 296 m -91 Y s 490 205 m 13 X s 707 433 m 110 Y s 700 543 m 13 X
 s 707 433 m -109 Y s 700 324 m 13 X s 936 789 m 148 Y s 930 937 m 13 X s 936 789 m -147 Y s 930 642 m 13 X s 1139 625 m 131 Y s 1133 756 m 13 X s 1139 625 m -131 Y s 1133 494 m 13 X s 1327 735 m 142 Y s 1321 877 m 13 X s 1327 735 m -143 Y s 1321 592
 m 13 X s 1585 625 m 131 Y s 1578 756 m 13 X s 1585 625 m -131 Y s 1578 494 m 13 X s 1747 488 m 116 Y s 1740 604 m 13 X s 1747 488 m -116 Y s 1740 372 m 13 X s 1958 378 m 103 Y s 1952 481 m 13 X s 1958 378 m -102 Y s 1952 276 m 13 X s 1 1 1 c black
 309 1063 m 187 -767 d 211 137 d 229 356 d 203 -164 d 188 110 d 258 -110 d 162 -137 d 211 -110 d s /w 2 def /w2 {w 2 div} def /w3 {w 3 div} def 309 1063 496 296 707 433 936 789 1139 625 1327 735 1585 625 1747 488 1958 378 9 { m20} R
 gsave  2268 1538 0 0 C 1326.09 1172.96 t 0 r /Helvetica-Bold findfont 58.6478 sf 0 0 m (Pixel Occupancies) show NC gr  1124 1192 m 167 X s 1208 1192 m20
 gr  gr showpage
end
%%EOF
