%!PS-Adobe-2.0 EPSF-2.0
%%BoundingBox:  0 0 567 384
%%Title: pionDir/pixel_occupancy/clus_z_pixlayer_3_pos.eps: c1_n44
%%Creator: ROOT Version 6.04/12
%%CreationDate: Tue Apr 19 16:53:28 2016
%%DocumentNeededResources: ProcSet (FontSetInit)
%%EndComments
%%BeginProlog
80 dict begin
/s {stroke} def /l {lineto} def /m {moveto} def /t {translate} def
/r {rotate} def /rl {roll}  def /R {repeat} def
/d {rlineto} def /rm {rmoveto} def /gr {grestore} def /f {eofill} def
/c {setrgbcolor} def /black {0 setgray} def /sd {setdash} def
/cl {closepath} def /sf {scalefont setfont} def /lw {setlinewidth} def
/box {m dup 0 exch d exch 0 d 0 exch neg d cl} def
/NC{systemdict begin initclip end}def/C{NC box clip newpath}def
/bl {box s} def /bf {gsave box gsave f grestore 1 lw [] 0 sd s grestore} def /Y { 0 exch d} def /X { 0 d} def 
/K {{pop pop 0 moveto} exch kshow} bind def
/ita {/ang 15 def gsave [1 0 ang dup sin exch cos div 1 0 0] concat} def 
/mp {newpath /y exch def /x exch def} def
/side {[w .77 mul w .23 mul] .385 w mul sd w 0 l currentpoint t -144 r} def
/mr {mp x y w2 0 360 arc} def /m24 {mr s} def /m20 {mr f} def
/mb {mp x y w2 add m w2 neg 0 d 0 w neg d w 0 d 0 w d cl} def
/mt {mp x y w2 add m w2 neg w neg d w 0 d cl} def
/m21 {mb f} def /m25 {mb s} def /m22 {mt f} def /m26{mt s} def
/m23 {mp x y w2 sub m w2 w d w neg 0 d cl f} def
/m27 {mp x y w2 add m w3 neg w2 neg d w3 w2 neg d w3 w2 d cl s} def
/m28 {mp x w2 sub y w2 sub w3 add m w3 0 d  0 w3 neg d w3 0 d 0 w3 d w3 0 d  0 w3 d w3 neg 0 d 0 w3 d w3 neg 0 d 0 w3 neg d w3 neg 0 d cl s } def
/m29 {mp gsave x w2 sub y w2 add w3 sub m currentpoint t 4 {side} repeat cl fill gr} def
/m30 {mp gsave x w2 sub y w2 add w3 sub m currentpoint t 4 {side} repeat cl s gr} def
/m31 {mp x y w2 sub m 0 w d x w2 sub y m w 0 d x w2 sub y w2 add m w w neg d x w2 sub y w2 sub m w w d s} def
/m32 {mp x y w2 sub m w2 w d w neg 0 d cl s} def
/m33 {mp x y w2 add m w3 neg w2 neg d w3 w2 neg d w3 w2 d cl f} def
/m34 {mp x w2 sub y w2 sub w3 add m w3 0 d  0 w3 neg d w3 0 d 0 w3 d w3 0 d  0 w3 d w3 neg 0 d 0 w3 d w3 neg 0 d 0 w3 neg d w3 neg 0 d cl f } def
/m2 {mp x y w2 sub m 0 w d x w2 sub y m w 0 d s} def
/m5 {mp x w2 sub y w2 sub m w w d x w2 sub y w2 add m w w neg d s} def
%%IncludeResource: ProcSet (FontSetInit)
%%IncludeResource: font Times-Roman
%%IncludeResource: font Times-Italic
%%IncludeResource: font Times-Bold
%%IncludeResource: font Times-BoldItalic
%%IncludeResource: font Helvetica
%%IncludeResource: font Helvetica-Oblique
%%IncludeResource: font Helvetica-Bold
%%IncludeResource: font Helvetica-BoldOblique
%%IncludeResource: font Courier
%%IncludeResource: font Courier-Oblique
%%IncludeResource: font Courier-Bold
%%IncludeResource: font Courier-BoldOblique
%%IncludeResource: font Symbol
%%IncludeResource: font ZapfDingbats
/reEncode {exch findfont dup length dict begin {1 index /FID eq  {pop pop} {def} ifelse } forall /Encoding exch def currentdict end dup /FontName get exch definefont pop } def [/Times-Bold /Times-Italic /Times-BoldItalic /Helvetica /Helvetica-Oblique
 /Helvetica-Bold /Helvetica-BoldOblique /Courier /Courier-Oblique /Courier-Bold /Courier-BoldOblique /Times-Roman /AvantGarde-Book /AvantGarde-BookOblique /AvantGarde-Demi /AvantGarde-DemiOblique /Bookman-Demi /Bookman-DemiItalic /Bookman-Light
 /Bookman-LightItalic /Helvetica-Narrow /Helvetica-Narrow-Bold /Helvetica-Narrow-BoldOblique /Helvetica-Narrow-Oblique /NewCenturySchlbk-Roman /NewCenturySchlbk-Bold /NewCenturySchlbk-BoldItalic /NewCenturySchlbk-Italic /Palatino-Bold
 /Palatino-BoldItalic /Palatino-Italic /Palatino-Roman ] {ISOLatin1Encoding reEncode } forall
%%EndProlog
%%BeginSetup
%%EndSetup
newpath  gsave  .25 .25 scale  gsave  0 0 t black[  ] 0 sd 3 lw 1 1 1 c 2268 1538 0 0 bf black 1 1 1 c 1814 1230 227 154 bf black 1814 1230 227 154 bl 1 1 1 c 1814 1230 227 154 bf black 1814 1230 227 154 bl 227 154 m 1814 X s 454 191 m -37 Y s 505
 172 m -18 Y s 555 172 m -18 Y s 606 172 m -18 Y s 656 172 m -18 Y s 707 191 m -37 Y s 758 172 m -18 Y s 808 172 m -18 Y s 859 172 m -18 Y s 909 172 m -18 Y s 960 191 m -37 Y s 1010 172 m -18 Y s 1061 172 m -18 Y s 1111 172 m -18 Y s 1162 172 m -18 Y
 s 1212 191 m -37 Y s 1263 172 m -18 Y s 1313 172 m -18 Y s 1364 172 m -18 Y s 1414 172 m -18 Y s 1465 191 m -37 Y s 1515 172 m -18 Y s 1566 172 m -18 Y s 1616 172 m -18 Y s 1667 172 m -18 Y s 1717 191 m -37 Y s 1768 172 m -18 Y s 1818 172 m -18 Y s
 1869 172 m -18 Y s 1919 172 m -18 Y s 1970 191 m -37 Y s 454 191 m -37 Y s 404 172 m -18 Y s 353 172 m -18 Y s 303 172 m -18 Y s 252 172 m -18 Y s 1970 191 m -37 Y s 2020 172 m -18 Y s
 gsave  2268 1538 0 0 C 420.31 97.7464 t 0 r /Helvetica-Bold findfont 58.6478 sf 0 0 m (50) show NC gr 
 gsave  2268 1538 0 0 C 654.901 97.7464 t 0 r /Helvetica-Bold findfont 58.6478 sf 0 0 m (100) show NC gr 
 gsave  2268 1538 0 0 C 909.042 97.7464 t 0 r /Helvetica-Bold findfont 58.6478 sf 0 0 m (150) show NC gr 
 gsave  2268 1538 0 0 C 1163.18 97.7464 t 0 r /Helvetica-Bold findfont 58.6478 sf 0 0 m (200) show NC gr 
 gsave  2268 1538 0 0 C 1414.06 97.7464 t 0 r /Helvetica-Bold findfont 58.6478 sf 0 0 m (250) show NC gr 
 gsave  2268 1538 0 0 C 1668.21 97.7464 t 0 r /Helvetica-Bold findfont 58.6478 sf 0 0 m (300) show NC gr 
 gsave  2268 1538 0 0 C 1919.09 97.7464 t 0 r /Helvetica-Bold findfont 58.6478 sf 0 0 m (350) show NC gr  227 1384 m 1814 X s 454 1347 m 37 Y s 505 1366 m 18 Y s 555 1366 m 18 Y s 606 1366 m 18 Y s 656 1366 m 18 Y s 707 1347 m 37 Y s 758 1366 m 18 Y
 s 808 1366 m 18 Y s 859 1366 m 18 Y s 909 1366 m 18 Y s 960 1347 m 37 Y s 1010 1366 m 18 Y s 1061 1366 m 18 Y s 1111 1366 m 18 Y s 1162 1366 m 18 Y s 1212 1347 m 37 Y s 1263 1366 m 18 Y s 1313 1366 m 18 Y s 1364 1366 m 18 Y s 1414 1366 m 18 Y s 1465
 1347 m 37 Y s 1515 1366 m 18 Y s 1566 1366 m 18 Y s 1616 1366 m 18 Y s 1667 1366 m 18 Y s 1717 1347 m 37 Y s 1768 1366 m 18 Y s 1818 1366 m 18 Y s 1869 1366 m 18 Y s 1919 1366 m 18 Y s 1970 1347 m 37 Y s 454 1347 m 37 Y s 404 1366 m 18 Y s 353 1366
 m 18 Y s 303 1366 m 18 Y s 252 1366 m 18 Y s 1970 1347 m 37 Y s 2020 1366 m 18 Y s 227 154 m 1230 Y s 281 169 m -54 X s 254 209 m -27 X s 254 249 m -27 X s 254 288 m -27 X s 281 328 m -54 X s 254 368 m -27 X s 254 408 m -27 X s 254 448 m -27 X s 281
 488 m -54 X s 254 528 m -27 X s 254 568 m -27 X s 254 607 m -27 X s 281 647 m -54 X s 254 687 m -27 X s 254 727 m -27 X s 254 767 m -27 X s 281 807 m -54 X s 254 847 m -27 X s 254 886 m -27 X s 254 926 m -27 X s 281 966 m -54 X s 254 1006 m -27 X s
 254 1046 m -27 X s 254 1086 m -27 X s 281 1126 m -54 X s 254 1166 m -27 X s 254 1205 m -27 X s 254 1245 m -27 X s 281 1285 m -54 X s 281 169 m -54 X s 281 1285 m -54 X s 254 1325 m -27 X s 254 1365 m -27 X s
 gsave  2268 1538 0 0 C 133.587 146.62 t 0 r /Helvetica-Bold findfont 58.6478 sf 0 0 m (0.4) show NC gr 
 gsave  2268 1538 0 0 C 133.587 306.272 t 0 r /Helvetica-Bold findfont 58.6478 sf 0 0 m (0.6) show NC gr 
 gsave  2268 1538 0 0 C 133.587 465.924 t 0 r /Helvetica-Bold findfont 58.6478 sf 0 0 m (0.8) show NC gr 
 gsave  2268 1538 0 0 C 192.235 625.577 t 0 r /Helvetica-Bold findfont 58.6478 sf 0 0 m (1) show NC gr 
 gsave  2268 1538 0 0 C 133.587 781.971 t 0 r /Helvetica-Bold findfont 58.6478 sf 0 0 m (1.2) show NC gr 
 gsave  2268 1538 0 0 C 133.587 944.882 t 0 r /Helvetica-Bold findfont 58.6478 sf 0 0 m (1.4) show NC gr 
 gsave  2268 1538 0 0 C 133.587 1104.53 t 0 r /Helvetica-Bold findfont 58.6478 sf 0 0 m (1.6) show NC gr 
 gsave  2268 1538 0 0 C 133.587 1264.19 t 0 r /Helvetica-Bold findfont 58.6478 sf 0 0 m (1.8) show NC gr  2041 154 m 1230 Y s 1987 169 m 54 X s 2014 209 m 27 X s 2014 249 m 27 X s 2014 288 m 27 X s 1987 328 m 54 X s 2014 368 m 27 X s 2014 408 m 27 X
 s 2014 448 m 27 X s 1987 488 m 54 X s 2014 528 m 27 X s 2014 568 m 27 X s 2014 607 m 27 X s 1987 647 m 54 X s 2014 687 m 27 X s 2014 727 m 27 X s 2014 767 m 27 X s 1987 807 m 54 X s 2014 847 m 27 X s 2014 886 m 27 X s 2014 926 m 27 X s 1987 966 m 54
 X s 2014 1006 m 27 X s 2014 1046 m 27 X s 2014 1086 m 27 X s 1987 1126 m 54 X s 2014 1166 m 27 X s 2014 1205 m 27 X s 2014 1245 m 27 X s 1987 1285 m 54 X s 1987 169 m 54 X s 1987 1285 m 54 X s 2014 1325 m 27 X s 2014 1365 m 27 X s 309 647 m 160 Y s
 303 807 m 13 X s 309 647 m -159 Y s 303 488 m 13 X s 514 552 m 149 Y s 507 701 m 13 X s 514 552 m -150 Y s 507 402 m 13 X s 725 583 m 153 Y s 719 736 m 13 X s 725 583 m -153 Y s 719 430 m 13 X s 913 328 m 124 Y s 906 452 m 13 X s 913 328 m -123 Y s
 906 205 m 13 X s 1148 711 m 166 Y s 1141 877 m 13 X s 1148 711 m -166 Y s 1141 545 m 13 X s 1352 775 m 172 Y s 1345 947 m 13 X s 1352 775 m -172 Y s 1345 603 m 13 X s 1522 488 m 142 Y s 1515 630 m 13 X s 1522 488 m -143 Y s 1515 345 m 13 X s 1744
 488 m 142 Y s 1737 630 m 13 X s 1744 488 m -143 Y s 1737 345 m 13 X s 1958 1030 m 194 Y s 1952 1224 m 13 X s 1958 1030 m -194 Y s 1952 836 m 13 X s 1 1 1 c black 309 647 m 205 -95 d 211 31 d 188 -255 d 235 383 d 204 64 d 170 -287 d 222 X 214 542 d s
 /w 2 def /w2 {w 2 div} def /w3 {w 3 div} def 309 647 514 552 725 583 913 328 1148 711 1352 775 1522 488 1744 488 1958 1030 9 { m20} R
 gsave  2268 1538 0 0 C 1326.09 1172.96 t 0 r /Helvetica-Bold findfont 58.6478 sf 0 0 m (Pixel Occupancies) show NC gr  1124 1192 m 167 X s 1208 1192 m20
 gr  gr showpage
end
%%EOF
