%!PS-Adobe-2.0 EPSF-2.0
%%BoundingBox:  0 0 567 384
%%Title: pionDir/pixel_occupancy/clus_pixlayer_mgz.eps: c1_n4
%%Creator: ROOT Version 6.04/12
%%CreationDate: Tue Apr 19 16:53:22 2016
%%DocumentNeededResources: ProcSet (FontSetInit)
%%EndComments
%%BeginProlog
80 dict begin
/s {stroke} def /l {lineto} def /m {moveto} def /t {translate} def
/r {rotate} def /rl {roll}  def /R {repeat} def
/d {rlineto} def /rm {rmoveto} def /gr {grestore} def /f {eofill} def
/c {setrgbcolor} def /black {0 setgray} def /sd {setdash} def
/cl {closepath} def /sf {scalefont setfont} def /lw {setlinewidth} def
/box {m dup 0 exch d exch 0 d 0 exch neg d cl} def
/NC{systemdict begin initclip end}def/C{NC box clip newpath}def
/bl {box s} def /bf {gsave box gsave f grestore 1 lw [] 0 sd s grestore} def /Y { 0 exch d} def /X { 0 d} def 
/K {{pop pop 0 moveto} exch kshow} bind def
/ita {/ang 15 def gsave [1 0 ang dup sin exch cos div 1 0 0] concat} def 
/mp {newpath /y exch def /x exch def} def
/side {[w .77 mul w .23 mul] .385 w mul sd w 0 l currentpoint t -144 r} def
/mr {mp x y w2 0 360 arc} def /m24 {mr s} def /m20 {mr f} def
/mb {mp x y w2 add m w2 neg 0 d 0 w neg d w 0 d 0 w d cl} def
/mt {mp x y w2 add m w2 neg w neg d w 0 d cl} def
/m21 {mb f} def /m25 {mb s} def /m22 {mt f} def /m26{mt s} def
/m23 {mp x y w2 sub m w2 w d w neg 0 d cl f} def
/m27 {mp x y w2 add m w3 neg w2 neg d w3 w2 neg d w3 w2 d cl s} def
/m28 {mp x w2 sub y w2 sub w3 add m w3 0 d  0 w3 neg d w3 0 d 0 w3 d w3 0 d  0 w3 d w3 neg 0 d 0 w3 d w3 neg 0 d 0 w3 neg d w3 neg 0 d cl s } def
/m29 {mp gsave x w2 sub y w2 add w3 sub m currentpoint t 4 {side} repeat cl fill gr} def
/m30 {mp gsave x w2 sub y w2 add w3 sub m currentpoint t 4 {side} repeat cl s gr} def
/m31 {mp x y w2 sub m 0 w d x w2 sub y m w 0 d x w2 sub y w2 add m w w neg d x w2 sub y w2 sub m w w d s} def
/m32 {mp x y w2 sub m w2 w d w neg 0 d cl s} def
/m33 {mp x y w2 add m w3 neg w2 neg d w3 w2 neg d w3 w2 d cl f} def
/m34 {mp x w2 sub y w2 sub w3 add m w3 0 d  0 w3 neg d w3 0 d 0 w3 d w3 0 d  0 w3 d w3 neg 0 d 0 w3 d w3 neg 0 d 0 w3 neg d w3 neg 0 d cl f } def
/m2 {mp x y w2 sub m 0 w d x w2 sub y m w 0 d s} def
/m5 {mp x w2 sub y w2 sub m w w d x w2 sub y w2 add m w w neg d s} def
%%IncludeResource: ProcSet (FontSetInit)
%%IncludeResource: font Times-Roman
%%IncludeResource: font Times-Italic
%%IncludeResource: font Times-Bold
%%IncludeResource: font Times-BoldItalic
%%IncludeResource: font Helvetica
%%IncludeResource: font Helvetica-Oblique
%%IncludeResource: font Helvetica-Bold
%%IncludeResource: font Helvetica-BoldOblique
%%IncludeResource: font Courier
%%IncludeResource: font Courier-Oblique
%%IncludeResource: font Courier-Bold
%%IncludeResource: font Courier-BoldOblique
%%IncludeResource: font Symbol
%%IncludeResource: font ZapfDingbats
/reEncode {exch findfont dup length dict begin {1 index /FID eq  {pop pop} {def} ifelse } forall /Encoding exch def currentdict end dup /FontName get exch definefont pop } def [/Times-Bold /Times-Italic /Times-BoldItalic /Helvetica /Helvetica-Oblique
 /Helvetica-Bold /Helvetica-BoldOblique /Courier /Courier-Oblique /Courier-Bold /Courier-BoldOblique /Times-Roman /AvantGarde-Book /AvantGarde-BookOblique /AvantGarde-Demi /AvantGarde-DemiOblique /Bookman-Demi /Bookman-DemiItalic /Bookman-Light
 /Bookman-LightItalic /Helvetica-Narrow /Helvetica-Narrow-Bold /Helvetica-Narrow-BoldOblique /Helvetica-Narrow-Oblique /NewCenturySchlbk-Roman /NewCenturySchlbk-Bold /NewCenturySchlbk-BoldItalic /NewCenturySchlbk-Italic /Palatino-Bold
 /Palatino-BoldItalic /Palatino-Italic /Palatino-Roman ] {ISOLatin1Encoding reEncode } forall
%%EndProlog
%%BeginSetup
%%EndSetup
newpath  gsave  .25 .25 scale  gsave  0 0 t black[  ] 0 sd 3 lw 1 1 1 c 2268 1538 0 0 bf black 1 1 1 c 1814 1230 227 154 bf black 1814 1230 227 154 bl 1 1 1 c 1814 1230 227 154 bf black 1814 1230 227 154 bl 227 154 m 1814 X s
 gsave  2268 1538 0 0 C 1853.92 35.8403 t 0 r /Helvetica-Bold findfont 58.6478 sf 0 0 m (z [mm]) show NC gr  290 191 m -37 Y s 360 172 m -18 Y s 430 172 m -18 Y s 500 172 m -18 Y s 570 191 m -37 Y s 641 172 m -18 Y s 711 172 m -18 Y s 781 172 m -18 Y
 s 851 191 m -37 Y s 921 172 m -18 Y s 991 172 m -18 Y s 1061 172 m -18 Y s 1132 191 m -37 Y s 1202 172 m -18 Y s 1272 172 m -18 Y s 1342 172 m -18 Y s 1412 191 m -37 Y s 1482 172 m -18 Y s 1553 172 m -18 Y s 1623 172 m -18 Y s 1693 191 m -37 Y s
 1763 172 m -18 Y s 1833 172 m -18 Y s 1903 172 m -18 Y s 1973 191 m -37 Y s 290 191 m -37 Y s 1973 191 m -37 Y s
 gsave  2268 1538 0 0 C 250.882 97.7464 t 0 r /Helvetica-Bold findfont 58.6478 sf 0 0 m (600) show NC gr 
 gsave  2268 1538 0 0 C 221.559 97.7464 t 0 r /Symbol findfont 58.6478 sf 0 0 m (-) show NC gr 
 gsave  2268 1538 0 0 C 534.347 97.7464 t 0 r /Helvetica-Bold findfont 58.6478 sf 0 0 m (400) show NC gr 
 gsave  2268 1538 0 0 C 505.023 97.7464 t 0 r /Symbol findfont 58.6478 sf 0 0 m (-) show NC gr 
 gsave  2268 1538 0 0 C 814.553 97.7464 t 0 r /Helvetica-Bold findfont 58.6478 sf 0 0 m (200) show NC gr 
 gsave  2268 1538 0 0 C 785.229 97.7464 t 0 r /Symbol findfont 58.6478 sf 0 0 m (-) show NC gr 
 gsave  2268 1538 0 0 C 1114.31 97.7464 t 0 r /Helvetica-Bold findfont 58.6478 sf 0 0 m (0) show NC gr 
 gsave  2268 1538 0 0 C 1361.93 97.7464 t 0 r /Helvetica-Bold findfont 58.6478 sf 0 0 m (200) show NC gr 
 gsave  2268 1538 0 0 C 1642.14 97.7464 t 0 r /Helvetica-Bold findfont 58.6478 sf 0 0 m (400) show NC gr 
 gsave  2268 1538 0 0 C 1922.35 97.7464 t 0 r /Helvetica-Bold findfont 58.6478 sf 0 0 m (600) show NC gr  227 1384 m 1814 X s 290 1347 m 37 Y s 360 1366 m 18 Y s 430 1366 m 18 Y s 500 1366 m 18 Y s 570 1347 m 37 Y s 641 1366 m 18 Y s 711 1366 m 18 Y
 s 781 1366 m 18 Y s 851 1347 m 37 Y s 921 1366 m 18 Y s 991 1366 m 18 Y s 1061 1366 m 18 Y s 1132 1347 m 37 Y s 1202 1366 m 18 Y s 1272 1366 m 18 Y s 1342 1366 m 18 Y s 1412 1347 m 37 Y s 1482 1366 m 18 Y s 1553 1366 m 18 Y s 1623 1366 m 18 Y s 1693
 1347 m 37 Y s 1763 1366 m 18 Y s 1833 1366 m 18 Y s 1903 1366 m 18 Y s 1973 1347 m 37 Y s 290 1347 m 37 Y s 1973 1347 m 37 Y s 227 154 m 1230 Y s
 gsave  2268 1538 0 0 C 97.7464 710.291 t 90 r /Helvetica-Bold findfont 58.6478 sf 0 0 m (Cluster per etaModuleID) show NC gr  281 282 m -54 X s 254 320 m -27 X s 254 359 m -27 X s 254 398 m -27 X s 254 436 m -27 X s 281 475 m -54 X s 254 514 m -27 X
 s 254 552 m -27 X s 254 591 m -27 X s 254 630 m -27 X s 281 668 m -54 X s 254 707 m -27 X s 254 746 m -27 X s 254 784 m -27 X s 254 823 m -27 X s 281 862 m -54 X s 254 900 m -27 X s 254 939 m -27 X s 254 978 m -27 X s 254 1016 m -27 X s 281 1055 m
 -54 X s 254 1094 m -27 X s 254 1132 m -27 X s 254 1171 m -27 X s 254 1210 m -27 X s 281 1248 m -54 X s 281 282 m -54 X s 254 243 m -27 X s 254 205 m -27 X s 254 166 m -27 X s 281 1248 m -54 X s 254 1287 m -27 X s 254 1326 m -27 X s 254 1364 m -27 X
 s
 gsave  2268 1538 0 0 C 133.587 260.657 t 0 r /Helvetica-Bold findfont 58.6478 sf 0 0 m (0.5) show NC gr 
 gsave  2268 1538 0 0 C 192.235 452.892 t 0 r /Helvetica-Bold findfont 58.6478 sf 0 0 m (1) show NC gr 
 gsave  2268 1538 0 0 C 133.587 648.384 t 0 r /Helvetica-Bold findfont 58.6478 sf 0 0 m (1.5) show NC gr 
 gsave  2268 1538 0 0 C 182.46 837.361 t 0 r /Helvetica-Bold findfont 58.6478 sf 0 0 m (2) show NC gr 
 gsave  2268 1538 0 0 C 133.587 1032.85 t 0 r /Helvetica-Bold findfont 58.6478 sf 0 0 m (2.5) show NC gr 
 gsave  2268 1538 0 0 C 182.46 1228.35 t 0 r /Helvetica-Bold findfont 58.6478 sf 0 0 m (3) show NC gr  2041 154 m 1230 Y s 1987 282 m 54 X s 2014 320 m 27 X s 2014 359 m 27 X s 2014 398 m 27 X s 2014 436 m 27 X s 1987 475 m 54 X s 2014 514 m 27 X s
 2014 552 m 27 X s 2014 591 m 27 X s 2014 630 m 27 X s 1987 668 m 54 X s 2014 707 m 27 X s 2014 746 m 27 X s 2014 784 m 27 X s 2014 823 m 27 X s 1987 862 m 54 X s 2014 900 m 27 X s 2014 939 m 27 X s 2014 978 m 27 X s 2014 1016 m 27 X s 1987 1055 m 54
 X s 2014 1094 m 27 X s 2014 1132 m 27 X s 2014 1171 m 27 X s 2014 1210 m 27 X s 1987 1248 m 54 X s 1987 282 m 54 X s 2014 243 m 27 X s 2014 205 m 27 X s 2014 166 m 27 X s 1987 1248 m 54 X s 2014 1287 m 27 X s 2014 1326 m 27 X s 2014 1364 m 27 X s
 316 844 m 94 Y s 310 938 m 13 X s 316 818 m -94 Y s 310 724 m 13 X s 362 875 m 96 Y s 355 971 m 13 X s 362 849 m -97 Y s 355 752 m 13 X s 417 875 m 96 Y s 411 971 m 13 X s 417 849 m -97 Y s 411 752 m 13 X s 479 596 m 75 Y s 473 671 m 13 X s 479 570
 m -74 Y s 473 496 m 13 X s 530 550 m 70 Y s 523 620 m 13 X s 530 524 m -70 Y s 523 454 m 13 X s 593 426 m 58 Y s 586 484 m 13 X s 593 400 m -58 Y s 586 342 m 13 X s 651 457 m 61 Y s 645 518 m 13 X s 651 431 m -61 Y s 645 370 m 13 X s 707 334 m 46 Y
 s 701 380 m 13 X s 707 307 m -46 Y s 701 261 m 13 X s 763 658 m 80 Y s 757 738 m 13 X s 763 632 m -80 Y s 757 552 m 13 X s 820 349 m 49 Y s 814 398 m 13 X s 820 323 m -49 Y s 814 274 m 13 X s 878 643 m 78 Y s 871 721 m 14 X s 878 617 m -79 Y s 871
 538 m 14 X s 933 658 m 80 Y s 926 738 m 13 X s 933 632 m -80 Y s 926 552 m 13 X s 984 411 m 56 Y s 978 467 m 13 X s 984 385 m -56 Y s 978 329 m 13 X s 1053 581 m 73 Y s 1046 654 m 13 X s 1053 555 m -73 Y s 1046 482 m 13 X s 1105 380 m 52 Y s 1098
 432 m 14 X s 1105 354 m -53 Y s 1098 301 m 14 X s 1164 457 m 61 Y s 1157 518 m 13 X s 1164 431 m -61 Y s 1157 370 m 13 X s 1219 488 m 64 Y s 1212 552 m 13 X s 1219 462 m -64 Y s 1212 398 m 13 X s 1265 442 m 59 Y s 1258 501 m 13 X s 1265 416 m -60 Y
 s 1258 356 m 13 X s 1332 457 m 61 Y s 1325 518 m 13 X s 1332 431 m -61 Y s 1325 370 m 13 X s 1388 550 m 70 Y s 1382 620 m 13 X s 1388 524 m -70 Y s 1382 454 m 13 X s 1447 627 m 77 Y s 1440 704 m 13 X s 1447 601 m -77 Y s 1440 524 m 13 X s 1500 612 m
 76 Y s 1494 688 m 13 X s 1500 586 m -76 Y s 1494 510 m 13 X s 1551 442 m 59 Y s 1545 501 m 13 X s 1551 416 m -60 Y s 1545 356 m 13 X s 1622 535 m 68 Y s 1615 603 m 13 X s 1622 508 m -68 Y s 1615 440 m 13 X s 1675 658 m 80 Y s 1668 738 m 13 X s 1675
 632 m -80 Y s 1668 552 m 13 X s 1731 504 m 65 Y s 1724 569 m 13 X s 1731 478 m -66 Y s 1724 412 m 13 X s 1787 318 m 45 Y s 1780 363 m 13 X s 1787 292 m -45 Y s 1780 247 m 13 X s 1842 658 m 80 Y s 1835 738 m 13 X s 1842 632 m -80 Y s 1835 552 m 13 X
 s 1904 442 m 59 Y s 1898 501 m 13 X s 1904 416 m -60 Y s 1898 356 m 13 X s 1958 395 m 55 Y s 1952 450 m 13 X s 1958 369 m -54 Y s 1952 315 m 13 X s 316 831 m 46 31 d 55 X 62 -279 d 51 -46 d 63 -124 d 58 31 d 56 -124 d 56 325 d 57 -309 d 58 294 d 55
 15 d 51 -247 d 69 170 d 52 -201 d 59 77 d 55 31 d 46 -46 d 67 15 d 56 93 d 59 77 d 53 -15 d 51 -170 d 71 93 d 53 123 d 56 -154 d 56 -186 d 55 340 d 62 -216 d 54 -47 d s /w 26 def /w2 {w 2 div} def /w3 {w 3 div} def 316 831 362 862 417 862 479 583
 530 537 593 413 651 444 707 320 763 645 820 336 878 630 933 645 984 398 1053 568 1105 367 1164 444 1219 475 1265 429 1332 444 1388 537 1447 614 1500 599 1551 429 1622 522 1675 645 1731 491 1787 305 1842 645 1904 429 1958 382 30 { m20} R 1 0 0 c 309
 720 m 85 Y s 303 805 m 13 X s 309 694 m -85 Y s 303 609 m 13 X s 359 720 m 85 Y s 353 805 m 13 X s 359 694 m -85 Y s 353 609 m 13 X s 418 612 m 76 Y s 412 688 m 13 X s 418 586 m -76 Y s 412 510 m 13 X s 476 689 m 82 Y s 469 771 m 14 X s 476 663 m
 -82 Y s 469 581 m 14 X s 539 689 m 82 Y s 532 771 m 13 X s 539 663 m -82 Y s 532 581 m 13 X s 596 411 m 56 Y s 590 467 m 13 X s 596 385 m -56 Y s 590 329 m 13 X s 650 411 m 56 Y s 643 467 m 13 X s 650 385 m -56 Y s 643 329 m 13 X s 695 581 m 73 Y s
 689 654 m 13 X s 695 555 m -73 Y s 689 482 m 13 X s 765 256 m 36 Y s 759 292 m 13 X s 765 230 m -36 Y s 759 194 m 13 X s 813 349 m 49 Y s 807 398 m 13 X s 813 323 m -49 Y s 807 274 m 13 X s 878 797 m 91 Y s 871 888 m 13 X s 878 771 m -90 Y s 871 681
 m 13 X s 934 658 m 80 Y s 927 738 m 13 X s 934 632 m -80 Y s 927 552 m 13 X s 989 426 m 58 Y s 982 484 m 13 X s 989 400 m -58 Y s 982 342 m 13 X s 1039 504 m 65 Y s 1033 569 m 13 X s 1039 478 m -66 Y s 1033 412 m 13 X s 1101 906 m 98 Y s 1094 1004 m
 13 X s 1101 880 m -99 Y s 1094 781 m 13 X s 1153 674 m 81 Y s 1147 755 m 13 X s 1153 648 m -81 Y s 1147 567 m 13 X s 1213 457 m 61 Y s 1207 518 m 13 X s 1213 431 m -61 Y s 1207 370 m 13 X s 1269 349 m 49 Y s 1263 398 m 13 X s 1269 323 m -49 Y s 1263
 274 m 13 X s 1330 349 m 49 Y s 1323 398 m 13 X s 1330 323 m -49 Y s 1323 274 m 13 X s 1390 334 m 46 Y s 1383 380 m 13 X s 1390 307 m -46 Y s 1383 261 m 13 X s 1446 581 m 73 Y s 1439 654 m 13 X s 1446 555 m -73 Y s 1439 482 m 13 X s 1502 643 m 78 Y s
 1496 721 m 13 X s 1502 617 m -79 Y s 1496 538 m 13 X s 1561 426 m 58 Y s 1555 484 m 13 X s 1561 400 m -58 Y s 1555 342 m 13 X s 1615 457 m 61 Y s 1609 518 m 13 X s 1615 431 m -61 Y s 1609 370 m 13 X s 1671 488 m 64 Y s 1665 552 m 13 X s 1671 462 m
 -64 Y s 1665 398 m 13 X s 1725 612 m 76 Y s 1719 688 m 13 X s 1725 586 m -76 Y s 1719 510 m 13 X s 1785 643 m 78 Y s 1779 721 m 13 X s 1785 617 m -79 Y s 1779 538 m 13 X s 1845 859 m 95 Y s 1839 954 m 13 X s 1845 833 m -95 Y s 1839 738 m 13 X s 1898
 596 m 75 Y s 1892 671 m 13 X s 1898 570 m -74 Y s 1892 496 m 13 X s 1958 504 m 65 Y s 1952 569 m 13 X s 1958 478 m -66 Y s 1952 412 m 13 X s black 1 0 0 c 309 707 m 50 X 59 -108 d 58 77 d 63 X 57 -278 d 54 X 45 170 d 70 -325 d 48 93 d 65 448 d 56
 -139 d 55 -232 d 50 78 d 62 402 d 52 -232 d 60 -217 d 56 -108 d 61 X 60 -16 d 56 248 d 56 62 d 59 -217 d 54 31 d 56 31 d 54 124 d 60 31 d 60 216 d 53 -263 d 60 -92 d s 309 707 359 707 418 599 476 676 539 676 596 398 650 398 695 568 765 243 813 336
 878 784 934 645 989 413 1039 491 1101 893 1153 661 1213 444 1269 336 1330 336 1390 320 1446 568 1502 630 1561 413 1615 444 1671 475 1725 599 1785 630 1845 846 1898 583 1958 491 30 { m20} R 0 1 0 c 644 581 m 73 Y s 638 654 m 13 X s 644 555 m -73 Y s
 638 482 m 13 X s 708 457 m 61 Y s 701 518 m 13 X s 708 431 m -61 Y s 701 370 m 13 X s 764 844 m 94 Y s 757 938 m 13 X s 764 818 m -94 Y s 757 724 m 13 X s 820 457 m 61 Y s 814 518 m 13 X s 820 431 m -61 Y s 814 370 m 13 X s 876 581 m 73 Y s 870 654
 m 13 X s 876 555 m -73 Y s 870 482 m 13 X s 930 395 m 55 Y s 924 450 m 13 X s 930 369 m -54 Y s 924 315 m 13 X s 992 504 m 65 Y s 985 569 m 13 X s 992 478 m -66 Y s 985 412 m 13 X s 1052 643 m 78 Y s 1046 721 m 13 X s 1052 617 m -79 Y s 1046 538 m
 13 X s 1104 751 m 87 Y s 1098 838 m 13 X s 1104 725 m -87 Y s 1098 638 m 13 X s 1166 705 m 83 Y s 1160 788 m 13 X s 1166 679 m -84 Y s 1160 595 m 13 X s 1217 272 m 38 Y s 1210 310 m 13 X s 1217 246 m -39 Y s 1210 207 m 13 X s 1274 349 m 49 Y s 1267
 398 m 13 X s 1274 323 m -49 Y s 1267 274 m 13 X s 1336 550 m 70 Y s 1329 620 m 13 X s 1336 524 m -70 Y s 1329 454 m 13 X s 1391 457 m 61 Y s 1384 518 m 13 X s 1391 431 m -61 Y s 1384 370 m 13 X s 1441 519 m 67 Y s 1435 586 m 13 X s 1441 493 m -67 Y
 s 1435 426 m 13 X s 1511 457 m 61 Y s 1504 518 m 13 X s 1511 431 m -61 Y s 1504 370 m 13 X s 1555 380 m 52 Y s 1548 432 m 13 X s 1555 354 m -53 Y s 1548 301 m 13 X s 1612 318 m 45 Y s 1606 363 m 13 X s 1612 292 m -45 Y s 1606 247 m 13 X s black 0 1
 0 c 644 568 m 64 -124 d 56 387 d 56 -387 d 56 124 d 54 -186 d 62 109 d 60 139 d 52 108 d 62 -46 d 51 -433 d 57 77 d 62 201 d 55 -93 d 50 62 d 70 -62 d 44 -77 d 57 -62 d s 644 568 708 444 764 831 820 444 876 568 930 382 992 491 1052 630 1104 738 1166
 692 1217 259 1274 336 1336 537 1391 444 1441 506 1511 444 1555 367 1612 305 18 { m20} R 0 0 1 c 649 457 m 61 Y s 643 518 m 13 X s 649 431 m -61 Y s 643 370 m 13 X s 706 442 m 59 Y s 700 501 m 13 X s 706 416 m -60 Y s 700 356 m 13 X s 762 504 m 65 Y
 s 756 569 m 13 X s 762 478 m -66 Y s 756 412 m 13 X s 812 349 m 49 Y s 805 398 m 14 X s 812 323 m -49 Y s 805 274 m 14 X s 878 442 m 59 Y s 871 501 m 13 X s 878 416 m -60 Y s 871 356 m 13 X s 931 504 m 65 Y s 925 569 m 13 X s 931 478 m -66 Y s 925
 412 m 13 X s 991 287 m 41 Y s 984 328 m 13 X s 991 261 m -40 Y s 984 221 m 13 X s 1039 349 m 49 Y s 1032 398 m 13 X s 1039 323 m -49 Y s 1032 274 m 13 X s 1101 519 m 67 Y s 1095 586 m 13 X s 1101 493 m -67 Y s 1095 426 m 13 X s 1161 488 m 64 Y s
 1155 552 m 13 X s 1161 462 m -64 Y s 1155 398 m 13 X s 1218 442 m 59 Y s 1212 501 m 13 X s 1218 416 m -60 Y s 1212 356 m 13 X s 1277 457 m 61 Y s 1270 518 m 13 X s 1277 431 m -61 Y s 1270 370 m 13 X s 1329 334 m 46 Y s 1323 380 m 13 X s 1329 307 m
 -46 Y s 1323 261 m 13 X s 1394 519 m 67 Y s 1388 586 m 13 X s 1394 493 m -67 Y s 1388 426 m 13 X s 1451 550 m 70 Y s 1444 620 m 13 X s 1451 524 m -70 Y s 1444 454 m 13 X s 1498 411 m 56 Y s 1492 467 m 13 X s 1498 385 m -56 Y s 1492 329 m 13 X s 1560
 411 m 56 Y s 1553 467 m 13 X s 1560 385 m -56 Y s 1553 329 m 13 X s 1620 674 m 81 Y s 1613 755 m 13 X s 1620 648 m -81 Y s 1613 567 m 13 X s black 0 0 1 c 649 444 m 57 -15 d 56 62 d 50 -155 d 66 93 d 53 62 d 60 -217 d 48 62 d 62 170 d 60 -31 d 57
 -46 d 59 15 d 52 -124 d 65 186 d 57 31 d 47 -139 d 62 X 60 263 d s 649 444 706 429 762 491 812 336 878 429 931 491 991 274 1039 336 1101 506 1161 475 1218 429 1277 444 1329 320 1394 506 1451 537 1498 398 1560 398 1620 661 18 { m20} R 1 1 0 c 646 426
 m 58 Y s 639 484 m 13 X s 646 400 m -58 Y s 639 342 m 13 X s 704 473 m 62 Y s 698 535 m 13 X s 704 447 m -63 Y s 698 384 m 13 X s 769 565 m 72 Y s 762 637 m 13 X s 769 539 m -71 Y s 762 468 m 13 X s 821 473 m 62 Y s 814 535 m 13 X s 821 447 m -63 Y
 s 814 384 m 13 X s 874 426 m 58 Y s 867 484 m 13 X s 874 400 m -58 Y s 867 342 m 13 X s 933 380 m 52 Y s 926 432 m 13 X s 933 354 m -53 Y s 926 301 m 13 X s 990 689 m 82 Y s 983 771 m 13 X s 990 663 m -82 Y s 983 581 m 13 X s 1047 844 m 94 Y s 1040
 938 m 13 X s 1047 818 m -94 Y s 1040 724 m 13 X s 1100 782 m 89 Y s 1094 871 m 13 X s 1100 756 m -90 Y s 1094 666 m 13 X s 1161 565 m 72 Y s 1155 637 m 13 X s 1161 539 m -71 Y s 1155 468 m 13 X s 1215 318 m 45 Y s 1209 363 m 13 X s 1215 292 m -45 Y
 s 1209 247 m 13 X s 1274 596 m 75 Y s 1268 671 m 13 X s 1274 570 m -74 Y s 1268 496 m 13 X s 1324 349 m 49 Y s 1317 398 m 13 X s 1324 323 m -49 Y s 1317 274 m 13 X s 1386 287 m 41 Y s 1380 328 m 13 X s 1386 261 m -40 Y s 1380 221 m 13 X s 1449 349 m
 49 Y s 1442 398 m 13 X s 1449 323 m -49 Y s 1442 274 m 13 X s 1503 318 m 45 Y s 1497 363 m 13 X s 1503 292 m -45 Y s 1497 247 m 13 X s 1559 411 m 56 Y s 1552 467 m 13 X s 1559 385 m -56 Y s 1552 329 m 13 X s 1624 473 m 62 Y s 1618 535 m 13 X s 1624
 447 m -63 Y s 1618 384 m 13 X s black 1 1 0 c 646 413 m 58 47 d 65 92 d 52 -92 d 53 -47 d 59 -46 d 57 309 d 57 155 d 53 -62 d 61 -217 d 54 -247 d 59 278 d 50 -247 d 62 -62 d 63 62 d 54 -31 d 56 93 d 65 62 d s 646 413 704 460 769 552 821 460 874 413
 933 367 990 676 1047 831 1100 769 1161 552 1215 305 1274 583 1324 336 1386 274 1449 336 1503 305 1559 398 1624 460 18 { m20} R black
 gsave  2268 1538 0 0 C 1531.36 1032.85 t 0 r /Helvetica-Bold findfont 58.6478 sf 0 0 m (Pixel Barrel) show NC gr 
 gsave  2268 1538 0 0 C 1648.66 967.689 t 0 r /Helvetica-Bold findfont 58.6478 sf 0 0 m (Layer 0) show NC gr  1539 980 m 91 X s 1585 980 m20
 gsave  2268 1538 0 0 C 1648.66 902.525 t 0 r /Helvetica-Bold findfont 58.6478 sf 0 0 m (Layer 1) show NC gr  1 0 0 c 1539 916 m 91 X s 1585 916 m20 black
 gsave  2268 1538 0 0 C 1648.66 840.619 t 0 r /Helvetica-Bold findfont 58.6478 sf 0 0 m (Layer 2) show NC gr  0 1 0 c 1539 852 m 91 X s 1585 852 m20 black
 gsave  2268 1538 0 0 C 1648.66 775.455 t 0 r /Helvetica-Bold findfont 58.6478 sf 0 0 m (Layer 3) show NC gr  0 0 1 c 1539 788 m 91 X s 1585 788 m20 black
 gsave  2268 1538 0 0 C 1648.66 710.291 t 0 r /Helvetica-Bold findfont 58.6478 sf 0 0 m (Layer 4) show NC gr  1 1 0 c 1539 724 m 91 X s 1585 724 m20
 gr  gr showpage
end
%%EOF
