%!PS-Adobe-2.0 EPSF-2.0
%%BoundingBox:  0 0 567 384
%%Title: pionDir/pixel_occupancy/clus_z_pixlayer_0_neg.eps: c1_n48
%%Creator: ROOT Version 6.04/12
%%CreationDate: Tue Apr 19 16:53:29 2016
%%DocumentNeededResources: ProcSet (FontSetInit)
%%EndComments
%%BeginProlog
80 dict begin
/s {stroke} def /l {lineto} def /m {moveto} def /t {translate} def
/r {rotate} def /rl {roll}  def /R {repeat} def
/d {rlineto} def /rm {rmoveto} def /gr {grestore} def /f {eofill} def
/c {setrgbcolor} def /black {0 setgray} def /sd {setdash} def
/cl {closepath} def /sf {scalefont setfont} def /lw {setlinewidth} def
/box {m dup 0 exch d exch 0 d 0 exch neg d cl} def
/NC{systemdict begin initclip end}def/C{NC box clip newpath}def
/bl {box s} def /bf {gsave box gsave f grestore 1 lw [] 0 sd s grestore} def /Y { 0 exch d} def /X { 0 d} def 
/K {{pop pop 0 moveto} exch kshow} bind def
/ita {/ang 15 def gsave [1 0 ang dup sin exch cos div 1 0 0] concat} def 
/mp {newpath /y exch def /x exch def} def
/side {[w .77 mul w .23 mul] .385 w mul sd w 0 l currentpoint t -144 r} def
/mr {mp x y w2 0 360 arc} def /m24 {mr s} def /m20 {mr f} def
/mb {mp x y w2 add m w2 neg 0 d 0 w neg d w 0 d 0 w d cl} def
/mt {mp x y w2 add m w2 neg w neg d w 0 d cl} def
/m21 {mb f} def /m25 {mb s} def /m22 {mt f} def /m26{mt s} def
/m23 {mp x y w2 sub m w2 w d w neg 0 d cl f} def
/m27 {mp x y w2 add m w3 neg w2 neg d w3 w2 neg d w3 w2 d cl s} def
/m28 {mp x w2 sub y w2 sub w3 add m w3 0 d  0 w3 neg d w3 0 d 0 w3 d w3 0 d  0 w3 d w3 neg 0 d 0 w3 d w3 neg 0 d 0 w3 neg d w3 neg 0 d cl s } def
/m29 {mp gsave x w2 sub y w2 add w3 sub m currentpoint t 4 {side} repeat cl fill gr} def
/m30 {mp gsave x w2 sub y w2 add w3 sub m currentpoint t 4 {side} repeat cl s gr} def
/m31 {mp x y w2 sub m 0 w d x w2 sub y m w 0 d x w2 sub y w2 add m w w neg d x w2 sub y w2 sub m w w d s} def
/m32 {mp x y w2 sub m w2 w d w neg 0 d cl s} def
/m33 {mp x y w2 add m w3 neg w2 neg d w3 w2 neg d w3 w2 d cl f} def
/m34 {mp x w2 sub y w2 sub w3 add m w3 0 d  0 w3 neg d w3 0 d 0 w3 d w3 0 d  0 w3 d w3 neg 0 d 0 w3 d w3 neg 0 d 0 w3 neg d w3 neg 0 d cl f } def
/m2 {mp x y w2 sub m 0 w d x w2 sub y m w 0 d s} def
/m5 {mp x w2 sub y w2 sub m w w d x w2 sub y w2 add m w w neg d s} def
%%IncludeResource: ProcSet (FontSetInit)
%%IncludeResource: font Times-Roman
%%IncludeResource: font Times-Italic
%%IncludeResource: font Times-Bold
%%IncludeResource: font Times-BoldItalic
%%IncludeResource: font Helvetica
%%IncludeResource: font Helvetica-Oblique
%%IncludeResource: font Helvetica-Bold
%%IncludeResource: font Helvetica-BoldOblique
%%IncludeResource: font Courier
%%IncludeResource: font Courier-Oblique
%%IncludeResource: font Courier-Bold
%%IncludeResource: font Courier-BoldOblique
%%IncludeResource: font Symbol
%%IncludeResource: font ZapfDingbats
/reEncode {exch findfont dup length dict begin {1 index /FID eq  {pop pop} {def} ifelse } forall /Encoding exch def currentdict end dup /FontName get exch definefont pop } def [/Times-Bold /Times-Italic /Times-BoldItalic /Helvetica /Helvetica-Oblique
 /Helvetica-Bold /Helvetica-BoldOblique /Courier /Courier-Oblique /Courier-Bold /Courier-BoldOblique /Times-Roman /AvantGarde-Book /AvantGarde-BookOblique /AvantGarde-Demi /AvantGarde-DemiOblique /Bookman-Demi /Bookman-DemiItalic /Bookman-Light
 /Bookman-LightItalic /Helvetica-Narrow /Helvetica-Narrow-Bold /Helvetica-Narrow-BoldOblique /Helvetica-Narrow-Oblique /NewCenturySchlbk-Roman /NewCenturySchlbk-Bold /NewCenturySchlbk-BoldItalic /NewCenturySchlbk-Italic /Palatino-Bold
 /Palatino-BoldItalic /Palatino-Italic /Palatino-Roman ] {ISOLatin1Encoding reEncode } forall
%%EndProlog
%%BeginSetup
%%EndSetup
newpath  gsave  .25 .25 scale  gsave  0 0 t black[  ] 0 sd 3 lw 1 1 1 c 2268 1538 0 0 bf black 1 1 1 c 1814 1230 227 154 bf black 1814 1230 227 154 bl 1 1 1 c 1814 1230 227 154 bf black 1814 1230 227 154 bl 227 154 m 1814 X s 254 191 m -37 Y s 312
 172 m -18 Y s 371 172 m -18 Y s 430 172 m -18 Y s 488 172 m -18 Y s 547 191 m -37 Y s 606 172 m -18 Y s 664 172 m -18 Y s 723 172 m -18 Y s 782 172 m -18 Y s 840 191 m -37 Y s 899 172 m -18 Y s 958 172 m -18 Y s 1017 172 m -18 Y s 1075 172 m -18 Y s
 1134 191 m -37 Y s 1193 172 m -18 Y s 1251 172 m -18 Y s 1310 172 m -18 Y s 1369 172 m -18 Y s 1427 191 m -37 Y s 1486 172 m -18 Y s 1545 172 m -18 Y s 1603 172 m -18 Y s 1662 172 m -18 Y s 1721 191 m -37 Y s 1779 172 m -18 Y s 1838 172 m -18 Y s
 1897 172 m -18 Y s 1956 172 m -18 Y s 2014 191 m -37 Y s 254 191 m -37 Y s 2014 191 m -37 Y s
 gsave  2268 1538 0 0 C 234.591 97.7464 t 0 r /Helvetica-Bold findfont 58.6478 sf 0 0 m (0) show NC gr 
 gsave  2268 1538 0 0 C 495.248 97.7464 t 0 r /Helvetica-Bold findfont 58.6478 sf 0 0 m (100) show NC gr 
 gsave  2268 1538 0 0 C 788.488 97.7464 t 0 r /Helvetica-Bold findfont 58.6478 sf 0 0 m (200) show NC gr 
 gsave  2268 1538 0 0 C 1084.99 97.7464 t 0 r /Helvetica-Bold findfont 58.6478 sf 0 0 m (300) show NC gr 
 gsave  2268 1538 0 0 C 1378.22 97.7464 t 0 r /Helvetica-Bold findfont 58.6478 sf 0 0 m (400) show NC gr 
 gsave  2268 1538 0 0 C 1671.46 97.7464 t 0 r /Helvetica-Bold findfont 58.6478 sf 0 0 m (500) show NC gr 
 gsave  2268 1538 0 0 C 1964.7 97.7464 t 0 r /Helvetica-Bold findfont 58.6478 sf 0 0 m (600) show NC gr  227 1384 m 1814 X s 254 1347 m 37 Y s 312 1366 m 18 Y s 371 1366 m 18 Y s 430 1366 m 18 Y s 488 1366 m 18 Y s 547 1347 m 37 Y s 606 1366 m 18 Y s
 664 1366 m 18 Y s 723 1366 m 18 Y s 782 1366 m 18 Y s 840 1347 m 37 Y s 899 1366 m 18 Y s 958 1366 m 18 Y s 1017 1366 m 18 Y s 1075 1366 m 18 Y s 1134 1347 m 37 Y s 1193 1366 m 18 Y s 1251 1366 m 18 Y s 1310 1366 m 18 Y s 1369 1366 m 18 Y s 1427
 1347 m 37 Y s 1486 1366 m 18 Y s 1545 1366 m 18 Y s 1603 1366 m 18 Y s 1662 1366 m 18 Y s 1721 1347 m 37 Y s 1779 1366 m 18 Y s 1838 1366 m 18 Y s 1897 1366 m 18 Y s 1956 1366 m 18 Y s 2014 1347 m 37 Y s 254 1347 m 37 Y s 2014 1347 m 37 Y s 227 154
 m 1230 Y s 281 234 m -54 X s 254 289 m -27 X s 254 344 m -27 X s 254 398 m -27 X s 254 453 m -27 X s 281 508 m -54 X s 254 563 m -27 X s 254 617 m -27 X s 254 672 m -27 X s 254 727 m -27 X s 281 782 m -54 X s 254 837 m -27 X s 254 891 m -27 X s 254
 946 m -27 X s 254 1001 m -27 X s 281 1056 m -54 X s 254 1110 m -27 X s 254 1165 m -27 X s 254 1220 m -27 X s 254 1275 m -27 X s 281 1329 m -54 X s 281 234 m -54 X s 254 179 m -27 X s 281 1329 m -54 X s 254 1384 m -27 X s
 gsave  2268 1538 0 0 C 133.587 211.784 t 0 r /Helvetica-Bold findfont 58.6478 sf 0 0 m (0.5) show NC gr 
 gsave  2268 1538 0 0 C 192.235 485.474 t 0 r /Helvetica-Bold findfont 58.6478 sf 0 0 m (1) show NC gr 
 gsave  2268 1538 0 0 C 133.587 759.164 t 0 r /Helvetica-Bold findfont 58.6478 sf 0 0 m (1.5) show NC gr 
 gsave  2268 1538 0 0 C 182.46 1029.6 t 0 r /Helvetica-Bold findfont 58.6478 sf 0 0 m (2) show NC gr 
 gsave  2268 1538 0 0 C 133.587 1306.54 t 0 r /Helvetica-Bold findfont 58.6478 sf 0 0 m (2.5) show NC gr  2041 154 m 1230 Y s 1987 234 m 54 X s 2014 289 m 27 X s 2014 344 m 27 X s 2014 398 m 27 X s 2014 453 m 27 X s 1987 508 m 54 X s 2014 563 m 27 X
 s 2014 617 m 27 X s 2014 672 m 27 X s 2014 727 m 27 X s 1987 782 m 54 X s 2014 837 m 27 X s 2014 891 m 27 X s 2014 946 m 27 X s 2014 1001 m 27 X s 1987 1056 m 54 X s 2014 1110 m 27 X s 2014 1165 m 27 X s 2014 1220 m 27 X s 2014 1275 m 27 X s 1987
 1329 m 54 X s 1987 234 m 54 X s 2014 179 m 27 X s 1987 1329 m 54 X s 2014 1384 m 27 X s 1958 1012 m 151 Y s 1952 1163 m 13 X s 1958 1012 m -152 Y s 1952 860 m 13 X s 1864 1056 m 154 Y s 1857 1210 m 13 X s 1864 1056 m -155 Y s 1857 901 m 13 X s 1748
 1056 m 154 Y s 1741 1210 m 14 X s 1748 1056 m -155 Y s 1741 901 m 14 X s 1618 661 m 124 Y s 1611 785 m 13 X s 1618 661 m -124 Y s 1611 537 m 13 X s 1512 596 m 118 Y s 1506 714 m 13 X s 1512 596 m -118 Y s 1506 478 m 13 X s 1380 420 m 101 Y s 1374
 521 m 13 X s 1380 420 m -100 Y s 1374 320 m 13 X s 1258 464 m 105 Y s 1252 569 m 13 X s 1258 464 m -105 Y s 1252 359 m 13 X s 1141 289 m 85 Y s 1134 374 m 13 X s 1141 289 m -85 Y s 1134 204 m 13 X s 1024 749 m 131 Y s 1017 880 m 13 X s 1024 749 m
 -132 Y s 1017 617 m 13 X s 904 311 m 87 Y s 898 398 m 13 X s 904 311 m -88 Y s 898 223 m 13 X s 784 727 m 130 Y s 777 857 m 14 X s 784 727 m -130 Y s 777 597 m 14 X s 669 749 m 131 Y s 663 880 m 13 X s 669 749 m -132 Y s 663 617 m 13 X s 561 398 m
 98 Y s 555 496 m 13 X s 561 398 m -98 Y s 555 300 m 13 X s 419 639 m 122 Y s 412 761 m 13 X s 419 639 m -122 Y s 412 517 m 13 X s 309 355 m 93 Y s 303 448 m 13 X s 309 355 m -93 Y s 303 262 m 13 X s 1 1 1 c black 1958 1012 m -94 44 d -116 X -130
 -395 d -106 -65 d -132 -176 d -122 44 d -117 -175 d -117 460 d -120 -438 d -120 416 d -115 22 d -108 -351 d -142 241 d -110 -284 d s /w 2 def /w2 {w 2 div} def /w3 {w 3 div} def 1958 1012 1864 1056 1748 1056 1618 661 1512 596 1380 420 1258 464 1141
 289 1024 749 904 311 784 727 669 749 561 398 419 639 309 355 15 { m20} R
 gsave  2268 1538 0 0 C 1326.09 1172.96 t 0 r /Helvetica-Bold findfont 58.6478 sf 0 0 m (Pixel Occupancies) show NC gr  1124 1192 m 167 X s 1208 1192 m20
 gr  gr showpage
end
%%EOF
