%!PS-Adobe-2.0 EPSF-2.0
%%BoundingBox:  0 0 567 384
%%Title: pionDir/pixel_occupancy/clus_pixlayer_mg.eps: c1_n3
%%Creator: ROOT Version 6.04/12
%%CreationDate: Tue Apr 19 16:53:22 2016
%%DocumentNeededResources: ProcSet (FontSetInit)
%%EndComments
%%BeginProlog
80 dict begin
/s {stroke} def /l {lineto} def /m {moveto} def /t {translate} def
/r {rotate} def /rl {roll}  def /R {repeat} def
/d {rlineto} def /rm {rmoveto} def /gr {grestore} def /f {eofill} def
/c {setrgbcolor} def /black {0 setgray} def /sd {setdash} def
/cl {closepath} def /sf {scalefont setfont} def /lw {setlinewidth} def
/box {m dup 0 exch d exch 0 d 0 exch neg d cl} def
/NC{systemdict begin initclip end}def/C{NC box clip newpath}def
/bl {box s} def /bf {gsave box gsave f grestore 1 lw [] 0 sd s grestore} def /Y { 0 exch d} def /X { 0 d} def 
/K {{pop pop 0 moveto} exch kshow} bind def
/ita {/ang 15 def gsave [1 0 ang dup sin exch cos div 1 0 0] concat} def 
/mp {newpath /y exch def /x exch def} def
/side {[w .77 mul w .23 mul] .385 w mul sd w 0 l currentpoint t -144 r} def
/mr {mp x y w2 0 360 arc} def /m24 {mr s} def /m20 {mr f} def
/mb {mp x y w2 add m w2 neg 0 d 0 w neg d w 0 d 0 w d cl} def
/mt {mp x y w2 add m w2 neg w neg d w 0 d cl} def
/m21 {mb f} def /m25 {mb s} def /m22 {mt f} def /m26{mt s} def
/m23 {mp x y w2 sub m w2 w d w neg 0 d cl f} def
/m27 {mp x y w2 add m w3 neg w2 neg d w3 w2 neg d w3 w2 d cl s} def
/m28 {mp x w2 sub y w2 sub w3 add m w3 0 d  0 w3 neg d w3 0 d 0 w3 d w3 0 d  0 w3 d w3 neg 0 d 0 w3 d w3 neg 0 d 0 w3 neg d w3 neg 0 d cl s } def
/m29 {mp gsave x w2 sub y w2 add w3 sub m currentpoint t 4 {side} repeat cl fill gr} def
/m30 {mp gsave x w2 sub y w2 add w3 sub m currentpoint t 4 {side} repeat cl s gr} def
/m31 {mp x y w2 sub m 0 w d x w2 sub y m w 0 d x w2 sub y w2 add m w w neg d x w2 sub y w2 sub m w w d s} def
/m32 {mp x y w2 sub m w2 w d w neg 0 d cl s} def
/m33 {mp x y w2 add m w3 neg w2 neg d w3 w2 neg d w3 w2 d cl f} def
/m34 {mp x w2 sub y w2 sub w3 add m w3 0 d  0 w3 neg d w3 0 d 0 w3 d w3 0 d  0 w3 d w3 neg 0 d 0 w3 d w3 neg 0 d 0 w3 neg d w3 neg 0 d cl f } def
/m2 {mp x y w2 sub m 0 w d x w2 sub y m w 0 d s} def
/m5 {mp x w2 sub y w2 sub m w w d x w2 sub y w2 add m w w neg d s} def
%%IncludeResource: ProcSet (FontSetInit)
%%IncludeResource: font Times-Roman
%%IncludeResource: font Times-Italic
%%IncludeResource: font Times-Bold
%%IncludeResource: font Times-BoldItalic
%%IncludeResource: font Helvetica
%%IncludeResource: font Helvetica-Oblique
%%IncludeResource: font Helvetica-Bold
%%IncludeResource: font Helvetica-BoldOblique
%%IncludeResource: font Courier
%%IncludeResource: font Courier-Oblique
%%IncludeResource: font Courier-Bold
%%IncludeResource: font Courier-BoldOblique
%%IncludeResource: font Symbol
%%IncludeResource: font ZapfDingbats
/reEncode {exch findfont dup length dict begin {1 index /FID eq  {pop pop} {def} ifelse } forall /Encoding exch def currentdict end dup /FontName get exch definefont pop } def [/Times-Bold /Times-Italic /Times-BoldItalic /Helvetica /Helvetica-Oblique
 /Helvetica-Bold /Helvetica-BoldOblique /Courier /Courier-Oblique /Courier-Bold /Courier-BoldOblique /Times-Roman /AvantGarde-Book /AvantGarde-BookOblique /AvantGarde-Demi /AvantGarde-DemiOblique /Bookman-Demi /Bookman-DemiItalic /Bookman-Light
 /Bookman-LightItalic /Helvetica-Narrow /Helvetica-Narrow-Bold /Helvetica-Narrow-BoldOblique /Helvetica-Narrow-Oblique /NewCenturySchlbk-Roman /NewCenturySchlbk-Bold /NewCenturySchlbk-BoldItalic /NewCenturySchlbk-Italic /Palatino-Bold
 /Palatino-BoldItalic /Palatino-Italic /Palatino-Roman ] {ISOLatin1Encoding reEncode } forall
%%EndProlog
%%BeginSetup
%%EndSetup
newpath  gsave  .25 .25 scale  gsave  0 0 t black[  ] 0 sd 3 lw 1 1 1 c 2268 1538 0 0 bf black 1 1 1 c 1814 1230 227 154 bf black 1814 1230 227 154 bl 1 1 1 c 1814 1230 227 154 bf black 1814 1230 227 154 bl 227 154 m 1814 X s
 gsave  2268 1538 0 0 C 1772.47 32.5821 t 0 r /Helvetica-Bold findfont 58.6478 sf 0 0 m (moduleID) show NC gr  309 191 m -37 Y s 364 172 m -18 Y s 419 172 m -18 Y s 474 172 m -18 Y s 529 172 m -18 Y s 584 191 m -37 Y s 639 172 m -18 Y s 694 172 m -18
 Y s 749 172 m -18 Y s 804 172 m -18 Y s 859 191 m -37 Y s 914 172 m -18 Y s 969 172 m -18 Y s 1024 172 m -18 Y s 1079 172 m -18 Y s 1134 191 m -37 Y s 1189 172 m -18 Y s 1244 172 m -18 Y s 1299 172 m -18 Y s 1354 172 m -18 Y s 1409 191 m -37 Y s
 1464 172 m -18 Y s 1519 172 m -18 Y s 1574 172 m -18 Y s 1629 172 m -18 Y s 1684 191 m -37 Y s 1739 172 m -18 Y s 1794 172 m -18 Y s 1849 172 m -18 Y s 1904 172 m -18 Y s 1958 191 m -37 Y s 309 191 m -37 Y s 254 172 m -18 Y s 1958 191 m -37 Y s 2013
 172 m -18 Y s
 gsave  2268 1538 0 0 C 286.723 97.7464 t 0 r /Helvetica-Bold findfont 58.6478 sf 0 0 m (15) show NC gr 
 gsave  2268 1538 0 0 C 257.399 97.7464 t 0 r /Symbol findfont 58.6478 sf 0 0 m (-) show NC gr 
 gsave  2268 1538 0 0 C 563.671 97.7464 t 0 r /Helvetica-Bold findfont 58.6478 sf 0 0 m (10) show NC gr 
 gsave  2268 1538 0 0 C 534.347 97.7464 t 0 r /Symbol findfont 58.6478 sf 0 0 m (-) show NC gr 
 gsave  2268 1538 0 0 C 853.652 97.7464 t 0 r /Helvetica-Bold findfont 58.6478 sf 0 0 m (5) show NC gr 
 gsave  2268 1538 0 0 C 824.328 97.7464 t 0 r /Symbol findfont 58.6478 sf 0 0 m (-) show NC gr 
 gsave  2268 1538 0 0 C 1117.57 97.7464 t 0 r /Helvetica-Bold findfont 58.6478 sf 0 0 m (0) show NC gr 
 gsave  2268 1538 0 0 C 1391.26 97.7464 t 0 r /Helvetica-Bold findfont 58.6478 sf 0 0 m (5) show NC gr 
 gsave  2268 1538 0 0 C 1648.66 97.7464 t 0 r /Helvetica-Bold findfont 58.6478 sf 0 0 m (10) show NC gr 
 gsave  2268 1538 0 0 C 1925.6 97.7464 t 0 r /Helvetica-Bold findfont 58.6478 sf 0 0 m (15) show NC gr  227 1384 m 1814 X s 309 1347 m 37 Y s 364 1366 m 18 Y s 419 1366 m 18 Y s 474 1366 m 18 Y s 529 1366 m 18 Y s 584 1347 m 37 Y s 639 1366 m 18 Y s
 694 1366 m 18 Y s 749 1366 m 18 Y s 804 1366 m 18 Y s 859 1347 m 37 Y s 914 1366 m 18 Y s 969 1366 m 18 Y s 1024 1366 m 18 Y s 1079 1366 m 18 Y s 1134 1347 m 37 Y s 1189 1366 m 18 Y s 1244 1366 m 18 Y s 1299 1366 m 18 Y s 1354 1366 m 18 Y s 1409
 1347 m 37 Y s 1464 1366 m 18 Y s 1519 1366 m 18 Y s 1574 1366 m 18 Y s 1629 1366 m 18 Y s 1684 1347 m 37 Y s 1739 1366 m 18 Y s 1794 1366 m 18 Y s 1849 1366 m 18 Y s 1904 1366 m 18 Y s 1958 1347 m 37 Y s 309 1347 m 37 Y s 254 1366 m 18 Y s 1958 1347
 m 37 Y s 2013 1366 m 18 Y s 227 154 m 1230 Y s
 gsave  2268 1538 0 0 C 97.7464 710.291 t 90 r /Helvetica-Bold findfont 58.6478 sf 0 0 m (Cluster per etaModuleID) show NC gr  281 282 m -54 X s 254 320 m -27 X s 254 359 m -27 X s 254 398 m -27 X s 254 436 m -27 X s 281 475 m -54 X s 254 514 m -27 X
 s 254 552 m -27 X s 254 591 m -27 X s 254 630 m -27 X s 281 668 m -54 X s 254 707 m -27 X s 254 746 m -27 X s 254 784 m -27 X s 254 823 m -27 X s 281 862 m -54 X s 254 900 m -27 X s 254 939 m -27 X s 254 978 m -27 X s 254 1016 m -27 X s 281 1055 m
 -54 X s 254 1094 m -27 X s 254 1132 m -27 X s 254 1171 m -27 X s 254 1210 m -27 X s 281 1248 m -54 X s 281 282 m -54 X s 254 243 m -27 X s 254 205 m -27 X s 254 166 m -27 X s 281 1248 m -54 X s 254 1287 m -27 X s 254 1326 m -27 X s 254 1364 m -27 X
 s
 gsave  2268 1538 0 0 C 133.587 260.657 t 0 r /Helvetica-Bold findfont 58.6478 sf 0 0 m (0.5) show NC gr 
 gsave  2268 1538 0 0 C 192.235 452.892 t 0 r /Helvetica-Bold findfont 58.6478 sf 0 0 m (1) show NC gr 
 gsave  2268 1538 0 0 C 133.587 648.384 t 0 r /Helvetica-Bold findfont 58.6478 sf 0 0 m (1.5) show NC gr 
 gsave  2268 1538 0 0 C 182.46 837.361 t 0 r /Helvetica-Bold findfont 58.6478 sf 0 0 m (2) show NC gr 
 gsave  2268 1538 0 0 C 133.587 1032.85 t 0 r /Helvetica-Bold findfont 58.6478 sf 0 0 m (2.5) show NC gr 
 gsave  2268 1538 0 0 C 182.46 1228.35 t 0 r /Helvetica-Bold findfont 58.6478 sf 0 0 m (3) show NC gr  2041 154 m 1230 Y s 1987 282 m 54 X s 2014 320 m 27 X s 2014 359 m 27 X s 2014 398 m 27 X s 2014 436 m 27 X s 1987 475 m 54 X s 2014 514 m 27 X s
 2014 552 m 27 X s 2014 591 m 27 X s 2014 630 m 27 X s 1987 668 m 54 X s 2014 707 m 27 X s 2014 746 m 27 X s 2014 784 m 27 X s 2014 823 m 27 X s 1987 862 m 54 X s 2014 900 m 27 X s 2014 939 m 27 X s 2014 978 m 27 X s 2014 1016 m 27 X s 1987 1055 m 54
 X s 2014 1094 m 27 X s 2014 1132 m 27 X s 2014 1171 m 27 X s 2014 1210 m 27 X s 1987 1248 m 54 X s 1987 282 m 54 X s 2014 243 m 27 X s 2014 205 m 27 X s 2014 166 m 27 X s 1987 1248 m 54 X s 2014 1287 m 27 X s 2014 1326 m 27 X s 2014 1364 m 27 X s
 309 844 m 94 Y s 303 938 m 13 X s 309 818 m -94 Y s 303 724 m 13 X s 364 875 m 96 Y s 358 971 m 13 X s 364 849 m -97 Y s 358 752 m 13 X s 419 875 m 96 Y s 413 971 m 13 X s 419 849 m -97 Y s 413 752 m 13 X s 474 596 m 75 Y s 468 671 m 13 X s 474 570
 m -74 Y s 468 496 m 13 X s 529 550 m 70 Y s 523 620 m 13 X s 529 524 m -70 Y s 523 454 m 13 X s 584 426 m 58 Y s 578 484 m 13 X s 584 400 m -58 Y s 578 342 m 13 X s 639 457 m 61 Y s 633 518 m 13 X s 639 431 m -61 Y s 633 370 m 13 X s 694 334 m 46 Y
 s 688 380 m 13 X s 694 307 m -46 Y s 688 261 m 13 X s 749 658 m 80 Y s 743 738 m 13 X s 749 632 m -80 Y s 743 552 m 13 X s 804 349 m 49 Y s 797 398 m 14 X s 804 323 m -49 Y s 797 274 m 14 X s 859 643 m 78 Y s 852 721 m 13 X s 859 617 m -79 Y s 852
 538 m 13 X s 914 658 m 80 Y s 907 738 m 13 X s 914 632 m -80 Y s 907 552 m 13 X s 969 411 m 56 Y s 962 467 m 13 X s 969 385 m -56 Y s 962 329 m 13 X s 1024 581 m 73 Y s 1017 654 m 13 X s 1024 555 m -73 Y s 1017 482 m 13 X s 1079 380 m 52 Y s 1072
 432 m 13 X s 1079 354 m -53 Y s 1072 301 m 13 X s 1189 457 m 61 Y s 1182 518 m 13 X s 1189 431 m -61 Y s 1182 370 m 13 X s 1244 488 m 64 Y s 1237 552 m 13 X s 1244 462 m -64 Y s 1237 398 m 13 X s 1299 442 m 59 Y s 1292 501 m 13 X s 1299 416 m -60 Y
 s 1292 356 m 13 X s 1354 457 m 61 Y s 1347 518 m 13 X s 1354 431 m -61 Y s 1347 370 m 13 X s 1409 550 m 70 Y s 1402 620 m 13 X s 1409 524 m -70 Y s 1402 454 m 13 X s 1464 627 m 77 Y s 1457 704 m 13 X s 1464 601 m -77 Y s 1457 524 m 13 X s 1519 612 m
 76 Y s 1512 688 m 13 X s 1519 586 m -76 Y s 1512 510 m 13 X s 1574 442 m 59 Y s 1567 501 m 13 X s 1574 416 m -60 Y s 1567 356 m 13 X s 1629 535 m 68 Y s 1622 603 m 13 X s 1629 508 m -68 Y s 1622 440 m 13 X s 1684 658 m 80 Y s 1677 738 m 13 X s 1684
 632 m -80 Y s 1677 552 m 13 X s 1739 504 m 65 Y s 1732 569 m 13 X s 1739 478 m -66 Y s 1732 412 m 13 X s 1794 318 m 45 Y s 1787 363 m 13 X s 1794 292 m -45 Y s 1787 247 m 13 X s 1849 658 m 80 Y s 1842 738 m 13 X s 1849 632 m -80 Y s 1842 552 m 13 X
 s 1904 442 m 59 Y s 1897 501 m 13 X s 1904 416 m -60 Y s 1897 356 m 13 X s 1958 395 m 55 Y s 1952 450 m 13 X s 1958 369 m -54 Y s 1952 315 m 13 X s 309 831 m 55 31 d 55 X 55 -279 d 55 -46 d 55 -124 d 55 31 d 55 -124 d 55 325 d 55 -309 d 55 294 d 55
 15 d 55 -247 d 55 170 d 55 -201 d 110 77 d 55 31 d 55 -46 d 55 15 d 55 93 d 55 77 d 55 -15 d 55 -170 d 55 93 d 55 123 d 55 -154 d 55 -186 d 55 340 d 55 -216 d 54 -47 d s /w 26 def /w2 {w 2 div} def /w3 {w 3 div} def 309 831 364 862 419 862 474 583
 529 537 584 413 639 444 694 320 749 645 804 336 859 630 914 645 969 398 1024 568 1079 367 1189 444 1244 475 1299 429 1354 444 1409 537 1464 614 1519 599 1574 429 1629 522 1684 645 1739 491 1794 305 1849 645 1904 429 1958 382 30 { m20} R 1 0 0 c 309
 720 m 85 Y s 303 805 m 13 X s 309 694 m -85 Y s 303 609 m 13 X s 364 720 m 85 Y s 358 805 m 13 X s 364 694 m -85 Y s 358 609 m 13 X s 419 612 m 76 Y s 413 688 m 13 X s 419 586 m -76 Y s 413 510 m 13 X s 474 689 m 82 Y s 468 771 m 13 X s 474 663 m
 -82 Y s 468 581 m 13 X s 529 689 m 82 Y s 523 771 m 13 X s 529 663 m -82 Y s 523 581 m 13 X s 584 411 m 56 Y s 578 467 m 13 X s 584 385 m -56 Y s 578 329 m 13 X s 639 411 m 56 Y s 633 467 m 13 X s 639 385 m -56 Y s 633 329 m 13 X s 694 581 m 73 Y s
 688 654 m 13 X s 694 555 m -73 Y s 688 482 m 13 X s 749 256 m 36 Y s 743 292 m 13 X s 749 230 m -36 Y s 743 194 m 13 X s 804 349 m 49 Y s 797 398 m 14 X s 804 323 m -49 Y s 797 274 m 14 X s 859 797 m 91 Y s 852 888 m 13 X s 859 771 m -90 Y s 852 681
 m 13 X s 914 658 m 80 Y s 907 738 m 13 X s 914 632 m -80 Y s 907 552 m 13 X s 969 426 m 58 Y s 962 484 m 13 X s 969 400 m -58 Y s 962 342 m 13 X s 1024 504 m 65 Y s 1017 569 m 13 X s 1024 478 m -66 Y s 1017 412 m 13 X s 1079 906 m 98 Y s 1072 1004 m
 13 X s 1079 880 m -99 Y s 1072 781 m 13 X s 1189 674 m 81 Y s 1182 755 m 13 X s 1189 648 m -81 Y s 1182 567 m 13 X s 1244 457 m 61 Y s 1237 518 m 13 X s 1244 431 m -61 Y s 1237 370 m 13 X s 1299 349 m 49 Y s 1292 398 m 13 X s 1299 323 m -49 Y s 1292
 274 m 13 X s 1354 349 m 49 Y s 1347 398 m 13 X s 1354 323 m -49 Y s 1347 274 m 13 X s 1409 334 m 46 Y s 1402 380 m 13 X s 1409 307 m -46 Y s 1402 261 m 13 X s 1464 581 m 73 Y s 1457 654 m 13 X s 1464 555 m -73 Y s 1457 482 m 13 X s 1519 643 m 78 Y s
 1512 721 m 13 X s 1519 617 m -79 Y s 1512 538 m 13 X s 1574 426 m 58 Y s 1567 484 m 13 X s 1574 400 m -58 Y s 1567 342 m 13 X s 1629 457 m 61 Y s 1622 518 m 13 X s 1629 431 m -61 Y s 1622 370 m 13 X s 1684 488 m 64 Y s 1677 552 m 13 X s 1684 462 m
 -64 Y s 1677 398 m 13 X s 1739 612 m 76 Y s 1732 688 m 13 X s 1739 586 m -76 Y s 1732 510 m 13 X s 1794 643 m 78 Y s 1787 721 m 13 X s 1794 617 m -79 Y s 1787 538 m 13 X s 1849 859 m 95 Y s 1842 954 m 13 X s 1849 833 m -95 Y s 1842 738 m 13 X s 1904
 596 m 75 Y s 1897 671 m 13 X s 1904 570 m -74 Y s 1897 496 m 13 X s 1958 504 m 65 Y s 1952 569 m 13 X s 1958 478 m -66 Y s 1952 412 m 13 X s black 1 0 0 c 309 707 m 55 X 55 -108 d 55 77 d 55 X 55 -278 d 55 X 55 170 d 55 -325 d 55 93 d 55 448 d 55
 -139 d 55 -232 d 55 78 d 55 402 d 110 -232 d 55 -217 d 55 -108 d 55 X 55 -16 d 55 248 d 55 62 d 55 -217 d 55 31 d 55 31 d 55 124 d 55 31 d 55 216 d 55 -263 d 54 -92 d s 309 707 364 707 419 599 474 676 529 676 584 398 639 398 694 568 749 243 804 336
 859 784 914 645 969 413 1024 491 1079 893 1189 661 1244 444 1299 336 1354 336 1409 320 1464 568 1519 630 1574 413 1629 444 1684 475 1739 599 1794 630 1849 846 1904 583 1958 491 30 { m20} R 0 1 0 c 639 581 m 73 Y s 633 654 m 13 X s 639 555 m -73 Y s
 633 482 m 13 X s 694 457 m 61 Y s 688 518 m 13 X s 694 431 m -61 Y s 688 370 m 13 X s 749 844 m 94 Y s 743 938 m 13 X s 749 818 m -94 Y s 743 724 m 13 X s 804 457 m 61 Y s 797 518 m 14 X s 804 431 m -61 Y s 797 370 m 14 X s 859 581 m 73 Y s 852 654
 m 13 X s 859 555 m -73 Y s 852 482 m 13 X s 914 395 m 55 Y s 907 450 m 13 X s 914 369 m -54 Y s 907 315 m 13 X s 969 504 m 65 Y s 962 569 m 13 X s 969 478 m -66 Y s 962 412 m 13 X s 1024 643 m 78 Y s 1017 721 m 13 X s 1024 617 m -79 Y s 1017 538 m
 13 X s 1079 751 m 87 Y s 1072 838 m 13 X s 1079 725 m -87 Y s 1072 638 m 13 X s 1189 705 m 83 Y s 1182 788 m 13 X s 1189 679 m -84 Y s 1182 595 m 13 X s 1244 272 m 38 Y s 1237 310 m 13 X s 1244 246 m -39 Y s 1237 207 m 13 X s 1299 349 m 49 Y s 1292
 398 m 13 X s 1299 323 m -49 Y s 1292 274 m 13 X s 1354 550 m 70 Y s 1347 620 m 13 X s 1354 524 m -70 Y s 1347 454 m 13 X s 1409 457 m 61 Y s 1402 518 m 13 X s 1409 431 m -61 Y s 1402 370 m 13 X s 1464 519 m 67 Y s 1457 586 m 13 X s 1464 493 m -67 Y
 s 1457 426 m 13 X s 1519 457 m 61 Y s 1512 518 m 13 X s 1519 431 m -61 Y s 1512 370 m 13 X s 1574 380 m 52 Y s 1567 432 m 13 X s 1574 354 m -53 Y s 1567 301 m 13 X s 1629 318 m 45 Y s 1622 363 m 13 X s 1629 292 m -45 Y s 1622 247 m 13 X s black 0 1
 0 c 639 568 m 55 -124 d 55 387 d 55 -387 d 55 124 d 55 -186 d 55 109 d 55 139 d 55 108 d 110 -46 d 55 -433 d 55 77 d 55 201 d 55 -93 d 55 62 d 55 -62 d 55 -77 d 55 -62 d s 639 568 694 444 749 831 804 444 859 568 914 382 969 491 1024 630 1079 738
 1189 692 1244 259 1299 336 1354 537 1409 444 1464 506 1519 444 1574 367 1629 305 18 { m20} R 0 0 1 c 639 457 m 61 Y s 633 518 m 13 X s 639 431 m -61 Y s 633 370 m 13 X s 694 442 m 59 Y s 688 501 m 13 X s 694 416 m -60 Y s 688 356 m 13 X s 749 504 m
 65 Y s 743 569 m 13 X s 749 478 m -66 Y s 743 412 m 13 X s 804 349 m 49 Y s 797 398 m 14 X s 804 323 m -49 Y s 797 274 m 14 X s 859 442 m 59 Y s 852 501 m 13 X s 859 416 m -60 Y s 852 356 m 13 X s 914 504 m 65 Y s 907 569 m 13 X s 914 478 m -66 Y s
 907 412 m 13 X s 969 287 m 41 Y s 962 328 m 13 X s 969 261 m -40 Y s 962 221 m 13 X s 1024 349 m 49 Y s 1017 398 m 13 X s 1024 323 m -49 Y s 1017 274 m 13 X s 1079 519 m 67 Y s 1072 586 m 13 X s 1079 493 m -67 Y s 1072 426 m 13 X s 1189 488 m 64 Y s
 1182 552 m 13 X s 1189 462 m -64 Y s 1182 398 m 13 X s 1244 442 m 59 Y s 1237 501 m 13 X s 1244 416 m -60 Y s 1237 356 m 13 X s 1299 457 m 61 Y s 1292 518 m 13 X s 1299 431 m -61 Y s 1292 370 m 13 X s 1354 334 m 46 Y s 1347 380 m 13 X s 1354 307 m
 -46 Y s 1347 261 m 13 X s 1409 519 m 67 Y s 1402 586 m 13 X s 1409 493 m -67 Y s 1402 426 m 13 X s 1464 550 m 70 Y s 1457 620 m 13 X s 1464 524 m -70 Y s 1457 454 m 13 X s 1519 411 m 56 Y s 1512 467 m 13 X s 1519 385 m -56 Y s 1512 329 m 13 X s 1574
 411 m 56 Y s 1567 467 m 13 X s 1574 385 m -56 Y s 1567 329 m 13 X s 1629 674 m 81 Y s 1622 755 m 13 X s 1629 648 m -81 Y s 1622 567 m 13 X s black 0 0 1 c 639 444 m 55 -15 d 55 62 d 55 -155 d 55 93 d 55 62 d 55 -217 d 55 62 d 55 170 d 110 -31 d 55
 -46 d 55 15 d 55 -124 d 55 186 d 55 31 d 55 -139 d 55 X 55 263 d s 639 444 694 429 749 491 804 336 859 429 914 491 969 274 1024 336 1079 506 1189 475 1244 429 1299 444 1354 320 1409 506 1464 537 1519 398 1574 398 1629 661 18 { m20} R 1 1 0 c 639 426
 m 58 Y s 633 484 m 13 X s 639 400 m -58 Y s 633 342 m 13 X s 694 473 m 62 Y s 688 535 m 13 X s 694 447 m -63 Y s 688 384 m 13 X s 749 565 m 72 Y s 743 637 m 13 X s 749 539 m -71 Y s 743 468 m 13 X s 804 473 m 62 Y s 797 535 m 14 X s 804 447 m -63 Y
 s 797 384 m 14 X s 859 426 m 58 Y s 852 484 m 13 X s 859 400 m -58 Y s 852 342 m 13 X s 914 380 m 52 Y s 907 432 m 13 X s 914 354 m -53 Y s 907 301 m 13 X s 969 689 m 82 Y s 962 771 m 13 X s 969 663 m -82 Y s 962 581 m 13 X s 1024 844 m 94 Y s 1017
 938 m 13 X s 1024 818 m -94 Y s 1017 724 m 13 X s 1079 782 m 89 Y s 1072 871 m 13 X s 1079 756 m -90 Y s 1072 666 m 13 X s 1189 565 m 72 Y s 1182 637 m 13 X s 1189 539 m -71 Y s 1182 468 m 13 X s 1244 318 m 45 Y s 1237 363 m 13 X s 1244 292 m -45 Y
 s 1237 247 m 13 X s 1299 596 m 75 Y s 1292 671 m 13 X s 1299 570 m -74 Y s 1292 496 m 13 X s 1354 349 m 49 Y s 1347 398 m 13 X s 1354 323 m -49 Y s 1347 274 m 13 X s 1409 287 m 41 Y s 1402 328 m 13 X s 1409 261 m -40 Y s 1402 221 m 13 X s 1464 349 m
 49 Y s 1457 398 m 13 X s 1464 323 m -49 Y s 1457 274 m 13 X s 1519 318 m 45 Y s 1512 363 m 13 X s 1519 292 m -45 Y s 1512 247 m 13 X s 1574 411 m 56 Y s 1567 467 m 13 X s 1574 385 m -56 Y s 1567 329 m 13 X s 1629 473 m 62 Y s 1622 535 m 13 X s 1629
 447 m -63 Y s 1622 384 m 13 X s black 1 1 0 c 639 413 m 55 47 d 55 92 d 55 -92 d 55 -47 d 55 -46 d 55 309 d 55 155 d 55 -62 d 110 -217 d 55 -247 d 55 278 d 55 -247 d 55 -62 d 55 62 d 55 -31 d 55 93 d 55 62 d s 639 413 694 460 749 552 804 460 859 413
 914 367 969 676 1024 831 1079 769 1189 552 1244 305 1299 583 1354 336 1409 274 1464 336 1519 305 1574 398 1629 460 18 { m20} R black
 gsave  2268 1538 0 0 C 1531.36 1032.85 t 0 r /Helvetica-Bold findfont 58.6478 sf 0 0 m (Pixel Barrel) show NC gr 
 gsave  2268 1538 0 0 C 1648.66 967.689 t 0 r /Helvetica-Bold findfont 58.6478 sf 0 0 m (Layer 0) show NC gr  1539 980 m 91 X s 1585 980 m20
 gsave  2268 1538 0 0 C 1648.66 902.525 t 0 r /Helvetica-Bold findfont 58.6478 sf 0 0 m (Layer 1) show NC gr  1 0 0 c 1539 916 m 91 X s 1585 916 m20 black
 gsave  2268 1538 0 0 C 1648.66 840.619 t 0 r /Helvetica-Bold findfont 58.6478 sf 0 0 m (Layer 2) show NC gr  0 1 0 c 1539 852 m 91 X s 1585 852 m20 black
 gsave  2268 1538 0 0 C 1648.66 775.455 t 0 r /Helvetica-Bold findfont 58.6478 sf 0 0 m (Layer 3) show NC gr  0 0 1 c 1539 788 m 91 X s 1585 788 m20 black
 gsave  2268 1538 0 0 C 1648.66 710.291 t 0 r /Helvetica-Bold findfont 58.6478 sf 0 0 m (Layer 4) show NC gr  1 1 0 c 1539 724 m 91 X s 1585 724 m20
 gr  gr showpage
end
%%EOF
