%!PS-Adobe-2.0 EPSF-2.0
%%BoundingBox:  0 0 567 384
%%Title: pionDir/pixel_occupancy/clus_z_pixlayer_4_pos.eps: c1_n41
%%Creator: ROOT Version 6.04/12
%%CreationDate: Tue Apr 19 16:53:28 2016
%%DocumentNeededResources: ProcSet (FontSetInit)
%%EndComments
%%BeginProlog
80 dict begin
/s {stroke} def /l {lineto} def /m {moveto} def /t {translate} def
/r {rotate} def /rl {roll}  def /R {repeat} def
/d {rlineto} def /rm {rmoveto} def /gr {grestore} def /f {eofill} def
/c {setrgbcolor} def /black {0 setgray} def /sd {setdash} def
/cl {closepath} def /sf {scalefont setfont} def /lw {setlinewidth} def
/box {m dup 0 exch d exch 0 d 0 exch neg d cl} def
/NC{systemdict begin initclip end}def/C{NC box clip newpath}def
/bl {box s} def /bf {gsave box gsave f grestore 1 lw [] 0 sd s grestore} def /Y { 0 exch d} def /X { 0 d} def 
/K {{pop pop 0 moveto} exch kshow} bind def
/ita {/ang 15 def gsave [1 0 ang dup sin exch cos div 1 0 0] concat} def 
/mp {newpath /y exch def /x exch def} def
/side {[w .77 mul w .23 mul] .385 w mul sd w 0 l currentpoint t -144 r} def
/mr {mp x y w2 0 360 arc} def /m24 {mr s} def /m20 {mr f} def
/mb {mp x y w2 add m w2 neg 0 d 0 w neg d w 0 d 0 w d cl} def
/mt {mp x y w2 add m w2 neg w neg d w 0 d cl} def
/m21 {mb f} def /m25 {mb s} def /m22 {mt f} def /m26{mt s} def
/m23 {mp x y w2 sub m w2 w d w neg 0 d cl f} def
/m27 {mp x y w2 add m w3 neg w2 neg d w3 w2 neg d w3 w2 d cl s} def
/m28 {mp x w2 sub y w2 sub w3 add m w3 0 d  0 w3 neg d w3 0 d 0 w3 d w3 0 d  0 w3 d w3 neg 0 d 0 w3 d w3 neg 0 d 0 w3 neg d w3 neg 0 d cl s } def
/m29 {mp gsave x w2 sub y w2 add w3 sub m currentpoint t 4 {side} repeat cl fill gr} def
/m30 {mp gsave x w2 sub y w2 add w3 sub m currentpoint t 4 {side} repeat cl s gr} def
/m31 {mp x y w2 sub m 0 w d x w2 sub y m w 0 d x w2 sub y w2 add m w w neg d x w2 sub y w2 sub m w w d s} def
/m32 {mp x y w2 sub m w2 w d w neg 0 d cl s} def
/m33 {mp x y w2 add m w3 neg w2 neg d w3 w2 neg d w3 w2 d cl f} def
/m34 {mp x w2 sub y w2 sub w3 add m w3 0 d  0 w3 neg d w3 0 d 0 w3 d w3 0 d  0 w3 d w3 neg 0 d 0 w3 d w3 neg 0 d 0 w3 neg d w3 neg 0 d cl f } def
/m2 {mp x y w2 sub m 0 w d x w2 sub y m w 0 d s} def
/m5 {mp x w2 sub y w2 sub m w w d x w2 sub y w2 add m w w neg d s} def
%%IncludeResource: ProcSet (FontSetInit)
%%IncludeResource: font Times-Roman
%%IncludeResource: font Times-Italic
%%IncludeResource: font Times-Bold
%%IncludeResource: font Times-BoldItalic
%%IncludeResource: font Helvetica
%%IncludeResource: font Helvetica-Oblique
%%IncludeResource: font Helvetica-Bold
%%IncludeResource: font Helvetica-BoldOblique
%%IncludeResource: font Courier
%%IncludeResource: font Courier-Oblique
%%IncludeResource: font Courier-Bold
%%IncludeResource: font Courier-BoldOblique
%%IncludeResource: font Symbol
%%IncludeResource: font ZapfDingbats
/reEncode {exch findfont dup length dict begin {1 index /FID eq  {pop pop} {def} ifelse } forall /Encoding exch def currentdict end dup /FontName get exch definefont pop } def [/Times-Bold /Times-Italic /Times-BoldItalic /Helvetica /Helvetica-Oblique
 /Helvetica-Bold /Helvetica-BoldOblique /Courier /Courier-Oblique /Courier-Bold /Courier-BoldOblique /Times-Roman /AvantGarde-Book /AvantGarde-BookOblique /AvantGarde-Demi /AvantGarde-DemiOblique /Bookman-Demi /Bookman-DemiItalic /Bookman-Light
 /Bookman-LightItalic /Helvetica-Narrow /Helvetica-Narrow-Bold /Helvetica-Narrow-BoldOblique /Helvetica-Narrow-Oblique /NewCenturySchlbk-Roman /NewCenturySchlbk-Bold /NewCenturySchlbk-BoldItalic /NewCenturySchlbk-Italic /Palatino-Bold
 /Palatino-BoldItalic /Palatino-Italic /Palatino-Roman ] {ISOLatin1Encoding reEncode } forall
%%EndProlog
%%BeginSetup
%%EndSetup
newpath  gsave  .25 .25 scale  gsave  0 0 t black[  ] 0 sd 3 lw 1 1 1 c 2268 1538 0 0 bf black 1 1 1 c 1814 1230 227 154 bf black 1814 1230 227 154 bl 1 1 1 c 1814 1230 227 154 bf black 1814 1230 227 154 bl 227 154 m 1814 X s 453 191 m -37 Y s 503
 172 m -18 Y s 553 172 m -18 Y s 603 172 m -18 Y s 653 172 m -18 Y s 703 191 m -37 Y s 753 172 m -18 Y s 803 172 m -18 Y s 853 172 m -18 Y s 903 172 m -18 Y s 953 191 m -37 Y s 1003 172 m -18 Y s 1053 172 m -18 Y s 1103 172 m -18 Y s 1153 172 m -18 Y
 s 1203 191 m -37 Y s 1253 172 m -18 Y s 1303 172 m -18 Y s 1353 172 m -18 Y s 1403 172 m -18 Y s 1453 191 m -37 Y s 1503 172 m -18 Y s 1553 172 m -18 Y s 1603 172 m -18 Y s 1653 172 m -18 Y s 1703 191 m -37 Y s 1753 172 m -18 Y s 1803 172 m -18 Y s
 1853 172 m -18 Y s 1903 172 m -18 Y s 1953 191 m -37 Y s 453 191 m -37 Y s 403 172 m -18 Y s 353 172 m -18 Y s 303 172 m -18 Y s 253 172 m -18 Y s 1953 191 m -37 Y s 2003 172 m -18 Y s
 gsave  2268 1538 0 0 C 420.31 97.7464 t 0 r /Helvetica-Bold findfont 58.6478 sf 0 0 m (50) show NC gr 
 gsave  2268 1538 0 0 C 651.643 97.7464 t 0 r /Helvetica-Bold findfont 58.6478 sf 0 0 m (100) show NC gr 
 gsave  2268 1538 0 0 C 902.525 97.7464 t 0 r /Helvetica-Bold findfont 58.6478 sf 0 0 m (150) show NC gr 
 gsave  2268 1538 0 0 C 1153.41 97.7464 t 0 r /Helvetica-Bold findfont 58.6478 sf 0 0 m (200) show NC gr 
 gsave  2268 1538 0 0 C 1401.03 97.7464 t 0 r /Helvetica-Bold findfont 58.6478 sf 0 0 m (250) show NC gr 
 gsave  2268 1538 0 0 C 1651.91 97.7464 t 0 r /Helvetica-Bold findfont 58.6478 sf 0 0 m (300) show NC gr 
 gsave  2268 1538 0 0 C 1902.8 97.7464 t 0 r /Helvetica-Bold findfont 58.6478 sf 0 0 m (350) show NC gr  227 1384 m 1814 X s 453 1347 m 37 Y s 503 1366 m 18 Y s 553 1366 m 18 Y s 603 1366 m 18 Y s 653 1366 m 18 Y s 703 1347 m 37 Y s 753 1366 m 18 Y s
 803 1366 m 18 Y s 853 1366 m 18 Y s 903 1366 m 18 Y s 953 1347 m 37 Y s 1003 1366 m 18 Y s 1053 1366 m 18 Y s 1103 1366 m 18 Y s 1153 1366 m 18 Y s 1203 1347 m 37 Y s 1253 1366 m 18 Y s 1303 1366 m 18 Y s 1353 1366 m 18 Y s 1403 1366 m 18 Y s 1453
 1347 m 37 Y s 1503 1366 m 18 Y s 1553 1366 m 18 Y s 1603 1366 m 18 Y s 1653 1366 m 18 Y s 1703 1347 m 37 Y s 1753 1366 m 18 Y s 1803 1366 m 18 Y s 1853 1366 m 18 Y s 1903 1366 m 18 Y s 1953 1347 m 37 Y s 453 1347 m 37 Y s 403 1366 m 18 Y s 353 1366
 m 18 Y s 303 1366 m 18 Y s 253 1366 m 18 Y s 1953 1347 m 37 Y s 2003 1366 m 18 Y s 227 154 m 1230 Y s 281 258 m -54 X s 254 302 m -27 X s 254 347 m -27 X s 254 392 m -27 X s 281 436 m -54 X s 254 481 m -27 X s 254 525 m -27 X s 254 570 m -27 X s 281
 614 m -54 X s 254 659 m -27 X s 254 703 m -27 X s 254 748 m -27 X s 281 792 m -54 X s 254 837 m -27 X s 254 882 m -27 X s 254 926 m -27 X s 281 971 m -54 X s 254 1015 m -27 X s 254 1060 m -27 X s 254 1104 m -27 X s 281 1149 m -54 X s 254 1193 m -27
 X s 254 1238 m -27 X s 254 1283 m -27 X s 281 1327 m -54 X s 281 258 m -54 X s 254 213 m -27 X s 254 169 m -27 X s 281 1327 m -54 X s 254 1372 m -27 X s
 gsave  2268 1538 0 0 C 133.587 237.85 t 0 r /Helvetica-Bold findfont 58.6478 sf 0 0 m (0.4) show NC gr 
 gsave  2268 1538 0 0 C 133.587 413.793 t 0 r /Helvetica-Bold findfont 58.6478 sf 0 0 m (0.6) show NC gr 
 gsave  2268 1538 0 0 C 133.587 592.995 t 0 r /Helvetica-Bold findfont 58.6478 sf 0 0 m (0.8) show NC gr 
 gsave  2268 1538 0 0 C 192.235 772.197 t 0 r /Helvetica-Bold findfont 58.6478 sf 0 0 m (1) show NC gr 
 gsave  2268 1538 0 0 C 133.587 944.882 t 0 r /Helvetica-Bold findfont 58.6478 sf 0 0 m (1.2) show NC gr 
 gsave  2268 1538 0 0 C 133.587 1127.34 t 0 r /Helvetica-Bold findfont 58.6478 sf 0 0 m (1.4) show NC gr 
 gsave  2268 1538 0 0 C 133.587 1306.54 t 0 r /Helvetica-Bold findfont 58.6478 sf 0 0 m (1.6) show NC gr  2041 154 m 1230 Y s 1987 258 m 54 X s 2014 302 m 27 X s 2014 347 m 27 X s 2014 392 m 27 X s 1987 436 m 54 X s 2014 481 m 27 X s 2014 525 m 27 X
 s 2014 570 m 27 X s 1987 614 m 54 X s 2014 659 m 27 X s 2014 703 m 27 X s 2014 748 m 27 X s 1987 792 m 54 X s 2014 837 m 27 X s 2014 882 m 27 X s 2014 926 m 27 X s 1987 971 m 54 X s 2014 1015 m 27 X s 2014 1060 m 27 X s 2014 1104 m 27 X s 1987 1149
 m 54 X s 2014 1193 m 27 X s 2014 1238 m 27 X s 2014 1283 m 27 X s 1987 1327 m 54 X s 1987 258 m 54 X s 2014 213 m 27 X s 2014 169 m 27 X s 1987 1327 m 54 X s 2014 1372 m 27 X s 309 971 m 195 Y s 303 1166 m 13 X s 309 971 m -196 Y s 303 775 m 13 X s
 502 400 m 134 Y s 495 534 m 14 X s 502 400 m -133 Y s 495 267 m 14 X s 711 1042 m 202 Y s 704 1244 m 13 X s 711 1042 m -202 Y s 704 840 m 13 X s 888 472 m 142 Y s 881 614 m 13 X s 888 472 m -143 Y s 881 329 m 13 X s 1110 329 m 124 Y s 1104 453 m 13
 X s 1110 329 m -123 Y s 1104 206 m 13 X s 1334 472 m 142 Y s 1327 614 m 13 X s 1334 472 m -143 Y s 1327 329 m 13 X s 1528 400 m 134 Y s 1521 534 m 13 X s 1528 400 m -133 Y s 1521 267 m 13 X s 1724 614 m 160 Y s 1718 774 m 13 X s 1724 614 m -159 Y s
 1718 455 m 13 X s 1958 757 m 174 Y s 1952 931 m 13 X s 1958 757 m -175 Y s 1952 582 m 13 X s 1 1 1 c black 309 971 m 193 -571 d 209 642 d 177 -570 d 222 -143 d 224 143 d 194 -72 d 196 214 d 234 143 d s /w 2 def /w2 {w 2 div} def /w3 {w 3 div} def
 309 971 502 400 711 1042 888 472 1110 329 1334 472 1528 400 1724 614 1958 757 9 { m20} R
 gsave  2268 1538 0 0 C 1326.09 1172.96 t 0 r /Helvetica-Bold findfont 58.6478 sf 0 0 m (Pixel Occupancies) show NC gr  1124 1192 m 167 X s 1208 1192 m20
 gr  gr showpage
end
%%EOF
