%!PS-Adobe-2.0 EPSF-2.0
%%BoundingBox:  0 0 567 384
%%Title: pionDir/pixel_occupancy/clus_z_pixlayer_3_neg.eps: c1_n45
%%Creator: ROOT Version 6.04/12
%%CreationDate: Tue Apr 19 16:53:28 2016
%%DocumentNeededResources: ProcSet (FontSetInit)
%%EndComments
%%BeginProlog
80 dict begin
/s {stroke} def /l {lineto} def /m {moveto} def /t {translate} def
/r {rotate} def /rl {roll}  def /R {repeat} def
/d {rlineto} def /rm {rmoveto} def /gr {grestore} def /f {eofill} def
/c {setrgbcolor} def /black {0 setgray} def /sd {setdash} def
/cl {closepath} def /sf {scalefont setfont} def /lw {setlinewidth} def
/box {m dup 0 exch d exch 0 d 0 exch neg d cl} def
/NC{systemdict begin initclip end}def/C{NC box clip newpath}def
/bl {box s} def /bf {gsave box gsave f grestore 1 lw [] 0 sd s grestore} def /Y { 0 exch d} def /X { 0 d} def 
/K {{pop pop 0 moveto} exch kshow} bind def
/ita {/ang 15 def gsave [1 0 ang dup sin exch cos div 1 0 0] concat} def 
/mp {newpath /y exch def /x exch def} def
/side {[w .77 mul w .23 mul] .385 w mul sd w 0 l currentpoint t -144 r} def
/mr {mp x y w2 0 360 arc} def /m24 {mr s} def /m20 {mr f} def
/mb {mp x y w2 add m w2 neg 0 d 0 w neg d w 0 d 0 w d cl} def
/mt {mp x y w2 add m w2 neg w neg d w 0 d cl} def
/m21 {mb f} def /m25 {mb s} def /m22 {mt f} def /m26{mt s} def
/m23 {mp x y w2 sub m w2 w d w neg 0 d cl f} def
/m27 {mp x y w2 add m w3 neg w2 neg d w3 w2 neg d w3 w2 d cl s} def
/m28 {mp x w2 sub y w2 sub w3 add m w3 0 d  0 w3 neg d w3 0 d 0 w3 d w3 0 d  0 w3 d w3 neg 0 d 0 w3 d w3 neg 0 d 0 w3 neg d w3 neg 0 d cl s } def
/m29 {mp gsave x w2 sub y w2 add w3 sub m currentpoint t 4 {side} repeat cl fill gr} def
/m30 {mp gsave x w2 sub y w2 add w3 sub m currentpoint t 4 {side} repeat cl s gr} def
/m31 {mp x y w2 sub m 0 w d x w2 sub y m w 0 d x w2 sub y w2 add m w w neg d x w2 sub y w2 sub m w w d s} def
/m32 {mp x y w2 sub m w2 w d w neg 0 d cl s} def
/m33 {mp x y w2 add m w3 neg w2 neg d w3 w2 neg d w3 w2 d cl f} def
/m34 {mp x w2 sub y w2 sub w3 add m w3 0 d  0 w3 neg d w3 0 d 0 w3 d w3 0 d  0 w3 d w3 neg 0 d 0 w3 d w3 neg 0 d 0 w3 neg d w3 neg 0 d cl f } def
/m2 {mp x y w2 sub m 0 w d x w2 sub y m w 0 d s} def
/m5 {mp x w2 sub y w2 sub m w w d x w2 sub y w2 add m w w neg d s} def
%%IncludeResource: ProcSet (FontSetInit)
%%IncludeResource: font Times-Roman
%%IncludeResource: font Times-Italic
%%IncludeResource: font Times-Bold
%%IncludeResource: font Times-BoldItalic
%%IncludeResource: font Helvetica
%%IncludeResource: font Helvetica-Oblique
%%IncludeResource: font Helvetica-Bold
%%IncludeResource: font Helvetica-BoldOblique
%%IncludeResource: font Courier
%%IncludeResource: font Courier-Oblique
%%IncludeResource: font Courier-Bold
%%IncludeResource: font Courier-BoldOblique
%%IncludeResource: font Symbol
%%IncludeResource: font ZapfDingbats
/reEncode {exch findfont dup length dict begin {1 index /FID eq  {pop pop} {def} ifelse } forall /Encoding exch def currentdict end dup /FontName get exch definefont pop } def [/Times-Bold /Times-Italic /Times-BoldItalic /Helvetica /Helvetica-Oblique
 /Helvetica-Bold /Helvetica-BoldOblique /Courier /Courier-Oblique /Courier-Bold /Courier-BoldOblique /Times-Roman /AvantGarde-Book /AvantGarde-BookOblique /AvantGarde-Demi /AvantGarde-DemiOblique /Bookman-Demi /Bookman-DemiItalic /Bookman-Light
 /Bookman-LightItalic /Helvetica-Narrow /Helvetica-Narrow-Bold /Helvetica-Narrow-BoldOblique /Helvetica-Narrow-Oblique /NewCenturySchlbk-Roman /NewCenturySchlbk-Bold /NewCenturySchlbk-BoldItalic /NewCenturySchlbk-Italic /Palatino-Bold
 /Palatino-BoldItalic /Palatino-Italic /Palatino-Roman ] {ISOLatin1Encoding reEncode } forall
%%EndProlog
%%BeginSetup
%%EndSetup
newpath  gsave  .25 .25 scale  gsave  0 0 t black[  ] 0 sd 3 lw 1 1 1 c 2268 1538 0 0 bf black 1 1 1 c 1814 1230 227 154 bf black 1814 1230 227 154 bl 1 1 1 c 1814 1230 227 154 bf black 1814 1230 227 154 bl 227 154 m 1814 X s 454 191 m -37 Y s 505
 172 m -18 Y s 556 172 m -18 Y s 607 172 m -18 Y s 659 172 m -18 Y s 710 191 m -37 Y s 761 172 m -18 Y s 812 172 m -18 Y s 863 172 m -18 Y s 914 172 m -18 Y s 966 191 m -37 Y s 1017 172 m -18 Y s 1068 172 m -18 Y s 1119 172 m -18 Y s 1170 172 m -18 Y
 s 1222 191 m -37 Y s 1273 172 m -18 Y s 1324 172 m -18 Y s 1375 172 m -18 Y s 1426 172 m -18 Y s 1478 191 m -37 Y s 1529 172 m -18 Y s 1580 172 m -18 Y s 1631 172 m -18 Y s 1682 172 m -18 Y s 1734 191 m -37 Y s 1785 172 m -18 Y s 1836 172 m -18 Y s
 1887 172 m -18 Y s 1938 172 m -18 Y s 1990 191 m -37 Y s 454 191 m -37 Y s 403 172 m -18 Y s 351 172 m -18 Y s 300 172 m -18 Y s 249 172 m -18 Y s 1990 191 m -37 Y s 2041 172 m -18 Y s
 gsave  2268 1538 0 0 C 420.31 97.7464 t 0 r /Helvetica-Bold findfont 58.6478 sf 0 0 m (50) show NC gr 
 gsave  2268 1538 0 0 C 658.159 97.7464 t 0 r /Helvetica-Bold findfont 58.6478 sf 0 0 m (100) show NC gr 
 gsave  2268 1538 0 0 C 915.558 97.7464 t 0 r /Helvetica-Bold findfont 58.6478 sf 0 0 m (150) show NC gr 
 gsave  2268 1538 0 0 C 1169.7 97.7464 t 0 r /Helvetica-Bold findfont 58.6478 sf 0 0 m (200) show NC gr 
 gsave  2268 1538 0 0 C 1427.1 97.7464 t 0 r /Helvetica-Bold findfont 58.6478 sf 0 0 m (250) show NC gr 
 gsave  2268 1538 0 0 C 1684.5 97.7464 t 0 r /Helvetica-Bold findfont 58.6478 sf 0 0 m (300) show NC gr 
 gsave  2268 1538 0 0 C 1938.64 97.7464 t 0 r /Helvetica-Bold findfont 58.6478 sf 0 0 m (350) show NC gr  227 1384 m 1814 X s 454 1347 m 37 Y s 505 1366 m 18 Y s 556 1366 m 18 Y s 607 1366 m 18 Y s 659 1366 m 18 Y s 710 1347 m 37 Y s 761 1366 m 18 Y
 s 812 1366 m 18 Y s 863 1366 m 18 Y s 914 1366 m 18 Y s 966 1347 m 37 Y s 1017 1366 m 18 Y s 1068 1366 m 18 Y s 1119 1366 m 18 Y s 1170 1366 m 18 Y s 1222 1347 m 37 Y s 1273 1366 m 18 Y s 1324 1366 m 18 Y s 1375 1366 m 18 Y s 1426 1366 m 18 Y s 1478
 1347 m 37 Y s 1529 1366 m 18 Y s 1580 1366 m 18 Y s 1631 1366 m 18 Y s 1682 1366 m 18 Y s 1734 1347 m 37 Y s 1785 1366 m 18 Y s 1836 1366 m 18 Y s 1887 1366 m 18 Y s 1938 1366 m 18 Y s 1990 1347 m 37 Y s 454 1347 m 37 Y s 403 1366 m 18 Y s 351 1366
 m 18 Y s 300 1366 m 18 Y s 249 1366 m 18 Y s 1990 1347 m 37 Y s 2041 1366 m 18 Y s 227 154 m 1230 Y s 281 271 m -54 X s 254 327 m -27 X s 254 382 m -27 X s 254 437 m -27 X s 281 493 m -54 X s 254 548 m -27 X s 254 604 m -27 X s 254 659 m -27 X s 281
 715 m -54 X s 254 770 m -27 X s 254 825 m -27 X s 254 881 m -27 X s 281 936 m -54 X s 254 992 m -27 X s 254 1047 m -27 X s 254 1103 m -27 X s 281 1158 m -54 X s 254 1213 m -27 X s 254 1269 m -27 X s 254 1324 m -27 X s 281 1380 m -54 X s 281 271 m
 -54 X s 254 216 m -27 X s 254 160 m -27 X s 281 1380 m -54 X s
 gsave  2268 1538 0 0 C 133.587 250.882 t 0 r /Helvetica-Bold findfont 58.6478 sf 0 0 m (0.4) show NC gr 
 gsave  2268 1538 0 0 C 133.587 472.441 t 0 r /Helvetica-Bold findfont 58.6478 sf 0 0 m (0.6) show NC gr 
 gsave  2268 1538 0 0 C 133.587 693.999 t 0 r /Helvetica-Bold findfont 58.6478 sf 0 0 m (0.8) show NC gr 
 gsave  2268 1538 0 0 C 192.235 915.558 t 0 r /Helvetica-Bold findfont 58.6478 sf 0 0 m (1) show NC gr 
 gsave  2268 1538 0 0 C 133.587 1133.86 t 0 r /Helvetica-Bold findfont 58.6478 sf 0 0 m (1.2) show NC gr 
 gsave  2268 1538 0 0 C 133.587 1358.67 t 0 r /Helvetica-Bold findfont 58.6478 sf 0 0 m (1.4) show NC gr  2041 154 m 1230 Y s 1987 271 m 54 X s 2014 327 m 27 X s 2014 382 m 27 X s 2014 437 m 27 X s 1987 493 m 54 X s 2014 548 m 27 X s 2014 604 m 27 X
 s 2014 659 m 27 X s 1987 715 m 54 X s 2014 770 m 27 X s 2014 825 m 27 X s 2014 881 m 27 X s 1987 936 m 54 X s 2014 992 m 27 X s 2014 1047 m 27 X s 2014 1103 m 27 X s 1987 1158 m 54 X s 2014 1213 m 27 X s 2014 1269 m 27 X s 2014 1324 m 27 X s 1987
 1380 m 54 X s 1987 271 m 54 X s 2014 216 m 27 X s 2014 160 m 27 X s 1987 1380 m 54 X s 1958 848 m 212 Y s 1952 1060 m 13 X s 1958 848 m -213 Y s 1952 635 m 13 X s 1750 803 m 208 Y s 1743 1011 m 14 X s 1750 803 m -208 Y s 1743 595 m 14 X s 1545 981 m
 226 Y s 1539 1207 m 13 X s 1545 981 m -226 Y s 1539 755 m 13 X s 1364 537 m 178 Y s 1357 715 m 13 X s 1364 537 m -177 Y s 1357 360 m 13 X s 1124 803 m 208 Y s 1118 1011 m 13 X s 1124 803 m -208 Y s 1118 595 m 13 X s 929 981 m 226 Y s 922 1207 m 13 X
 s 929 981 m -226 Y s 922 755 m 13 X s 711 360 m 153 Y s 704 513 m 13 X s 711 360 m -154 Y s 704 206 m 13 X s 536 537 m 178 Y s 530 715 m 13 X s 536 537 m -177 Y s 530 360 m 13 X s 309 1025 m 230 Y s 303 1255 m 13 X s 309 1025 m -230 Y s 303 795 m 13
 X s 1 1 1 c black 1958 848 m -208 -45 d -205 178 d -181 -444 d -240 266 d -195 178 d -218 -621 d -175 177 d -227 488 d s /w 2 def /w2 {w 2 div} def /w3 {w 3 div} def 1958 848 1750 803 1545 981 1364 537 1124 803 929 981 711 360 536 537 309 1025 9 {
 m20} R
 gsave  2268 1538 0 0 C 1326.09 1172.96 t 0 r /Helvetica-Bold findfont 58.6478 sf 0 0 m (Pixel Occupancies) show NC gr  1124 1192 m 167 X s 1208 1192 m20
 gr  gr showpage
end
%%EOF
