%!PS-Adobe-2.0 EPSF-2.0
%%BoundingBox:  0 0 567 384
%%Title: pionDir/pixel_occupancy/clus_z_pixlayer_1_neg.eps: c1_n40
%%Creator: ROOT Version 6.04/12
%%CreationDate: Tue Apr 19 16:53:28 2016
%%DocumentNeededResources: ProcSet (FontSetInit)
%%EndComments
%%BeginProlog
80 dict begin
/s {stroke} def /l {lineto} def /m {moveto} def /t {translate} def
/r {rotate} def /rl {roll}  def /R {repeat} def
/d {rlineto} def /rm {rmoveto} def /gr {grestore} def /f {eofill} def
/c {setrgbcolor} def /black {0 setgray} def /sd {setdash} def
/cl {closepath} def /sf {scalefont setfont} def /lw {setlinewidth} def
/box {m dup 0 exch d exch 0 d 0 exch neg d cl} def
/NC{systemdict begin initclip end}def/C{NC box clip newpath}def
/bl {box s} def /bf {gsave box gsave f grestore 1 lw [] 0 sd s grestore} def /Y { 0 exch d} def /X { 0 d} def 
/K {{pop pop 0 moveto} exch kshow} bind def
/ita {/ang 15 def gsave [1 0 ang dup sin exch cos div 1 0 0] concat} def 
/mp {newpath /y exch def /x exch def} def
/side {[w .77 mul w .23 mul] .385 w mul sd w 0 l currentpoint t -144 r} def
/mr {mp x y w2 0 360 arc} def /m24 {mr s} def /m20 {mr f} def
/mb {mp x y w2 add m w2 neg 0 d 0 w neg d w 0 d 0 w d cl} def
/mt {mp x y w2 add m w2 neg w neg d w 0 d cl} def
/m21 {mb f} def /m25 {mb s} def /m22 {mt f} def /m26{mt s} def
/m23 {mp x y w2 sub m w2 w d w neg 0 d cl f} def
/m27 {mp x y w2 add m w3 neg w2 neg d w3 w2 neg d w3 w2 d cl s} def
/m28 {mp x w2 sub y w2 sub w3 add m w3 0 d  0 w3 neg d w3 0 d 0 w3 d w3 0 d  0 w3 d w3 neg 0 d 0 w3 d w3 neg 0 d 0 w3 neg d w3 neg 0 d cl s } def
/m29 {mp gsave x w2 sub y w2 add w3 sub m currentpoint t 4 {side} repeat cl fill gr} def
/m30 {mp gsave x w2 sub y w2 add w3 sub m currentpoint t 4 {side} repeat cl s gr} def
/m31 {mp x y w2 sub m 0 w d x w2 sub y m w 0 d x w2 sub y w2 add m w w neg d x w2 sub y w2 sub m w w d s} def
/m32 {mp x y w2 sub m w2 w d w neg 0 d cl s} def
/m33 {mp x y w2 add m w3 neg w2 neg d w3 w2 neg d w3 w2 d cl f} def
/m34 {mp x w2 sub y w2 sub w3 add m w3 0 d  0 w3 neg d w3 0 d 0 w3 d w3 0 d  0 w3 d w3 neg 0 d 0 w3 d w3 neg 0 d 0 w3 neg d w3 neg 0 d cl f } def
/m2 {mp x y w2 sub m 0 w d x w2 sub y m w 0 d s} def
/m5 {mp x w2 sub y w2 sub m w w d x w2 sub y w2 add m w w neg d s} def
%%IncludeResource: ProcSet (FontSetInit)
%%IncludeResource: font Times-Roman
%%IncludeResource: font Times-Italic
%%IncludeResource: font Times-Bold
%%IncludeResource: font Times-BoldItalic
%%IncludeResource: font Helvetica
%%IncludeResource: font Helvetica-Oblique
%%IncludeResource: font Helvetica-Bold
%%IncludeResource: font Helvetica-BoldOblique
%%IncludeResource: font Courier
%%IncludeResource: font Courier-Oblique
%%IncludeResource: font Courier-Bold
%%IncludeResource: font Courier-BoldOblique
%%IncludeResource: font Symbol
%%IncludeResource: font ZapfDingbats
/reEncode {exch findfont dup length dict begin {1 index /FID eq  {pop pop} {def} ifelse } forall /Encoding exch def currentdict end dup /FontName get exch definefont pop } def [/Times-Bold /Times-Italic /Times-BoldItalic /Helvetica /Helvetica-Oblique
 /Helvetica-Bold /Helvetica-BoldOblique /Courier /Courier-Oblique /Courier-Bold /Courier-BoldOblique /Times-Roman /AvantGarde-Book /AvantGarde-BookOblique /AvantGarde-Demi /AvantGarde-DemiOblique /Bookman-Demi /Bookman-DemiItalic /Bookman-Light
 /Bookman-LightItalic /Helvetica-Narrow /Helvetica-Narrow-Bold /Helvetica-Narrow-BoldOblique /Helvetica-Narrow-Oblique /NewCenturySchlbk-Roman /NewCenturySchlbk-Bold /NewCenturySchlbk-BoldItalic /NewCenturySchlbk-Italic /Palatino-Bold
 /Palatino-BoldItalic /Palatino-Italic /Palatino-Roman ] {ISOLatin1Encoding reEncode } forall
%%EndProlog
%%BeginSetup
%%EndSetup
newpath  gsave  .25 .25 scale  gsave  0 0 t black[  ] 0 sd 3 lw 1 1 1 c 2268 1538 0 0 bf black 1 1 1 c 1814 1230 227 154 bf black 1814 1230 227 154 bl 1 1 1 c 1814 1230 227 154 bf black 1814 1230 227 154 bl 227 154 m 1814 X s 245 191 m -37 Y s 304
 172 m -18 Y s 362 172 m -18 Y s 421 172 m -18 Y s 479 172 m -18 Y s 538 191 m -37 Y s 596 172 m -18 Y s 655 172 m -18 Y s 713 172 m -18 Y s 771 172 m -18 Y s 830 191 m -37 Y s 888 172 m -18 Y s 947 172 m -18 Y s 1005 172 m -18 Y s 1064 172 m -18 Y s
 1122 191 m -37 Y s 1181 172 m -18 Y s 1239 172 m -18 Y s 1298 172 m -18 Y s 1356 172 m -18 Y s 1415 191 m -37 Y s 1473 172 m -18 Y s 1531 172 m -18 Y s 1590 172 m -18 Y s 1648 172 m -18 Y s 1707 191 m -37 Y s 1765 172 m -18 Y s 1824 172 m -18 Y s
 1882 172 m -18 Y s 1941 172 m -18 Y s 1999 191 m -37 Y s 245 191 m -37 Y s 1999 191 m -37 Y s
 gsave  2268 1538 0 0 C 228.075 97.7464 t 0 r /Helvetica-Bold findfont 58.6478 sf 0 0 m (0) show NC gr 
 gsave  2268 1538 0 0 C 488.732 97.7464 t 0 r /Helvetica-Bold findfont 58.6478 sf 0 0 m (100) show NC gr 
 gsave  2268 1538 0 0 C 778.713 97.7464 t 0 r /Helvetica-Bold findfont 58.6478 sf 0 0 m (200) show NC gr 
 gsave  2268 1538 0 0 C 1071.95 97.7464 t 0 r /Helvetica-Bold findfont 58.6478 sf 0 0 m (300) show NC gr 
 gsave  2268 1538 0 0 C 1365.19 97.7464 t 0 r /Helvetica-Bold findfont 58.6478 sf 0 0 m (400) show NC gr 
 gsave  2268 1538 0 0 C 1655.17 97.7464 t 0 r /Helvetica-Bold findfont 58.6478 sf 0 0 m (500) show NC gr 
 gsave  2268 1538 0 0 C 1948.41 97.7464 t 0 r /Helvetica-Bold findfont 58.6478 sf 0 0 m (600) show NC gr  227 1384 m 1814 X s 245 1347 m 37 Y s 304 1366 m 18 Y s 362 1366 m 18 Y s 421 1366 m 18 Y s 479 1366 m 18 Y s 538 1347 m 37 Y s 596 1366 m 18 Y
 s 655 1366 m 18 Y s 713 1366 m 18 Y s 771 1366 m 18 Y s 830 1347 m 37 Y s 888 1366 m 18 Y s 947 1366 m 18 Y s 1005 1366 m 18 Y s 1064 1366 m 18 Y s 1122 1347 m 37 Y s 1181 1366 m 18 Y s 1239 1366 m 18 Y s 1298 1366 m 18 Y s 1356 1366 m 18 Y s 1415
 1347 m 37 Y s 1473 1366 m 18 Y s 1531 1366 m 18 Y s 1590 1366 m 18 Y s 1648 1366 m 18 Y s 1707 1347 m 37 Y s 1765 1366 m 18 Y s 1824 1366 m 18 Y s 1882 1366 m 18 Y s 1941 1366 m 18 Y s 1999 1347 m 37 Y s 245 1347 m 37 Y s 1999 1347 m 37 Y s 227 154
 m 1230 Y s 281 315 m -54 X s 254 363 m -27 X s 254 412 m -27 X s 254 460 m -27 X s 254 509 m -27 X s 281 557 m -54 X s 254 606 m -27 X s 254 654 m -27 X s 254 703 m -27 X s 254 751 m -27 X s 281 800 m -54 X s 254 848 m -27 X s 254 897 m -27 X s 254
 945 m -27 X s 254 994 m -27 X s 281 1042 m -54 X s 254 1091 m -27 X s 254 1140 m -27 X s 254 1188 m -27 X s 254 1237 m -27 X s 281 1285 m -54 X s 281 315 m -54 X s 254 266 m -27 X s 254 217 m -27 X s 254 169 m -27 X s 281 1285 m -54 X s 254 1334 m
 -27 X s 254 1382 m -27 X s
 gsave  2268 1538 0 0 C 133.587 293.239 t 0 r /Helvetica-Bold findfont 58.6478 sf 0 0 m (0.5) show NC gr 
 gsave  2268 1538 0 0 C 192.235 537.605 t 0 r /Helvetica-Bold findfont 58.6478 sf 0 0 m (1) show NC gr 
 gsave  2268 1538 0 0 C 133.587 778.713 t 0 r /Helvetica-Bold findfont 58.6478 sf 0 0 m (1.5) show NC gr 
 gsave  2268 1538 0 0 C 182.46 1016.56 t 0 r /Helvetica-Bold findfont 58.6478 sf 0 0 m (2) show NC gr 
 gsave  2268 1538 0 0 C 133.587 1264.19 t 0 r /Helvetica-Bold findfont 58.6478 sf 0 0 m (2.5) show NC gr  2041 154 m 1230 Y s 1987 315 m 54 X s 2014 363 m 27 X s 2014 412 m 27 X s 2014 460 m 27 X s 2014 509 m 27 X s 1987 557 m 54 X s 2014 606 m 27 X
 s 2014 654 m 27 X s 2014 703 m 27 X s 2014 751 m 27 X s 1987 800 m 54 X s 2014 848 m 27 X s 2014 897 m 27 X s 2014 945 m 27 X s 2014 994 m 27 X s 1987 1042 m 54 X s 2014 1091 m 27 X s 2014 1140 m 27 X s 2014 1188 m 27 X s 2014 1237 m 27 X s 1987
 1285 m 54 X s 1987 315 m 54 X s 2014 266 m 27 X s 2014 217 m 27 X s 2014 169 m 27 X s 1987 1285 m 54 X s 2014 1334 m 27 X s 2014 1382 m 27 X s 1958 848 m 123 Y s 1952 971 m 13 X s 1958 848 m -122 Y s 1952 726 m 13 X s 1854 848 m 123 Y s 1848 971 m
 13 X s 1854 848 m -122 Y s 1848 726 m 13 X s 1731 712 m 112 Y s 1725 824 m 13 X s 1731 712 m -111 Y s 1725 601 m 13 X s 1611 810 m 119 Y s 1605 929 m 13 X s 1611 810 m -120 Y s 1605 690 m 13 X s 1480 810 m 119 Y s 1474 929 m 13 X s 1480 810 m -120 Y
 s 1474 690 m 13 X s 1360 460 m 87 Y s 1354 547 m 13 X s 1360 460 m -87 Y s 1354 373 m 13 X s 1249 460 m 87 Y s 1242 547 m 13 X s 1249 460 m -87 Y s 1242 373 m 13 X s 1155 674 m 108 Y s 1148 782 m 13 X s 1155 674 m -108 Y s 1148 566 m 13 X s 1009 266
 m 61 Y s 1002 327 m 13 X s 1009 266 m -61 Y s 1002 205 m 13 X s 909 382 m 78 Y s 902 460 m 13 X s 909 382 m -77 Y s 902 305 m 13 X s 775 945 m 131 Y s 768 1076 m 13 X s 775 945 m -130 Y s 768 815 m 13 X s 658 771 m 116 Y s 651 887 m 13 X s 658 771 m
 -117 Y s 651 654 m 13 X s 543 480 m 88 Y s 536 568 m 13 X s 543 480 m -89 Y s 536 391 m 13 X s 437 577 m 99 Y s 431 676 m 13 X s 437 577 m -99 Y s 431 478 m 13 X s 309 1081 m 140 Y s 303 1221 m 13 X s 309 1081 m -140 Y s 303 941 m 13 X s 1 1 1 c
 black 1958 848 m -104 X -123 -136 d -120 98 d -131 X -120 -350 d -111 X -94 214 d -146 -408 d -100 116 d -134 563 d -117 -174 d -115 -291 d -106 97 d -128 504 d s /w 2 def /w2 {w 2 div} def /w3 {w 3 div} def 1958 848 1854 848 1731 712 1611 810 1480
 810 1360 460 1249 460 1155 674 1009 266 909 382 775 945 658 771 543 480 437 577 309 1081 15 { m20} R
 gsave  2268 1538 0 0 C 1326.09 1172.96 t 0 r /Helvetica-Bold findfont 58.6478 sf 0 0 m (Pixel Occupancies) show NC gr  1124 1192 m 167 X s 1208 1192 m20
 gr  gr showpage
end
%%EOF
