%!PS-Adobe-2.0 EPSF-2.0
%%BoundingBox:  0 0 567 384
%%Title: pionDir/pixel_occupancy/clus_z_pixlayer_2_neg.eps: c1_n46
%%Creator: ROOT Version 6.04/12
%%CreationDate: Tue Apr 19 16:53:28 2016
%%DocumentNeededResources: ProcSet (FontSetInit)
%%EndComments
%%BeginProlog
80 dict begin
/s {stroke} def /l {lineto} def /m {moveto} def /t {translate} def
/r {rotate} def /rl {roll}  def /R {repeat} def
/d {rlineto} def /rm {rmoveto} def /gr {grestore} def /f {eofill} def
/c {setrgbcolor} def /black {0 setgray} def /sd {setdash} def
/cl {closepath} def /sf {scalefont setfont} def /lw {setlinewidth} def
/box {m dup 0 exch d exch 0 d 0 exch neg d cl} def
/NC{systemdict begin initclip end}def/C{NC box clip newpath}def
/bl {box s} def /bf {gsave box gsave f grestore 1 lw [] 0 sd s grestore} def /Y { 0 exch d} def /X { 0 d} def 
/K {{pop pop 0 moveto} exch kshow} bind def
/ita {/ang 15 def gsave [1 0 ang dup sin exch cos div 1 0 0] concat} def 
/mp {newpath /y exch def /x exch def} def
/side {[w .77 mul w .23 mul] .385 w mul sd w 0 l currentpoint t -144 r} def
/mr {mp x y w2 0 360 arc} def /m24 {mr s} def /m20 {mr f} def
/mb {mp x y w2 add m w2 neg 0 d 0 w neg d w 0 d 0 w d cl} def
/mt {mp x y w2 add m w2 neg w neg d w 0 d cl} def
/m21 {mb f} def /m25 {mb s} def /m22 {mt f} def /m26{mt s} def
/m23 {mp x y w2 sub m w2 w d w neg 0 d cl f} def
/m27 {mp x y w2 add m w3 neg w2 neg d w3 w2 neg d w3 w2 d cl s} def
/m28 {mp x w2 sub y w2 sub w3 add m w3 0 d  0 w3 neg d w3 0 d 0 w3 d w3 0 d  0 w3 d w3 neg 0 d 0 w3 d w3 neg 0 d 0 w3 neg d w3 neg 0 d cl s } def
/m29 {mp gsave x w2 sub y w2 add w3 sub m currentpoint t 4 {side} repeat cl fill gr} def
/m30 {mp gsave x w2 sub y w2 add w3 sub m currentpoint t 4 {side} repeat cl s gr} def
/m31 {mp x y w2 sub m 0 w d x w2 sub y m w 0 d x w2 sub y w2 add m w w neg d x w2 sub y w2 sub m w w d s} def
/m32 {mp x y w2 sub m w2 w d w neg 0 d cl s} def
/m33 {mp x y w2 add m w3 neg w2 neg d w3 w2 neg d w3 w2 d cl f} def
/m34 {mp x w2 sub y w2 sub w3 add m w3 0 d  0 w3 neg d w3 0 d 0 w3 d w3 0 d  0 w3 d w3 neg 0 d 0 w3 d w3 neg 0 d 0 w3 neg d w3 neg 0 d cl f } def
/m2 {mp x y w2 sub m 0 w d x w2 sub y m w 0 d s} def
/m5 {mp x w2 sub y w2 sub m w w d x w2 sub y w2 add m w w neg d s} def
%%IncludeResource: ProcSet (FontSetInit)
%%IncludeResource: font Times-Roman
%%IncludeResource: font Times-Italic
%%IncludeResource: font Times-Bold
%%IncludeResource: font Times-BoldItalic
%%IncludeResource: font Helvetica
%%IncludeResource: font Helvetica-Oblique
%%IncludeResource: font Helvetica-Bold
%%IncludeResource: font Helvetica-BoldOblique
%%IncludeResource: font Courier
%%IncludeResource: font Courier-Oblique
%%IncludeResource: font Courier-Bold
%%IncludeResource: font Courier-BoldOblique
%%IncludeResource: font Symbol
%%IncludeResource: font ZapfDingbats
/reEncode {exch findfont dup length dict begin {1 index /FID eq  {pop pop} {def} ifelse } forall /Encoding exch def currentdict end dup /FontName get exch definefont pop } def [/Times-Bold /Times-Italic /Times-BoldItalic /Helvetica /Helvetica-Oblique
 /Helvetica-Bold /Helvetica-BoldOblique /Courier /Courier-Oblique /Courier-Bold /Courier-BoldOblique /Times-Roman /AvantGarde-Book /AvantGarde-BookOblique /AvantGarde-Demi /AvantGarde-DemiOblique /Bookman-Demi /Bookman-DemiItalic /Bookman-Light
 /Bookman-LightItalic /Helvetica-Narrow /Helvetica-Narrow-Bold /Helvetica-Narrow-BoldOblique /Helvetica-Narrow-Oblique /NewCenturySchlbk-Roman /NewCenturySchlbk-Bold /NewCenturySchlbk-BoldItalic /NewCenturySchlbk-Italic /Palatino-Bold
 /Palatino-BoldItalic /Palatino-Italic /Palatino-Roman ] {ISOLatin1Encoding reEncode } forall
%%EndProlog
%%BeginSetup
%%EndSetup
newpath  gsave  .25 .25 scale  gsave  0 0 t black[  ] 0 sd 3 lw 1 1 1 c 2268 1538 0 0 bf black 1 1 1 c 1814 1230 227 154 bf black 1814 1230 227 154 bl 1 1 1 c 1814 1230 227 154 bf black 1814 1230 227 154 bl 227 154 m 1814 X s 463 191 m -37 Y s 513
 172 m -18 Y s 563 172 m -18 Y s 614 172 m -18 Y s 664 172 m -18 Y s 714 191 m -37 Y s 765 172 m -18 Y s 815 172 m -18 Y s 865 172 m -18 Y s 916 172 m -18 Y s 966 191 m -37 Y s 1016 172 m -18 Y s 1067 172 m -18 Y s 1117 172 m -18 Y s 1167 172 m -18 Y
 s 1218 191 m -37 Y s 1268 172 m -18 Y s 1318 172 m -18 Y s 1369 172 m -18 Y s 1419 172 m -18 Y s 1469 191 m -37 Y s 1520 172 m -18 Y s 1570 172 m -18 Y s 1620 172 m -18 Y s 1671 172 m -18 Y s 1721 191 m -37 Y s 1771 172 m -18 Y s 1822 172 m -18 Y s
 1872 172 m -18 Y s 1922 172 m -18 Y s 1973 191 m -37 Y s 463 191 m -37 Y s 412 172 m -18 Y s 362 172 m -18 Y s 312 172 m -18 Y s 261 172 m -18 Y s 1973 191 m -37 Y s 2023 172 m -18 Y s
 gsave  2268 1538 0 0 C 426.826 97.7464 t 0 r /Helvetica-Bold findfont 58.6478 sf 0 0 m (50) show NC gr 
 gsave  2268 1538 0 0 C 664.676 97.7464 t 0 r /Helvetica-Bold findfont 58.6478 sf 0 0 m (100) show NC gr 
 gsave  2268 1538 0 0 C 915.558 97.7464 t 0 r /Helvetica-Bold findfont 58.6478 sf 0 0 m (150) show NC gr 
 gsave  2268 1538 0 0 C 1166.44 97.7464 t 0 r /Helvetica-Bold findfont 58.6478 sf 0 0 m (200) show NC gr 
 gsave  2268 1538 0 0 C 1417.32 97.7464 t 0 r /Helvetica-Bold findfont 58.6478 sf 0 0 m (250) show NC gr 
 gsave  2268 1538 0 0 C 1671.46 97.7464 t 0 r /Helvetica-Bold findfont 58.6478 sf 0 0 m (300) show NC gr 
 gsave  2268 1538 0 0 C 1922.35 97.7464 t 0 r /Helvetica-Bold findfont 58.6478 sf 0 0 m (350) show NC gr  227 1384 m 1814 X s 463 1347 m 37 Y s 513 1366 m 18 Y s 563 1366 m 18 Y s 614 1366 m 18 Y s 664 1366 m 18 Y s 714 1347 m 37 Y s 765 1366 m 18 Y
 s 815 1366 m 18 Y s 865 1366 m 18 Y s 916 1366 m 18 Y s 966 1347 m 37 Y s 1016 1366 m 18 Y s 1067 1366 m 18 Y s 1117 1366 m 18 Y s 1167 1366 m 18 Y s 1218 1347 m 37 Y s 1268 1366 m 18 Y s 1318 1366 m 18 Y s 1369 1366 m 18 Y s 1419 1366 m 18 Y s 1469
 1347 m 37 Y s 1520 1366 m 18 Y s 1570 1366 m 18 Y s 1620 1366 m 18 Y s 1671 1366 m 18 Y s 1721 1347 m 37 Y s 1771 1366 m 18 Y s 1822 1366 m 18 Y s 1872 1366 m 18 Y s 1922 1366 m 18 Y s 1973 1347 m 37 Y s 463 1347 m 37 Y s 412 1366 m 18 Y s 362 1366
 m 18 Y s 312 1366 m 18 Y s 261 1366 m 18 Y s 1973 1347 m 37 Y s 2023 1366 m 18 Y s 227 154 m 1230 Y s 281 212 m -54 X s 254 243 m -27 X s 254 274 m -27 X s 254 305 m -27 X s 281 336 m -54 X s 254 367 m -27 X s 254 398 m -27 X s 254 429 m -27 X s 281
 460 m -54 X s 254 491 m -27 X s 254 521 m -27 X s 254 552 m -27 X s 281 583 m -54 X s 254 614 m -27 X s 254 645 m -27 X s 254 676 m -27 X s 281 707 m -54 X s 254 738 m -27 X s 254 769 m -27 X s 254 800 m -27 X s 281 830 m -54 X s 254 861 m -27 X s
 254 892 m -27 X s 254 923 m -27 X s 281 954 m -54 X s 254 985 m -27 X s 254 1016 m -27 X s 254 1047 m -27 X s 281 1078 m -54 X s 254 1108 m -27 X s 254 1139 m -27 X s 254 1170 m -27 X s 281 1201 m -54 X s 254 1232 m -27 X s 254 1263 m -27 X s 254
 1294 m -27 X s 281 1325 m -54 X s 281 212 m -54 X s 254 182 m -27 X s 281 1325 m -54 X s 254 1356 m -27 X s
 gsave  2268 1538 0 0 C 133.587 192.235 t 0 r /Helvetica-Bold findfont 58.6478 sf 0 0 m (0.6) show NC gr 
 gsave  2268 1538 0 0 C 133.587 316.047 t 0 r /Helvetica-Bold findfont 58.6478 sf 0 0 m (0.8) show NC gr 
 gsave  2268 1538 0 0 C 192.235 439.859 t 0 r /Helvetica-Bold findfont 58.6478 sf 0 0 m (1) show NC gr 
 gsave  2268 1538 0 0 C 133.587 560.413 t 0 r /Helvetica-Bold findfont 58.6478 sf 0 0 m (1.2) show NC gr 
 gsave  2268 1538 0 0 C 133.587 684.225 t 0 r /Helvetica-Bold findfont 58.6478 sf 0 0 m (1.4) show NC gr 
 gsave  2268 1538 0 0 C 133.587 808.037 t 0 r /Helvetica-Bold findfont 58.6478 sf 0 0 m (1.6) show NC gr 
 gsave  2268 1538 0 0 C 133.587 931.849 t 0 r /Helvetica-Bold findfont 58.6478 sf 0 0 m (1.8) show NC gr 
 gsave  2268 1538 0 0 C 182.46 1052.4 t 0 r /Helvetica-Bold findfont 58.6478 sf 0 0 m (2) show NC gr 
 gsave  2268 1538 0 0 C 133.587 1176.21 t 0 r /Helvetica-Bold findfont 58.6478 sf 0 0 m (2.2) show NC gr 
 gsave  2268 1538 0 0 C 133.587 1300.03 t 0 r /Helvetica-Bold findfont 58.6478 sf 0 0 m (2.4) show NC gr  2041 154 m 1230 Y s 1987 212 m 54 X s 2014 243 m 27 X s 2014 274 m 27 X s 2014 305 m 27 X s 1987 336 m 54 X s 2014 367 m 27 X s 2014 398 m 27 X
 s 2014 429 m 27 X s 1987 460 m 54 X s 2014 491 m 27 X s 2014 521 m 27 X s 2014 552 m 27 X s 1987 583 m 54 X s 2014 614 m 27 X s 2014 645 m 27 X s 2014 676 m 27 X s 1987 707 m 54 X s 2014 738 m 27 X s 2014 769 m 27 X s 2014 800 m 27 X s 1987 830 m 54
 X s 2014 861 m 27 X s 2014 892 m 27 X s 2014 923 m 27 X s 1987 954 m 54 X s 2014 985 m 27 X s 2014 1016 m 27 X s 2014 1047 m 27 X s 1987 1078 m 54 X s 2014 1108 m 27 X s 2014 1139 m 27 X s 2014 1170 m 27 X s 1987 1201 m 54 X s 2014 1232 m 27 X s
 2014 1263 m 27 X s 2014 1294 m 27 X s 1987 1325 m 54 X s 1987 212 m 54 X s 2014 182 m 27 X s 1987 1325 m 54 X s 2014 1356 m 27 X s 1958 608 m 138 Y s 1952 746 m 13 X s 1958 608 m -138 Y s 1952 470 m 13 X s 1731 410 m 119 Y s 1724 529 m 13 X s 1731
 410 m -118 Y s 1724 292 m 13 X s 1530 1028 m 171 Y s 1523 1199 m 13 X s 1530 1028 m -171 Y s 1523 857 m 13 X s 1327 410 m 119 Y s 1320 529 m 13 X s 1327 410 m -118 Y s 1320 292 m 13 X s 1126 608 m 138 Y s 1120 746 m 13 X s 1126 608 m -138 Y s 1120
 470 m 13 X s 933 311 m 108 Y s 926 419 m 13 X s 933 311 m -107 Y s 926 204 m 13 X s 713 484 m 126 Y s 707 610 m 13 X s 713 484 m -126 Y s 707 358 m 13 X s 496 707 m 146 Y s 489 853 m 13 X s 496 707 m -146 Y s 489 561 m 13 X s 309 880 m 160 Y s 303
 1040 m 13 X s 309 880 m -160 Y s 303 720 m 13 X s 1 1 1 c black 1958 608 m -227 -198 d -201 618 d -203 -618 d -201 198 d -193 -297 d -220 173 d -217 223 d -187 173 d s /w 2 def /w2 {w 2 div} def /w3 {w 3 div} def 1958 608 1731 410 1530 1028 1327 410
 1126 608 933 311 713 484 496 707 309 880 9 { m20} R
 gsave  2268 1538 0 0 C 1326.09 1172.96 t 0 r /Helvetica-Bold findfont 58.6478 sf 0 0 m (Pixel Occupancies) show NC gr  1124 1192 m 167 X s 1208 1192 m20
 gr  gr showpage
end
%%EOF
