%!PS-Adobe-2.0 EPSF-2.0
%%BoundingBox:  0 0 567 384
%%Title: pionDir/pixel_occupancy/clus_z_pixlayer_0_pos.eps: c1_n51
%%Creator: ROOT Version 6.04/12
%%CreationDate: Tue Apr 19 16:53:29 2016
%%DocumentNeededResources: ProcSet (FontSetInit)
%%EndComments
%%BeginProlog
80 dict begin
/s {stroke} def /l {lineto} def /m {moveto} def /t {translate} def
/r {rotate} def /rl {roll}  def /R {repeat} def
/d {rlineto} def /rm {rmoveto} def /gr {grestore} def /f {eofill} def
/c {setrgbcolor} def /black {0 setgray} def /sd {setdash} def
/cl {closepath} def /sf {scalefont setfont} def /lw {setlinewidth} def
/box {m dup 0 exch d exch 0 d 0 exch neg d cl} def
/NC{systemdict begin initclip end}def/C{NC box clip newpath}def
/bl {box s} def /bf {gsave box gsave f grestore 1 lw [] 0 sd s grestore} def /Y { 0 exch d} def /X { 0 d} def 
/K {{pop pop 0 moveto} exch kshow} bind def
/ita {/ang 15 def gsave [1 0 ang dup sin exch cos div 1 0 0] concat} def 
/mp {newpath /y exch def /x exch def} def
/side {[w .77 mul w .23 mul] .385 w mul sd w 0 l currentpoint t -144 r} def
/mr {mp x y w2 0 360 arc} def /m24 {mr s} def /m20 {mr f} def
/mb {mp x y w2 add m w2 neg 0 d 0 w neg d w 0 d 0 w d cl} def
/mt {mp x y w2 add m w2 neg w neg d w 0 d cl} def
/m21 {mb f} def /m25 {mb s} def /m22 {mt f} def /m26{mt s} def
/m23 {mp x y w2 sub m w2 w d w neg 0 d cl f} def
/m27 {mp x y w2 add m w3 neg w2 neg d w3 w2 neg d w3 w2 d cl s} def
/m28 {mp x w2 sub y w2 sub w3 add m w3 0 d  0 w3 neg d w3 0 d 0 w3 d w3 0 d  0 w3 d w3 neg 0 d 0 w3 d w3 neg 0 d 0 w3 neg d w3 neg 0 d cl s } def
/m29 {mp gsave x w2 sub y w2 add w3 sub m currentpoint t 4 {side} repeat cl fill gr} def
/m30 {mp gsave x w2 sub y w2 add w3 sub m currentpoint t 4 {side} repeat cl s gr} def
/m31 {mp x y w2 sub m 0 w d x w2 sub y m w 0 d x w2 sub y w2 add m w w neg d x w2 sub y w2 sub m w w d s} def
/m32 {mp x y w2 sub m w2 w d w neg 0 d cl s} def
/m33 {mp x y w2 add m w3 neg w2 neg d w3 w2 neg d w3 w2 d cl f} def
/m34 {mp x w2 sub y w2 sub w3 add m w3 0 d  0 w3 neg d w3 0 d 0 w3 d w3 0 d  0 w3 d w3 neg 0 d 0 w3 d w3 neg 0 d 0 w3 neg d w3 neg 0 d cl f } def
/m2 {mp x y w2 sub m 0 w d x w2 sub y m w 0 d s} def
/m5 {mp x w2 sub y w2 sub m w w d x w2 sub y w2 add m w w neg d s} def
%%IncludeResource: ProcSet (FontSetInit)
%%IncludeResource: font Times-Roman
%%IncludeResource: font Times-Italic
%%IncludeResource: font Times-Bold
%%IncludeResource: font Times-BoldItalic
%%IncludeResource: font Helvetica
%%IncludeResource: font Helvetica-Oblique
%%IncludeResource: font Helvetica-Bold
%%IncludeResource: font Helvetica-BoldOblique
%%IncludeResource: font Courier
%%IncludeResource: font Courier-Oblique
%%IncludeResource: font Courier-Bold
%%IncludeResource: font Courier-BoldOblique
%%IncludeResource: font Symbol
%%IncludeResource: font ZapfDingbats
/reEncode {exch findfont dup length dict begin {1 index /FID eq  {pop pop} {def} ifelse } forall /Encoding exch def currentdict end dup /FontName get exch definefont pop } def [/Times-Bold /Times-Italic /Times-BoldItalic /Helvetica /Helvetica-Oblique
 /Helvetica-Bold /Helvetica-BoldOblique /Courier /Courier-Oblique /Courier-Bold /Courier-BoldOblique /Times-Roman /AvantGarde-Book /AvantGarde-BookOblique /AvantGarde-Demi /AvantGarde-DemiOblique /Bookman-Demi /Bookman-DemiItalic /Bookman-Light
 /Bookman-LightItalic /Helvetica-Narrow /Helvetica-Narrow-Bold /Helvetica-Narrow-BoldOblique /Helvetica-Narrow-Oblique /NewCenturySchlbk-Roman /NewCenturySchlbk-Bold /NewCenturySchlbk-BoldItalic /NewCenturySchlbk-Italic /Palatino-Bold
 /Palatino-BoldItalic /Palatino-Italic /Palatino-Roman ] {ISOLatin1Encoding reEncode } forall
%%EndProlog
%%BeginSetup
%%EndSetup
newpath  gsave  .25 .25 scale  gsave  0 0 t black[  ] 0 sd 3 lw 1 1 1 c 2268 1538 0 0 bf black 1 1 1 c 1814 1230 227 154 bf black 1814 1230 227 154 bl 1 1 1 c 1814 1230 227 154 bf black 1814 1230 227 154 bl 227 154 m 1814 X s 242 191 m -37 Y s 301
 172 m -18 Y s 359 172 m -18 Y s 417 172 m -18 Y s 476 172 m -18 Y s 534 191 m -37 Y s 592 172 m -18 Y s 650 172 m -18 Y s 709 172 m -18 Y s 767 172 m -18 Y s 825 191 m -37 Y s 883 172 m -18 Y s 942 172 m -18 Y s 1000 172 m -18 Y s 1058 172 m -18 Y s
 1116 191 m -37 Y s 1175 172 m -18 Y s 1233 172 m -18 Y s 1291 172 m -18 Y s 1349 172 m -18 Y s 1408 191 m -37 Y s 1466 172 m -18 Y s 1524 172 m -18 Y s 1582 172 m -18 Y s 1641 172 m -18 Y s 1699 191 m -37 Y s 1757 172 m -18 Y s 1815 172 m -18 Y s
 1874 172 m -18 Y s 1932 172 m -18 Y s 1990 191 m -37 Y s 242 191 m -37 Y s 1990 191 m -37 Y s
 gsave  2268 1538 0 0 C 224.817 97.7464 t 0 r /Helvetica-Bold findfont 58.6478 sf 0 0 m (0) show NC gr 
 gsave  2268 1538 0 0 C 482.216 97.7464 t 0 r /Helvetica-Bold findfont 58.6478 sf 0 0 m (100) show NC gr 
 gsave  2268 1538 0 0 C 775.455 97.7464 t 0 r /Helvetica-Bold findfont 58.6478 sf 0 0 m (200) show NC gr 
 gsave  2268 1538 0 0 C 1065.44 97.7464 t 0 r /Helvetica-Bold findfont 58.6478 sf 0 0 m (300) show NC gr 
 gsave  2268 1538 0 0 C 1358.68 97.7464 t 0 r /Helvetica-Bold findfont 58.6478 sf 0 0 m (400) show NC gr 
 gsave  2268 1538 0 0 C 1648.66 97.7464 t 0 r /Helvetica-Bold findfont 58.6478 sf 0 0 m (500) show NC gr 
 gsave  2268 1538 0 0 C 1938.64 97.7464 t 0 r /Helvetica-Bold findfont 58.6478 sf 0 0 m (600) show NC gr  227 1384 m 1814 X s 242 1347 m 37 Y s 301 1366 m 18 Y s 359 1366 m 18 Y s 417 1366 m 18 Y s 476 1366 m 18 Y s 534 1347 m 37 Y s 592 1366 m 18 Y
 s 650 1366 m 18 Y s 709 1366 m 18 Y s 767 1366 m 18 Y s 825 1347 m 37 Y s 883 1366 m 18 Y s 942 1366 m 18 Y s 1000 1366 m 18 Y s 1058 1366 m 18 Y s 1116 1347 m 37 Y s 1175 1366 m 18 Y s 1233 1366 m 18 Y s 1291 1366 m 18 Y s 1349 1366 m 18 Y s 1408
 1347 m 37 Y s 1466 1366 m 18 Y s 1524 1366 m 18 Y s 1582 1366 m 18 Y s 1641 1366 m 18 Y s 1699 1347 m 37 Y s 1757 1366 m 18 Y s 1815 1366 m 18 Y s 1874 1366 m 18 Y s 1932 1366 m 18 Y s 1990 1347 m 37 Y s 242 1347 m 37 Y s 1990 1347 m 37 Y s 227 154
 m 1230 Y s 281 197 m -54 X s 254 237 m -27 X s 254 277 m -27 X s 254 318 m -27 X s 281 358 m -54 X s 254 398 m -27 X s 254 439 m -27 X s 254 479 m -27 X s 281 519 m -54 X s 254 560 m -27 X s 254 600 m -27 X s 254 640 m -27 X s 281 681 m -54 X s 254
 721 m -27 X s 254 761 m -27 X s 254 802 m -27 X s 281 842 m -54 X s 254 882 m -27 X s 254 923 m -27 X s 254 963 m -27 X s 281 1003 m -54 X s 254 1044 m -27 X s 254 1084 m -27 X s 254 1124 m -27 X s 281 1165 m -54 X s 254 1205 m -27 X s 254 1245 m
 -27 X s 254 1286 m -27 X s 281 1326 m -54 X s 281 197 m -54 X s 254 156 m -27 X s 281 1326 m -54 X s 254 1366 m -27 X s
 gsave  2268 1538 0 0 C 133.587 175.944 t 0 r /Helvetica-Bold findfont 58.6478 sf 0 0 m (0.4) show NC gr 
 gsave  2268 1538 0 0 C 133.587 335.596 t 0 r /Helvetica-Bold findfont 58.6478 sf 0 0 m (0.6) show NC gr 
 gsave  2268 1538 0 0 C 133.587 498.507 t 0 r /Helvetica-Bold findfont 58.6478 sf 0 0 m (0.8) show NC gr 
 gsave  2268 1538 0 0 C 192.235 658.159 t 0 r /Helvetica-Bold findfont 58.6478 sf 0 0 m (1) show NC gr 
 gsave  2268 1538 0 0 C 133.587 817.812 t 0 r /Helvetica-Bold findfont 58.6478 sf 0 0 m (1.2) show NC gr 
 gsave  2268 1538 0 0 C 133.587 980.722 t 0 r /Helvetica-Bold findfont 58.6478 sf 0 0 m (1.4) show NC gr 
 gsave  2268 1538 0 0 C 133.587 1143.63 t 0 r /Helvetica-Bold findfont 58.6478 sf 0 0 m (1.6) show NC gr 
 gsave  2268 1538 0 0 C 133.587 1303.29 t 0 r /Helvetica-Bold findfont 58.6478 sf 0 0 m (1.8) show NC gr  2041 154 m 1230 Y s 1987 197 m 54 X s 2014 237 m 27 X s 2014 277 m 27 X s 2014 318 m 27 X s 1987 358 m 54 X s 2014 398 m 27 X s 2014 439 m 27 X
 s 2014 479 m 27 X s 1987 519 m 54 X s 2014 560 m 27 X s 2014 600 m 27 X s 2014 640 m 27 X s 1987 681 m 54 X s 2014 721 m 27 X s 2014 761 m 27 X s 2014 802 m 27 X s 1987 842 m 54 X s 2014 882 m 27 X s 2014 923 m 27 X s 2014 963 m 27 X s 1987 1003 m
 54 X s 2014 1044 m 27 X s 2014 1084 m 27 X s 2014 1124 m 27 X s 1987 1165 m 54 X s 2014 1205 m 27 X s 2014 1245 m 27 X s 2014 1286 m 27 X s 1987 1326 m 54 X s 1987 197 m 54 X s 2014 156 m 27 X s 1987 1326 m 54 X s 2014 1366 m 27 X s 309 616 m 155 Y
 s 303 771 m 13 X s 309 616 m -155 Y s 303 461 m 13 X s 423 681 m 161 Y s 417 842 m 13 X s 423 681 m -162 Y s 417 519 m 13 X s 519 584 m 151 Y s 512 735 m 13 X s 519 584 m -151 Y s 512 433 m 13 X s 658 616 m 155 Y s 652 771 m 13 X s 658 616 m -155 Y
 s 652 461 m 13 X s 775 810 m 173 Y s 769 983 m 13 X s 775 810 m -174 Y s 769 636 m 13 X s 897 971 m 188 Y s 890 1159 m 13 X s 897 971 m -188 Y s 890 783 m 13 X s 1007 939 m 185 Y s 1001 1124 m 13 X s 1007 939 m -186 Y s 1001 753 m 13 X s 1113 584 m
 151 Y s 1107 735 m 13 X s 1113 584 m -151 Y s 1107 433 m 13 X s 1261 777 m 171 Y s 1254 948 m 13 X s 1261 777 m -170 Y s 1254 607 m 13 X s 1370 1036 m 193 Y s 1364 1229 m 13 X s 1370 1036 m -194 Y s 1364 842 m 13 X s 1487 713 m 164 Y s 1480 877 m 13
 X s 1487 713 m -165 Y s 1480 548 m 13 X s 1603 326 m 120 Y s 1596 446 m 13 X s 1603 326 m -121 Y s 1596 205 m 13 X s 1717 1036 m 193 Y s 1711 1229 m 13 X s 1717 1036 m -194 Y s 1711 842 m 13 X s 1847 584 m 151 Y s 1840 735 m 13 X s 1847 584 m -151 Y
 s 1840 433 m 13 X s 1958 487 m 141 Y s 1952 628 m 13 X s 1958 487 m -141 Y s 1952 346 m 13 X s 1 1 1 c black 309 616 m 114 65 d 96 -97 d 139 32 d 117 194 d 122 161 d 110 -32 d 106 -355 d 148 193 d 109 259 d 117 -323 d 116 -387 d 114 710 d 130 -452 d
 111 -97 d s /w 2 def /w2 {w 2 div} def /w3 {w 3 div} def 309 616 423 681 519 584 658 616 775 810 897 971 1007 939 1113 584 1261 777 1370 1036 1487 713 1603 326 1717 1036 1847 584 1958 487 15 { m20} R
 gsave  2268 1538 0 0 C 1326.09 1172.96 t 0 r /Helvetica-Bold findfont 58.6478 sf 0 0 m (Pixel Occupancies) show NC gr  1124 1192 m 167 X s 1208 1192 m20
 gr  gr showpage
end
%%EOF
