%!PS-Adobe-2.0 EPSF-2.0
%%BoundingBox:  0 0 567 384
%%Title: pionDir/pixel_occupancy/clus_pixdisk_mgr.eps: c1_n15
%%Creator: ROOT Version 6.04/12
%%CreationDate: Tue Apr 19 16:53:24 2016
%%DocumentNeededResources: ProcSet (FontSetInit)
%%EndComments
%%BeginProlog
80 dict begin
/s {stroke} def /l {lineto} def /m {moveto} def /t {translate} def
/r {rotate} def /rl {roll}  def /R {repeat} def
/d {rlineto} def /rm {rmoveto} def /gr {grestore} def /f {eofill} def
/c {setrgbcolor} def /black {0 setgray} def /sd {setdash} def
/cl {closepath} def /sf {scalefont setfont} def /lw {setlinewidth} def
/box {m dup 0 exch d exch 0 d 0 exch neg d cl} def
/NC{systemdict begin initclip end}def/C{NC box clip newpath}def
/bl {box s} def /bf {gsave box gsave f grestore 1 lw [] 0 sd s grestore} def /Y { 0 exch d} def /X { 0 d} def 
/K {{pop pop 0 moveto} exch kshow} bind def
/ita {/ang 15 def gsave [1 0 ang dup sin exch cos div 1 0 0] concat} def 
/mp {newpath /y exch def /x exch def} def
/side {[w .77 mul w .23 mul] .385 w mul sd w 0 l currentpoint t -144 r} def
/mr {mp x y w2 0 360 arc} def /m24 {mr s} def /m20 {mr f} def
/mb {mp x y w2 add m w2 neg 0 d 0 w neg d w 0 d 0 w d cl} def
/mt {mp x y w2 add m w2 neg w neg d w 0 d cl} def
/m21 {mb f} def /m25 {mb s} def /m22 {mt f} def /m26{mt s} def
/m23 {mp x y w2 sub m w2 w d w neg 0 d cl f} def
/m27 {mp x y w2 add m w3 neg w2 neg d w3 w2 neg d w3 w2 d cl s} def
/m28 {mp x w2 sub y w2 sub w3 add m w3 0 d  0 w3 neg d w3 0 d 0 w3 d w3 0 d  0 w3 d w3 neg 0 d 0 w3 d w3 neg 0 d 0 w3 neg d w3 neg 0 d cl s } def
/m29 {mp gsave x w2 sub y w2 add w3 sub m currentpoint t 4 {side} repeat cl fill gr} def
/m30 {mp gsave x w2 sub y w2 add w3 sub m currentpoint t 4 {side} repeat cl s gr} def
/m31 {mp x y w2 sub m 0 w d x w2 sub y m w 0 d x w2 sub y w2 add m w w neg d x w2 sub y w2 sub m w w d s} def
/m32 {mp x y w2 sub m w2 w d w neg 0 d cl s} def
/m33 {mp x y w2 add m w3 neg w2 neg d w3 w2 neg d w3 w2 d cl f} def
/m34 {mp x w2 sub y w2 sub w3 add m w3 0 d  0 w3 neg d w3 0 d 0 w3 d w3 0 d  0 w3 d w3 neg 0 d 0 w3 d w3 neg 0 d 0 w3 neg d w3 neg 0 d cl f } def
/m2 {mp x y w2 sub m 0 w d x w2 sub y m w 0 d s} def
/m5 {mp x w2 sub y w2 sub m w w d x w2 sub y w2 add m w w neg d s} def
%%IncludeResource: ProcSet (FontSetInit)
%%IncludeResource: font Times-Roman
%%IncludeResource: font Times-Italic
%%IncludeResource: font Times-Bold
%%IncludeResource: font Times-BoldItalic
%%IncludeResource: font Helvetica
%%IncludeResource: font Helvetica-Oblique
%%IncludeResource: font Helvetica-Bold
%%IncludeResource: font Helvetica-BoldOblique
%%IncludeResource: font Courier
%%IncludeResource: font Courier-Oblique
%%IncludeResource: font Courier-Bold
%%IncludeResource: font Courier-BoldOblique
%%IncludeResource: font Symbol
%%IncludeResource: font ZapfDingbats
/reEncode {exch findfont dup length dict begin {1 index /FID eq  {pop pop} {def} ifelse } forall /Encoding exch def currentdict end dup /FontName get exch definefont pop } def [/Times-Bold /Times-Italic /Times-BoldItalic /Helvetica /Helvetica-Oblique
 /Helvetica-Bold /Helvetica-BoldOblique /Courier /Courier-Oblique /Courier-Bold /Courier-BoldOblique /Times-Roman /AvantGarde-Book /AvantGarde-BookOblique /AvantGarde-Demi /AvantGarde-DemiOblique /Bookman-Demi /Bookman-DemiItalic /Bookman-Light
 /Bookman-LightItalic /Helvetica-Narrow /Helvetica-Narrow-Bold /Helvetica-Narrow-BoldOblique /Helvetica-Narrow-Oblique /NewCenturySchlbk-Roman /NewCenturySchlbk-Bold /NewCenturySchlbk-BoldItalic /NewCenturySchlbk-Italic /Palatino-Bold
 /Palatino-BoldItalic /Palatino-Italic /Palatino-Roman ] {ISOLatin1Encoding reEncode } forall
%%EndProlog
%%BeginSetup
%%EndSetup
newpath  gsave  .25 .25 scale  gsave  0 0 t black[  ] 0 sd 3 lw 1 1 1 c 2268 1538 0 0 bf black 1 1 1 c 1814 1230 227 154 bf black 1814 1230 227 154 bl 1 1 1 c 1814 1230 227 154 bf black 1814 1230 227 154 bl 227 154 m 1814 X s
 gsave  2268 1538 0 0 C 1860.44 35.8403 t 0 r /Helvetica-Bold findfont 58.6478 sf 0 0 m (r [mm]) show NC gr  354 191 m -37 Y s 435 172 m -18 Y s 516 172 m -18 Y s 597 172 m -18 Y s 678 172 m -18 Y s 758 191 m -37 Y s 839 172 m -18 Y s 920 172 m -18 Y
 s 1001 172 m -18 Y s 1082 172 m -18 Y s 1163 191 m -37 Y s 1244 172 m -18 Y s 1324 172 m -18 Y s 1405 172 m -18 Y s 1486 172 m -18 Y s 1567 191 m -37 Y s 1648 172 m -18 Y s 1729 172 m -18 Y s 1809 172 m -18 Y s 1890 172 m -18 Y s 1971 191 m -37 Y s
 354 191 m -37 Y s 273 172 m -18 Y s 1971 191 m -37 Y s
 gsave  2268 1538 0 0 C 303.014 97.7464 t 0 r /Helvetica-Bold findfont 58.6478 sf 0 0 m (100) show NC gr 
 gsave  2268 1538 0 0 C 707.032 97.7464 t 0 r /Helvetica-Bold findfont 58.6478 sf 0 0 m (150) show NC gr 
 gsave  2268 1538 0 0 C 1111.05 97.7464 t 0 r /Helvetica-Bold findfont 58.6478 sf 0 0 m (200) show NC gr 
 gsave  2268 1538 0 0 C 1515.07 97.7464 t 0 r /Helvetica-Bold findfont 58.6478 sf 0 0 m (250) show NC gr 
 gsave  2268 1538 0 0 C 1919.09 97.7464 t 0 r /Helvetica-Bold findfont 58.6478 sf 0 0 m (300) show NC gr  227 1384 m 1814 X s 354 1347 m 37 Y s 435 1366 m 18 Y s 516 1366 m 18 Y s 597 1366 m 18 Y s 678 1366 m 18 Y s 758 1347 m 37 Y s 839 1366 m 18 Y
 s 920 1366 m 18 Y s 1001 1366 m 18 Y s 1082 1366 m 18 Y s 1163 1347 m 37 Y s 1244 1366 m 18 Y s 1324 1366 m 18 Y s 1405 1366 m 18 Y s 1486 1366 m 18 Y s 1567 1347 m 37 Y s 1648 1366 m 18 Y s 1729 1366 m 18 Y s 1809 1366 m 18 Y s 1890 1366 m 18 Y s
 1971 1347 m 37 Y s 354 1347 m 37 Y s 273 1366 m 18 Y s 1971 1347 m 37 Y s 227 154 m 1230 Y s
 gsave  2268 1538 0 0 C 97.7464 710.291 t 90 r /Helvetica-Bold findfont 58.6478 sf 0 0 m (Cluster per etaModuleID) show NC gr  281 256 m -54 X s 254 289 m -27 X s 254 322 m -27 X s 254 356 m -27 X s 281 389 m -54 X s 254 422 m -27 X s 254 456 m -27 X
 s 254 489 m -27 X s 281 522 m -54 X s 254 555 m -27 X s 254 589 m -27 X s 254 622 m -27 X s 281 655 m -54 X s 254 689 m -27 X s 254 722 m -27 X s 254 755 m -27 X s 281 789 m -54 X s 254 822 m -27 X s 254 855 m -27 X s 254 888 m -27 X s 281 922 m -54
 X s 254 955 m -27 X s 254 988 m -27 X s 254 1022 m -27 X s 281 1055 m -54 X s 254 1088 m -27 X s 254 1122 m -27 X s 254 1155 m -27 X s 281 1188 m -54 X s 254 1222 m -27 X s 254 1255 m -27 X s 254 1288 m -27 X s 281 1321 m -54 X s 281 256 m -54 X s
 254 222 m -27 X s 254 189 m -27 X s 254 156 m -27 X s 281 1321 m -54 X s 254 1355 m -27 X s
 gsave  2268 1538 0 0 C 182.46 231.333 t 0 r /Helvetica-Bold findfont 58.6478 sf 0 0 m (2) show NC gr 
 gsave  2268 1538 0 0 C 182.46 368.178 t 0 r /Helvetica-Bold findfont 58.6478 sf 0 0 m (4) show NC gr 
 gsave  2268 1538 0 0 C 182.46 501.765 t 0 r /Helvetica-Bold findfont 58.6478 sf 0 0 m (6) show NC gr 
 gsave  2268 1538 0 0 C 182.46 635.352 t 0 r /Helvetica-Bold findfont 58.6478 sf 0 0 m (8) show NC gr 
 gsave  2268 1538 0 0 C 149.878 768.938 t 0 r /Helvetica-Bold findfont 58.6478 sf 0 0 m (10) show NC gr 
 gsave  2268 1538 0 0 C 149.878 896.009 t 0 r /Helvetica-Bold findfont 58.6478 sf 0 0 m (12) show NC gr 
 gsave  2268 1538 0 0 C 149.878 1032.85 t 0 r /Helvetica-Bold findfont 58.6478 sf 0 0 m (14) show NC gr 
 gsave  2268 1538 0 0 C 149.878 1166.44 t 0 r /Helvetica-Bold findfont 58.6478 sf 0 0 m (16) show NC gr 
 gsave  2268 1538 0 0 C 149.878 1300.03 t 0 r /Helvetica-Bold findfont 58.6478 sf 0 0 m (18) show NC gr  2041 154 m 1230 Y s 1987 256 m 54 X s 2014 289 m 27 X s 2014 322 m 27 X s 2014 356 m 27 X s 1987 389 m 54 X s 2014 422 m 27 X s 2014 456 m 27 X s
 2014 489 m 27 X s 1987 522 m 54 X s 2014 555 m 27 X s 2014 589 m 27 X s 2014 622 m 27 X s 1987 655 m 54 X s 2014 689 m 27 X s 2014 722 m 27 X s 2014 755 m 27 X s 1987 789 m 54 X s 2014 822 m 27 X s 2014 855 m 27 X s 2014 888 m 27 X s 1987 922 m 54 X
 s 2014 955 m 27 X s 2014 988 m 27 X s 2014 1022 m 27 X s 1987 1055 m 54 X s 2014 1088 m 27 X s 2014 1122 m 27 X s 2014 1155 m 27 X s 1987 1188 m 54 X s 2014 1222 m 27 X s 2014 1255 m 27 X s 2014 1288 m 27 X s 1987 1321 m 54 X s 1987 256 m 54 X s
 2014 222 m 27 X s 2014 189 m 27 X s 2014 156 m 27 X s 1987 1321 m 54 X s 2014 1355 m 27 X s 309 796 m 29 Y s 303 825 m 13 X s 309 770 m -29 Y s 303 741 m 13 X s 328 884 m 32 Y s 322 916 m 13 X s 328 858 m -32 Y s 322 826 m 13 X s 320 959 m 34 Y s
 313 993 m 13 X s 320 933 m -34 Y s 313 899 m 13 X s 333 935 m 33 Y s 327 968 m 13 X s 333 909 m -33 Y s 327 876 m 13 X s 309 783 m 19 88 d -8 75 d 13 -24 d s /w 26 def /w2 {w 2 div} def /w3 {w 3 div} def 309 783 328 871 320 946 333 922 4 { m20} R 1
 0 0 c 931 402 m 14 Y s 924 416 m 13 X s 931 376 m -14 Y s 924 362 m 13 X s 888 338 m 10 Y s 881 348 m 13 X s 888 312 m -10 Y s 881 302 m 13 X s 901 381 m 12 Y s 894 393 m 13 X s 901 355 m -13 Y s 894 342 m 13 X s 900 429 m 14 Y s 893 443 m 13 X s
 900 403 m -15 Y s 893 388 m 13 X s black 1 0 0 c 931 389 m -43 -64 d 13 43 d -1 48 d s 931 389 888 325 901 368 900 416 4 { m20} R 0 1 0 c 1406 327 m 10 Y s 1399 337 m 13 X s 1406 301 m -9 Y s 1399 292 m 13 X s 1409 367 m 12 Y s 1402 379 m 13 X s
 1409 341 m -12 Y s 1402 329 m 13 X s 1426 351 m 11 Y s 1419 362 m 13 X s 1426 325 m -11 Y s 1419 314 m 13 X s 1412 346 m 11 Y s 1406 357 m 13 X s 1412 320 m -11 Y s 1406 309 m 13 X s black 0 1 0 c 1406 314 m 3 40 d 17 -16 d -14 -5 d s 1406 314 1409
 354 1426 338 1412 333 4 { m20} R 0 0 1 c 1911 295 m 8 Y s 1905 303 m 13 X s 1911 269 m -7 Y s 1905 262 m 13 X s 1958 279 m 7 Y s 1952 286 m 13 X s 1958 253 m -6 Y s 1952 247 m 13 X s 1886 255 m 5 Y s 1879 260 m 13 X s 1886 229 m -5 Y s 1879 224 m 13
 X s 1907 309 m 8 Y s 1901 317 m 13 X s 1907 283 m -9 Y s 1901 274 m 13 X s black 0 0 1 c 1911 282 m 47 -16 d -72 -24 d 21 54 d s 1911 282 1958 266 1886 242 1907 296 4 { m20} R black[ 12 12] 0 sd 328 921 m 33 Y s 322 954 m 13 X s 328 895 m -32 Y s
 322 863 m 13 X s 340 991 m 34 Y s 333 1025 m 13 X s 340 965 m -35 Y s 333 930 m 13 X s 347 1036 m 36 Y s 340 1072 m 13 X s 347 1010 m -36 Y s 340 974 m 13 X s 343 959 m 34 Y s 336 993 m 13 X s 343 933 m -34 Y s 336 899 m 13 X s 328 908 m 12 70 d 7
 45 d -4 -77 d s[  ] 0 sd 328 908 340 978 347 1023 343 946 4 { m21} R[ 12 12] 0 sd 1 0 0 c 906 354 m 11 Y s 900 365 m 13 X s 906 328 m -11 Y s 900 317 m 13 X s 901 338 m 10 Y s 894 348 m 13 X s 901 312 m -10 Y s 894 302 m 13 X s 918 349 m 10 Y s 911
 359 m 13 X s 918 323 m -11 Y s 911 312 m 13 X s 871 359 m 12 Y s 864 371 m 13 X s 871 333 m -11 Y s 864 322 m 13 X s black 1 0 0 c 906 341 m -5 -16 d 17 11 d -47 10 d s[  ] 0 sd 906 341 901 325 918 336 871 346 4 { m21} R[ 12 12] 0 sd 0 1 0 c 1396
 311 m 9 Y s 1389 320 m 14 X s 1396 285 m -8 Y s 1389 277 m 14 X s 1425 362 m 11 Y s 1418 373 m 13 X s 1425 336 m -12 Y s 1418 324 m 13 X s 1396 343 m 11 Y s 1390 354 m 13 X s 1396 317 m -10 Y s 1390 307 m 13 X s 1422 357 m 11 Y s 1415 368 m 13 X s
 1422 331 m -12 Y s 1415 319 m 13 X s black 0 1 0 c 1396 298 m 29 51 d -29 -19 d 26 14 d s[  ] 0 sd 1396 298 1425 349 1396 330 1422 344 4 { m21} R[ 12 12] 0 sd 0 0 1 c 1945 226 m 3 Y s 1939 229 m 13 X s 1945 200 m -2 Y s 1939 198 m 13 X s 1913 263 m
 6 Y s 1907 269 m 13 X s 1913 237 m -5 Y s 1907 232 m 13 X s 1913 255 m 5 Y s 1906 260 m 13 X s 1913 229 m -5 Y s 1906 224 m 13 X s 1936 293 m 7 Y s 1930 300 m 13 X s 1936 267 m -8 Y s 1930 259 m 13 X s black 0 0 1 c 1945 213 m -32 37 d -8 Y 23 38 d
 s[  ] 0 sd 1945 213 1913 250 1913 242 1936 280 4 { m21} R[ 12 12] 0 sd black
 gsave  2268 1538 0 0 C 325.821 1283.74 t 0 r /Helvetica-Bold findfont 58.6478 sf 0 0 m (Pixel Disk \(left\)) show NC gr 
 gsave  2268 1538 0 0 C 430.084 1205.54 t 0 r /Helvetica-Bold findfont 58.6478 sf 0 0 m (Disk 0) show NC gr [  ] 0 sd 334 1223 m 80 X s 374 1223 m20
 gsave  2268 1538 0 0 C 430.084 1130.6 t 0 r /Helvetica-Bold findfont 58.6478 sf 0 0 m (Disk 1) show NC gr  1 0 0 c 334 1146 m 80 X s 374 1146 m20 black
 gsave  2268 1538 0 0 C 430.084 1052.4 t 0 r /Helvetica-Bold findfont 58.6478 sf 0 0 m (Disk 2) show NC gr  0 1 0 c 334 1069 m 80 X s 374 1069 m20 black
 gsave  2268 1538 0 0 C 430.084 977.464 t 0 r /Helvetica-Bold findfont 58.6478 sf 0 0 m (Disk 3) show NC gr  0 0 1 c 334 992 m 80 X s 374 992 m20 black
 gsave  2268 1538 0 0 C 622.319 1283.74 t 0 r /Helvetica-Bold findfont 58.6478 sf 0 0 m (  \(right\)) show NC gr 
 gsave  2268 1538 0 0 C 723.323 1205.54 t 0 r /Helvetica-Bold findfont 58.6478 sf 0 0 m (Disk 0) show NC gr [ 12 12] 0 sd 629 1223 m 80 X s[  ] 0 sd 669 1223 m21[ 12 12] 0 sd
 gsave  2268 1538 0 0 C 723.323 1130.6 t 0 r /Helvetica-Bold findfont 58.6478 sf 0 0 m (Disk 1) show NC gr  1 0 0 c 629 1146 m 80 X s[  ] 0 sd 669 1146 m21[ 12 12] 0 sd black
 gsave  2268 1538 0 0 C 723.323 1052.4 t 0 r /Helvetica-Bold findfont 58.6478 sf 0 0 m (Disk 2) show NC gr  0 1 0 c 629 1069 m 80 X s[  ] 0 sd 669 1069 m21[ 12 12] 0 sd black
 gsave  2268 1538 0 0 C 723.323 977.464 t 0 r /Helvetica-Bold findfont 58.6478 sf 0 0 m (Disk 3) show NC gr  0 0 1 c 629 992 m 80 X s[  ] 0 sd 669 992 m21[ 12 12] 0 sd
 gr  gr showpage
end
%%EOF
