%!PS-Adobe-2.0 EPSF-2.0
%%BoundingBox:  0 0 567 384
%%Title: pionDir/pixel_occupancy/hit_pixlayer_mg.eps: c1_n6
%%Creator: ROOT Version 6.04/12
%%CreationDate: Tue Apr 19 16:53:23 2016
%%DocumentNeededResources: ProcSet (FontSetInit)
%%EndComments
%%BeginProlog
80 dict begin
/s {stroke} def /l {lineto} def /m {moveto} def /t {translate} def
/r {rotate} def /rl {roll}  def /R {repeat} def
/d {rlineto} def /rm {rmoveto} def /gr {grestore} def /f {eofill} def
/c {setrgbcolor} def /black {0 setgray} def /sd {setdash} def
/cl {closepath} def /sf {scalefont setfont} def /lw {setlinewidth} def
/box {m dup 0 exch d exch 0 d 0 exch neg d cl} def
/NC{systemdict begin initclip end}def/C{NC box clip newpath}def
/bl {box s} def /bf {gsave box gsave f grestore 1 lw [] 0 sd s grestore} def /Y { 0 exch d} def /X { 0 d} def 
/K {{pop pop 0 moveto} exch kshow} bind def
/ita {/ang 15 def gsave [1 0 ang dup sin exch cos div 1 0 0] concat} def 
/mp {newpath /y exch def /x exch def} def
/side {[w .77 mul w .23 mul] .385 w mul sd w 0 l currentpoint t -144 r} def
/mr {mp x y w2 0 360 arc} def /m24 {mr s} def /m20 {mr f} def
/mb {mp x y w2 add m w2 neg 0 d 0 w neg d w 0 d 0 w d cl} def
/mt {mp x y w2 add m w2 neg w neg d w 0 d cl} def
/m21 {mb f} def /m25 {mb s} def /m22 {mt f} def /m26{mt s} def
/m23 {mp x y w2 sub m w2 w d w neg 0 d cl f} def
/m27 {mp x y w2 add m w3 neg w2 neg d w3 w2 neg d w3 w2 d cl s} def
/m28 {mp x w2 sub y w2 sub w3 add m w3 0 d  0 w3 neg d w3 0 d 0 w3 d w3 0 d  0 w3 d w3 neg 0 d 0 w3 d w3 neg 0 d 0 w3 neg d w3 neg 0 d cl s } def
/m29 {mp gsave x w2 sub y w2 add w3 sub m currentpoint t 4 {side} repeat cl fill gr} def
/m30 {mp gsave x w2 sub y w2 add w3 sub m currentpoint t 4 {side} repeat cl s gr} def
/m31 {mp x y w2 sub m 0 w d x w2 sub y m w 0 d x w2 sub y w2 add m w w neg d x w2 sub y w2 sub m w w d s} def
/m32 {mp x y w2 sub m w2 w d w neg 0 d cl s} def
/m33 {mp x y w2 add m w3 neg w2 neg d w3 w2 neg d w3 w2 d cl f} def
/m34 {mp x w2 sub y w2 sub w3 add m w3 0 d  0 w3 neg d w3 0 d 0 w3 d w3 0 d  0 w3 d w3 neg 0 d 0 w3 d w3 neg 0 d 0 w3 neg d w3 neg 0 d cl f } def
/m2 {mp x y w2 sub m 0 w d x w2 sub y m w 0 d s} def
/m5 {mp x w2 sub y w2 sub m w w d x w2 sub y w2 add m w w neg d s} def
%%IncludeResource: ProcSet (FontSetInit)
%%IncludeResource: font Times-Roman
%%IncludeResource: font Times-Italic
%%IncludeResource: font Times-Bold
%%IncludeResource: font Times-BoldItalic
%%IncludeResource: font Helvetica
%%IncludeResource: font Helvetica-Oblique
%%IncludeResource: font Helvetica-Bold
%%IncludeResource: font Helvetica-BoldOblique
%%IncludeResource: font Courier
%%IncludeResource: font Courier-Oblique
%%IncludeResource: font Courier-Bold
%%IncludeResource: font Courier-BoldOblique
%%IncludeResource: font Symbol
%%IncludeResource: font ZapfDingbats
/reEncode {exch findfont dup length dict begin {1 index /FID eq  {pop pop} {def} ifelse } forall /Encoding exch def currentdict end dup /FontName get exch definefont pop } def [/Times-Bold /Times-Italic /Times-BoldItalic /Helvetica /Helvetica-Oblique
 /Helvetica-Bold /Helvetica-BoldOblique /Courier /Courier-Oblique /Courier-Bold /Courier-BoldOblique /Times-Roman /AvantGarde-Book /AvantGarde-BookOblique /AvantGarde-Demi /AvantGarde-DemiOblique /Bookman-Demi /Bookman-DemiItalic /Bookman-Light
 /Bookman-LightItalic /Helvetica-Narrow /Helvetica-Narrow-Bold /Helvetica-Narrow-BoldOblique /Helvetica-Narrow-Oblique /NewCenturySchlbk-Roman /NewCenturySchlbk-Bold /NewCenturySchlbk-BoldItalic /NewCenturySchlbk-Italic /Palatino-Bold
 /Palatino-BoldItalic /Palatino-Italic /Palatino-Roman ] {ISOLatin1Encoding reEncode } forall
%%EndProlog
%%BeginSetup
%%EndSetup
newpath  gsave  .25 .25 scale  gsave  0 0 t black[  ] 0 sd 3 lw 1 1 1 c 2268 1538 0 0 bf black 1 1 1 c 1814 1230 227 154 bf black 1814 1230 227 154 bl 1 1 1 c 1814 1230 227 154 bf black 1814 1230 227 154 bl 227 154 m 1814 X s
 gsave  2268 1538 0 0 C 1772.47 32.5821 t 0 r /Helvetica-Bold findfont 58.6478 sf 0 0 m (moduleID) show NC gr  309 191 m -37 Y s 364 172 m -18 Y s 419 172 m -18 Y s 474 172 m -18 Y s 529 172 m -18 Y s 584 191 m -37 Y s 639 172 m -18 Y s 694 172 m -18
 Y s 749 172 m -18 Y s 804 172 m -18 Y s 859 191 m -37 Y s 914 172 m -18 Y s 969 172 m -18 Y s 1024 172 m -18 Y s 1079 172 m -18 Y s 1134 191 m -37 Y s 1189 172 m -18 Y s 1244 172 m -18 Y s 1299 172 m -18 Y s 1354 172 m -18 Y s 1409 191 m -37 Y s
 1464 172 m -18 Y s 1519 172 m -18 Y s 1574 172 m -18 Y s 1629 172 m -18 Y s 1684 191 m -37 Y s 1739 172 m -18 Y s 1794 172 m -18 Y s 1849 172 m -18 Y s 1904 172 m -18 Y s 1958 191 m -37 Y s 309 191 m -37 Y s 254 172 m -18 Y s 1958 191 m -37 Y s 2013
 172 m -18 Y s
 gsave  2268 1538 0 0 C 286.723 97.7464 t 0 r /Helvetica-Bold findfont 58.6478 sf 0 0 m (15) show NC gr 
 gsave  2268 1538 0 0 C 257.399 97.7464 t 0 r /Symbol findfont 58.6478 sf 0 0 m (-) show NC gr 
 gsave  2268 1538 0 0 C 563.671 97.7464 t 0 r /Helvetica-Bold findfont 58.6478 sf 0 0 m (10) show NC gr 
 gsave  2268 1538 0 0 C 534.347 97.7464 t 0 r /Symbol findfont 58.6478 sf 0 0 m (-) show NC gr 
 gsave  2268 1538 0 0 C 853.652 97.7464 t 0 r /Helvetica-Bold findfont 58.6478 sf 0 0 m (5) show NC gr 
 gsave  2268 1538 0 0 C 824.328 97.7464 t 0 r /Symbol findfont 58.6478 sf 0 0 m (-) show NC gr 
 gsave  2268 1538 0 0 C 1117.57 97.7464 t 0 r /Helvetica-Bold findfont 58.6478 sf 0 0 m (0) show NC gr 
 gsave  2268 1538 0 0 C 1391.26 97.7464 t 0 r /Helvetica-Bold findfont 58.6478 sf 0 0 m (5) show NC gr 
 gsave  2268 1538 0 0 C 1648.66 97.7464 t 0 r /Helvetica-Bold findfont 58.6478 sf 0 0 m (10) show NC gr 
 gsave  2268 1538 0 0 C 1925.6 97.7464 t 0 r /Helvetica-Bold findfont 58.6478 sf 0 0 m (15) show NC gr  227 1384 m 1814 X s 309 1347 m 37 Y s 364 1366 m 18 Y s 419 1366 m 18 Y s 474 1366 m 18 Y s 529 1366 m 18 Y s 584 1347 m 37 Y s 639 1366 m 18 Y s
 694 1366 m 18 Y s 749 1366 m 18 Y s 804 1366 m 18 Y s 859 1347 m 37 Y s 914 1366 m 18 Y s 969 1366 m 18 Y s 1024 1366 m 18 Y s 1079 1366 m 18 Y s 1134 1347 m 37 Y s 1189 1366 m 18 Y s 1244 1366 m 18 Y s 1299 1366 m 18 Y s 1354 1366 m 18 Y s 1409
 1347 m 37 Y s 1464 1366 m 18 Y s 1519 1366 m 18 Y s 1574 1366 m 18 Y s 1629 1366 m 18 Y s 1684 1347 m 37 Y s 1739 1366 m 18 Y s 1794 1366 m 18 Y s 1849 1366 m 18 Y s 1904 1366 m 18 Y s 1958 1347 m 37 Y s 309 1347 m 37 Y s 254 1366 m 18 Y s 1958 1347
 m 37 Y s 2013 1366 m 18 Y s 227 154 m 1230 Y s
 gsave  2268 1538 0 0 C 97.7464 801.521 t 90 r /Helvetica-Bold findfont 58.6478 sf 0 0 m (Hits per etaModuleID) show NC gr  281 154 m -54 X s 254 184 m -27 X s 254 213 m -27 X s 254 243 m -27 X s 254 273 m -27 X s 281 303 m -54 X s 254 333 m -27 X s
 254 363 m -27 X s 254 393 m -27 X s 254 422 m -27 X s 281 452 m -54 X s 254 482 m -27 X s 254 512 m -27 X s 254 542 m -27 X s 254 572 m -27 X s 281 602 m -54 X s 254 631 m -27 X s 254 661 m -27 X s 254 691 m -27 X s 254 721 m -27 X s 281 751 m -54 X
 s 254 781 m -27 X s 254 810 m -27 X s 254 840 m -27 X s 254 870 m -27 X s 281 900 m -54 X s 254 930 m -27 X s 254 960 m -27 X s 254 990 m -27 X s 254 1019 m -27 X s 281 1049 m -54 X s 254 1079 m -27 X s 254 1109 m -27 X s 254 1139 m -27 X s 254 1169
 m -27 X s 281 1198 m -54 X s 254 1228 m -27 X s 254 1258 m -27 X s 254 1288 m -27 X s 254 1318 m -27 X s 281 1348 m -54 X s 281 1348 m -54 X s 254 1378 m -27 X s
 gsave  2268 1538 0 0 C 182.46 133.587 t 0 r /Helvetica-Bold findfont 58.6478 sf 0 0 m (0) show NC gr 
 gsave  2268 1538 0 0 C 149.878 283.465 t 0 r /Helvetica-Bold findfont 58.6478 sf 0 0 m (10) show NC gr 
 gsave  2268 1538 0 0 C 149.878 430.084 t 0 r /Helvetica-Bold findfont 58.6478 sf 0 0 m (20) show NC gr 
 gsave  2268 1538 0 0 C 149.878 579.962 t 0 r /Helvetica-Bold findfont 58.6478 sf 0 0 m (30) show NC gr 
 gsave  2268 1538 0 0 C 149.878 729.84 t 0 r /Helvetica-Bold findfont 58.6478 sf 0 0 m (40) show NC gr 
 gsave  2268 1538 0 0 C 149.878 879.718 t 0 r /Helvetica-Bold findfont 58.6478 sf 0 0 m (50) show NC gr 
 gsave  2268 1538 0 0 C 149.878 1029.6 t 0 r /Helvetica-Bold findfont 58.6478 sf 0 0 m (60) show NC gr 
 gsave  2268 1538 0 0 C 149.878 1176.21 t 0 r /Helvetica-Bold findfont 58.6478 sf 0 0 m (70) show NC gr 
 gsave  2268 1538 0 0 C 149.878 1326.09 t 0 r /Helvetica-Bold findfont 58.6478 sf 0 0 m (80) show NC gr  2041 154 m 1230 Y s 1987 154 m 54 X s 2014 184 m 27 X s 2014 213 m 27 X s 2014 243 m 27 X s 2014 273 m 27 X s 1987 303 m 54 X s 2014 333 m 27 X s
 2014 363 m 27 X s 2014 393 m 27 X s 2014 422 m 27 X s 1987 452 m 54 X s 2014 482 m 27 X s 2014 512 m 27 X s 2014 542 m 27 X s 2014 572 m 27 X s 1987 602 m 54 X s 2014 631 m 27 X s 2014 661 m 27 X s 2014 691 m 27 X s 2014 721 m 27 X s 1987 751 m 54 X
 s 2014 781 m 27 X s 2014 810 m 27 X s 2014 840 m 27 X s 2014 870 m 27 X s 1987 900 m 54 X s 2014 930 m 27 X s 2014 960 m 27 X s 2014 990 m 27 X s 2014 1019 m 27 X s 1987 1049 m 54 X s 2014 1079 m 27 X s 2014 1109 m 27 X s 2014 1139 m 27 X s 2014
 1169 m 27 X s 1987 1198 m 54 X s 2014 1228 m 27 X s 2014 1258 m 27 X s 2014 1288 m 27 X s 2014 1318 m 27 X s 1987 1348 m 54 X s 1987 1348 m 54 X s 2014 1378 m 27 X s 309 856 m 122 Y s 303 978 m 13 X s 309 830 m -121 Y s 303 709 m 13 X s 364 886 m 96
 Y s 358 982 m 13 X s 364 860 m -97 Y s 358 763 m 13 X s 419 929 m 88 Y s 413 1017 m 13 X s 419 902 m -88 Y s 413 814 m 13 X s 474 542 m 60 Y s 468 602 m 13 X s 474 516 m -60 Y s 468 456 m 13 X s 529 464 m 51 Y s 523 515 m 13 X s 529 437 m -51 Y s
 523 386 m 13 X s 584 388 m 43 Y s 578 431 m 13 X s 584 362 m -44 Y s 578 318 m 13 X s 639 392 m 29 Y s 633 421 m 13 X s 639 366 m -29 Y s 633 337 m 13 X s 694 365 m 22 Y s 688 387 m 13 X s 694 339 m -22 Y s 688 317 m 13 X s 749 510 m 45 Y s 743 555
 m 13 X s 749 484 m -45 Y s 743 439 m 13 X s 804 272 m 12 Y s 797 284 m 14 X s 804 246 m -11 Y s 797 235 m 14 X s 859 450 m 19 Y s 852 469 m 13 X s 859 424 m -18 Y s 852 406 m 13 X s 914 363 m 14 Y s 907 377 m 13 X s 914 337 m -13 Y s 907 324 m 13 X
 s 1024 318 m 3 Y s 1017 321 m 13 X s 1024 292 m -2 Y s 1017 290 m 13 X s 1244 262 m 3 Y s 1237 265 m 13 X s 1244 236 m -3 Y s 1237 233 m 13 X s 1299 246 m 1 Y s 1292 247 m 13 X s 1299 220 m -2 Y s 1292 218 m 13 X s 1354 276 m 3 Y s 1347 279 m 13 X s
 1354 250 m -3 Y s 1347 247 m 13 X s 1409 410 m 21 Y s 1402 431 m 13 X s 1409 384 m -20 Y s 1402 364 m 13 X s 1464 469 m 24 Y s 1457 493 m 13 X s 1464 443 m -24 Y s 1457 419 m 13 X s 1519 658 m 33 Y s 1512 691 m 13 X s 1519 632 m -32 Y s 1512 600 m
 13 X s 1574 373 m 17 Y s 1567 390 m 13 X s 1574 347 m -17 Y s 1567 330 m 13 X s 1629 425 m 31 Y s 1622 456 m 13 X s 1629 399 m -32 Y s 1622 367 m 13 X s 1684 562 m 44 Y s 1677 606 m 13 X s 1684 536 m -44 Y s 1677 492 m 13 X s 1739 500 m 42 Y s 1732
 542 m 13 X s 1739 474 m -42 Y s 1732 432 m 13 X s 1794 392 m 32 Y s 1787 424 m 13 X s 1794 366 m -32 Y s 1787 334 m 13 X s 1849 665 m 81 Y s 1842 746 m 13 X s 1849 639 m -82 Y s 1842 557 m 13 X s 1904 366 m 35 Y s 1897 401 m 13 X s 1904 340 m -36 Y
 s 1897 304 m 13 X s 1958 527 m 56 Y s 1952 583 m 13 X s 1958 501 m -56 Y s 1952 445 m 13 X s 309 843 m 55 30 d 55 43 d 55 -387 d 55 -79 d 55 -75 d 55 4 d 55 -27 d 55 145 d 55 -238 d 55 178 d 55 -87 d 55 -75 d 55 30 d 55 -112 d 110 17 d 55 39 d 55
 -16 d 55 30 d 55 134 d 55 59 d 55 189 d 55 -285 d 55 52 d 55 137 d 55 -62 d 55 -108 d 55 273 d 55 -299 d 54 161 d s /w 26 def /w2 {w 2 div} def /w3 {w 3 div} def 309 843 364 873 419 916 474 529 529 450 584 375 639 379 694 352 749 497 804 259 859 437
 914 350 969 275 1024 305 1079 193 1189 210 1244 249 1299 233 1354 263 1409 397 1464 456 1519 645 1574 360 1629 412 1684 549 1739 487 1794 379 1849 652 1904 353 1958 514 30 { m20} R 1 0 0 c 309 610 m 40 Y s 303 650 m 13 X s 309 584 m -39 Y s 303 545
 m 13 X s 364 636 m 38 Y s 358 674 m 13 X s 364 610 m -38 Y s 358 572 m 13 X s 419 496 m 53 Y s 413 549 m 13 X s 419 470 m -53 Y s 413 417 m 13 X s 474 395 m 20 Y s 468 415 m 13 X s 474 369 m -20 Y s 468 349 m 13 X s 529 418 m 21 Y s 523 439 m 13 X s
 529 391 m -21 Y s 523 370 m 13 X s 584 269 m 3 Y s 578 272 m 13 X s 584 243 m -4 Y s 578 239 m 13 X s 639 321 m 2 Y s 633 323 m 13 X s 639 295 m -3 Y s 633 292 m 13 X s 694 405 m 12 Y s 688 417 m 13 X s 694 379 m -12 Y s 688 367 m 13 X s 749 265 m 8
 Y s 743 273 m 13 X s 749 239 m -8 Y s 743 231 m 13 X s 859 395 m 5 Y s 852 400 m 13 X s 859 369 m -5 Y s 852 364 m 13 X s 914 327 m 2 Y s 907 329 m 13 X s 914 301 m -2 Y s 907 299 m 13 X s 1464 323 m 3 Y s 1457 326 m 13 X s 1464 297 m -4 Y s 1457
 293 m 13 X s 1519 362 m 8 Y s 1512 370 m 13 X s 1519 336 m -8 Y s 1512 328 m 13 X s 1574 334 m 4 Y s 1567 338 m 13 X s 1574 308 m -4 Y s 1567 304 m 13 X s 1629 375 m 8 Y s 1622 383 m 13 X s 1629 348 m -8 Y s 1622 340 m 13 X s 1684 311 m 10 Y s 1677
 321 m 13 X s 1684 285 m -10 Y s 1677 275 m 13 X s 1739 503 m 23 Y s 1732 526 m 13 X s 1739 477 m -23 Y s 1732 454 m 13 X s 1794 563 m 31 Y s 1787 594 m 13 X s 1794 537 m -30 Y s 1787 507 m 13 X s 1849 662 m 46 Y s 1842 708 m 13 X s 1849 636 m -46 Y
 s 1842 590 m 13 X s 1904 530 m 29 Y s 1897 559 m 13 X s 1904 504 m -29 Y s 1897 475 m 13 X s 1958 436 m 27 Y s 1952 463 m 13 X s 1958 410 m -27 Y s 1952 383 m 13 X s black 1 0 0 c 309 597 m 55 26 d 55 -140 d 55 -101 d 55 23 d 55 -149 d 55 52 d 55 84
 d 55 -140 d 55 3 d 55 127 d 55 -68 d 55 -99 d 55 49 d 55 17 d 110 -36 d 55 -50 d 55 4 d 55 26 d 55 9 d 55 76 d 55 39 d 55 -28 d 55 41 d 55 -64 d 55 192 d 55 60 d 55 99 d 55 -132 d 54 -94 d s 309 597 364 623 419 483 474 382 529 405 584 256 639 308
 694 392 749 252 804 255 859 382 914 314 969 215 1024 264 1079 281 1189 245 1244 195 1299 199 1354 225 1409 234 1464 310 1519 349 1574 321 1629 362 1684 298 1739 490 1794 550 1849 649 1904 517 1958 423 30 { m20} R 0 1 0 c 749 339 m 2 Y s 743 341 m 13
 X s 749 313 m -3 Y s 743 310 m 13 X s 859 303 m 7 Y s 852 310 m 13 X s 859 277 m -7 Y s 852 270 m 13 X s 1079 278 m 3 Y s 1072 281 m 13 X s 1079 252 m -3 Y s 1072 249 m 13 X s 1189 264 m 5 Y s 1182 269 m 13 X s 1189 237 m -5 Y s 1182 232 m 13 X s
 1464 295 m 14 Y s 1457 309 m 13 X s 1464 269 m -15 Y s 1457 254 m 13 X s black 0 1 0 c 639 299 m 55 -40 d 55 67 d 55 -93 d 55 57 d 55 -80 d 55 15 d 55 17 d 55 23 d 110 -15 d 55 -74 d 55 15 d 55 53 d 55 -14 d 55 52 d 55 -52 d 55 -4 d 55 -3 d s 639
 299 694 259 749 326 804 233 859 290 914 210 969 225 1024 242 1079 265 1189 250 1244 176 1299 191 1354 244 1409 230 1464 282 1519 230 1574 226 1629 223 18 { m20} R 0 0 1 c 1629 306 m 3 Y s 1622 309 m 13 X s 1629 280 m -4 Y s 1622 276 m 13 X s black 0
 0 1 c 639 230 m 55 11 d 55 1 d 55 -43 d 55 21 d 55 1 d 55 -50 d 55 12 d 55 13 d 110 -4 d 55 -2 d 55 3 d 55 -3 d 55 24 d 55 41 d 55 -43 d 55 2 d 55 79 d s 639 230 694 241 749 242 804 199 859 220 914 221 969 171 1024 183 1079 196 1189 192 1244 190
 1299 193 1354 190 1409 214 1464 255 1519 212 1574 214 1629 293 18 { m20} R 1 1 0 c 639 230 m 1 Y s 633 231 m 13 X s 639 204 m -1 Y s 633 203 m 13 X s black 1 1 0 c 639 217 m 55 7 d 55 19 d 55 -29 d 55 -12 d 55 -12 d 55 45 d 55 2 d 55 12 d 110 -48 d
 55 -25 d 55 48 d 55 -39 d 55 7 d 55 7 d 55 -4 d 55 32 d 55 19 d s 639 217 694 224 749 243 804 214 859 202 914 190 969 235 1024 237 1079 249 1189 201 1244 176 1299 224 1354 185 1409 192 1464 199 1519 195 1574 227 1629 246 18 { m20} R black
 gsave  2268 1538 0 0 C 1531.36 1032.85 t 0 r /Helvetica-Bold findfont 58.6478 sf 0 0 m (Pixel Barrel) show NC gr 
 gsave  2268 1538 0 0 C 1648.66 967.689 t 0 r /Helvetica-Bold findfont 58.6478 sf 0 0 m (Layer 0) show NC gr  1539 980 m 91 X s 1585 980 m20
 gsave  2268 1538 0 0 C 1648.66 902.525 t 0 r /Helvetica-Bold findfont 58.6478 sf 0 0 m (Layer 1) show NC gr  1 0 0 c 1539 916 m 91 X s 1585 916 m20 black
 gsave  2268 1538 0 0 C 1648.66 840.619 t 0 r /Helvetica-Bold findfont 58.6478 sf 0 0 m (Layer 2) show NC gr  0 1 0 c 1539 852 m 91 X s 1585 852 m20 black
 gsave  2268 1538 0 0 C 1648.66 775.455 t 0 r /Helvetica-Bold findfont 58.6478 sf 0 0 m (Layer 3) show NC gr  0 0 1 c 1539 788 m 91 X s 1585 788 m20 black
 gsave  2268 1538 0 0 C 1648.66 710.291 t 0 r /Helvetica-Bold findfont 58.6478 sf 0 0 m (Layer 4) show NC gr  1 1 0 c 1539 724 m 91 X s 1585 724 m20
 gr  gr showpage
end
%%EOF
