%!PS-Adobe-2.0 EPSF-2.0
%%BoundingBox:  0 0 567 384
%%Title: pionDir/pixel_occupancy/hit_pixdisk_mg.eps: c1_n16
%%Creator: ROOT Version 6.04/12
%%CreationDate: Tue Apr 19 16:53:24 2016
%%DocumentNeededResources: ProcSet (FontSetInit)
%%EndComments
%%BeginProlog
80 dict begin
/s {stroke} def /l {lineto} def /m {moveto} def /t {translate} def
/r {rotate} def /rl {roll}  def /R {repeat} def
/d {rlineto} def /rm {rmoveto} def /gr {grestore} def /f {eofill} def
/c {setrgbcolor} def /black {0 setgray} def /sd {setdash} def
/cl {closepath} def /sf {scalefont setfont} def /lw {setlinewidth} def
/box {m dup 0 exch d exch 0 d 0 exch neg d cl} def
/NC{systemdict begin initclip end}def/C{NC box clip newpath}def
/bl {box s} def /bf {gsave box gsave f grestore 1 lw [] 0 sd s grestore} def /Y { 0 exch d} def /X { 0 d} def 
/K {{pop pop 0 moveto} exch kshow} bind def
/ita {/ang 15 def gsave [1 0 ang dup sin exch cos div 1 0 0] concat} def 
/mp {newpath /y exch def /x exch def} def
/side {[w .77 mul w .23 mul] .385 w mul sd w 0 l currentpoint t -144 r} def
/mr {mp x y w2 0 360 arc} def /m24 {mr s} def /m20 {mr f} def
/mb {mp x y w2 add m w2 neg 0 d 0 w neg d w 0 d 0 w d cl} def
/mt {mp x y w2 add m w2 neg w neg d w 0 d cl} def
/m21 {mb f} def /m25 {mb s} def /m22 {mt f} def /m26{mt s} def
/m23 {mp x y w2 sub m w2 w d w neg 0 d cl f} def
/m27 {mp x y w2 add m w3 neg w2 neg d w3 w2 neg d w3 w2 d cl s} def
/m28 {mp x w2 sub y w2 sub w3 add m w3 0 d  0 w3 neg d w3 0 d 0 w3 d w3 0 d  0 w3 d w3 neg 0 d 0 w3 d w3 neg 0 d 0 w3 neg d w3 neg 0 d cl s } def
/m29 {mp gsave x w2 sub y w2 add w3 sub m currentpoint t 4 {side} repeat cl fill gr} def
/m30 {mp gsave x w2 sub y w2 add w3 sub m currentpoint t 4 {side} repeat cl s gr} def
/m31 {mp x y w2 sub m 0 w d x w2 sub y m w 0 d x w2 sub y w2 add m w w neg d x w2 sub y w2 sub m w w d s} def
/m32 {mp x y w2 sub m w2 w d w neg 0 d cl s} def
/m33 {mp x y w2 add m w3 neg w2 neg d w3 w2 neg d w3 w2 d cl f} def
/m34 {mp x w2 sub y w2 sub w3 add m w3 0 d  0 w3 neg d w3 0 d 0 w3 d w3 0 d  0 w3 d w3 neg 0 d 0 w3 d w3 neg 0 d 0 w3 neg d w3 neg 0 d cl f } def
/m2 {mp x y w2 sub m 0 w d x w2 sub y m w 0 d s} def
/m5 {mp x w2 sub y w2 sub m w w d x w2 sub y w2 add m w w neg d s} def
%%IncludeResource: ProcSet (FontSetInit)
%%IncludeResource: font Times-Roman
%%IncludeResource: font Times-Italic
%%IncludeResource: font Times-Bold
%%IncludeResource: font Times-BoldItalic
%%IncludeResource: font Helvetica
%%IncludeResource: font Helvetica-Oblique
%%IncludeResource: font Helvetica-Bold
%%IncludeResource: font Helvetica-BoldOblique
%%IncludeResource: font Courier
%%IncludeResource: font Courier-Oblique
%%IncludeResource: font Courier-Bold
%%IncludeResource: font Courier-BoldOblique
%%IncludeResource: font Symbol
%%IncludeResource: font ZapfDingbats
/reEncode {exch findfont dup length dict begin {1 index /FID eq  {pop pop} {def} ifelse } forall /Encoding exch def currentdict end dup /FontName get exch definefont pop } def [/Times-Bold /Times-Italic /Times-BoldItalic /Helvetica /Helvetica-Oblique
 /Helvetica-Bold /Helvetica-BoldOblique /Courier /Courier-Oblique /Courier-Bold /Courier-BoldOblique /Times-Roman /AvantGarde-Book /AvantGarde-BookOblique /AvantGarde-Demi /AvantGarde-DemiOblique /Bookman-Demi /Bookman-DemiItalic /Bookman-Light
 /Bookman-LightItalic /Helvetica-Narrow /Helvetica-Narrow-Bold /Helvetica-Narrow-BoldOblique /Helvetica-Narrow-Oblique /NewCenturySchlbk-Roman /NewCenturySchlbk-Bold /NewCenturySchlbk-BoldItalic /NewCenturySchlbk-Italic /Palatino-Bold
 /Palatino-BoldItalic /Palatino-Italic /Palatino-Roman ] {ISOLatin1Encoding reEncode } forall
%%EndProlog
%%BeginSetup
%%EndSetup
newpath  gsave  .25 .25 scale  gsave  0 0 t black[  ] 0 sd 3 lw 1 1 1 c 2268 1538 0 0 bf black 1 1 1 c 1814 1230 227 154 bf black 1814 1230 227 154 bl 1 1 1 c 1814 1230 227 154 bf black 1814 1230 227 154 bl 227 154 m 1814 X s
 gsave  2268 1538 0 0 C 1772.47 32.5821 t 0 r /Helvetica-Bold findfont 58.6478 sf 0 0 m (moduleID) show NC gr  309 191 m -37 Y s 364 172 m -18 Y s 419 172 m -18 Y s 474 172 m -18 Y s 529 172 m -18 Y s 584 191 m -37 Y s 639 172 m -18 Y s 694 172 m -18
 Y s 749 172 m -18 Y s 804 172 m -18 Y s 859 191 m -37 Y s 914 172 m -18 Y s 969 172 m -18 Y s 1024 172 m -18 Y s 1079 172 m -18 Y s 1134 191 m -37 Y s 1189 172 m -18 Y s 1244 172 m -18 Y s 1299 172 m -18 Y s 1354 172 m -18 Y s 1409 191 m -37 Y s
 1464 172 m -18 Y s 1519 172 m -18 Y s 1574 172 m -18 Y s 1629 172 m -18 Y s 1684 191 m -37 Y s 1739 172 m -18 Y s 1794 172 m -18 Y s 1849 172 m -18 Y s 1904 172 m -18 Y s 1958 191 m -37 Y s 309 191 m -37 Y s 254 172 m -18 Y s 1958 191 m -37 Y s 2013
 172 m -18 Y s
 gsave  2268 1538 0 0 C 289.981 97.7464 t 0 r /Helvetica-Bold findfont 58.6478 sf 0 0 m (0) show NC gr 
 gsave  2268 1538 0 0 C 540.863 97.7464 t 0 r /Helvetica-Bold findfont 58.6478 sf 0 0 m (0.5) show NC gr 
 gsave  2268 1538 0 0 C 843.877 97.7464 t 0 r /Helvetica-Bold findfont 58.6478 sf 0 0 m (1) show NC gr 
 gsave  2268 1538 0 0 C 1091.5 97.7464 t 0 r /Helvetica-Bold findfont 58.6478 sf 0 0 m (1.5) show NC gr 
 gsave  2268 1538 0 0 C 1391.26 97.7464 t 0 r /Helvetica-Bold findfont 58.6478 sf 0 0 m (2) show NC gr 
 gsave  2268 1538 0 0 C 1638.88 97.7464 t 0 r /Helvetica-Bold findfont 58.6478 sf 0 0 m (2.5) show NC gr 
 gsave  2268 1538 0 0 C 1941.9 97.7464 t 0 r /Helvetica-Bold findfont 58.6478 sf 0 0 m (3) show NC gr  227 1384 m 1814 X s 309 1347 m 37 Y s 364 1366 m 18 Y s 419 1366 m 18 Y s 474 1366 m 18 Y s 529 1366 m 18 Y s 584 1347 m 37 Y s 639 1366 m 18 Y s
 694 1366 m 18 Y s 749 1366 m 18 Y s 804 1366 m 18 Y s 859 1347 m 37 Y s 914 1366 m 18 Y s 969 1366 m 18 Y s 1024 1366 m 18 Y s 1079 1366 m 18 Y s 1134 1347 m 37 Y s 1189 1366 m 18 Y s 1244 1366 m 18 Y s 1299 1366 m 18 Y s 1354 1366 m 18 Y s 1409
 1347 m 37 Y s 1464 1366 m 18 Y s 1519 1366 m 18 Y s 1574 1366 m 18 Y s 1629 1366 m 18 Y s 1684 1347 m 37 Y s 1739 1366 m 18 Y s 1794 1366 m 18 Y s 1849 1366 m 18 Y s 1904 1366 m 18 Y s 1958 1347 m 37 Y s 309 1347 m 37 Y s 254 1366 m 18 Y s 1958 1347
 m 37 Y s 2013 1366 m 18 Y s 227 154 m 1230 Y s
 gsave  2268 1538 0 0 C 97.7464 801.521 t 90 r /Helvetica-Bold findfont 58.6478 sf 0 0 m (Hits per etaModuleID) show NC gr  281 236 m -54 X s 254 269 m -27 X s 254 302 m -27 X s 254 335 m -27 X s 254 368 m -27 X s 281 401 m -54 X s 254 434 m -27 X s
 254 467 m -27 X s 254 500 m -27 X s 254 534 m -27 X s 281 567 m -54 X s 254 600 m -27 X s 254 633 m -27 X s 254 666 m -27 X s 254 699 m -27 X s 281 732 m -54 X s 254 765 m -27 X s 254 798 m -27 X s 254 831 m -27 X s 254 865 m -27 X s 281 898 m -54 X
 s 254 931 m -27 X s 254 964 m -27 X s 254 997 m -27 X s 254 1030 m -27 X s 281 1063 m -54 X s 254 1096 m -27 X s 254 1129 m -27 X s 254 1163 m -27 X s 254 1196 m -27 X s 281 1229 m -54 X s 281 236 m -54 X s 254 202 m -27 X s 254 169 m -27 X s 281
 1229 m -54 X s 254 1262 m -27 X s 254 1295 m -27 X s 254 1328 m -27 X s 254 1361 m -27 X s
 gsave  2268 1538 0 0 C 182.46 215.042 t 0 r /Helvetica-Bold findfont 58.6478 sf 0 0 m (5) show NC gr 
 gsave  2268 1538 0 0 C 149.878 381.211 t 0 r /Helvetica-Bold findfont 58.6478 sf 0 0 m (10) show NC gr 
 gsave  2268 1538 0 0 C 149.878 544.122 t 0 r /Helvetica-Bold findfont 58.6478 sf 0 0 m (15) show NC gr 
 gsave  2268 1538 0 0 C 149.878 710.291 t 0 r /Helvetica-Bold findfont 58.6478 sf 0 0 m (20) show NC gr 
 gsave  2268 1538 0 0 C 149.878 876.459 t 0 r /Helvetica-Bold findfont 58.6478 sf 0 0 m (25) show NC gr 
 gsave  2268 1538 0 0 C 149.878 1042.63 t 0 r /Helvetica-Bold findfont 58.6478 sf 0 0 m (30) show NC gr 
 gsave  2268 1538 0 0 C 149.878 1208.8 t 0 r /Helvetica-Bold findfont 58.6478 sf 0 0 m (35) show NC gr  2041 154 m 1230 Y s 1987 236 m 54 X s 2014 269 m 27 X s 2014 302 m 27 X s 2014 335 m 27 X s 2014 368 m 27 X s 1987 401 m 54 X s 2014 434 m 27 X s
 2014 467 m 27 X s 2014 500 m 27 X s 2014 534 m 27 X s 1987 567 m 54 X s 2014 600 m 27 X s 2014 633 m 27 X s 2014 666 m 27 X s 2014 699 m 27 X s 1987 732 m 54 X s 2014 765 m 27 X s 2014 798 m 27 X s 2014 831 m 27 X s 2014 865 m 27 X s 1987 898 m 54 X
 s 2014 931 m 27 X s 2014 964 m 27 X s 2014 997 m 27 X s 2014 1030 m 27 X s 1987 1063 m 54 X s 2014 1096 m 27 X s 2014 1129 m 27 X s 2014 1163 m 27 X s 2014 1196 m 27 X s 1987 1229 m 54 X s 1987 236 m 54 X s 2014 202 m 27 X s 2014 169 m 27 X s 1987
 1229 m 54 X s 2014 1262 m 27 X s 2014 1295 m 27 X s 2014 1328 m 27 X s 2014 1361 m 27 X s 309 708 m 11 Y s 303 719 m 13 X s 309 682 m -11 Y s 303 671 m 13 X s 859 900 m 32 Y s 852 932 m 13 X s 859 874 m -32 Y s 852 842 m 13 X s 1409 999 m 45 Y s
 1402 1044 m 13 X s 1409 973 m -44 Y s 1402 929 m 13 X s 1958 924 m 25 Y s 1952 949 m 13 X s 1958 898 m -25 Y s 1952 873 m 13 X s 309 695 m 550 192 d 550 99 d 549 -75 d s /w 26 def /w2 {w 2 div} def /w3 {w 3 div} def 309 695 859 887 1409 986 1958 911
 4 { m20} R 1 0 0 c 309 474 m 25 Y s 303 499 m 13 X s 309 448 m -25 Y s 303 423 m 13 X s 859 313 m 4 Y s 852 317 m 13 X s 859 287 m -3 Y s 852 284 m 13 X s 1409 394 m 19 Y s 1402 413 m 13 X s 1409 368 m -18 Y s 1402 350 m 13 X s 1958 413 m 10 Y s
 1952 423 m 13 X s 1958 387 m -11 Y s 1952 376 m 13 X s black 1 0 0 c 309 461 m 550 -161 d 550 81 d 549 19 d s 309 461 859 300 1409 381 1958 400 4 { m20} R 0 1 0 c 309 401 m 24 Y s 303 425 m 13 X s 309 375 m -25 Y s 303 350 m 13 X s 859 409 m 14 Y s
 852 423 m 13 X s 859 383 m -15 Y s 852 368 m 13 X s 1409 337 m 7 Y s 1402 344 m 13 X s 1409 311 m -7 Y s 1402 304 m 13 X s 1958 380 m 22 Y s 1952 402 m 13 X s 1958 354 m -23 Y s 1952 331 m 13 X s black 0 1 0 c 309 388 m 550 8 d 550 -72 d 549 43 d s
 309 388 859 396 1409 324 1958 367 4 { m20} R 0 0 1 c 1409 264 m 10 Y s 1402 274 m 13 X s 1409 238 m -9 Y s 1402 229 m 13 X s 1958 303 m s 1952 303 m 13 X s 1958 277 m s 1952 277 m 13 X s black 0 0 1 c 309 278 m 550 -12 d 550 -15 d 549 39 d s 309 278
 859 266 1409 251 1958 290 4 { m20} R black[ 12 12] 0 sd 309 855 m 32 Y s 303 887 m 13 X s 309 829 m -32 Y s 303 797 m 13 X s 859 960 m 41 Y s 852 1001 m 13 X s 859 934 m -42 Y s 852 892 m 13 X s 1409 936 m 16 Y s 1402 952 m 13 X s 1409 910 m -16 Y s
 1402 894 m 13 X s 1958 908 m 19 Y s 1952 927 m 13 X s 1958 882 m -19 Y s 1952 863 m 13 X s 309 842 m 550 105 d 550 -24 d 549 -28 d s[  ] 0 sd 309 842 859 947 1409 923 1958 895 4 { m21} R[ 12 12] 0 sd 1 0 0 c 309 335 m 7 Y s 303 342 m 13 X s 309 309
 m -8 Y s 303 301 m 13 X s 859 345 m 7 Y s 852 352 m 13 X s 859 319 m -6 Y s 852 313 m 13 X s 1409 356 m 8 Y s 1402 364 m 13 X s 1409 330 m -9 Y s 1402 321 m 13 X s 1958 317 m 4 Y s 1952 321 m 13 X s 1958 291 m -3 Y s 1952 288 m 13 X s black 1 0 0 c
 309 322 m 550 10 d 550 11 d 549 -39 d s[  ] 0 sd 309 322 859 332 1409 343 1958 304 4 { m21} R[ 12 12] 0 sd 0 1 0 c 309 351 m 7 Y s 303 358 m 13 X s 309 324 m -7 Y s 303 317 m 13 X s 859 359 m 4 Y s 852 363 m 13 X s 859 332 m -4 Y s 852 328 m 13 X s
 1409 380 m 9 Y s 1402 389 m 13 X s 1409 354 m -10 Y s 1402 344 m 13 X s 1958 359 m 3 Y s 1952 362 m 13 X s 1958 332 m -3 Y s 1952 329 m 13 X s black 0 1 0 c 309 338 m 550 7 d 550 22 d 549 -22 d s[  ] 0 sd 309 338 859 345 1409 367 1958 345 4 { m21}
 R[ 12 12] 0 sd 0 0 1 c 309 230 m 8 Y s 303 238 m 13 X s 309 204 m -8 Y s 303 196 m 13 X s 859 282 m 12 Y s 852 294 m 13 X s 859 256 m -13 Y s 852 243 m 13 X s 1409 245 m s 1402 245 m 13 X s 1409 219 m -1 Y s 1402 218 m 13 X s black 0 0 1 c 309 217 m
 550 52 d 550 -37 d 549 11 d s[  ] 0 sd 309 217 859 269 1409 232 1958 243 4 { m21} R[ 12 12] 0 sd black
 gsave  2268 1538 0 0 C 325.821 1283.74 t 0 r /Helvetica-Bold findfont 58.6478 sf 0 0 m (Pixel Disk \(left\)) show NC gr 
 gsave  2268 1538 0 0 C 430.084 1205.54 t 0 r /Helvetica-Bold findfont 58.6478 sf 0 0 m (Disk 0) show NC gr [  ] 0 sd 334 1223 m 80 X s 374 1223 m20
 gsave  2268 1538 0 0 C 430.084 1130.6 t 0 r /Helvetica-Bold findfont 58.6478 sf 0 0 m (Disk 1) show NC gr  1 0 0 c 334 1146 m 80 X s 374 1146 m20 black
 gsave  2268 1538 0 0 C 430.084 1052.4 t 0 r /Helvetica-Bold findfont 58.6478 sf 0 0 m (Disk 2) show NC gr  0 1 0 c 334 1069 m 80 X s 374 1069 m20 black
 gsave  2268 1538 0 0 C 430.084 977.464 t 0 r /Helvetica-Bold findfont 58.6478 sf 0 0 m (Disk 3) show NC gr  0 0 1 c 334 992 m 80 X s 374 992 m20 black
 gsave  2268 1538 0 0 C 622.319 1283.74 t 0 r /Helvetica-Bold findfont 58.6478 sf 0 0 m (  \(right\)) show NC gr 
 gsave  2268 1538 0 0 C 723.323 1205.54 t 0 r /Helvetica-Bold findfont 58.6478 sf 0 0 m (Disk 0) show NC gr [ 12 12] 0 sd 629 1223 m 80 X s[  ] 0 sd 669 1223 m21[ 12 12] 0 sd
 gsave  2268 1538 0 0 C 723.323 1130.6 t 0 r /Helvetica-Bold findfont 58.6478 sf 0 0 m (Disk 1) show NC gr  1 0 0 c 629 1146 m 80 X s[  ] 0 sd 669 1146 m21[ 12 12] 0 sd black
 gsave  2268 1538 0 0 C 723.323 1052.4 t 0 r /Helvetica-Bold findfont 58.6478 sf 0 0 m (Disk 2) show NC gr  0 1 0 c 629 1069 m 80 X s[  ] 0 sd 669 1069 m21[ 12 12] 0 sd black
 gsave  2268 1538 0 0 C 723.323 977.464 t 0 r /Helvetica-Bold findfont 58.6478 sf 0 0 m (Disk 3) show NC gr  0 0 1 c 629 992 m 80 X s[  ] 0 sd 669 992 m21[ 12 12] 0 sd
 gr  gr showpage
end
%%EOF
