%!PS-Adobe-2.0 EPSF-2.0
%%BoundingBox:  0 0 567 384
%%Title: pionDir/pixel_occupancy/hit_pixdisk_mgr.eps: c1_n17
%%Creator: ROOT Version 6.04/12
%%CreationDate: Tue Apr 19 16:53:24 2016
%%DocumentNeededResources: ProcSet (FontSetInit)
%%EndComments
%%BeginProlog
80 dict begin
/s {stroke} def /l {lineto} def /m {moveto} def /t {translate} def
/r {rotate} def /rl {roll}  def /R {repeat} def
/d {rlineto} def /rm {rmoveto} def /gr {grestore} def /f {eofill} def
/c {setrgbcolor} def /black {0 setgray} def /sd {setdash} def
/cl {closepath} def /sf {scalefont setfont} def /lw {setlinewidth} def
/box {m dup 0 exch d exch 0 d 0 exch neg d cl} def
/NC{systemdict begin initclip end}def/C{NC box clip newpath}def
/bl {box s} def /bf {gsave box gsave f grestore 1 lw [] 0 sd s grestore} def /Y { 0 exch d} def /X { 0 d} def 
/K {{pop pop 0 moveto} exch kshow} bind def
/ita {/ang 15 def gsave [1 0 ang dup sin exch cos div 1 0 0] concat} def 
/mp {newpath /y exch def /x exch def} def
/side {[w .77 mul w .23 mul] .385 w mul sd w 0 l currentpoint t -144 r} def
/mr {mp x y w2 0 360 arc} def /m24 {mr s} def /m20 {mr f} def
/mb {mp x y w2 add m w2 neg 0 d 0 w neg d w 0 d 0 w d cl} def
/mt {mp x y w2 add m w2 neg w neg d w 0 d cl} def
/m21 {mb f} def /m25 {mb s} def /m22 {mt f} def /m26{mt s} def
/m23 {mp x y w2 sub m w2 w d w neg 0 d cl f} def
/m27 {mp x y w2 add m w3 neg w2 neg d w3 w2 neg d w3 w2 d cl s} def
/m28 {mp x w2 sub y w2 sub w3 add m w3 0 d  0 w3 neg d w3 0 d 0 w3 d w3 0 d  0 w3 d w3 neg 0 d 0 w3 d w3 neg 0 d 0 w3 neg d w3 neg 0 d cl s } def
/m29 {mp gsave x w2 sub y w2 add w3 sub m currentpoint t 4 {side} repeat cl fill gr} def
/m30 {mp gsave x w2 sub y w2 add w3 sub m currentpoint t 4 {side} repeat cl s gr} def
/m31 {mp x y w2 sub m 0 w d x w2 sub y m w 0 d x w2 sub y w2 add m w w neg d x w2 sub y w2 sub m w w d s} def
/m32 {mp x y w2 sub m w2 w d w neg 0 d cl s} def
/m33 {mp x y w2 add m w3 neg w2 neg d w3 w2 neg d w3 w2 d cl f} def
/m34 {mp x w2 sub y w2 sub w3 add m w3 0 d  0 w3 neg d w3 0 d 0 w3 d w3 0 d  0 w3 d w3 neg 0 d 0 w3 d w3 neg 0 d 0 w3 neg d w3 neg 0 d cl f } def
/m2 {mp x y w2 sub m 0 w d x w2 sub y m w 0 d s} def
/m5 {mp x w2 sub y w2 sub m w w d x w2 sub y w2 add m w w neg d s} def
%%IncludeResource: ProcSet (FontSetInit)
%%IncludeResource: font Times-Roman
%%IncludeResource: font Times-Italic
%%IncludeResource: font Times-Bold
%%IncludeResource: font Times-BoldItalic
%%IncludeResource: font Helvetica
%%IncludeResource: font Helvetica-Oblique
%%IncludeResource: font Helvetica-Bold
%%IncludeResource: font Helvetica-BoldOblique
%%IncludeResource: font Courier
%%IncludeResource: font Courier-Oblique
%%IncludeResource: font Courier-Bold
%%IncludeResource: font Courier-BoldOblique
%%IncludeResource: font Symbol
%%IncludeResource: font ZapfDingbats
/reEncode {exch findfont dup length dict begin {1 index /FID eq  {pop pop} {def} ifelse } forall /Encoding exch def currentdict end dup /FontName get exch definefont pop } def [/Times-Bold /Times-Italic /Times-BoldItalic /Helvetica /Helvetica-Oblique
 /Helvetica-Bold /Helvetica-BoldOblique /Courier /Courier-Oblique /Courier-Bold /Courier-BoldOblique /Times-Roman /AvantGarde-Book /AvantGarde-BookOblique /AvantGarde-Demi /AvantGarde-DemiOblique /Bookman-Demi /Bookman-DemiItalic /Bookman-Light
 /Bookman-LightItalic /Helvetica-Narrow /Helvetica-Narrow-Bold /Helvetica-Narrow-BoldOblique /Helvetica-Narrow-Oblique /NewCenturySchlbk-Roman /NewCenturySchlbk-Bold /NewCenturySchlbk-BoldItalic /NewCenturySchlbk-Italic /Palatino-Bold
 /Palatino-BoldItalic /Palatino-Italic /Palatino-Roman ] {ISOLatin1Encoding reEncode } forall
%%EndProlog
%%BeginSetup
%%EndSetup
newpath  gsave  .25 .25 scale  gsave  0 0 t black[  ] 0 sd 3 lw 1 1 1 c 2268 1538 0 0 bf black 1 1 1 c 1814 1230 227 154 bf black 1814 1230 227 154 bl 1 1 1 c 1814 1230 227 154 bf black 1814 1230 227 154 bl 227 154 m 1814 X s
 gsave  2268 1538 0 0 C 1860.44 35.8403 t 0 r /Helvetica-Bold findfont 58.6478 sf 0 0 m (r [mm]) show NC gr  354 191 m -37 Y s 435 172 m -18 Y s 516 172 m -18 Y s 597 172 m -18 Y s 678 172 m -18 Y s 758 191 m -37 Y s 839 172 m -18 Y s 920 172 m -18 Y
 s 1001 172 m -18 Y s 1082 172 m -18 Y s 1163 191 m -37 Y s 1244 172 m -18 Y s 1324 172 m -18 Y s 1405 172 m -18 Y s 1486 172 m -18 Y s 1567 191 m -37 Y s 1648 172 m -18 Y s 1729 172 m -18 Y s 1809 172 m -18 Y s 1890 172 m -18 Y s 1971 191 m -37 Y s
 354 191 m -37 Y s 273 172 m -18 Y s 1971 191 m -37 Y s
 gsave  2268 1538 0 0 C 303.014 97.7464 t 0 r /Helvetica-Bold findfont 58.6478 sf 0 0 m (100) show NC gr 
 gsave  2268 1538 0 0 C 707.032 97.7464 t 0 r /Helvetica-Bold findfont 58.6478 sf 0 0 m (150) show NC gr 
 gsave  2268 1538 0 0 C 1111.05 97.7464 t 0 r /Helvetica-Bold findfont 58.6478 sf 0 0 m (200) show NC gr 
 gsave  2268 1538 0 0 C 1515.07 97.7464 t 0 r /Helvetica-Bold findfont 58.6478 sf 0 0 m (250) show NC gr 
 gsave  2268 1538 0 0 C 1919.09 97.7464 t 0 r /Helvetica-Bold findfont 58.6478 sf 0 0 m (300) show NC gr  227 1384 m 1814 X s 354 1347 m 37 Y s 435 1366 m 18 Y s 516 1366 m 18 Y s 597 1366 m 18 Y s 678 1366 m 18 Y s 758 1347 m 37 Y s 839 1366 m 18 Y
 s 920 1366 m 18 Y s 1001 1366 m 18 Y s 1082 1366 m 18 Y s 1163 1347 m 37 Y s 1244 1366 m 18 Y s 1324 1366 m 18 Y s 1405 1366 m 18 Y s 1486 1366 m 18 Y s 1567 1347 m 37 Y s 1648 1366 m 18 Y s 1729 1366 m 18 Y s 1809 1366 m 18 Y s 1890 1366 m 18 Y s
 1971 1347 m 37 Y s 354 1347 m 37 Y s 273 1366 m 18 Y s 1971 1347 m 37 Y s 227 154 m 1230 Y s
 gsave  2268 1538 0 0 C 97.7464 801.521 t 90 r /Helvetica-Bold findfont 58.6478 sf 0 0 m (Hits per etaModuleID) show NC gr  281 236 m -54 X s 254 269 m -27 X s 254 302 m -27 X s 254 335 m -27 X s 254 368 m -27 X s 281 401 m -54 X s 254 434 m -27 X s
 254 467 m -27 X s 254 500 m -27 X s 254 534 m -27 X s 281 567 m -54 X s 254 600 m -27 X s 254 633 m -27 X s 254 666 m -27 X s 254 699 m -27 X s 281 732 m -54 X s 254 765 m -27 X s 254 798 m -27 X s 254 831 m -27 X s 254 865 m -27 X s 281 898 m -54 X
 s 254 931 m -27 X s 254 964 m -27 X s 254 997 m -27 X s 254 1030 m -27 X s 281 1063 m -54 X s 254 1096 m -27 X s 254 1129 m -27 X s 254 1163 m -27 X s 254 1196 m -27 X s 281 1229 m -54 X s 281 236 m -54 X s 254 202 m -27 X s 254 169 m -27 X s 281
 1229 m -54 X s 254 1262 m -27 X s 254 1295 m -27 X s 254 1328 m -27 X s 254 1361 m -27 X s
 gsave  2268 1538 0 0 C 182.46 215.042 t 0 r /Helvetica-Bold findfont 58.6478 sf 0 0 m (5) show NC gr 
 gsave  2268 1538 0 0 C 149.878 381.211 t 0 r /Helvetica-Bold findfont 58.6478 sf 0 0 m (10) show NC gr 
 gsave  2268 1538 0 0 C 149.878 544.122 t 0 r /Helvetica-Bold findfont 58.6478 sf 0 0 m (15) show NC gr 
 gsave  2268 1538 0 0 C 149.878 710.291 t 0 r /Helvetica-Bold findfont 58.6478 sf 0 0 m (20) show NC gr 
 gsave  2268 1538 0 0 C 149.878 876.459 t 0 r /Helvetica-Bold findfont 58.6478 sf 0 0 m (25) show NC gr 
 gsave  2268 1538 0 0 C 149.878 1042.63 t 0 r /Helvetica-Bold findfont 58.6478 sf 0 0 m (30) show NC gr 
 gsave  2268 1538 0 0 C 149.878 1208.8 t 0 r /Helvetica-Bold findfont 58.6478 sf 0 0 m (35) show NC gr  2041 154 m 1230 Y s 1987 236 m 54 X s 2014 269 m 27 X s 2014 302 m 27 X s 2014 335 m 27 X s 2014 368 m 27 X s 1987 401 m 54 X s 2014 434 m 27 X s
 2014 467 m 27 X s 2014 500 m 27 X s 2014 534 m 27 X s 1987 567 m 54 X s 2014 600 m 27 X s 2014 633 m 27 X s 2014 666 m 27 X s 2014 699 m 27 X s 1987 732 m 54 X s 2014 765 m 27 X s 2014 798 m 27 X s 2014 831 m 27 X s 2014 865 m 27 X s 1987 898 m 54 X
 s 2014 931 m 27 X s 2014 964 m 27 X s 2014 997 m 27 X s 2014 1030 m 27 X s 1987 1063 m 54 X s 2014 1096 m 27 X s 2014 1129 m 27 X s 2014 1163 m 27 X s 2014 1196 m 27 X s 1987 1229 m 54 X s 1987 236 m 54 X s 2014 202 m 27 X s 2014 169 m 27 X s 1987
 1229 m 54 X s 2014 1262 m 27 X s 2014 1295 m 27 X s 2014 1328 m 27 X s 2014 1361 m 27 X s 309 708 m 11 Y s 303 719 m 13 X s 309 682 m -11 Y s 303 671 m 13 X s 328 900 m 32 Y s 322 932 m 13 X s 328 874 m -32 Y s 322 842 m 13 X s 320 999 m 45 Y s 313
 1044 m 13 X s 320 973 m -44 Y s 313 929 m 13 X s 333 924 m 25 Y s 327 949 m 13 X s 333 898 m -25 Y s 327 873 m 13 X s 309 695 m 19 192 d -8 99 d 13 -75 d s /w 26 def /w2 {w 2 div} def /w3 {w 3 div} def 309 695 328 887 320 986 333 911 4 { m20} R 1 0
 0 c 931 474 m 25 Y s 924 499 m 13 X s 931 448 m -25 Y s 924 423 m 13 X s 888 313 m 4 Y s 881 317 m 13 X s 888 287 m -3 Y s 881 284 m 13 X s 901 394 m 19 Y s 894 413 m 13 X s 901 368 m -18 Y s 894 350 m 13 X s 900 413 m 10 Y s 893 423 m 13 X s 900
 387 m -11 Y s 893 376 m 13 X s black 1 0 0 c 931 461 m -43 -161 d 13 81 d -1 19 d s 931 461 888 300 901 381 900 400 4 { m20} R 0 1 0 c 1406 401 m 24 Y s 1399 425 m 13 X s 1406 375 m -25 Y s 1399 350 m 13 X s 1409 409 m 14 Y s 1402 423 m 13 X s 1409
 383 m -15 Y s 1402 368 m 13 X s 1426 337 m 7 Y s 1419 344 m 13 X s 1426 311 m -7 Y s 1419 304 m 13 X s 1412 380 m 22 Y s 1406 402 m 13 X s 1412 354 m -23 Y s 1406 331 m 13 X s black 0 1 0 c 1406 388 m 3 8 d 17 -72 d -14 43 d s 1406 388 1409 396 1426
 324 1412 367 4 { m20} R 0 0 1 c 1886 264 m 10 Y s 1879 274 m 13 X s 1886 238 m -9 Y s 1879 229 m 13 X s 1907 303 m s 1901 303 m 13 X s 1907 277 m s 1901 277 m 13 X s black 0 0 1 c 1911 278 m 47 -12 d -72 -15 d 21 39 d s 1911 278 1958 266 1886 251
 1907 290 4 { m20} R black[ 12 12] 0 sd 328 855 m 32 Y s 322 887 m 13 X s 328 829 m -32 Y s 322 797 m 13 X s 340 960 m 41 Y s 333 1001 m 13 X s 340 934 m -42 Y s 333 892 m 13 X s 347 936 m 16 Y s 340 952 m 13 X s 347 910 m -16 Y s 340 894 m 13 X s
 343 908 m 19 Y s 336 927 m 13 X s 343 882 m -19 Y s 336 863 m 13 X s 328 842 m 12 105 d 7 -24 d -4 -28 d s[  ] 0 sd 328 842 340 947 347 923 343 895 4 { m21} R[ 12 12] 0 sd 1 0 0 c 906 335 m 7 Y s 900 342 m 13 X s 906 309 m -8 Y s 900 301 m 13 X s
 901 345 m 7 Y s 894 352 m 13 X s 901 319 m -6 Y s 894 313 m 13 X s 918 356 m 8 Y s 911 364 m 13 X s 918 330 m -9 Y s 911 321 m 13 X s 871 317 m 4 Y s 864 321 m 13 X s 871 291 m -3 Y s 864 288 m 13 X s black 1 0 0 c 906 322 m -5 10 d 17 11 d -47 -39
 d s[  ] 0 sd 906 322 901 332 918 343 871 304 4 { m21} R[ 12 12] 0 sd 0 1 0 c 1396 351 m 7 Y s 1389 358 m 14 X s 1396 324 m -7 Y s 1389 317 m 14 X s 1425 359 m 4 Y s 1418 363 m 13 X s 1425 332 m -4 Y s 1418 328 m 13 X s 1396 380 m 9 Y s 1390 389 m 13
 X s 1396 354 m -10 Y s 1390 344 m 13 X s 1422 359 m 3 Y s 1415 362 m 13 X s 1422 332 m -3 Y s 1415 329 m 13 X s black 0 1 0 c 1396 338 m 29 7 d -29 22 d 26 -22 d s[  ] 0 sd 1396 338 1425 345 1396 367 1422 345 4 { m21} R[ 12 12] 0 sd 0 0 1 c 1945 230
 m 8 Y s 1939 238 m 13 X s 1945 204 m -8 Y s 1939 196 m 13 X s 1913 282 m 12 Y s 1907 294 m 13 X s 1913 256 m -13 Y s 1907 243 m 13 X s 1913 245 m s 1906 245 m 13 X s 1913 219 m -1 Y s 1906 218 m 13 X s black 0 0 1 c 1945 217 m -32 52 d -37 Y 23 11 d
 s[  ] 0 sd 1945 217 1913 269 1913 232 1936 243 4 { m21} R[ 12 12] 0 sd black
 gsave  2268 1538 0 0 C 325.821 1283.74 t 0 r /Helvetica-Bold findfont 58.6478 sf 0 0 m (Pixel Disk \(left\)) show NC gr 
 gsave  2268 1538 0 0 C 430.084 1205.54 t 0 r /Helvetica-Bold findfont 58.6478 sf 0 0 m (Disk 0) show NC gr [  ] 0 sd 334 1223 m 80 X s 374 1223 m20
 gsave  2268 1538 0 0 C 430.084 1130.6 t 0 r /Helvetica-Bold findfont 58.6478 sf 0 0 m (Disk 1) show NC gr  1 0 0 c 334 1146 m 80 X s 374 1146 m20 black
 gsave  2268 1538 0 0 C 430.084 1052.4 t 0 r /Helvetica-Bold findfont 58.6478 sf 0 0 m (Disk 2) show NC gr  0 1 0 c 334 1069 m 80 X s 374 1069 m20 black
 gsave  2268 1538 0 0 C 430.084 977.464 t 0 r /Helvetica-Bold findfont 58.6478 sf 0 0 m (Disk 3) show NC gr  0 0 1 c 334 992 m 80 X s 374 992 m20 black
 gsave  2268 1538 0 0 C 622.319 1283.74 t 0 r /Helvetica-Bold findfont 58.6478 sf 0 0 m (  \(right\)) show NC gr 
 gsave  2268 1538 0 0 C 723.323 1205.54 t 0 r /Helvetica-Bold findfont 58.6478 sf 0 0 m (Disk 0) show NC gr [ 12 12] 0 sd 629 1223 m 80 X s[  ] 0 sd 669 1223 m21[ 12 12] 0 sd
 gsave  2268 1538 0 0 C 723.323 1130.6 t 0 r /Helvetica-Bold findfont 58.6478 sf 0 0 m (Disk 1) show NC gr  1 0 0 c 629 1146 m 80 X s[  ] 0 sd 669 1146 m21[ 12 12] 0 sd black
 gsave  2268 1538 0 0 C 723.323 1052.4 t 0 r /Helvetica-Bold findfont 58.6478 sf 0 0 m (Disk 2) show NC gr  0 1 0 c 629 1069 m 80 X s[  ] 0 sd 669 1069 m21[ 12 12] 0 sd black
 gsave  2268 1538 0 0 C 723.323 977.464 t 0 r /Helvetica-Bold findfont 58.6478 sf 0 0 m (Disk 3) show NC gr  0 0 1 c 629 992 m 80 X s[  ] 0 sd 669 992 m21[ 12 12] 0 sd
 gr  gr showpage
end
%%EOF
