%!PS-Adobe-2.0 EPSF-2.0
%%BoundingBox:  0 0 567 384
%%Title: pionDir/pixel_occupancy/hit_pixlayer_mgz.eps: c1_n7
%%Creator: ROOT Version 6.04/12
%%CreationDate: Tue Apr 19 16:53:23 2016
%%DocumentNeededResources: ProcSet (FontSetInit)
%%EndComments
%%BeginProlog
80 dict begin
/s {stroke} def /l {lineto} def /m {moveto} def /t {translate} def
/r {rotate} def /rl {roll}  def /R {repeat} def
/d {rlineto} def /rm {rmoveto} def /gr {grestore} def /f {eofill} def
/c {setrgbcolor} def /black {0 setgray} def /sd {setdash} def
/cl {closepath} def /sf {scalefont setfont} def /lw {setlinewidth} def
/box {m dup 0 exch d exch 0 d 0 exch neg d cl} def
/NC{systemdict begin initclip end}def/C{NC box clip newpath}def
/bl {box s} def /bf {gsave box gsave f grestore 1 lw [] 0 sd s grestore} def /Y { 0 exch d} def /X { 0 d} def 
/K {{pop pop 0 moveto} exch kshow} bind def
/ita {/ang 15 def gsave [1 0 ang dup sin exch cos div 1 0 0] concat} def 
/mp {newpath /y exch def /x exch def} def
/side {[w .77 mul w .23 mul] .385 w mul sd w 0 l currentpoint t -144 r} def
/mr {mp x y w2 0 360 arc} def /m24 {mr s} def /m20 {mr f} def
/mb {mp x y w2 add m w2 neg 0 d 0 w neg d w 0 d 0 w d cl} def
/mt {mp x y w2 add m w2 neg w neg d w 0 d cl} def
/m21 {mb f} def /m25 {mb s} def /m22 {mt f} def /m26{mt s} def
/m23 {mp x y w2 sub m w2 w d w neg 0 d cl f} def
/m27 {mp x y w2 add m w3 neg w2 neg d w3 w2 neg d w3 w2 d cl s} def
/m28 {mp x w2 sub y w2 sub w3 add m w3 0 d  0 w3 neg d w3 0 d 0 w3 d w3 0 d  0 w3 d w3 neg 0 d 0 w3 d w3 neg 0 d 0 w3 neg d w3 neg 0 d cl s } def
/m29 {mp gsave x w2 sub y w2 add w3 sub m currentpoint t 4 {side} repeat cl fill gr} def
/m30 {mp gsave x w2 sub y w2 add w3 sub m currentpoint t 4 {side} repeat cl s gr} def
/m31 {mp x y w2 sub m 0 w d x w2 sub y m w 0 d x w2 sub y w2 add m w w neg d x w2 sub y w2 sub m w w d s} def
/m32 {mp x y w2 sub m w2 w d w neg 0 d cl s} def
/m33 {mp x y w2 add m w3 neg w2 neg d w3 w2 neg d w3 w2 d cl f} def
/m34 {mp x w2 sub y w2 sub w3 add m w3 0 d  0 w3 neg d w3 0 d 0 w3 d w3 0 d  0 w3 d w3 neg 0 d 0 w3 d w3 neg 0 d 0 w3 neg d w3 neg 0 d cl f } def
/m2 {mp x y w2 sub m 0 w d x w2 sub y m w 0 d s} def
/m5 {mp x w2 sub y w2 sub m w w d x w2 sub y w2 add m w w neg d s} def
%%IncludeResource: ProcSet (FontSetInit)
%%IncludeResource: font Times-Roman
%%IncludeResource: font Times-Italic
%%IncludeResource: font Times-Bold
%%IncludeResource: font Times-BoldItalic
%%IncludeResource: font Helvetica
%%IncludeResource: font Helvetica-Oblique
%%IncludeResource: font Helvetica-Bold
%%IncludeResource: font Helvetica-BoldOblique
%%IncludeResource: font Courier
%%IncludeResource: font Courier-Oblique
%%IncludeResource: font Courier-Bold
%%IncludeResource: font Courier-BoldOblique
%%IncludeResource: font Symbol
%%IncludeResource: font ZapfDingbats
/reEncode {exch findfont dup length dict begin {1 index /FID eq  {pop pop} {def} ifelse } forall /Encoding exch def currentdict end dup /FontName get exch definefont pop } def [/Times-Bold /Times-Italic /Times-BoldItalic /Helvetica /Helvetica-Oblique
 /Helvetica-Bold /Helvetica-BoldOblique /Courier /Courier-Oblique /Courier-Bold /Courier-BoldOblique /Times-Roman /AvantGarde-Book /AvantGarde-BookOblique /AvantGarde-Demi /AvantGarde-DemiOblique /Bookman-Demi /Bookman-DemiItalic /Bookman-Light
 /Bookman-LightItalic /Helvetica-Narrow /Helvetica-Narrow-Bold /Helvetica-Narrow-BoldOblique /Helvetica-Narrow-Oblique /NewCenturySchlbk-Roman /NewCenturySchlbk-Bold /NewCenturySchlbk-BoldItalic /NewCenturySchlbk-Italic /Palatino-Bold
 /Palatino-BoldItalic /Palatino-Italic /Palatino-Roman ] {ISOLatin1Encoding reEncode } forall
%%EndProlog
%%BeginSetup
%%EndSetup
newpath  gsave  .25 .25 scale  gsave  0 0 t black[  ] 0 sd 3 lw 1 1 1 c 2268 1538 0 0 bf black 1 1 1 c 1814 1230 227 154 bf black 1814 1230 227 154 bl 1 1 1 c 1814 1230 227 154 bf black 1814 1230 227 154 bl 227 154 m 1814 X s
 gsave  2268 1538 0 0 C 1853.92 35.8403 t 0 r /Helvetica-Bold findfont 58.6478 sf 0 0 m (z [mm]) show NC gr  290 191 m -37 Y s 360 172 m -18 Y s 430 172 m -18 Y s 500 172 m -18 Y s 570 191 m -37 Y s 641 172 m -18 Y s 711 172 m -18 Y s 781 172 m -18 Y
 s 851 191 m -37 Y s 921 172 m -18 Y s 991 172 m -18 Y s 1061 172 m -18 Y s 1132 191 m -37 Y s 1202 172 m -18 Y s 1272 172 m -18 Y s 1342 172 m -18 Y s 1412 191 m -37 Y s 1482 172 m -18 Y s 1553 172 m -18 Y s 1623 172 m -18 Y s 1693 191 m -37 Y s
 1763 172 m -18 Y s 1833 172 m -18 Y s 1903 172 m -18 Y s 1973 191 m -37 Y s 290 191 m -37 Y s 1973 191 m -37 Y s
 gsave  2268 1538 0 0 C 250.882 97.7464 t 0 r /Helvetica-Bold findfont 58.6478 sf 0 0 m (600) show NC gr 
 gsave  2268 1538 0 0 C 221.559 97.7464 t 0 r /Symbol findfont 58.6478 sf 0 0 m (-) show NC gr 
 gsave  2268 1538 0 0 C 534.347 97.7464 t 0 r /Helvetica-Bold findfont 58.6478 sf 0 0 m (400) show NC gr 
 gsave  2268 1538 0 0 C 505.023 97.7464 t 0 r /Symbol findfont 58.6478 sf 0 0 m (-) show NC gr 
 gsave  2268 1538 0 0 C 814.553 97.7464 t 0 r /Helvetica-Bold findfont 58.6478 sf 0 0 m (200) show NC gr 
 gsave  2268 1538 0 0 C 785.229 97.7464 t 0 r /Symbol findfont 58.6478 sf 0 0 m (-) show NC gr 
 gsave  2268 1538 0 0 C 1114.31 97.7464 t 0 r /Helvetica-Bold findfont 58.6478 sf 0 0 m (0) show NC gr 
 gsave  2268 1538 0 0 C 1361.93 97.7464 t 0 r /Helvetica-Bold findfont 58.6478 sf 0 0 m (200) show NC gr 
 gsave  2268 1538 0 0 C 1642.14 97.7464 t 0 r /Helvetica-Bold findfont 58.6478 sf 0 0 m (400) show NC gr 
 gsave  2268 1538 0 0 C 1922.35 97.7464 t 0 r /Helvetica-Bold findfont 58.6478 sf 0 0 m (600) show NC gr  227 1384 m 1814 X s 290 1347 m 37 Y s 360 1366 m 18 Y s 430 1366 m 18 Y s 500 1366 m 18 Y s 570 1347 m 37 Y s 641 1366 m 18 Y s 711 1366 m 18 Y
 s 781 1366 m 18 Y s 851 1347 m 37 Y s 921 1366 m 18 Y s 991 1366 m 18 Y s 1061 1366 m 18 Y s 1132 1347 m 37 Y s 1202 1366 m 18 Y s 1272 1366 m 18 Y s 1342 1366 m 18 Y s 1412 1347 m 37 Y s 1482 1366 m 18 Y s 1553 1366 m 18 Y s 1623 1366 m 18 Y s 1693
 1347 m 37 Y s 1763 1366 m 18 Y s 1833 1366 m 18 Y s 1903 1366 m 18 Y s 1973 1347 m 37 Y s 290 1347 m 37 Y s 1973 1347 m 37 Y s 227 154 m 1230 Y s
 gsave  2268 1538 0 0 C 97.7464 801.521 t 90 r /Helvetica-Bold findfont 58.6478 sf 0 0 m (Hits per etaModuleID) show NC gr  281 154 m -54 X s 254 184 m -27 X s 254 213 m -27 X s 254 243 m -27 X s 254 273 m -27 X s 281 303 m -54 X s 254 333 m -27 X s
 254 363 m -27 X s 254 393 m -27 X s 254 422 m -27 X s 281 452 m -54 X s 254 482 m -27 X s 254 512 m -27 X s 254 542 m -27 X s 254 572 m -27 X s 281 602 m -54 X s 254 631 m -27 X s 254 661 m -27 X s 254 691 m -27 X s 254 721 m -27 X s 281 751 m -54 X
 s 254 781 m -27 X s 254 810 m -27 X s 254 840 m -27 X s 254 870 m -27 X s 281 900 m -54 X s 254 930 m -27 X s 254 960 m -27 X s 254 990 m -27 X s 254 1019 m -27 X s 281 1049 m -54 X s 254 1079 m -27 X s 254 1109 m -27 X s 254 1139 m -27 X s 254 1169
 m -27 X s 281 1198 m -54 X s 254 1228 m -27 X s 254 1258 m -27 X s 254 1288 m -27 X s 254 1318 m -27 X s 281 1348 m -54 X s 281 1348 m -54 X s 254 1378 m -27 X s
 gsave  2268 1538 0 0 C 182.46 133.587 t 0 r /Helvetica-Bold findfont 58.6478 sf 0 0 m (0) show NC gr 
 gsave  2268 1538 0 0 C 149.878 283.465 t 0 r /Helvetica-Bold findfont 58.6478 sf 0 0 m (10) show NC gr 
 gsave  2268 1538 0 0 C 149.878 430.084 t 0 r /Helvetica-Bold findfont 58.6478 sf 0 0 m (20) show NC gr 
 gsave  2268 1538 0 0 C 149.878 579.962 t 0 r /Helvetica-Bold findfont 58.6478 sf 0 0 m (30) show NC gr 
 gsave  2268 1538 0 0 C 149.878 729.84 t 0 r /Helvetica-Bold findfont 58.6478 sf 0 0 m (40) show NC gr 
 gsave  2268 1538 0 0 C 149.878 879.718 t 0 r /Helvetica-Bold findfont 58.6478 sf 0 0 m (50) show NC gr 
 gsave  2268 1538 0 0 C 149.878 1029.6 t 0 r /Helvetica-Bold findfont 58.6478 sf 0 0 m (60) show NC gr 
 gsave  2268 1538 0 0 C 149.878 1176.21 t 0 r /Helvetica-Bold findfont 58.6478 sf 0 0 m (70) show NC gr 
 gsave  2268 1538 0 0 C 149.878 1326.09 t 0 r /Helvetica-Bold findfont 58.6478 sf 0 0 m (80) show NC gr  2041 154 m 1230 Y s 1987 154 m 54 X s 2014 184 m 27 X s 2014 213 m 27 X s 2014 243 m 27 X s 2014 273 m 27 X s 1987 303 m 54 X s 2014 333 m 27 X s
 2014 363 m 27 X s 2014 393 m 27 X s 2014 422 m 27 X s 1987 452 m 54 X s 2014 482 m 27 X s 2014 512 m 27 X s 2014 542 m 27 X s 2014 572 m 27 X s 1987 602 m 54 X s 2014 631 m 27 X s 2014 661 m 27 X s 2014 691 m 27 X s 2014 721 m 27 X s 1987 751 m 54 X
 s 2014 781 m 27 X s 2014 810 m 27 X s 2014 840 m 27 X s 2014 870 m 27 X s 1987 900 m 54 X s 2014 930 m 27 X s 2014 960 m 27 X s 2014 990 m 27 X s 2014 1019 m 27 X s 1987 1049 m 54 X s 2014 1079 m 27 X s 2014 1109 m 27 X s 2014 1139 m 27 X s 2014
 1169 m 27 X s 1987 1198 m 54 X s 2014 1228 m 27 X s 2014 1258 m 27 X s 2014 1288 m 27 X s 2014 1318 m 27 X s 1987 1348 m 54 X s 1987 1348 m 54 X s 2014 1378 m 27 X s 316 856 m 122 Y s 310 978 m 13 X s 316 830 m -121 Y s 310 709 m 13 X s 362 886 m 96
 Y s 355 982 m 13 X s 362 860 m -97 Y s 355 763 m 13 X s 417 929 m 88 Y s 411 1017 m 13 X s 417 902 m -88 Y s 411 814 m 13 X s 479 542 m 60 Y s 473 602 m 13 X s 479 516 m -60 Y s 473 456 m 13 X s 530 464 m 51 Y s 523 515 m 13 X s 530 437 m -51 Y s
 523 386 m 13 X s 593 388 m 43 Y s 586 431 m 13 X s 593 362 m -44 Y s 586 318 m 13 X s 651 392 m 29 Y s 645 421 m 13 X s 651 366 m -29 Y s 645 337 m 13 X s 707 365 m 22 Y s 701 387 m 13 X s 707 339 m -22 Y s 701 317 m 13 X s 763 510 m 45 Y s 757 555
 m 13 X s 763 484 m -45 Y s 757 439 m 13 X s 820 272 m 12 Y s 814 284 m 13 X s 820 246 m -11 Y s 814 235 m 13 X s 878 450 m 19 Y s 871 469 m 14 X s 878 424 m -18 Y s 871 406 m 14 X s 933 363 m 14 Y s 926 377 m 13 X s 933 337 m -13 Y s 926 324 m 13 X
 s 1053 318 m 3 Y s 1046 321 m 13 X s 1053 292 m -2 Y s 1046 290 m 13 X s 1219 262 m 3 Y s 1212 265 m 13 X s 1219 236 m -3 Y s 1212 233 m 13 X s 1265 246 m 1 Y s 1258 247 m 13 X s 1265 220 m -2 Y s 1258 218 m 13 X s 1332 276 m 3 Y s 1325 279 m 13 X s
 1332 250 m -3 Y s 1325 247 m 13 X s 1388 410 m 21 Y s 1382 431 m 13 X s 1388 384 m -20 Y s 1382 364 m 13 X s 1447 469 m 24 Y s 1440 493 m 13 X s 1447 443 m -24 Y s 1440 419 m 13 X s 1500 658 m 33 Y s 1494 691 m 13 X s 1500 632 m -32 Y s 1494 600 m
 13 X s 1551 373 m 17 Y s 1545 390 m 13 X s 1551 347 m -17 Y s 1545 330 m 13 X s 1622 425 m 31 Y s 1615 456 m 13 X s 1622 399 m -32 Y s 1615 367 m 13 X s 1675 562 m 44 Y s 1668 606 m 13 X s 1675 536 m -44 Y s 1668 492 m 13 X s 1731 500 m 42 Y s 1724
 542 m 13 X s 1731 474 m -42 Y s 1724 432 m 13 X s 1787 392 m 32 Y s 1780 424 m 13 X s 1787 366 m -32 Y s 1780 334 m 13 X s 1842 665 m 81 Y s 1835 746 m 13 X s 1842 639 m -82 Y s 1835 557 m 13 X s 1904 366 m 35 Y s 1898 401 m 13 X s 1904 340 m -36 Y
 s 1898 304 m 13 X s 1958 527 m 56 Y s 1952 583 m 13 X s 1958 501 m -56 Y s 1952 445 m 13 X s 316 843 m 46 30 d 55 43 d 62 -387 d 51 -79 d 63 -75 d 58 4 d 56 -27 d 56 145 d 57 -238 d 58 178 d 55 -87 d 51 -75 d 69 30 d 52 -112 d 59 17 d 55 39 d 46 -16
 d 67 30 d 56 134 d 59 59 d 53 189 d 51 -285 d 71 52 d 53 137 d 56 -62 d 56 -108 d 55 273 d 62 -299 d 54 161 d s /w 26 def /w2 {w 2 div} def /w3 {w 3 div} def 316 843 362 873 417 916 479 529 530 450 593 375 651 379 707 352 763 497 820 259 878 437 933
 350 984 275 1053 305 1105 193 1164 210 1219 249 1265 233 1332 263 1388 397 1447 456 1500 645 1551 360 1622 412 1675 549 1731 487 1787 379 1842 652 1904 353 1958 514 30 { m20} R 1 0 0 c 309 610 m 40 Y s 303 650 m 13 X s 309 584 m -39 Y s 303 545 m 13
 X s 359 636 m 38 Y s 353 674 m 13 X s 359 610 m -38 Y s 353 572 m 13 X s 418 496 m 53 Y s 412 549 m 13 X s 418 470 m -53 Y s 412 417 m 13 X s 476 395 m 20 Y s 469 415 m 14 X s 476 369 m -20 Y s 469 349 m 14 X s 539 418 m 21 Y s 532 439 m 13 X s 539
 391 m -21 Y s 532 370 m 13 X s 596 269 m 3 Y s 590 272 m 13 X s 596 243 m -4 Y s 590 239 m 13 X s 650 321 m 2 Y s 643 323 m 13 X s 650 295 m -3 Y s 643 292 m 13 X s 695 405 m 12 Y s 689 417 m 13 X s 695 379 m -12 Y s 689 367 m 13 X s 765 265 m 8 Y s
 759 273 m 13 X s 765 239 m -8 Y s 759 231 m 13 X s 878 395 m 5 Y s 871 400 m 13 X s 878 369 m -5 Y s 871 364 m 13 X s 934 327 m 2 Y s 927 329 m 13 X s 934 301 m -2 Y s 927 299 m 13 X s 1446 323 m 3 Y s 1439 326 m 13 X s 1446 297 m -4 Y s 1439 293 m
 13 X s 1502 362 m 8 Y s 1496 370 m 13 X s 1502 336 m -8 Y s 1496 328 m 13 X s 1561 334 m 4 Y s 1555 338 m 13 X s 1561 308 m -4 Y s 1555 304 m 13 X s 1615 375 m 8 Y s 1609 383 m 13 X s 1615 348 m -8 Y s 1609 340 m 13 X s 1671 311 m 10 Y s 1665 321 m
 13 X s 1671 285 m -10 Y s 1665 275 m 13 X s 1725 503 m 23 Y s 1719 526 m 13 X s 1725 477 m -23 Y s 1719 454 m 13 X s 1785 563 m 31 Y s 1779 594 m 13 X s 1785 537 m -30 Y s 1779 507 m 13 X s 1845 662 m 46 Y s 1839 708 m 13 X s 1845 636 m -46 Y s 1839
 590 m 13 X s 1898 530 m 29 Y s 1892 559 m 13 X s 1898 504 m -29 Y s 1892 475 m 13 X s 1958 436 m 27 Y s 1952 463 m 13 X s 1958 410 m -27 Y s 1952 383 m 13 X s black 1 0 0 c 309 597 m 50 26 d 59 -140 d 58 -101 d 63 23 d 57 -149 d 54 52 d 45 84 d 70
 -140 d 48 3 d 65 127 d 56 -68 d 55 -99 d 50 49 d 62 17 d 52 -36 d 60 -50 d 56 4 d 61 26 d 60 9 d 56 76 d 56 39 d 59 -28 d 54 41 d 56 -64 d 54 192 d 60 60 d 60 99 d 53 -132 d 60 -94 d s 309 597 359 623 418 483 476 382 539 405 596 256 650 308 695 392
 765 252 813 255 878 382 934 314 989 215 1039 264 1101 281 1153 245 1213 195 1269 199 1330 225 1390 234 1446 310 1502 349 1561 321 1615 362 1671 298 1725 490 1785 550 1845 649 1898 517 1958 423 30 { m20} R 0 1 0 c 764 339 m 2 Y s 757 341 m 13 X s 764
 313 m -3 Y s 757 310 m 13 X s 876 303 m 7 Y s 870 310 m 13 X s 876 277 m -7 Y s 870 270 m 13 X s 1104 278 m 3 Y s 1098 281 m 13 X s 1104 252 m -3 Y s 1098 249 m 13 X s 1166 264 m 5 Y s 1160 269 m 13 X s 1166 237 m -5 Y s 1160 232 m 13 X s 1441 295 m
 14 Y s 1435 309 m 13 X s 1441 269 m -15 Y s 1435 254 m 13 X s black 0 1 0 c 644 299 m 64 -40 d 56 67 d 56 -93 d 56 57 d 54 -80 d 62 15 d 60 17 d 52 23 d 62 -15 d 51 -74 d 57 15 d 62 53 d 55 -14 d 50 52 d 70 -52 d 44 -4 d 57 -3 d s 644 299 708 259
 764 326 820 233 876 290 930 210 992 225 1052 242 1104 265 1166 250 1217 176 1274 191 1336 244 1391 230 1441 282 1511 230 1555 226 1612 223 18 { m20} R 0 0 1 c 1620 306 m 3 Y s 1613 309 m 13 X s 1620 280 m -4 Y s 1613 276 m 13 X s black 0 0 1 c 649
 230 m 57 11 d 56 1 d 50 -43 d 66 21 d 53 1 d 60 -50 d 48 12 d 62 13 d 60 -4 d 57 -2 d 59 3 d 52 -3 d 65 24 d 57 41 d 47 -43 d 62 2 d 60 79 d s 649 230 706 241 762 242 812 199 878 220 931 221 991 171 1039 183 1101 196 1161 192 1218 190 1277 193 1329
 190 1394 214 1451 255 1498 212 1560 214 1620 293 18 { m20} R 1 1 0 c 646 230 m 1 Y s 639 231 m 13 X s 646 204 m -1 Y s 639 203 m 13 X s black 1 1 0 c 646 217 m 58 7 d 65 19 d 52 -29 d 53 -12 d 59 -12 d 57 45 d 57 2 d 53 12 d 61 -48 d 54 -25 d 59 48
 d 50 -39 d 62 7 d 63 7 d 54 -4 d 56 32 d 65 19 d s 646 217 704 224 769 243 821 214 874 202 933 190 990 235 1047 237 1100 249 1161 201 1215 176 1274 224 1324 185 1386 192 1449 199 1503 195 1559 227 1624 246 18 { m20} R black
 gsave  2268 1538 0 0 C 1531.36 1032.85 t 0 r /Helvetica-Bold findfont 58.6478 sf 0 0 m (Pixel Barrel) show NC gr 
 gsave  2268 1538 0 0 C 1648.66 967.689 t 0 r /Helvetica-Bold findfont 58.6478 sf 0 0 m (Layer 0) show NC gr  1539 980 m 91 X s 1585 980 m20
 gsave  2268 1538 0 0 C 1648.66 902.525 t 0 r /Helvetica-Bold findfont 58.6478 sf 0 0 m (Layer 1) show NC gr  1 0 0 c 1539 916 m 91 X s 1585 916 m20 black
 gsave  2268 1538 0 0 C 1648.66 840.619 t 0 r /Helvetica-Bold findfont 58.6478 sf 0 0 m (Layer 2) show NC gr  0 1 0 c 1539 852 m 91 X s 1585 852 m20 black
 gsave  2268 1538 0 0 C 1648.66 775.455 t 0 r /Helvetica-Bold findfont 58.6478 sf 0 0 m (Layer 3) show NC gr  0 0 1 c 1539 788 m 91 X s 1585 788 m20 black
 gsave  2268 1538 0 0 C 1648.66 710.291 t 0 r /Helvetica-Bold findfont 58.6478 sf 0 0 m (Layer 4) show NC gr  1 1 0 c 1539 724 m 91 X s 1585 724 m20
 gr  gr showpage
end
%%EOF
