%!PS-Adobe-2.0 EPSF-2.0
%%BoundingBox:  0 0 567 384
%%Title: pionDir/pixel_occupancy/size_pixdisk_mgr.eps: c1_n20
%%Creator: ROOT Version 6.04/12
%%CreationDate: Tue Apr 19 16:53:24 2016
%%DocumentNeededResources: ProcSet (FontSetInit)
%%EndComments
%%BeginProlog
80 dict begin
/s {stroke} def /l {lineto} def /m {moveto} def /t {translate} def
/r {rotate} def /rl {roll}  def /R {repeat} def
/d {rlineto} def /rm {rmoveto} def /gr {grestore} def /f {eofill} def
/c {setrgbcolor} def /black {0 setgray} def /sd {setdash} def
/cl {closepath} def /sf {scalefont setfont} def /lw {setlinewidth} def
/box {m dup 0 exch d exch 0 d 0 exch neg d cl} def
/NC{systemdict begin initclip end}def/C{NC box clip newpath}def
/bl {box s} def /bf {gsave box gsave f grestore 1 lw [] 0 sd s grestore} def /Y { 0 exch d} def /X { 0 d} def 
/K {{pop pop 0 moveto} exch kshow} bind def
/ita {/ang 15 def gsave [1 0 ang dup sin exch cos div 1 0 0] concat} def 
/mp {newpath /y exch def /x exch def} def
/side {[w .77 mul w .23 mul] .385 w mul sd w 0 l currentpoint t -144 r} def
/mr {mp x y w2 0 360 arc} def /m24 {mr s} def /m20 {mr f} def
/mb {mp x y w2 add m w2 neg 0 d 0 w neg d w 0 d 0 w d cl} def
/mt {mp x y w2 add m w2 neg w neg d w 0 d cl} def
/m21 {mb f} def /m25 {mb s} def /m22 {mt f} def /m26{mt s} def
/m23 {mp x y w2 sub m w2 w d w neg 0 d cl f} def
/m27 {mp x y w2 add m w3 neg w2 neg d w3 w2 neg d w3 w2 d cl s} def
/m28 {mp x w2 sub y w2 sub w3 add m w3 0 d  0 w3 neg d w3 0 d 0 w3 d w3 0 d  0 w3 d w3 neg 0 d 0 w3 d w3 neg 0 d 0 w3 neg d w3 neg 0 d cl s } def
/m29 {mp gsave x w2 sub y w2 add w3 sub m currentpoint t 4 {side} repeat cl fill gr} def
/m30 {mp gsave x w2 sub y w2 add w3 sub m currentpoint t 4 {side} repeat cl s gr} def
/m31 {mp x y w2 sub m 0 w d x w2 sub y m w 0 d x w2 sub y w2 add m w w neg d x w2 sub y w2 sub m w w d s} def
/m32 {mp x y w2 sub m w2 w d w neg 0 d cl s} def
/m33 {mp x y w2 add m w3 neg w2 neg d w3 w2 neg d w3 w2 d cl f} def
/m34 {mp x w2 sub y w2 sub w3 add m w3 0 d  0 w3 neg d w3 0 d 0 w3 d w3 0 d  0 w3 d w3 neg 0 d 0 w3 d w3 neg 0 d 0 w3 neg d w3 neg 0 d cl f } def
/m2 {mp x y w2 sub m 0 w d x w2 sub y m w 0 d s} def
/m5 {mp x w2 sub y w2 sub m w w d x w2 sub y w2 add m w w neg d s} def
%%IncludeResource: ProcSet (FontSetInit)
%%IncludeResource: font Times-Roman
%%IncludeResource: font Times-Italic
%%IncludeResource: font Times-Bold
%%IncludeResource: font Times-BoldItalic
%%IncludeResource: font Helvetica
%%IncludeResource: font Helvetica-Oblique
%%IncludeResource: font Helvetica-Bold
%%IncludeResource: font Helvetica-BoldOblique
%%IncludeResource: font Courier
%%IncludeResource: font Courier-Oblique
%%IncludeResource: font Courier-Bold
%%IncludeResource: font Courier-BoldOblique
%%IncludeResource: font Symbol
%%IncludeResource: font ZapfDingbats
/reEncode {exch findfont dup length dict begin {1 index /FID eq  {pop pop} {def} ifelse } forall /Encoding exch def currentdict end dup /FontName get exch definefont pop } def [/Times-Bold /Times-Italic /Times-BoldItalic /Helvetica /Helvetica-Oblique
 /Helvetica-Bold /Helvetica-BoldOblique /Courier /Courier-Oblique /Courier-Bold /Courier-BoldOblique /Times-Roman /AvantGarde-Book /AvantGarde-BookOblique /AvantGarde-Demi /AvantGarde-DemiOblique /Bookman-Demi /Bookman-DemiItalic /Bookman-Light
 /Bookman-LightItalic /Helvetica-Narrow /Helvetica-Narrow-Bold /Helvetica-Narrow-BoldOblique /Helvetica-Narrow-Oblique /NewCenturySchlbk-Roman /NewCenturySchlbk-Bold /NewCenturySchlbk-BoldItalic /NewCenturySchlbk-Italic /Palatino-Bold
 /Palatino-BoldItalic /Palatino-Italic /Palatino-Roman ] {ISOLatin1Encoding reEncode } forall
%%EndProlog
%%BeginSetup
%%EndSetup
newpath  gsave  .25 .25 scale  gsave  0 0 t black[  ] 0 sd 3 lw 1 1 1 c 2268 1538 0 0 bf black 1 1 1 c 1814 1230 227 154 bf black 1814 1230 227 154 bl 1 1 1 c 1814 1230 227 154 bf black 1814 1230 227 154 bl 227 154 m 1814 X s
 gsave  2268 1538 0 0 C 1860.44 35.8403 t 0 r /Helvetica-Bold findfont 58.6478 sf 0 0 m (r [mm]) show NC gr  354 191 m -37 Y s 435 172 m -18 Y s 516 172 m -18 Y s 597 172 m -18 Y s 678 172 m -18 Y s 758 191 m -37 Y s 839 172 m -18 Y s 920 172 m -18 Y
 s 1001 172 m -18 Y s 1082 172 m -18 Y s 1163 191 m -37 Y s 1244 172 m -18 Y s 1324 172 m -18 Y s 1405 172 m -18 Y s 1486 172 m -18 Y s 1567 191 m -37 Y s 1648 172 m -18 Y s 1729 172 m -18 Y s 1809 172 m -18 Y s 1890 172 m -18 Y s 1971 191 m -37 Y s
 354 191 m -37 Y s 273 172 m -18 Y s 1971 191 m -37 Y s
 gsave  2268 1538 0 0 C 303.014 97.7464 t 0 r /Helvetica-Bold findfont 58.6478 sf 0 0 m (100) show NC gr 
 gsave  2268 1538 0 0 C 707.032 97.7464 t 0 r /Helvetica-Bold findfont 58.6478 sf 0 0 m (150) show NC gr 
 gsave  2268 1538 0 0 C 1111.05 97.7464 t 0 r /Helvetica-Bold findfont 58.6478 sf 0 0 m (200) show NC gr 
 gsave  2268 1538 0 0 C 1515.07 97.7464 t 0 r /Helvetica-Bold findfont 58.6478 sf 0 0 m (250) show NC gr 
 gsave  2268 1538 0 0 C 1919.09 97.7464 t 0 r /Helvetica-Bold findfont 58.6478 sf 0 0 m (300) show NC gr  227 1384 m 1814 X s 354 1347 m 37 Y s 435 1366 m 18 Y s 516 1366 m 18 Y s 597 1366 m 18 Y s 678 1366 m 18 Y s 758 1347 m 37 Y s 839 1366 m 18 Y
 s 920 1366 m 18 Y s 1001 1366 m 18 Y s 1082 1366 m 18 Y s 1163 1347 m 37 Y s 1244 1366 m 18 Y s 1324 1366 m 18 Y s 1405 1366 m 18 Y s 1486 1366 m 18 Y s 1567 1347 m 37 Y s 1648 1366 m 18 Y s 1729 1366 m 18 Y s 1809 1366 m 18 Y s 1890 1366 m 18 Y s
 1971 1347 m 37 Y s 354 1347 m 37 Y s 273 1366 m 18 Y s 1971 1347 m 37 Y s 227 154 m 1230 Y s
 gsave  2268 1538 0 0 C 104.263 1055.66 t 90 r /Helvetica-Bold findfont 58.6478 sf 0 0 m (Cluster size) show NC gr  281 252 m -54 X s 254 289 m -27 X s 254 326 m -27 X s 254 363 m -27 X s 254 400 m -27 X s 281 437 m -54 X s 254 474 m -27 X s 254 511
 m -27 X s 254 548 m -27 X s 254 585 m -27 X s 281 622 m -54 X s 254 659 m -27 X s 254 696 m -27 X s 254 733 m -27 X s 254 770 m -27 X s 281 807 m -54 X s 254 844 m -27 X s 254 881 m -27 X s 254 918 m -27 X s 254 955 m -27 X s 281 992 m -54 X s 254
 1029 m -27 X s 254 1066 m -27 X s 254 1103 m -27 X s 254 1139 m -27 X s 281 1176 m -54 X s 254 1213 m -27 X s 254 1250 m -27 X s 254 1287 m -27 X s 254 1324 m -27 X s 281 1361 m -54 X s 281 252 m -54 X s 254 215 m -27 X s 254 178 m -27 X s 281 1361
 m -54 X s
 gsave  2268 1538 0 0 C 182.46 228.075 t 0 r /Helvetica-Bold findfont 58.6478 sf 0 0 m (2) show NC gr 
 gsave  2268 1538 0 0 C 133.587 417.051 t 0 r /Helvetica-Bold findfont 58.6478 sf 0 0 m (2.5) show NC gr 
 gsave  2268 1538 0 0 C 182.46 599.511 t 0 r /Helvetica-Bold findfont 58.6478 sf 0 0 m (3) show NC gr 
 gsave  2268 1538 0 0 C 133.587 785.229 t 0 r /Helvetica-Bold findfont 58.6478 sf 0 0 m (3.5) show NC gr 
 gsave  2268 1538 0 0 C 182.46 970.948 t 0 r /Helvetica-Bold findfont 58.6478 sf 0 0 m (4) show NC gr 
 gsave  2268 1538 0 0 C 133.587 1156.67 t 0 r /Helvetica-Bold findfont 58.6478 sf 0 0 m (4.5) show NC gr 
 gsave  2268 1538 0 0 C 182.46 1339.13 t 0 r /Helvetica-Bold findfont 58.6478 sf 0 0 m (5) show NC gr  2041 154 m 1230 Y s 1987 252 m 54 X s 2014 289 m 27 X s 2014 326 m 27 X s 2014 363 m 27 X s 2014 400 m 27 X s 1987 437 m 54 X s 2014 474 m 27 X s
 2014 511 m 27 X s 2014 548 m 27 X s 2014 585 m 27 X s 1987 622 m 54 X s 2014 659 m 27 X s 2014 696 m 27 X s 2014 733 m 27 X s 2014 770 m 27 X s 1987 807 m 54 X s 2014 844 m 27 X s 2014 881 m 27 X s 2014 918 m 27 X s 2014 955 m 27 X s 1987 992 m 54 X
 s 2014 1029 m 27 X s 2014 1066 m 27 X s 2014 1103 m 27 X s 2014 1139 m 27 X s 1987 1176 m 54 X s 2014 1213 m 27 X s 2014 1250 m 27 X s 2014 1287 m 27 X s 2014 1324 m 27 X s 1987 1361 m 54 X s 1987 252 m 54 X s 2014 215 m 27 X s 2014 178 m 27 X s
 1987 1361 m 54 X s 309 229 m 14 Y s 303 243 m 13 X s 309 203 m -14 Y s 303 189 m 13 X s 328 337 m 32 Y s 322 369 m 13 X s 328 311 m -31 Y s 322 280 m 13 X s 320 353 m 39 Y s 313 392 m 13 X s 320 327 m -38 Y s 313 289 m 13 X s 333 308 m 22 Y s 327
 330 m 13 X s 333 282 m -22 Y s 327 260 m 13 X s 309 216 m 19 108 d -8 16 d 13 -45 d s /w 26 def /w2 {w 2 div} def /w3 {w 3 div} def 309 216 328 324 320 340 333 295 4 { m20} R 1 0 0 c 931 616 m 93 Y s 924 709 m 13 X s 931 590 m -93 Y s 924 497 m 13 X
 s 888 372 m 47 Y s 881 419 m 13 X s 888 346 m -47 Y s 881 299 m 13 X s 901 470 m 83 Y s 894 553 m 13 X s 901 444 m -83 Y s 894 361 m 13 X s 900 362 m 47 Y s 893 409 m 13 X s 900 336 m -47 Y s 893 289 m 13 X s black 1 0 0 c 931 603 m -43 -244 d 13 98
 d -1 -108 d s 931 603 888 359 901 457 900 349 4 { m20} R 0 1 0 c 1406 758 m 133 Y s 1399 891 m 13 X s 1406 732 m -133 Y s 1399 599 m 13 X s 1409 571 m 75 Y s 1402 646 m 13 X s 1409 545 m -76 Y s 1402 469 m 13 X s 1426 402 m 55 Y s 1419 457 m 13 X s
 1426 376 m -56 Y s 1419 320 m 13 X s 1412 574 m 113 Y s 1406 687 m 13 X s 1412 548 m -113 Y s 1406 435 m 13 X s black 0 1 0 c 1406 745 m 3 -187 d 17 -169 d -14 172 d s 1406 745 1409 558 1426 389 1412 561 4 { m20} R 0 0 1 c 1911 493 m 33 Y s 1905 526
 m 13 X s 1911 467 m -34 Y s 1905 433 m 13 X s 1958 539 m 39 Y s 1952 578 m 13 X s 1958 513 m -39 Y s 1952 474 m 13 X s 1886 651 m 128 Y s 1879 779 m 13 X s 1886 625 m -128 Y s 1879 497 m 13 X s 1907 470 m 43 Y s 1901 513 m 13 X s 1907 444 m -44 Y s
 1901 400 m 13 X s black 0 0 1 c 1911 480 m 47 46 d -72 112 d 21 -181 d s 1911 480 1958 526 1886 638 1907 457 4 { m20} R black[ 12 12] 0 sd 328 256 m 29 Y s 322 285 m 13 X s 328 230 m -30 Y s 322 200 m 13 X s 340 288 m 34 Y s 333 322 m 13 X s 340 262
 m -34 Y s 333 228 m 13 X s 347 230 m 11 Y s 340 241 m 13 X s 347 204 m -11 Y s 340 193 m 13 X s 343 271 m 16 Y s 336 287 m 13 X s 343 245 m -16 Y s 336 229 m 13 X s 328 243 m 12 32 d 7 -58 d -4 41 d s[  ] 0 sd 328 243 340 275 347 217 343 258 4 {
 m21} R[ 12 12] 0 sd 1 0 0 c 906 382 m 57 Y s 900 439 m 13 X s 906 356 m -57 Y s 900 299 m 13 X s 901 489 m 58 Y s 894 547 m 13 X s 901 463 m -59 Y s 894 404 m 13 X s 918 477 m 63 Y s 911 540 m 13 X s 918 451 m -62 Y s 911 389 m 13 X s 871 304 m 42 Y
 s 864 346 m 13 X s 871 278 m -41 Y s 864 237 m 13 X s black 1 0 0 c 906 369 m -5 107 d 17 -12 d -47 -173 d s[  ] 0 sd 906 369 901 476 918 464 871 291 4 { m21} R[ 12 12] 0 sd 0 1 0 c 1396 657 m 76 Y s 1389 733 m 14 X s 1396 631 m -75 Y s 1389 556 m
 14 X s 1425 430 m 45 Y s 1418 475 m 13 X s 1425 404 m -45 Y s 1418 359 m 13 X s 1396 587 m 67 Y s 1390 654 m 13 X s 1396 561 m -67 Y s 1390 494 m 13 X s 1422 452 m 43 Y s 1415 495 m 13 X s 1422 426 m -43 Y s 1415 383 m 13 X s black 0 1 0 c 1396 644
 m 29 -227 d -29 157 d 26 -135 d s[  ] 0 sd 1396 644 1425 417 1396 574 1422 439 4 { m21} R[ 12 12] 0 sd 0 0 1 c 1945 733 m 158 Y s 1939 891 m 13 X s 1945 707 m -159 Y s 1939 548 m 13 X s 1913 681 m 137 Y s 1907 818 m 13 X s 1913 655 m -137 Y s 1907
 518 m 13 X s 1913 528 m 70 Y s 1906 598 m 13 X s 1913 502 m -71 Y s 1906 431 m 13 X s 1936 346 m 42 Y s 1930 388 m 13 X s 1936 320 m -41 Y s 1930 279 m 13 X s black 0 0 1 c 1945 720 m -32 -52 d -153 Y 23 -182 d s[  ] 0 sd 1945 720 1913 668 1913 515
 1936 333 4 { m21} R[ 12 12] 0 sd black
 gsave  2268 1538 0 0 C 325.821 1283.74 t 0 r /Helvetica-Bold findfont 58.6478 sf 0 0 m (Pixel Disk \(left\)) show NC gr 
 gsave  2268 1538 0 0 C 430.084 1205.54 t 0 r /Helvetica-Bold findfont 58.6478 sf 0 0 m (Disk 0) show NC gr [  ] 0 sd 334 1223 m 80 X s 374 1223 m20
 gsave  2268 1538 0 0 C 430.084 1130.6 t 0 r /Helvetica-Bold findfont 58.6478 sf 0 0 m (Disk 1) show NC gr  1 0 0 c 334 1146 m 80 X s 374 1146 m20 black
 gsave  2268 1538 0 0 C 430.084 1052.4 t 0 r /Helvetica-Bold findfont 58.6478 sf 0 0 m (Disk 2) show NC gr  0 1 0 c 334 1069 m 80 X s 374 1069 m20 black
 gsave  2268 1538 0 0 C 430.084 977.464 t 0 r /Helvetica-Bold findfont 58.6478 sf 0 0 m (Disk 3) show NC gr  0 0 1 c 334 992 m 80 X s 374 992 m20 black
 gsave  2268 1538 0 0 C 622.319 1283.74 t 0 r /Helvetica-Bold findfont 58.6478 sf 0 0 m (  \(right\)) show NC gr 
 gsave  2268 1538 0 0 C 723.323 1205.54 t 0 r /Helvetica-Bold findfont 58.6478 sf 0 0 m (Disk 0) show NC gr [ 12 12] 0 sd 629 1223 m 80 X s[  ] 0 sd 669 1223 m21[ 12 12] 0 sd
 gsave  2268 1538 0 0 C 723.323 1130.6 t 0 r /Helvetica-Bold findfont 58.6478 sf 0 0 m (Disk 1) show NC gr  1 0 0 c 629 1146 m 80 X s[  ] 0 sd 669 1146 m21[ 12 12] 0 sd black
 gsave  2268 1538 0 0 C 723.323 1052.4 t 0 r /Helvetica-Bold findfont 58.6478 sf 0 0 m (Disk 2) show NC gr  0 1 0 c 629 1069 m 80 X s[  ] 0 sd 669 1069 m21[ 12 12] 0 sd black
 gsave  2268 1538 0 0 C 723.323 977.464 t 0 r /Helvetica-Bold findfont 58.6478 sf 0 0 m (Disk 3) show NC gr  0 0 1 c 629 992 m 80 X s[  ] 0 sd 669 992 m21[ 12 12] 0 sd
 gr  gr showpage
end
%%EOF
