%!PS-Adobe-2.0 EPSF-2.0
%%BoundingBox:  0 0 567 384
%%Title: pionDir/pixel_occupancy/size_pixdisk_mg.eps: c1_n42
%%Creator: ROOT Version 6.04/12
%%CreationDate: Tue Apr 19 16:53:28 2016
%%DocumentNeededResources: ProcSet (FontSetInit)
%%EndComments
%%BeginProlog
80 dict begin
/s {stroke} def /l {lineto} def /m {moveto} def /t {translate} def
/r {rotate} def /rl {roll}  def /R {repeat} def
/d {rlineto} def /rm {rmoveto} def /gr {grestore} def /f {eofill} def
/c {setrgbcolor} def /black {0 setgray} def /sd {setdash} def
/cl {closepath} def /sf {scalefont setfont} def /lw {setlinewidth} def
/box {m dup 0 exch d exch 0 d 0 exch neg d cl} def
/NC{systemdict begin initclip end}def/C{NC box clip newpath}def
/bl {box s} def /bf {gsave box gsave f grestore 1 lw [] 0 sd s grestore} def /Y { 0 exch d} def /X { 0 d} def 
/K {{pop pop 0 moveto} exch kshow} bind def
/ita {/ang 15 def gsave [1 0 ang dup sin exch cos div 1 0 0] concat} def 
/mp {newpath /y exch def /x exch def} def
/side {[w .77 mul w .23 mul] .385 w mul sd w 0 l currentpoint t -144 r} def
/mr {mp x y w2 0 360 arc} def /m24 {mr s} def /m20 {mr f} def
/mb {mp x y w2 add m w2 neg 0 d 0 w neg d w 0 d 0 w d cl} def
/mt {mp x y w2 add m w2 neg w neg d w 0 d cl} def
/m21 {mb f} def /m25 {mb s} def /m22 {mt f} def /m26{mt s} def
/m23 {mp x y w2 sub m w2 w d w neg 0 d cl f} def
/m27 {mp x y w2 add m w3 neg w2 neg d w3 w2 neg d w3 w2 d cl s} def
/m28 {mp x w2 sub y w2 sub w3 add m w3 0 d  0 w3 neg d w3 0 d 0 w3 d w3 0 d  0 w3 d w3 neg 0 d 0 w3 d w3 neg 0 d 0 w3 neg d w3 neg 0 d cl s } def
/m29 {mp gsave x w2 sub y w2 add w3 sub m currentpoint t 4 {side} repeat cl fill gr} def
/m30 {mp gsave x w2 sub y w2 add w3 sub m currentpoint t 4 {side} repeat cl s gr} def
/m31 {mp x y w2 sub m 0 w d x w2 sub y m w 0 d x w2 sub y w2 add m w w neg d x w2 sub y w2 sub m w w d s} def
/m32 {mp x y w2 sub m w2 w d w neg 0 d cl s} def
/m33 {mp x y w2 add m w3 neg w2 neg d w3 w2 neg d w3 w2 d cl f} def
/m34 {mp x w2 sub y w2 sub w3 add m w3 0 d  0 w3 neg d w3 0 d 0 w3 d w3 0 d  0 w3 d w3 neg 0 d 0 w3 d w3 neg 0 d 0 w3 neg d w3 neg 0 d cl f } def
/m2 {mp x y w2 sub m 0 w d x w2 sub y m w 0 d s} def
/m5 {mp x w2 sub y w2 sub m w w d x w2 sub y w2 add m w w neg d s} def
%%IncludeResource: ProcSet (FontSetInit)
%%IncludeResource: font Times-Roman
%%IncludeResource: font Times-Italic
%%IncludeResource: font Times-Bold
%%IncludeResource: font Times-BoldItalic
%%IncludeResource: font Helvetica
%%IncludeResource: font Helvetica-Oblique
%%IncludeResource: font Helvetica-Bold
%%IncludeResource: font Helvetica-BoldOblique
%%IncludeResource: font Courier
%%IncludeResource: font Courier-Oblique
%%IncludeResource: font Courier-Bold
%%IncludeResource: font Courier-BoldOblique
%%IncludeResource: font Symbol
%%IncludeResource: font ZapfDingbats
/reEncode {exch findfont dup length dict begin {1 index /FID eq  {pop pop} {def} ifelse } forall /Encoding exch def currentdict end dup /FontName get exch definefont pop } def [/Times-Bold /Times-Italic /Times-BoldItalic /Helvetica /Helvetica-Oblique
 /Helvetica-Bold /Helvetica-BoldOblique /Courier /Courier-Oblique /Courier-Bold /Courier-BoldOblique /Times-Roman /AvantGarde-Book /AvantGarde-BookOblique /AvantGarde-Demi /AvantGarde-DemiOblique /Bookman-Demi /Bookman-DemiItalic /Bookman-Light
 /Bookman-LightItalic /Helvetica-Narrow /Helvetica-Narrow-Bold /Helvetica-Narrow-BoldOblique /Helvetica-Narrow-Oblique /NewCenturySchlbk-Roman /NewCenturySchlbk-Bold /NewCenturySchlbk-BoldItalic /NewCenturySchlbk-Italic /Palatino-Bold
 /Palatino-BoldItalic /Palatino-Italic /Palatino-Roman ] {ISOLatin1Encoding reEncode } forall
%%EndProlog
%%BeginSetup
%%EndSetup
newpath  gsave  .25 .25 scale  gsave  0 0 t black[  ] 0 sd 3 lw 1 1 1 c 2268 1538 0 0 bf black 1 1 1 c 1814 1230 227 154 bf black 1814 1230 227 154 bl 1 1 1 c 1814 1230 227 154 bf black 1814 1230 227 154 bl 227 154 m 1814 X s 309 191 m -37 Y s 364
 172 m -18 Y s 419 172 m -18 Y s 474 172 m -18 Y s 529 172 m -18 Y s 584 191 m -37 Y s 639 172 m -18 Y s 694 172 m -18 Y s 749 172 m -18 Y s 804 172 m -18 Y s 859 191 m -37 Y s 914 172 m -18 Y s 969 172 m -18 Y s 1024 172 m -18 Y s 1079 172 m -18 Y s
 1134 191 m -37 Y s 1189 172 m -18 Y s 1244 172 m -18 Y s 1299 172 m -18 Y s 1354 172 m -18 Y s 1409 191 m -37 Y s 1464 172 m -18 Y s 1519 172 m -18 Y s 1574 172 m -18 Y s 1629 172 m -18 Y s 1684 191 m -37 Y s 1739 172 m -18 Y s 1794 172 m -18 Y s
 1849 172 m -18 Y s 1904 172 m -18 Y s 1958 191 m -37 Y s 309 191 m -37 Y s 254 172 m -18 Y s 1958 191 m -37 Y s 2013 172 m -18 Y s
 gsave  2268 1538 0 0 C 289.981 97.7464 t 0 r /Helvetica-Bold findfont 58.6478 sf 0 0 m (0) show NC gr 
 gsave  2268 1538 0 0 C 540.863 97.7464 t 0 r /Helvetica-Bold findfont 58.6478 sf 0 0 m (0.5) show NC gr 
 gsave  2268 1538 0 0 C 843.877 97.7464 t 0 r /Helvetica-Bold findfont 58.6478 sf 0 0 m (1) show NC gr 
 gsave  2268 1538 0 0 C 1091.5 97.7464 t 0 r /Helvetica-Bold findfont 58.6478 sf 0 0 m (1.5) show NC gr 
 gsave  2268 1538 0 0 C 1391.26 97.7464 t 0 r /Helvetica-Bold findfont 58.6478 sf 0 0 m (2) show NC gr 
 gsave  2268 1538 0 0 C 1638.88 97.7464 t 0 r /Helvetica-Bold findfont 58.6478 sf 0 0 m (2.5) show NC gr 
 gsave  2268 1538 0 0 C 1941.9 97.7464 t 0 r /Helvetica-Bold findfont 58.6478 sf 0 0 m (3) show NC gr  227 1384 m 1814 X s 309 1347 m 37 Y s 364 1366 m 18 Y s 419 1366 m 18 Y s 474 1366 m 18 Y s 529 1366 m 18 Y s 584 1347 m 37 Y s 639 1366 m 18 Y s
 694 1366 m 18 Y s 749 1366 m 18 Y s 804 1366 m 18 Y s 859 1347 m 37 Y s 914 1366 m 18 Y s 969 1366 m 18 Y s 1024 1366 m 18 Y s 1079 1366 m 18 Y s 1134 1347 m 37 Y s 1189 1366 m 18 Y s 1244 1366 m 18 Y s 1299 1366 m 18 Y s 1354 1366 m 18 Y s 1409
 1347 m 37 Y s 1464 1366 m 18 Y s 1519 1366 m 18 Y s 1574 1366 m 18 Y s 1629 1366 m 18 Y s 1684 1347 m 37 Y s 1739 1366 m 18 Y s 1794 1366 m 18 Y s 1849 1366 m 18 Y s 1904 1366 m 18 Y s 1958 1347 m 37 Y s 309 1347 m 37 Y s 254 1366 m 18 Y s 1958 1347
 m 37 Y s 2013 1366 m 18 Y s 227 154 m 1230 Y s 281 252 m -54 X s 254 289 m -27 X s 254 326 m -27 X s 254 363 m -27 X s 254 400 m -27 X s 281 437 m -54 X s 254 474 m -27 X s 254 511 m -27 X s 254 548 m -27 X s 254 585 m -27 X s 281 622 m -54 X s 254
 659 m -27 X s 254 696 m -27 X s 254 733 m -27 X s 254 770 m -27 X s 281 807 m -54 X s 254 844 m -27 X s 254 881 m -27 X s 254 918 m -27 X s 254 955 m -27 X s 281 992 m -54 X s 254 1029 m -27 X s 254 1066 m -27 X s 254 1103 m -27 X s 254 1139 m -27 X
 s 281 1176 m -54 X s 254 1213 m -27 X s 254 1250 m -27 X s 254 1287 m -27 X s 254 1324 m -27 X s 281 1361 m -54 X s 281 252 m -54 X s 254 215 m -27 X s 254 178 m -27 X s 281 1361 m -54 X s
 gsave  2268 1538 0 0 C 182.46 228.075 t 0 r /Helvetica-Bold findfont 58.6478 sf 0 0 m (2) show NC gr 
 gsave  2268 1538 0 0 C 133.587 417.051 t 0 r /Helvetica-Bold findfont 58.6478 sf 0 0 m (2.5) show NC gr 
 gsave  2268 1538 0 0 C 182.46 599.511 t 0 r /Helvetica-Bold findfont 58.6478 sf 0 0 m (3) show NC gr 
 gsave  2268 1538 0 0 C 133.587 785.229 t 0 r /Helvetica-Bold findfont 58.6478 sf 0 0 m (3.5) show NC gr 
 gsave  2268 1538 0 0 C 182.46 970.948 t 0 r /Helvetica-Bold findfont 58.6478 sf 0 0 m (4) show NC gr 
 gsave  2268 1538 0 0 C 133.587 1156.67 t 0 r /Helvetica-Bold findfont 58.6478 sf 0 0 m (4.5) show NC gr 
 gsave  2268 1538 0 0 C 182.46 1339.13 t 0 r /Helvetica-Bold findfont 58.6478 sf 0 0 m (5) show NC gr  2041 154 m 1230 Y s 1987 252 m 54 X s 2014 289 m 27 X s 2014 326 m 27 X s 2014 363 m 27 X s 2014 400 m 27 X s 1987 437 m 54 X s 2014 474 m 27 X s
 2014 511 m 27 X s 2014 548 m 27 X s 2014 585 m 27 X s 1987 622 m 54 X s 2014 659 m 27 X s 2014 696 m 27 X s 2014 733 m 27 X s 2014 770 m 27 X s 1987 807 m 54 X s 2014 844 m 27 X s 2014 881 m 27 X s 2014 918 m 27 X s 2014 955 m 27 X s 1987 992 m 54 X
 s 2014 1029 m 27 X s 2014 1066 m 27 X s 2014 1103 m 27 X s 2014 1139 m 27 X s 1987 1176 m 54 X s 2014 1213 m 27 X s 2014 1250 m 27 X s 2014 1287 m 27 X s 2014 1324 m 27 X s 1987 1361 m 54 X s 1987 252 m 54 X s 2014 215 m 27 X s 2014 178 m 27 X s
 1987 1361 m 54 X s 309 229 m 14 Y s 303 243 m 13 X s 309 203 m -14 Y s 303 189 m 13 X s 859 337 m 32 Y s 852 369 m 13 X s 859 311 m -31 Y s 852 280 m 13 X s 1409 353 m 39 Y s 1402 392 m 13 X s 1409 327 m -38 Y s 1402 289 m 13 X s 1958 308 m 22 Y s
 1952 330 m 13 X s 1958 282 m -22 Y s 1952 260 m 13 X s 309 216 m 550 108 d 550 16 d 549 -45 d s /w 26 def /w2 {w 2 div} def /w3 {w 3 div} def 309 216 859 324 1409 340 1958 295 4 { m20} R 1 0 0 c 309 616 m 93 Y s 303 709 m 13 X s 309 590 m -93 Y s
 303 497 m 13 X s 859 372 m 47 Y s 852 419 m 13 X s 859 346 m -47 Y s 852 299 m 13 X s 1409 470 m 83 Y s 1402 553 m 13 X s 1409 444 m -83 Y s 1402 361 m 13 X s 1958 362 m 47 Y s 1952 409 m 13 X s 1958 336 m -47 Y s 1952 289 m 13 X s black 1 0 0 c 309
 603 m 550 -244 d 550 98 d 549 -108 d s 309 603 859 359 1409 457 1958 349 4 { m20} R 0 1 0 c 309 758 m 133 Y s 303 891 m 13 X s 309 732 m -133 Y s 303 599 m 13 X s 859 571 m 75 Y s 852 646 m 13 X s 859 545 m -76 Y s 852 469 m 13 X s 1409 402 m 55 Y s
 1402 457 m 13 X s 1409 376 m -56 Y s 1402 320 m 13 X s 1958 574 m 113 Y s 1952 687 m 13 X s 1958 548 m -113 Y s 1952 435 m 13 X s black 0 1 0 c 309 745 m 550 -187 d 550 -169 d 549 172 d s 309 745 859 558 1409 389 1958 561 4 { m20} R 0 0 1 c 309 493
 m 33 Y s 303 526 m 13 X s 309 467 m -34 Y s 303 433 m 13 X s 859 539 m 39 Y s 852 578 m 13 X s 859 513 m -39 Y s 852 474 m 13 X s 1409 651 m 128 Y s 1402 779 m 13 X s 1409 625 m -128 Y s 1402 497 m 13 X s 1958 470 m 43 Y s 1952 513 m 13 X s 1958 444
 m -44 Y s 1952 400 m 13 X s black 0 0 1 c 309 480 m 550 46 d 550 112 d 549 -181 d s 309 480 859 526 1409 638 1958 457 4 { m20} R black[ 12 12] 0 sd 309 256 m 29 Y s 303 285 m 13 X s 309 230 m -30 Y s 303 200 m 13 X s 859 288 m 34 Y s 852 322 m 13 X
 s 859 262 m -34 Y s 852 228 m 13 X s 1409 230 m 11 Y s 1402 241 m 13 X s 1409 204 m -11 Y s 1402 193 m 13 X s 1958 271 m 16 Y s 1952 287 m 13 X s 1958 245 m -16 Y s 1952 229 m 13 X s 309 243 m 550 32 d 550 -58 d 549 41 d s[  ] 0 sd 309 243 859 275
 1409 217 1958 258 4 { m21} R[ 12 12] 0 sd 1 0 0 c 309 382 m 57 Y s 303 439 m 13 X s 309 356 m -57 Y s 303 299 m 13 X s 859 489 m 58 Y s 852 547 m 13 X s 859 463 m -59 Y s 852 404 m 13 X s 1409 477 m 63 Y s 1402 540 m 13 X s 1409 451 m -62 Y s 1402
 389 m 13 X s 1958 304 m 42 Y s 1952 346 m 13 X s 1958 278 m -41 Y s 1952 237 m 13 X s black 1 0 0 c 309 369 m 550 107 d 550 -12 d 549 -173 d s[  ] 0 sd 309 369 859 476 1409 464 1958 291 4 { m21} R[ 12 12] 0 sd 0 1 0 c 309 657 m 76 Y s 303 733 m 13 X
 s 309 631 m -75 Y s 303 556 m 13 X s 859 430 m 45 Y s 852 475 m 13 X s 859 404 m -45 Y s 852 359 m 13 X s 1409 587 m 67 Y s 1402 654 m 13 X s 1409 561 m -67 Y s 1402 494 m 13 X s 1958 452 m 43 Y s 1952 495 m 13 X s 1958 426 m -43 Y s 1952 383 m 13 X
 s black 0 1 0 c 309 644 m 550 -227 d 550 157 d 549 -135 d s[  ] 0 sd 309 644 859 417 1409 574 1958 439 4 { m21} R[ 12 12] 0 sd 0 0 1 c 309 733 m 158 Y s 303 891 m 13 X s 309 707 m -159 Y s 303 548 m 13 X s 859 681 m 137 Y s 852 818 m 13 X s 859 655
 m -137 Y s 852 518 m 13 X s 1409 528 m 70 Y s 1402 598 m 13 X s 1409 502 m -71 Y s 1402 431 m 13 X s 1958 346 m 42 Y s 1952 388 m 13 X s 1958 320 m -41 Y s 1952 279 m 13 X s black 0 0 1 c 309 720 m 550 -52 d 550 -153 d 549 -182 d s[  ] 0 sd 309 720
 859 668 1409 515 1958 333 4 { m21} R[ 12 12] 0 sd black
 gsave  2268 1538 0 0 C 1326.09 1352.16 t 0 r /Helvetica-Bold findfont 58.6478 sf 0 0 m (Disk 0) show NC gr [  ] 0 sd 1124 1360 m 167 X s 1208 1360 m20
 gsave  2268 1538 0 0 C 1326.09 1303.29 t 0 r /Helvetica-Bold findfont 58.6478 sf 0 0 m (Disk 1) show NC gr  1 0 0 c 1124 1312 m 167 X s 1208 1312 m20 black
 gsave  2268 1538 0 0 C 1326.09 1254.41 t 0 r /Helvetica-Bold findfont 58.6478 sf 0 0 m (Disk 2) show NC gr  0 1 0 c 1124 1264 m 167 X s 1208 1264 m20 black
 gsave  2268 1538 0 0 C 1326.09 1205.54 t 0 r /Helvetica-Bold findfont 58.6478 sf 0 0 m (Disk 3) show NC gr  0 0 1 c 1124 1216 m 167 X s 1208 1216 m20 black
 gsave  2268 1538 0 0 C 1326.09 1159.92 t 0 r /Helvetica-Bold findfont 58.6478 sf 0 0 m (Disk 0) show NC gr [ 12 12] 0 sd 1124 1168 m 167 X s[  ] 0 sd 1208 1168 m21[ 12 12] 0 sd
 gsave  2268 1538 0 0 C 1326.09 1111.05 t 0 r /Helvetica-Bold findfont 58.6478 sf 0 0 m (Disk 1) show NC gr  1 0 0 c 1124 1120 m 167 X s[  ] 0 sd 1208 1120 m21[ 12 12] 0 sd black
 gsave  2268 1538 0 0 C 1326.09 1062.18 t 0 r /Helvetica-Bold findfont 58.6478 sf 0 0 m (Disk 2) show NC gr  0 1 0 c 1124 1072 m 167 X s[  ] 0 sd 1208 1072 m21[ 12 12] 0 sd black
 gsave  2268 1538 0 0 C 1326.09 1013.3 t 0 r /Helvetica-Bold findfont 58.6478 sf 0 0 m (Disk 3) show NC gr  0 0 1 c 1124 1024 m 167 X s[  ] 0 sd 1208 1024 m21[ 12 12] 0 sd
 gr  gr showpage
end
%%EOF
