%!PS-Adobe-2.0 EPSF-2.0
%%BoundingBox:  0 0 567 384
%%Title: pionDir/pixel_occupancy/size_pixlayer_mg.eps: c1_n10
%%Creator: ROOT Version 6.04/12
%%CreationDate: Tue Apr 19 16:53:23 2016
%%DocumentNeededResources: ProcSet (FontSetInit)
%%EndComments
%%BeginProlog
80 dict begin
/s {stroke} def /l {lineto} def /m {moveto} def /t {translate} def
/r {rotate} def /rl {roll}  def /R {repeat} def
/d {rlineto} def /rm {rmoveto} def /gr {grestore} def /f {eofill} def
/c {setrgbcolor} def /black {0 setgray} def /sd {setdash} def
/cl {closepath} def /sf {scalefont setfont} def /lw {setlinewidth} def
/box {m dup 0 exch d exch 0 d 0 exch neg d cl} def
/NC{systemdict begin initclip end}def/C{NC box clip newpath}def
/bl {box s} def /bf {gsave box gsave f grestore 1 lw [] 0 sd s grestore} def /Y { 0 exch d} def /X { 0 d} def 
/K {{pop pop 0 moveto} exch kshow} bind def
/ita {/ang 15 def gsave [1 0 ang dup sin exch cos div 1 0 0] concat} def 
/mp {newpath /y exch def /x exch def} def
/side {[w .77 mul w .23 mul] .385 w mul sd w 0 l currentpoint t -144 r} def
/mr {mp x y w2 0 360 arc} def /m24 {mr s} def /m20 {mr f} def
/mb {mp x y w2 add m w2 neg 0 d 0 w neg d w 0 d 0 w d cl} def
/mt {mp x y w2 add m w2 neg w neg d w 0 d cl} def
/m21 {mb f} def /m25 {mb s} def /m22 {mt f} def /m26{mt s} def
/m23 {mp x y w2 sub m w2 w d w neg 0 d cl f} def
/m27 {mp x y w2 add m w3 neg w2 neg d w3 w2 neg d w3 w2 d cl s} def
/m28 {mp x w2 sub y w2 sub w3 add m w3 0 d  0 w3 neg d w3 0 d 0 w3 d w3 0 d  0 w3 d w3 neg 0 d 0 w3 d w3 neg 0 d 0 w3 neg d w3 neg 0 d cl s } def
/m29 {mp gsave x w2 sub y w2 add w3 sub m currentpoint t 4 {side} repeat cl fill gr} def
/m30 {mp gsave x w2 sub y w2 add w3 sub m currentpoint t 4 {side} repeat cl s gr} def
/m31 {mp x y w2 sub m 0 w d x w2 sub y m w 0 d x w2 sub y w2 add m w w neg d x w2 sub y w2 sub m w w d s} def
/m32 {mp x y w2 sub m w2 w d w neg 0 d cl s} def
/m33 {mp x y w2 add m w3 neg w2 neg d w3 w2 neg d w3 w2 d cl f} def
/m34 {mp x w2 sub y w2 sub w3 add m w3 0 d  0 w3 neg d w3 0 d 0 w3 d w3 0 d  0 w3 d w3 neg 0 d 0 w3 d w3 neg 0 d 0 w3 neg d w3 neg 0 d cl f } def
/m2 {mp x y w2 sub m 0 w d x w2 sub y m w 0 d s} def
/m5 {mp x w2 sub y w2 sub m w w d x w2 sub y w2 add m w w neg d s} def
%%IncludeResource: ProcSet (FontSetInit)
%%IncludeResource: font Times-Roman
%%IncludeResource: font Times-Italic
%%IncludeResource: font Times-Bold
%%IncludeResource: font Times-BoldItalic
%%IncludeResource: font Helvetica
%%IncludeResource: font Helvetica-Oblique
%%IncludeResource: font Helvetica-Bold
%%IncludeResource: font Helvetica-BoldOblique
%%IncludeResource: font Courier
%%IncludeResource: font Courier-Oblique
%%IncludeResource: font Courier-Bold
%%IncludeResource: font Courier-BoldOblique
%%IncludeResource: font Symbol
%%IncludeResource: font ZapfDingbats
/reEncode {exch findfont dup length dict begin {1 index /FID eq  {pop pop} {def} ifelse } forall /Encoding exch def currentdict end dup /FontName get exch definefont pop } def [/Times-Bold /Times-Italic /Times-BoldItalic /Helvetica /Helvetica-Oblique
 /Helvetica-Bold /Helvetica-BoldOblique /Courier /Courier-Oblique /Courier-Bold /Courier-BoldOblique /Times-Roman /AvantGarde-Book /AvantGarde-BookOblique /AvantGarde-Demi /AvantGarde-DemiOblique /Bookman-Demi /Bookman-DemiItalic /Bookman-Light
 /Bookman-LightItalic /Helvetica-Narrow /Helvetica-Narrow-Bold /Helvetica-Narrow-BoldOblique /Helvetica-Narrow-Oblique /NewCenturySchlbk-Roman /NewCenturySchlbk-Bold /NewCenturySchlbk-BoldItalic /NewCenturySchlbk-Italic /Palatino-Bold
 /Palatino-BoldItalic /Palatino-Italic /Palatino-Roman ] {ISOLatin1Encoding reEncode } forall
%%EndProlog
%%BeginSetup
%%EndSetup
newpath  gsave  .25 .25 scale  gsave  0 0 t black[  ] 0 sd 3 lw 1 1 1 c 2268 1538 0 0 bf black 1 1 1 c 1814 1230 227 154 bf black 1814 1230 227 154 bl 1 1 1 c 1814 1230 227 154 bf black 1814 1230 227 154 bl 227 154 m 1814 X s
 gsave  2268 1538 0 0 C 1772.47 32.5821 t 0 r /Helvetica-Bold findfont 58.6478 sf 0 0 m (moduleID) show NC gr  309 191 m -37 Y s 364 172 m -18 Y s 419 172 m -18 Y s 474 172 m -18 Y s 529 172 m -18 Y s 584 191 m -37 Y s 639 172 m -18 Y s 694 172 m -18
 Y s 749 172 m -18 Y s 804 172 m -18 Y s 859 191 m -37 Y s 914 172 m -18 Y s 969 172 m -18 Y s 1024 172 m -18 Y s 1079 172 m -18 Y s 1134 191 m -37 Y s 1189 172 m -18 Y s 1244 172 m -18 Y s 1299 172 m -18 Y s 1354 172 m -18 Y s 1409 191 m -37 Y s
 1464 172 m -18 Y s 1519 172 m -18 Y s 1574 172 m -18 Y s 1629 172 m -18 Y s 1684 191 m -37 Y s 1739 172 m -18 Y s 1794 172 m -18 Y s 1849 172 m -18 Y s 1904 172 m -18 Y s 1958 191 m -37 Y s 309 191 m -37 Y s 254 172 m -18 Y s 1958 191 m -37 Y s 2013
 172 m -18 Y s
 gsave  2268 1538 0 0 C 286.723 97.7464 t 0 r /Helvetica-Bold findfont 58.6478 sf 0 0 m (15) show NC gr 
 gsave  2268 1538 0 0 C 257.399 97.7464 t 0 r /Symbol findfont 58.6478 sf 0 0 m (-) show NC gr 
 gsave  2268 1538 0 0 C 563.671 97.7464 t 0 r /Helvetica-Bold findfont 58.6478 sf 0 0 m (10) show NC gr 
 gsave  2268 1538 0 0 C 534.347 97.7464 t 0 r /Symbol findfont 58.6478 sf 0 0 m (-) show NC gr 
 gsave  2268 1538 0 0 C 853.652 97.7464 t 0 r /Helvetica-Bold findfont 58.6478 sf 0 0 m (5) show NC gr 
 gsave  2268 1538 0 0 C 824.328 97.7464 t 0 r /Symbol findfont 58.6478 sf 0 0 m (-) show NC gr 
 gsave  2268 1538 0 0 C 1117.57 97.7464 t 0 r /Helvetica-Bold findfont 58.6478 sf 0 0 m (0) show NC gr 
 gsave  2268 1538 0 0 C 1391.26 97.7464 t 0 r /Helvetica-Bold findfont 58.6478 sf 0 0 m (5) show NC gr 
 gsave  2268 1538 0 0 C 1648.66 97.7464 t 0 r /Helvetica-Bold findfont 58.6478 sf 0 0 m (10) show NC gr 
 gsave  2268 1538 0 0 C 1925.6 97.7464 t 0 r /Helvetica-Bold findfont 58.6478 sf 0 0 m (15) show NC gr  227 1384 m 1814 X s 309 1347 m 37 Y s 364 1366 m 18 Y s 419 1366 m 18 Y s 474 1366 m 18 Y s 529 1366 m 18 Y s 584 1347 m 37 Y s 639 1366 m 18 Y s
 694 1366 m 18 Y s 749 1366 m 18 Y s 804 1366 m 18 Y s 859 1347 m 37 Y s 914 1366 m 18 Y s 969 1366 m 18 Y s 1024 1366 m 18 Y s 1079 1366 m 18 Y s 1134 1347 m 37 Y s 1189 1366 m 18 Y s 1244 1366 m 18 Y s 1299 1366 m 18 Y s 1354 1366 m 18 Y s 1409
 1347 m 37 Y s 1464 1366 m 18 Y s 1519 1366 m 18 Y s 1574 1366 m 18 Y s 1629 1366 m 18 Y s 1684 1347 m 37 Y s 1739 1366 m 18 Y s 1794 1366 m 18 Y s 1849 1366 m 18 Y s 1904 1366 m 18 Y s 1958 1347 m 37 Y s 309 1347 m 37 Y s 254 1366 m 18 Y s 1958 1347
 m 37 Y s 2013 1366 m 18 Y s 227 154 m 1230 Y s
 gsave  2268 1538 0 0 C 104.263 1055.66 t 90 r /Helvetica-Bold findfont 58.6478 sf 0 0 m (Cluster size) show NC gr  281 378 m -54 X s 254 424 m -27 X s 254 470 m -27 X s 254 516 m -27 X s 254 562 m -27 X s 281 608 m -54 X s 254 654 m -27 X s 254 700
 m -27 X s 254 747 m -27 X s 254 793 m -27 X s 281 839 m -54 X s 254 885 m -27 X s 254 931 m -27 X s 254 977 m -27 X s 254 1023 m -27 X s 281 1069 m -54 X s 254 1115 m -27 X s 254 1162 m -27 X s 254 1208 m -27 X s 254 1254 m -27 X s 281 1300 m -54 X
 s 281 378 m -54 X s 254 332 m -27 X s 254 285 m -27 X s 254 239 m -27 X s 254 193 m -27 X s 281 1300 m -54 X s 254 1346 m -27 X s
 gsave  2268 1538 0 0 C 149.878 355.145 t 0 r /Helvetica-Bold findfont 58.6478 sf 0 0 m (10) show NC gr 
 gsave  2268 1538 0 0 C 149.878 586.478 t 0 r /Helvetica-Bold findfont 58.6478 sf 0 0 m (20) show NC gr 
 gsave  2268 1538 0 0 C 149.878 817.812 t 0 r /Helvetica-Bold findfont 58.6478 sf 0 0 m (30) show NC gr 
 gsave  2268 1538 0 0 C 149.878 1049.14 t 0 r /Helvetica-Bold findfont 58.6478 sf 0 0 m (40) show NC gr 
 gsave  2268 1538 0 0 C 149.878 1277.22 t 0 r /Helvetica-Bold findfont 58.6478 sf 0 0 m (50) show NC gr  2041 154 m 1230 Y s 1987 378 m 54 X s 2014 424 m 27 X s 2014 470 m 27 X s 2014 516 m 27 X s 2014 562 m 27 X s 1987 608 m 54 X s 2014 654 m 27 X s
 2014 700 m 27 X s 2014 747 m 27 X s 2014 793 m 27 X s 1987 839 m 54 X s 2014 885 m 27 X s 2014 931 m 27 X s 2014 977 m 27 X s 2014 1023 m 27 X s 1987 1069 m 54 X s 2014 1115 m 27 X s 2014 1162 m 27 X s 2014 1208 m 27 X s 2014 1254 m 27 X s 1987 1300
 m 54 X s 1987 378 m 54 X s 2014 332 m 27 X s 2014 285 m 27 X s 2014 239 m 27 X s 2014 193 m 27 X s 1987 1300 m 54 X s 2014 1346 m 27 X s 309 715 m 95 Y s 303 810 m 13 X s 309 689 m -96 Y s 303 593 m 13 X s 364 715 m 72 Y s 358 787 m 13 X s 364 689 m
 -71 Y s 358 618 m 13 X s 419 749 m 65 Y s 413 814 m 13 X s 419 722 m -65 Y s 413 657 m 13 X s 474 613 m 75 Y s 468 688 m 13 X s 474 587 m -75 Y s 468 512 m 13 X s 529 555 m 73 Y s 523 628 m 13 X s 529 529 m -73 Y s 523 456 m 13 X s 584 566 m 92 Y s
 578 658 m 13 X s 584 540 m -91 Y s 578 449 m 13 X s 639 538 m 57 Y s 633 595 m 13 X s 639 512 m -57 Y s 633 455 m 13 X s 694 670 m 77 Y s 688 747 m 13 X s 694 644 m -76 Y s 688 568 m 13 X s 749 528 m 50 Y s 743 578 m 13 X s 749 502 m -49 Y s 743 453
 m 13 X s 804 415 m 46 Y s 797 461 m 14 X s 804 389 m -46 Y s 797 343 m 14 X s 859 473 m 21 Y s 852 494 m 13 X s 859 447 m -21 Y s 852 426 m 13 X s 914 371 m 15 Y s 907 386 m 13 X s 914 345 m -16 Y s 907 329 m 13 X s 969 394 m 11 Y s 962 405 m 13 X s
 969 368 m -11 Y s 962 357 m 13 X s 1024 349 m 6 Y s 1017 355 m 13 X s 1024 323 m -6 Y s 1017 317 m 13 X s 1189 254 m 7 Y s 1182 261 m 13 X s 1189 228 m -7 Y s 1182 221 m 13 X s 1244 308 m 11 Y s 1237 319 m 13 X s 1244 282 m -12 Y s 1237 270 m 13 X s
 1299 298 m 12 Y s 1292 310 m 13 X s 1299 272 m -12 Y s 1292 260 m 13 X s 1354 344 m 13 Y s 1347 357 m 13 X s 1354 318 m -14 Y s 1347 304 m 13 X s 1409 485 m 31 Y s 1402 516 m 13 X s 1409 458 m -31 Y s 1402 427 m 13 X s 1464 503 m 29 Y s 1457 532 m
 13 X s 1464 477 m -29 Y s 1457 448 m 13 X s 1519 735 m 40 Y s 1512 775 m 13 X s 1519 709 m -40 Y s 1512 669 m 13 X s 1574 522 m 39 Y s 1567 561 m 13 X s 1574 496 m -40 Y s 1567 456 m 13 X s 1629 516 m 48 Y s 1622 564 m 13 X s 1629 490 m -48 Y s 1622
 442 m 13 X s 1684 584 m 48 Y s 1677 632 m 13 X s 1684 558 m -48 Y s 1677 510 m 13 X s 1739 655 m 68 Y s 1732 723 m 13 X s 1739 629 m -68 Y s 1732 561 m 13 X s 1794 781 m 110 Y s 1787 891 m 13 X s 1794 755 m -110 Y s 1787 645 m 13 X s 1849 694 m 89 Y
 s 1842 783 m 13 X s 1849 668 m -88 Y s 1842 580 m 13 X s 1904 509 m 72 Y s 1897 581 m 13 X s 1904 483 m -72 Y s 1897 411 m 13 X s 1958 892 m 127 Y s 1952 1019 m 13 X s 1958 866 m -127 Y s 1952 739 m 13 X s 309 702 m 55 X 55 34 d 55 -136 d 55 -58 d
 55 11 d 55 -28 d 55 132 d 55 -142 d 55 -113 d 55 58 d 55 -102 d 55 23 d 55 -45 d 55 -104 d 110 9 d 55 54 d 55 -10 d 55 46 d 55 140 d 55 19 d 55 232 d 55 -213 d 55 -6 d 55 68 d 55 71 d 55 126 d 55 -87 d 55 -185 d 54 383 d s /w 26 def /w2 {w 2 div}
 def /w3 {w 3 div} def 309 702 364 702 419 736 474 600 529 542 584 553 639 525 694 657 749 515 804 402 859 460 914 358 969 381 1024 336 1079 232 1189 241 1244 295 1299 285 1354 331 1409 471 1464 490 1519 722 1574 509 1629 503 1684 571 1739 642 1794
 768 1849 681 1904 496 1958 879 30 { m20} R 1 0 0 c 309 588 m 38 Y s 303 626 m 13 X s 309 562 m -37 Y s 303 525 m 13 X s 364 613 m 37 Y s 358 650 m 13 X s 364 587 m -37 Y s 358 550 m 13 X s 419 546 m 64 Y s 413 610 m 13 X s 419 520 m -64 Y s 413 456
 m 13 X s 474 392 m 20 Y s 468 412 m 13 X s 474 366 m -21 Y s 468 345 m 13 X s 529 415 m 22 Y s 523 437 m 13 X s 529 389 m -22 Y s 523 367 m 13 X s 584 357 m 19 Y s 578 376 m 13 X s 584 331 m -18 Y s 578 313 m 13 X s 639 458 m 16 Y s 633 474 m 13 X s
 639 431 m -16 Y s 633 415 m 13 X s 694 457 m 17 Y s 688 474 m 13 X s 694 431 m -18 Y s 688 413 m 13 X s 749 541 m 67 Y s 743 608 m 13 X s 749 514 m -67 Y s 743 447 m 13 X s 804 404 m 11 Y s 797 415 m 14 X s 804 378 m -12 Y s 797 366 m 14 X s 859 356
 m 2 Y s 852 358 m 13 X s 859 330 m -3 Y s 852 327 m 13 X s 914 332 m 3 Y s 907 335 m 13 X s 914 306 m -3 Y s 907 303 m 13 X s 969 272 m 1 Y s 962 273 m 13 X s 969 246 m -1 Y s 962 245 m 13 X s 1024 323 m 3 Y s 1017 326 m 13 X s 1024 297 m -3 Y s
 1017 294 m 13 X s 1189 255 m s 1182 255 m 13 X s 1189 229 m -1 Y s 1182 228 m 13 X s 1299 268 m 3 Y s 1292 271 m 13 X s 1299 242 m -2 Y s 1292 240 m 13 X s 1354 333 m 10 Y s 1347 343 m 13 X s 1354 307 m -10 Y s 1347 297 m 13 X s 1409 366 m 10 Y s
 1402 376 m 13 X s 1409 340 m -9 Y s 1402 331 m 13 X s 1464 354 m 8 Y s 1457 362 m 13 X s 1464 328 m -7 Y s 1457 321 m 13 X s 1519 376 m 9 Y s 1512 385 m 13 X s 1519 349 m -9 Y s 1512 340 m 13 X s 1574 468 m 17 Y s 1567 485 m 13 X s 1574 441 m -17 Y
 s 1567 424 m 13 X s 1629 509 m 23 Y s 1622 532 m 13 X s 1629 483 m -23 Y s 1622 460 m 13 X s 1684 383 m 23 Y s 1677 406 m 13 X s 1684 357 m -22 Y s 1677 335 m 13 X s 1739 553 m 30 Y s 1732 583 m 13 X s 1739 527 m -29 Y s 1732 498 m 13 X s 1794 598 m
 35 Y s 1787 633 m 13 X s 1794 571 m -35 Y s 1787 536 m 13 X s 1849 551 m 33 Y s 1842 584 m 13 X s 1849 525 m -34 Y s 1842 491 m 13 X s 1904 598 m 38 Y s 1897 636 m 13 X s 1904 572 m -38 Y s 1897 534 m 13 X s 1958 560 m 46 Y s 1952 606 m 13 X s 1958
 534 m -46 Y s 1952 488 m 13 X s black 1 0 0 c 309 575 m 55 25 d 55 -67 d 55 -154 d 55 23 d 55 -58 d 55 101 d 55 -1 d 55 84 d 55 -137 d 55 -48 d 55 -24 d 55 -60 d 55 51 d 55 -68 d 110 X 55 -26 d 55 39 d 55 65 d 55 33 d 55 -12 d 55 22 d 55 92 d 55 41
 d 55 -126 d 55 170 d 55 45 d 55 -47 d 55 47 d 54 -38 d s 309 575 364 600 419 533 474 379 529 402 584 344 639 445 694 444 749 528 804 391 859 343 914 319 969 259 1024 310 1079 242 1189 242 1244 216 1299 255 1354 320 1409 353 1464 341 1519 363 1574
 455 1629 496 1684 370 1739 540 1794 585 1849 538 1904 585 1958 547 30 { m20} R 0 1 0 c 639 341 m 3 Y s 633 344 m 13 X s 639 315 m -3 Y s 633 312 m 13 X s 694 338 m 7 Y s 688 345 m 13 X s 694 311 m -7 Y s 688 304 m 13 X s 804 293 m 2 Y s 797 295 m 14
 X s 804 267 m -1 Y s 797 266 m 14 X s 859 330 m 12 Y s 852 342 m 13 X s 859 304 m -13 Y s 852 291 m 13 X s 1079 262 m 2 Y s 1072 264 m 13 X s 1079 236 m -1 Y s 1072 235 m 13 X s 1189 256 m 5 Y s 1182 261 m 13 X s 1189 230 m -5 Y s 1182 225 m 13 X s
 1409 287 m 3 Y s 1402 290 m 13 X s 1409 261 m -2 Y s 1402 259 m 13 X s 1464 343 m 26 Y s 1457 369 m 13 X s 1464 317 m -27 Y s 1457 290 m 13 X s 1519 288 m 4 Y s 1512 292 m 13 X s 1519 262 m -3 Y s 1512 259 m 13 X s 1574 315 m 8 Y s 1567 323 m 13 X s
 1574 289 m -8 Y s 1567 281 m 13 X s 1629 351 m 9 Y s 1622 360 m 13 X s 1629 325 m -8 Y s 1622 317 m 13 X s black 0 1 0 c 639 328 m 55 -3 d 55 -40 d 55 -5 d 55 37 d 55 -55 d 55 -9 d 55 -9 d 55 5 d 110 -6 d 55 -16 d 55 9 d 55 31 d 55 7 d 55 56 d 55
 -55 d 55 27 d 55 36 d s 639 328 694 325 749 285 804 280 859 317 914 262 969 253 1024 244 1079 249 1189 243 1244 227 1299 236 1354 267 1409 274 1464 330 1519 275 1574 302 1629 338 18 { m20} R 0 0 1 c 694 313 m 2 Y s 688 315 m 13 X s 694 287 m -2 Y s
 688 285 m 13 X s 804 268 m 2 Y s 797 270 m 14 X s 804 242 m -2 Y s 797 240 m 14 X s 1464 295 m 4 Y s 1457 299 m 13 X s 1464 269 m -4 Y s 1457 265 m 13 X s 1574 277 m s 1567 277 m 13 X s 1574 250 m s 1567 250 m 13 X s 1629 305 m 5 Y s 1622 310 m 13 X
 s 1629 279 m -4 Y s 1622 275 m 13 X s black 0 0 1 c 639 275 m 55 25 d 55 -22 d 55 -23 d 55 8 d 55 -16 d 55 -46 d 55 17 d 55 -10 d 110 -2 d 55 4 d 55 2 d 55 27 d 55 -6 d 55 49 d 55 -22 d 55 4 d 55 28 d s 639 275 694 300 749 278 804 255 859 263 914
 247 969 201 1024 218 1079 208 1189 206 1244 210 1299 212 1354 239 1409 233 1464 282 1519 260 1574 264 1629 292 18 { m20} R 1 1 0 c 639 277 m 12 Y s 633 289 m 13 X s 639 250 m -12 Y s 633 238 m 13 X s 1409 283 m 2 Y s 1402 285 m 13 X s 1409 257 m -2
 Y s 1402 255 m 13 X s 1519 274 m 2 Y s 1512 276 m 13 X s 1519 248 m -2 Y s 1512 246 m 13 X s 1574 301 m 1 Y s 1567 302 m 13 X s 1574 275 m -2 Y s 1567 273 m 13 X s black 1 1 0 c 639 263 m 55 -3 d 55 2 d 55 -18 d 55 -8 d 55 -11 d 55 5 d 55 -16 d 55
 16 d 110 -22 d 55 X 55 23 d 55 -9 d 55 48 d 55 -15 d 55 6 d 55 27 d 55 8 d s 639 263 694 260 749 262 804 244 859 236 914 225 969 230 1024 214 1079 230 1189 208 1244 208 1299 231 1354 222 1409 270 1464 255 1519 261 1574 288 1629 296 18 { m20} R black
 gsave  2268 1538 0 0 C 1394.52 1280.48 t 0 r /Helvetica-Bold findfont 58.6478 sf 0 0 m (Pixel Barrel) show NC gr 
 gsave  2268 1538 0 0 C 1495.52 1241.38 t 0 r /Helvetica-Bold findfont 58.6478 sf 0 0 m (Layer 0) show NC gr  1400 1250 m 80 X s 1440 1250 m20
 gsave  2268 1538 0 0 C 1495.52 1205.54 t 0 r /Helvetica-Bold findfont 58.6478 sf 0 0 m (Layer 1) show NC gr  1 0 0 c 1400 1211 m 80 X s 1440 1211 m20 black
 gsave  2268 1538 0 0 C 1495.52 1166.44 t 0 r /Helvetica-Bold findfont 58.6478 sf 0 0 m (Layer 2) show NC gr  0 1 0 c 1400 1173 m 80 X s 1440 1173 m20 black
 gsave  2268 1538 0 0 C 1495.52 1127.34 t 0 r /Helvetica-Bold findfont 58.6478 sf 0 0 m (Layer 3) show NC gr  0 0 1 c 1400 1134 m 80 X s 1440 1134 m20 black
 gsave  2268 1538 0 0 C 1495.52 1088.24 t 0 r /Helvetica-Bold findfont 58.6478 sf 0 0 m (Layer 4) show NC gr  1 1 0 c 1400 1096 m 80 X s 1440 1096 m20
 gr  gr showpage
end
%%EOF
