%!PS-Adobe-2.0 EPSF-2.0
%%BoundingBox:  0 0 567 384
%%Title: pionDir/pixel_occupancy/size_pixlayer_mgz.eps: c1_n11
%%Creator: ROOT Version 6.04/12
%%CreationDate: Tue Apr 19 16:53:23 2016
%%DocumentNeededResources: ProcSet (FontSetInit)
%%EndComments
%%BeginProlog
80 dict begin
/s {stroke} def /l {lineto} def /m {moveto} def /t {translate} def
/r {rotate} def /rl {roll}  def /R {repeat} def
/d {rlineto} def /rm {rmoveto} def /gr {grestore} def /f {eofill} def
/c {setrgbcolor} def /black {0 setgray} def /sd {setdash} def
/cl {closepath} def /sf {scalefont setfont} def /lw {setlinewidth} def
/box {m dup 0 exch d exch 0 d 0 exch neg d cl} def
/NC{systemdict begin initclip end}def/C{NC box clip newpath}def
/bl {box s} def /bf {gsave box gsave f grestore 1 lw [] 0 sd s grestore} def /Y { 0 exch d} def /X { 0 d} def 
/K {{pop pop 0 moveto} exch kshow} bind def
/ita {/ang 15 def gsave [1 0 ang dup sin exch cos div 1 0 0] concat} def 
/mp {newpath /y exch def /x exch def} def
/side {[w .77 mul w .23 mul] .385 w mul sd w 0 l currentpoint t -144 r} def
/mr {mp x y w2 0 360 arc} def /m24 {mr s} def /m20 {mr f} def
/mb {mp x y w2 add m w2 neg 0 d 0 w neg d w 0 d 0 w d cl} def
/mt {mp x y w2 add m w2 neg w neg d w 0 d cl} def
/m21 {mb f} def /m25 {mb s} def /m22 {mt f} def /m26{mt s} def
/m23 {mp x y w2 sub m w2 w d w neg 0 d cl f} def
/m27 {mp x y w2 add m w3 neg w2 neg d w3 w2 neg d w3 w2 d cl s} def
/m28 {mp x w2 sub y w2 sub w3 add m w3 0 d  0 w3 neg d w3 0 d 0 w3 d w3 0 d  0 w3 d w3 neg 0 d 0 w3 d w3 neg 0 d 0 w3 neg d w3 neg 0 d cl s } def
/m29 {mp gsave x w2 sub y w2 add w3 sub m currentpoint t 4 {side} repeat cl fill gr} def
/m30 {mp gsave x w2 sub y w2 add w3 sub m currentpoint t 4 {side} repeat cl s gr} def
/m31 {mp x y w2 sub m 0 w d x w2 sub y m w 0 d x w2 sub y w2 add m w w neg d x w2 sub y w2 sub m w w d s} def
/m32 {mp x y w2 sub m w2 w d w neg 0 d cl s} def
/m33 {mp x y w2 add m w3 neg w2 neg d w3 w2 neg d w3 w2 d cl f} def
/m34 {mp x w2 sub y w2 sub w3 add m w3 0 d  0 w3 neg d w3 0 d 0 w3 d w3 0 d  0 w3 d w3 neg 0 d 0 w3 d w3 neg 0 d 0 w3 neg d w3 neg 0 d cl f } def
/m2 {mp x y w2 sub m 0 w d x w2 sub y m w 0 d s} def
/m5 {mp x w2 sub y w2 sub m w w d x w2 sub y w2 add m w w neg d s} def
%%IncludeResource: ProcSet (FontSetInit)
%%IncludeResource: font Times-Roman
%%IncludeResource: font Times-Italic
%%IncludeResource: font Times-Bold
%%IncludeResource: font Times-BoldItalic
%%IncludeResource: font Helvetica
%%IncludeResource: font Helvetica-Oblique
%%IncludeResource: font Helvetica-Bold
%%IncludeResource: font Helvetica-BoldOblique
%%IncludeResource: font Courier
%%IncludeResource: font Courier-Oblique
%%IncludeResource: font Courier-Bold
%%IncludeResource: font Courier-BoldOblique
%%IncludeResource: font Symbol
%%IncludeResource: font ZapfDingbats
/reEncode {exch findfont dup length dict begin {1 index /FID eq  {pop pop} {def} ifelse } forall /Encoding exch def currentdict end dup /FontName get exch definefont pop } def [/Times-Bold /Times-Italic /Times-BoldItalic /Helvetica /Helvetica-Oblique
 /Helvetica-Bold /Helvetica-BoldOblique /Courier /Courier-Oblique /Courier-Bold /Courier-BoldOblique /Times-Roman /AvantGarde-Book /AvantGarde-BookOblique /AvantGarde-Demi /AvantGarde-DemiOblique /Bookman-Demi /Bookman-DemiItalic /Bookman-Light
 /Bookman-LightItalic /Helvetica-Narrow /Helvetica-Narrow-Bold /Helvetica-Narrow-BoldOblique /Helvetica-Narrow-Oblique /NewCenturySchlbk-Roman /NewCenturySchlbk-Bold /NewCenturySchlbk-BoldItalic /NewCenturySchlbk-Italic /Palatino-Bold
 /Palatino-BoldItalic /Palatino-Italic /Palatino-Roman ] {ISOLatin1Encoding reEncode } forall
%%EndProlog
%%BeginSetup
%%EndSetup
newpath  gsave  .25 .25 scale  gsave  0 0 t black[  ] 0 sd 3 lw 1 1 1 c 2268 1538 0 0 bf black 1 1 1 c 1814 1230 227 154 bf black 1814 1230 227 154 bl 1 1 1 c 1814 1230 227 154 bf black 1814 1230 227 154 bl 227 154 m 1814 X s
 gsave  2268 1538 0 0 C 1853.92 35.8403 t 0 r /Helvetica-Bold findfont 58.6478 sf 0 0 m (z [mm]) show NC gr  290 191 m -37 Y s 360 172 m -18 Y s 430 172 m -18 Y s 500 172 m -18 Y s 570 191 m -37 Y s 641 172 m -18 Y s 711 172 m -18 Y s 781 172 m -18 Y
 s 851 191 m -37 Y s 921 172 m -18 Y s 991 172 m -18 Y s 1061 172 m -18 Y s 1132 191 m -37 Y s 1202 172 m -18 Y s 1272 172 m -18 Y s 1342 172 m -18 Y s 1412 191 m -37 Y s 1482 172 m -18 Y s 1553 172 m -18 Y s 1623 172 m -18 Y s 1693 191 m -37 Y s
 1763 172 m -18 Y s 1833 172 m -18 Y s 1903 172 m -18 Y s 1973 191 m -37 Y s 290 191 m -37 Y s 1973 191 m -37 Y s
 gsave  2268 1538 0 0 C 250.882 97.7464 t 0 r /Helvetica-Bold findfont 58.6478 sf 0 0 m (600) show NC gr 
 gsave  2268 1538 0 0 C 221.559 97.7464 t 0 r /Symbol findfont 58.6478 sf 0 0 m (-) show NC gr 
 gsave  2268 1538 0 0 C 534.347 97.7464 t 0 r /Helvetica-Bold findfont 58.6478 sf 0 0 m (400) show NC gr 
 gsave  2268 1538 0 0 C 505.023 97.7464 t 0 r /Symbol findfont 58.6478 sf 0 0 m (-) show NC gr 
 gsave  2268 1538 0 0 C 814.553 97.7464 t 0 r /Helvetica-Bold findfont 58.6478 sf 0 0 m (200) show NC gr 
 gsave  2268 1538 0 0 C 785.229 97.7464 t 0 r /Symbol findfont 58.6478 sf 0 0 m (-) show NC gr 
 gsave  2268 1538 0 0 C 1114.31 97.7464 t 0 r /Helvetica-Bold findfont 58.6478 sf 0 0 m (0) show NC gr 
 gsave  2268 1538 0 0 C 1361.93 97.7464 t 0 r /Helvetica-Bold findfont 58.6478 sf 0 0 m (200) show NC gr 
 gsave  2268 1538 0 0 C 1642.14 97.7464 t 0 r /Helvetica-Bold findfont 58.6478 sf 0 0 m (400) show NC gr 
 gsave  2268 1538 0 0 C 1922.35 97.7464 t 0 r /Helvetica-Bold findfont 58.6478 sf 0 0 m (600) show NC gr  227 1384 m 1814 X s 290 1347 m 37 Y s 360 1366 m 18 Y s 430 1366 m 18 Y s 500 1366 m 18 Y s 570 1347 m 37 Y s 641 1366 m 18 Y s 711 1366 m 18 Y
 s 781 1366 m 18 Y s 851 1347 m 37 Y s 921 1366 m 18 Y s 991 1366 m 18 Y s 1061 1366 m 18 Y s 1132 1347 m 37 Y s 1202 1366 m 18 Y s 1272 1366 m 18 Y s 1342 1366 m 18 Y s 1412 1347 m 37 Y s 1482 1366 m 18 Y s 1553 1366 m 18 Y s 1623 1366 m 18 Y s 1693
 1347 m 37 Y s 1763 1366 m 18 Y s 1833 1366 m 18 Y s 1903 1366 m 18 Y s 1973 1347 m 37 Y s 290 1347 m 37 Y s 1973 1347 m 37 Y s 227 154 m 1230 Y s
 gsave  2268 1538 0 0 C 104.263 1055.66 t 90 r /Helvetica-Bold findfont 58.6478 sf 0 0 m (Cluster size) show NC gr  281 378 m -54 X s 254 424 m -27 X s 254 470 m -27 X s 254 516 m -27 X s 254 562 m -27 X s 281 608 m -54 X s 254 654 m -27 X s 254 700
 m -27 X s 254 747 m -27 X s 254 793 m -27 X s 281 839 m -54 X s 254 885 m -27 X s 254 931 m -27 X s 254 977 m -27 X s 254 1023 m -27 X s 281 1069 m -54 X s 254 1115 m -27 X s 254 1162 m -27 X s 254 1208 m -27 X s 254 1254 m -27 X s 281 1300 m -54 X
 s 281 378 m -54 X s 254 332 m -27 X s 254 285 m -27 X s 254 239 m -27 X s 254 193 m -27 X s 281 1300 m -54 X s 254 1346 m -27 X s
 gsave  2268 1538 0 0 C 149.878 355.145 t 0 r /Helvetica-Bold findfont 58.6478 sf 0 0 m (10) show NC gr 
 gsave  2268 1538 0 0 C 149.878 586.478 t 0 r /Helvetica-Bold findfont 58.6478 sf 0 0 m (20) show NC gr 
 gsave  2268 1538 0 0 C 149.878 817.812 t 0 r /Helvetica-Bold findfont 58.6478 sf 0 0 m (30) show NC gr 
 gsave  2268 1538 0 0 C 149.878 1049.14 t 0 r /Helvetica-Bold findfont 58.6478 sf 0 0 m (40) show NC gr 
 gsave  2268 1538 0 0 C 149.878 1277.22 t 0 r /Helvetica-Bold findfont 58.6478 sf 0 0 m (50) show NC gr  2041 154 m 1230 Y s 1987 378 m 54 X s 2014 424 m 27 X s 2014 470 m 27 X s 2014 516 m 27 X s 2014 562 m 27 X s 1987 608 m 54 X s 2014 654 m 27 X s
 2014 700 m 27 X s 2014 747 m 27 X s 2014 793 m 27 X s 1987 839 m 54 X s 2014 885 m 27 X s 2014 931 m 27 X s 2014 977 m 27 X s 2014 1023 m 27 X s 1987 1069 m 54 X s 2014 1115 m 27 X s 2014 1162 m 27 X s 2014 1208 m 27 X s 2014 1254 m 27 X s 1987 1300
 m 54 X s 1987 378 m 54 X s 2014 332 m 27 X s 2014 285 m 27 X s 2014 239 m 27 X s 2014 193 m 27 X s 1987 1300 m 54 X s 2014 1346 m 27 X s 316 715 m 95 Y s 310 810 m 13 X s 316 689 m -96 Y s 310 593 m 13 X s 362 715 m 72 Y s 355 787 m 13 X s 362 689 m
 -71 Y s 355 618 m 13 X s 417 749 m 65 Y s 411 814 m 13 X s 417 722 m -65 Y s 411 657 m 13 X s 479 613 m 75 Y s 473 688 m 13 X s 479 587 m -75 Y s 473 512 m 13 X s 530 555 m 73 Y s 523 628 m 13 X s 530 529 m -73 Y s 523 456 m 13 X s 593 566 m 92 Y s
 586 658 m 13 X s 593 540 m -91 Y s 586 449 m 13 X s 651 538 m 57 Y s 645 595 m 13 X s 651 512 m -57 Y s 645 455 m 13 X s 707 670 m 77 Y s 701 747 m 13 X s 707 644 m -76 Y s 701 568 m 13 X s 763 528 m 50 Y s 757 578 m 13 X s 763 502 m -49 Y s 757 453
 m 13 X s 820 415 m 46 Y s 814 461 m 13 X s 820 389 m -46 Y s 814 343 m 13 X s 878 473 m 21 Y s 871 494 m 14 X s 878 447 m -21 Y s 871 426 m 14 X s 933 371 m 15 Y s 926 386 m 13 X s 933 345 m -16 Y s 926 329 m 13 X s 984 394 m 11 Y s 978 405 m 13 X s
 984 368 m -11 Y s 978 357 m 13 X s 1053 349 m 6 Y s 1046 355 m 13 X s 1053 323 m -6 Y s 1046 317 m 13 X s 1164 254 m 7 Y s 1157 261 m 13 X s 1164 228 m -7 Y s 1157 221 m 13 X s 1219 308 m 11 Y s 1212 319 m 13 X s 1219 282 m -12 Y s 1212 270 m 13 X s
 1265 298 m 12 Y s 1258 310 m 13 X s 1265 272 m -12 Y s 1258 260 m 13 X s 1332 344 m 13 Y s 1325 357 m 13 X s 1332 318 m -14 Y s 1325 304 m 13 X s 1388 485 m 31 Y s 1382 516 m 13 X s 1388 458 m -31 Y s 1382 427 m 13 X s 1447 503 m 29 Y s 1440 532 m
 13 X s 1447 477 m -29 Y s 1440 448 m 13 X s 1500 735 m 40 Y s 1494 775 m 13 X s 1500 709 m -40 Y s 1494 669 m 13 X s 1551 522 m 39 Y s 1545 561 m 13 X s 1551 496 m -40 Y s 1545 456 m 13 X s 1622 516 m 48 Y s 1615 564 m 13 X s 1622 490 m -48 Y s 1615
 442 m 13 X s 1675 584 m 48 Y s 1668 632 m 13 X s 1675 558 m -48 Y s 1668 510 m 13 X s 1731 655 m 68 Y s 1724 723 m 13 X s 1731 629 m -68 Y s 1724 561 m 13 X s 1787 781 m 110 Y s 1780 891 m 13 X s 1787 755 m -110 Y s 1780 645 m 13 X s 1842 694 m 89 Y
 s 1835 783 m 13 X s 1842 668 m -88 Y s 1835 580 m 13 X s 1904 509 m 72 Y s 1898 581 m 13 X s 1904 483 m -72 Y s 1898 411 m 13 X s 1958 892 m 127 Y s 1952 1019 m 13 X s 1958 866 m -127 Y s 1952 739 m 13 X s 316 702 m 46 X 55 34 d 62 -136 d 51 -58 d
 63 11 d 58 -28 d 56 132 d 56 -142 d 57 -113 d 58 58 d 55 -102 d 51 23 d 69 -45 d 52 -104 d 59 9 d 55 54 d 46 -10 d 67 46 d 56 140 d 59 19 d 53 232 d 51 -213 d 71 -6 d 53 68 d 56 71 d 56 126 d 55 -87 d 62 -185 d 54 383 d s /w 26 def /w2 {w 2 div} def
 /w3 {w 3 div} def 316 702 362 702 417 736 479 600 530 542 593 553 651 525 707 657 763 515 820 402 878 460 933 358 984 381 1053 336 1105 232 1164 241 1219 295 1265 285 1332 331 1388 471 1447 490 1500 722 1551 509 1622 503 1675 571 1731 642 1787 768
 1842 681 1904 496 1958 879 30 { m20} R 1 0 0 c 309 588 m 38 Y s 303 626 m 13 X s 309 562 m -37 Y s 303 525 m 13 X s 359 613 m 37 Y s 353 650 m 13 X s 359 587 m -37 Y s 353 550 m 13 X s 418 546 m 64 Y s 412 610 m 13 X s 418 520 m -64 Y s 412 456 m 13
 X s 476 392 m 20 Y s 469 412 m 14 X s 476 366 m -21 Y s 469 345 m 14 X s 539 415 m 22 Y s 532 437 m 13 X s 539 389 m -22 Y s 532 367 m 13 X s 596 357 m 19 Y s 590 376 m 13 X s 596 331 m -18 Y s 590 313 m 13 X s 650 458 m 16 Y s 643 474 m 13 X s 650
 431 m -16 Y s 643 415 m 13 X s 695 457 m 17 Y s 689 474 m 13 X s 695 431 m -18 Y s 689 413 m 13 X s 765 541 m 67 Y s 759 608 m 13 X s 765 514 m -67 Y s 759 447 m 13 X s 813 404 m 11 Y s 807 415 m 13 X s 813 378 m -12 Y s 807 366 m 13 X s 878 356 m 2
 Y s 871 358 m 13 X s 878 330 m -3 Y s 871 327 m 13 X s 934 332 m 3 Y s 927 335 m 13 X s 934 306 m -3 Y s 927 303 m 13 X s 989 272 m 1 Y s 982 273 m 13 X s 989 246 m -1 Y s 982 245 m 13 X s 1039 323 m 3 Y s 1033 326 m 13 X s 1039 297 m -3 Y s 1033
 294 m 13 X s 1153 255 m s 1147 255 m 13 X s 1153 229 m -1 Y s 1147 228 m 13 X s 1269 268 m 3 Y s 1263 271 m 13 X s 1269 242 m -2 Y s 1263 240 m 13 X s 1330 333 m 10 Y s 1323 343 m 13 X s 1330 307 m -10 Y s 1323 297 m 13 X s 1390 366 m 10 Y s 1383
 376 m 13 X s 1390 340 m -9 Y s 1383 331 m 13 X s 1446 354 m 8 Y s 1439 362 m 13 X s 1446 328 m -7 Y s 1439 321 m 13 X s 1502 376 m 9 Y s 1496 385 m 13 X s 1502 349 m -9 Y s 1496 340 m 13 X s 1561 468 m 17 Y s 1555 485 m 13 X s 1561 441 m -17 Y s
 1555 424 m 13 X s 1615 509 m 23 Y s 1609 532 m 13 X s 1615 483 m -23 Y s 1609 460 m 13 X s 1671 383 m 23 Y s 1665 406 m 13 X s 1671 357 m -22 Y s 1665 335 m 13 X s 1725 553 m 30 Y s 1719 583 m 13 X s 1725 527 m -29 Y s 1719 498 m 13 X s 1785 598 m
 35 Y s 1779 633 m 13 X s 1785 571 m -35 Y s 1779 536 m 13 X s 1845 551 m 33 Y s 1839 584 m 13 X s 1845 525 m -34 Y s 1839 491 m 13 X s 1898 598 m 38 Y s 1892 636 m 13 X s 1898 572 m -38 Y s 1892 534 m 13 X s 1958 560 m 46 Y s 1952 606 m 13 X s 1958
 534 m -46 Y s 1952 488 m 13 X s black 1 0 0 c 309 575 m 50 25 d 59 -67 d 58 -154 d 63 23 d 57 -58 d 54 101 d 45 -1 d 70 84 d 48 -137 d 65 -48 d 56 -24 d 55 -60 d 50 51 d 62 -68 d 52 X 60 -26 d 56 39 d 61 65 d 60 33 d 56 -12 d 56 22 d 59 92 d 54 41 d
 56 -126 d 54 170 d 60 45 d 60 -47 d 53 47 d 60 -38 d s 309 575 359 600 418 533 476 379 539 402 596 344 650 445 695 444 765 528 813 391 878 343 934 319 989 259 1039 310 1101 242 1153 242 1213 216 1269 255 1330 320 1390 353 1446 341 1502 363 1561 455
 1615 496 1671 370 1725 540 1785 585 1845 538 1898 585 1958 547 30 { m20} R 0 1 0 c 644 341 m 3 Y s 638 344 m 13 X s 644 315 m -3 Y s 638 312 m 13 X s 708 338 m 7 Y s 701 345 m 13 X s 708 311 m -7 Y s 701 304 m 13 X s 820 293 m 2 Y s 814 295 m 13 X s
 820 267 m -1 Y s 814 266 m 13 X s 876 330 m 12 Y s 870 342 m 13 X s 876 304 m -13 Y s 870 291 m 13 X s 1104 262 m 2 Y s 1098 264 m 13 X s 1104 236 m -1 Y s 1098 235 m 13 X s 1166 256 m 5 Y s 1160 261 m 13 X s 1166 230 m -5 Y s 1160 225 m 13 X s 1391
 287 m 3 Y s 1384 290 m 13 X s 1391 261 m -2 Y s 1384 259 m 13 X s 1441 343 m 26 Y s 1435 369 m 13 X s 1441 317 m -27 Y s 1435 290 m 13 X s 1511 288 m 4 Y s 1504 292 m 13 X s 1511 262 m -3 Y s 1504 259 m 13 X s 1555 315 m 8 Y s 1548 323 m 13 X s 1555
 289 m -8 Y s 1548 281 m 13 X s 1612 351 m 9 Y s 1606 360 m 13 X s 1612 325 m -8 Y s 1606 317 m 13 X s black 0 1 0 c 644 328 m 64 -3 d 56 -40 d 56 -5 d 56 37 d 54 -55 d 62 -9 d 60 -9 d 52 5 d 62 -6 d 51 -16 d 57 9 d 62 31 d 55 7 d 50 56 d 70 -55 d 44
 27 d 57 36 d s 644 328 708 325 764 285 820 280 876 317 930 262 992 253 1052 244 1104 249 1166 243 1217 227 1274 236 1336 267 1391 274 1441 330 1511 275 1555 302 1612 338 18 { m20} R 0 0 1 c 706 313 m 2 Y s 700 315 m 13 X s 706 287 m -2 Y s 700 285 m
 13 X s 812 268 m 2 Y s 805 270 m 14 X s 812 242 m -2 Y s 805 240 m 14 X s 1451 295 m 4 Y s 1444 299 m 13 X s 1451 269 m -4 Y s 1444 265 m 13 X s 1560 277 m s 1553 277 m 13 X s 1560 250 m s 1553 250 m 13 X s 1620 305 m 5 Y s 1613 310 m 13 X s 1620
 279 m -4 Y s 1613 275 m 13 X s black 0 0 1 c 649 275 m 57 25 d 56 -22 d 50 -23 d 66 8 d 53 -16 d 60 -46 d 48 17 d 62 -10 d 60 -2 d 57 4 d 59 2 d 52 27 d 65 -6 d 57 49 d 47 -22 d 62 4 d 60 28 d s 649 275 706 300 762 278 812 255 878 263 931 247 991
 201 1039 218 1101 208 1161 206 1218 210 1277 212 1329 239 1394 233 1451 282 1498 260 1560 264 1620 292 18 { m20} R 1 1 0 c 646 277 m 12 Y s 639 289 m 13 X s 646 250 m -12 Y s 639 238 m 13 X s 1386 283 m 2 Y s 1380 285 m 13 X s 1386 257 m -2 Y s 1380
 255 m 13 X s 1503 274 m 2 Y s 1497 276 m 13 X s 1503 248 m -2 Y s 1497 246 m 13 X s 1559 301 m 1 Y s 1552 302 m 13 X s 1559 275 m -2 Y s 1552 273 m 13 X s black 1 1 0 c 646 263 m 58 -3 d 65 2 d 52 -18 d 53 -8 d 59 -11 d 57 5 d 57 -16 d 53 16 d 61
 -22 d 54 X 59 23 d 50 -9 d 62 48 d 63 -15 d 54 6 d 56 27 d 65 8 d s 646 263 704 260 769 262 821 244 874 236 933 225 990 230 1047 214 1100 230 1161 208 1215 208 1274 231 1324 222 1386 270 1449 255 1503 261 1559 288 1624 296 18 { m20} R black
 gsave  2268 1538 0 0 C 1394.52 1280.48 t 0 r /Helvetica-Bold findfont 58.6478 sf 0 0 m (Pixel Barrel) show NC gr 
 gsave  2268 1538 0 0 C 1495.52 1241.38 t 0 r /Helvetica-Bold findfont 58.6478 sf 0 0 m (Layer 0) show NC gr  1400 1250 m 80 X s 1440 1250 m20
 gsave  2268 1538 0 0 C 1495.52 1205.54 t 0 r /Helvetica-Bold findfont 58.6478 sf 0 0 m (Layer 1) show NC gr  1 0 0 c 1400 1211 m 80 X s 1440 1211 m20 black
 gsave  2268 1538 0 0 C 1495.52 1166.44 t 0 r /Helvetica-Bold findfont 58.6478 sf 0 0 m (Layer 2) show NC gr  0 1 0 c 1400 1173 m 80 X s 1440 1173 m20 black
 gsave  2268 1538 0 0 C 1495.52 1127.34 t 0 r /Helvetica-Bold findfont 58.6478 sf 0 0 m (Layer 3) show NC gr  0 0 1 c 1400 1134 m 80 X s 1440 1134 m20 black
 gsave  2268 1538 0 0 C 1495.52 1088.24 t 0 r /Helvetica-Bold findfont 58.6478 sf 0 0 m (Layer 4) show NC gr  1 1 0 c 1400 1096 m 80 X s 1440 1096 m20
 gr  gr showpage
end
%%EOF
