%!PS-Adobe-2.0 EPSF-2.0
%%BoundingBox:  0 0 567 384
%%Title: pionDir/sct_occupancy/clus_sctdisk_mgr.eps: c1_n34
%%Creator: ROOT Version 6.04/12
%%CreationDate: Tue Apr 19 16:53:27 2016
%%DocumentNeededResources: ProcSet (FontSetInit)
%%EndComments
%%BeginProlog
80 dict begin
/s {stroke} def /l {lineto} def /m {moveto} def /t {translate} def
/r {rotate} def /rl {roll}  def /R {repeat} def
/d {rlineto} def /rm {rmoveto} def /gr {grestore} def /f {eofill} def
/c {setrgbcolor} def /black {0 setgray} def /sd {setdash} def
/cl {closepath} def /sf {scalefont setfont} def /lw {setlinewidth} def
/box {m dup 0 exch d exch 0 d 0 exch neg d cl} def
/NC{systemdict begin initclip end}def/C{NC box clip newpath}def
/bl {box s} def /bf {gsave box gsave f grestore 1 lw [] 0 sd s grestore} def /Y { 0 exch d} def /X { 0 d} def 
/K {{pop pop 0 moveto} exch kshow} bind def
/ita {/ang 15 def gsave [1 0 ang dup sin exch cos div 1 0 0] concat} def 
/mp {newpath /y exch def /x exch def} def
/side {[w .77 mul w .23 mul] .385 w mul sd w 0 l currentpoint t -144 r} def
/mr {mp x y w2 0 360 arc} def /m24 {mr s} def /m20 {mr f} def
/mb {mp x y w2 add m w2 neg 0 d 0 w neg d w 0 d 0 w d cl} def
/mt {mp x y w2 add m w2 neg w neg d w 0 d cl} def
/m21 {mb f} def /m25 {mb s} def /m22 {mt f} def /m26{mt s} def
/m23 {mp x y w2 sub m w2 w d w neg 0 d cl f} def
/m27 {mp x y w2 add m w3 neg w2 neg d w3 w2 neg d w3 w2 d cl s} def
/m28 {mp x w2 sub y w2 sub w3 add m w3 0 d  0 w3 neg d w3 0 d 0 w3 d w3 0 d  0 w3 d w3 neg 0 d 0 w3 d w3 neg 0 d 0 w3 neg d w3 neg 0 d cl s } def
/m29 {mp gsave x w2 sub y w2 add w3 sub m currentpoint t 4 {side} repeat cl fill gr} def
/m30 {mp gsave x w2 sub y w2 add w3 sub m currentpoint t 4 {side} repeat cl s gr} def
/m31 {mp x y w2 sub m 0 w d x w2 sub y m w 0 d x w2 sub y w2 add m w w neg d x w2 sub y w2 sub m w w d s} def
/m32 {mp x y w2 sub m w2 w d w neg 0 d cl s} def
/m33 {mp x y w2 add m w3 neg w2 neg d w3 w2 neg d w3 w2 d cl f} def
/m34 {mp x w2 sub y w2 sub w3 add m w3 0 d  0 w3 neg d w3 0 d 0 w3 d w3 0 d  0 w3 d w3 neg 0 d 0 w3 d w3 neg 0 d 0 w3 neg d w3 neg 0 d cl f } def
/m2 {mp x y w2 sub m 0 w d x w2 sub y m w 0 d s} def
/m5 {mp x w2 sub y w2 sub m w w d x w2 sub y w2 add m w w neg d s} def
%%IncludeResource: ProcSet (FontSetInit)
%%IncludeResource: font Times-Roman
%%IncludeResource: font Times-Italic
%%IncludeResource: font Times-Bold
%%IncludeResource: font Times-BoldItalic
%%IncludeResource: font Helvetica
%%IncludeResource: font Helvetica-Oblique
%%IncludeResource: font Helvetica-Bold
%%IncludeResource: font Helvetica-BoldOblique
%%IncludeResource: font Courier
%%IncludeResource: font Courier-Oblique
%%IncludeResource: font Courier-Bold
%%IncludeResource: font Courier-BoldOblique
%%IncludeResource: font Symbol
%%IncludeResource: font ZapfDingbats
/reEncode {exch findfont dup length dict begin {1 index /FID eq  {pop pop} {def} ifelse } forall /Encoding exch def currentdict end dup /FontName get exch definefont pop } def [/Times-Bold /Times-Italic /Times-BoldItalic /Helvetica /Helvetica-Oblique
 /Helvetica-Bold /Helvetica-BoldOblique /Courier /Courier-Oblique /Courier-Bold /Courier-BoldOblique /Times-Roman /AvantGarde-Book /AvantGarde-BookOblique /AvantGarde-Demi /AvantGarde-DemiOblique /Bookman-Demi /Bookman-DemiItalic /Bookman-Light
 /Bookman-LightItalic /Helvetica-Narrow /Helvetica-Narrow-Bold /Helvetica-Narrow-BoldOblique /Helvetica-Narrow-Oblique /NewCenturySchlbk-Roman /NewCenturySchlbk-Bold /NewCenturySchlbk-BoldItalic /NewCenturySchlbk-Italic /Palatino-Bold
 /Palatino-BoldItalic /Palatino-Italic /Palatino-Roman ] {ISOLatin1Encoding reEncode } forall
%%EndProlog
%%BeginSetup
%%EndSetup
newpath  gsave  .25 .25 scale  gsave  0 0 t black[  ] 0 sd 3 lw 1 1 1 c 2268 1538 0 0 bf black 1 1 1 c 1814 1230 227 154 bf black 1814 1230 227 154 bl 1 1 1 c 1814 1230 227 154 bf black 1814 1230 227 154 bl 227 154 m 1814 X s
 gsave  2268 1538 0 0 C 1860.44 35.8403 t 0 r /Helvetica-Bold findfont 58.6478 sf 0 0 m (r [mm]) show NC gr  326 191 m -37 Y s 387 172 m -18 Y s 447 172 m -18 Y s 508 172 m -18 Y s 569 172 m -18 Y s 629 191 m -37 Y s 690 172 m -18 Y s 751 172 m -18 Y
 s 811 172 m -18 Y s 872 172 m -18 Y s 933 191 m -37 Y s 993 172 m -18 Y s 1054 172 m -18 Y s 1115 172 m -18 Y s 1175 172 m -18 Y s 1236 191 m -37 Y s 1297 172 m -18 Y s 1357 172 m -18 Y s 1418 172 m -18 Y s 1479 172 m -18 Y s 1539 191 m -37 Y s 1600
 172 m -18 Y s 1661 172 m -18 Y s 1721 172 m -18 Y s 1782 172 m -18 Y s 1843 191 m -37 Y s 326 191 m -37 Y s 265 172 m -18 Y s 1843 191 m -37 Y s 1903 172 m -18 Y s 1964 172 m -18 Y s 2025 172 m -18 Y s
 gsave  2268 1538 0 0 C 276.948 97.7464 t 0 r /Helvetica-Bold findfont 58.6478 sf 0 0 m (400) show NC gr 
 gsave  2268 1538 0 0 C 579.962 97.7464 t 0 r /Helvetica-Bold findfont 58.6478 sf 0 0 m (500) show NC gr 
 gsave  2268 1538 0 0 C 882.976 97.7464 t 0 r /Helvetica-Bold findfont 58.6478 sf 0 0 m (600) show NC gr 
 gsave  2268 1538 0 0 C 1185.99 97.7464 t 0 r /Helvetica-Bold findfont 58.6478 sf 0 0 m (700) show NC gr 
 gsave  2268 1538 0 0 C 1489 97.7464 t 0 r /Helvetica-Bold findfont 58.6478 sf 0 0 m (800) show NC gr 
 gsave  2268 1538 0 0 C 1792.02 97.7464 t 0 r /Helvetica-Bold findfont 58.6478 sf 0 0 m (900) show NC gr  227 1384 m 1814 X s 326 1347 m 37 Y s 387 1366 m 18 Y s 447 1366 m 18 Y s 508 1366 m 18 Y s 569 1366 m 18 Y s 629 1347 m 37 Y s 690 1366 m 18 Y
 s 751 1366 m 18 Y s 811 1366 m 18 Y s 872 1366 m 18 Y s 933 1347 m 37 Y s 993 1366 m 18 Y s 1054 1366 m 18 Y s 1115 1366 m 18 Y s 1175 1366 m 18 Y s 1236 1347 m 37 Y s 1297 1366 m 18 Y s 1357 1366 m 18 Y s 1418 1366 m 18 Y s 1479 1366 m 18 Y s 1539
 1347 m 37 Y s 1600 1366 m 18 Y s 1661 1366 m 18 Y s 1721 1366 m 18 Y s 1782 1366 m 18 Y s 1843 1347 m 37 Y s 326 1347 m 37 Y s 265 1366 m 18 Y s 1843 1347 m 37 Y s 1903 1366 m 18 Y s 1964 1366 m 18 Y s 2025 1366 m 18 Y s 227 154 m 1230 Y s
 gsave  2268 1538 0 0 C 97.7464 710.291 t 90 r /Helvetica-Bold findfont 58.6478 sf 0 0 m (Cluster per etaModuleID) show NC gr  281 368 m -54 X s 254 412 m -27 X s 254 455 m -27 X s 254 499 m -27 X s 254 543 m -27 X s 281 586 m -54 X s 254 630 m -27 X
 s 254 673 m -27 X s 254 717 m -27 X s 254 761 m -27 X s 281 804 m -54 X s 254 848 m -27 X s 254 891 m -27 X s 254 935 m -27 X s 254 979 m -27 X s 281 1022 m -54 X s 254 1066 m -27 X s 254 1109 m -27 X s 254 1153 m -27 X s 254 1196 m -27 X s 281 1240
 m -54 X s 281 368 m -54 X s 254 325 m -27 X s 254 281 m -27 X s 254 237 m -27 X s 254 194 m -27 X s 281 1240 m -54 X s 254 1284 m -27 X s 254 1327 m -27 X s 254 1371 m -27 X s
 gsave  2268 1538 0 0 C 192.235 348.629 t 0 r /Helvetica-Bold findfont 58.6478 sf 0 0 m (1) show NC gr 
 gsave  2268 1538 0 0 C 182.46 560.413 t 0 r /Helvetica-Bold findfont 58.6478 sf 0 0 m (2) show NC gr 
 gsave  2268 1538 0 0 C 182.46 781.971 t 0 r /Helvetica-Bold findfont 58.6478 sf 0 0 m (3) show NC gr 
 gsave  2268 1538 0 0 C 182.46 1000.27 t 0 r /Helvetica-Bold findfont 58.6478 sf 0 0 m (4) show NC gr 
 gsave  2268 1538 0 0 C 182.46 1218.57 t 0 r /Helvetica-Bold findfont 58.6478 sf 0 0 m (5) show NC gr  2041 154 m 1230 Y s 1987 368 m 54 X s 2014 412 m 27 X s 2014 455 m 27 X s 2014 499 m 27 X s 2014 543 m 27 X s 1987 586 m 54 X s 2014 630 m 27 X s
 2014 673 m 27 X s 2014 717 m 27 X s 2014 761 m 27 X s 1987 804 m 54 X s 2014 848 m 27 X s 2014 891 m 27 X s 2014 935 m 27 X s 2014 979 m 27 X s 1987 1022 m 54 X s 2014 1066 m 27 X s 2014 1109 m 27 X s 2014 1153 m 27 X s 2014 1196 m 27 X s 1987 1240
 m 54 X s 1987 368 m 54 X s 2014 325 m 27 X s 2014 281 m 27 X s 2014 237 m 27 X s 2014 194 m 27 X s 1987 1240 m 54 X s 2014 1284 m 27 X s 2014 1327 m 27 X s 2014 1371 m 27 X s 309 556 m 45 Y s 303 601 m 13 X s 309 530 m -46 Y s 303 484 m 13 X s 375
 556 m 45 Y s 368 601 m 13 X s 375 530 m -46 Y s 368 484 m 13 X s 455 547 m 45 Y s 448 592 m 14 X s 455 521 m -45 Y s 448 476 m 14 X s 549 512 m 42 Y s 543 554 m 13 X s 549 486 m -42 Y s 543 444 m 13 X s 629 468 m 39 Y s 623 507 m 13 X s 629 442 m
 -38 Y s 623 404 m 13 X s 696 608 m 49 Y s 690 657 m 13 X s 696 582 m -49 Y s 690 533 m 13 X s 775 460 m 38 Y s 768 498 m 13 X s 775 434 m -38 Y s 768 396 m 13 X s 834 338 m 26 Y s 828 364 m 13 X s 834 312 m -26 Y s 828 286 m 13 X s 909 538 m 44 Y s
 902 582 m 13 X s 909 512 m -44 Y s 902 468 m 13 X s 1002 477 m 39 Y s 996 516 m 13 X s 1002 451 m -39 Y s 996 412 m 13 X s 1099 495 m 40 Y s 1093 535 m 13 X s 1099 469 m -41 Y s 1093 428 m 13 X s 1188 399 m 32 Y s 1182 431 m 13 X s 1188 373 m -33 Y
 s 1182 340 m 13 X s 1267 303 m 22 Y s 1261 325 m 13 X s 1267 277 m -22 Y s 1261 255 m 13 X s 1357 312 m 22 Y s 1350 334 m 13 X s 1357 285 m -22 Y s 1350 263 m 13 X s 1493 652 m 52 Y s 1486 704 m 13 X s 1493 625 m -52 Y s 1486 573 m 13 X s 1658 599 m
 49 Y s 1652 648 m 13 X s 1658 573 m -48 Y s 1652 525 m 13 X s 1805 233 m 12 Y s 1799 245 m 13 X s 1805 207 m -12 Y s 1799 195 m 13 X s 1958 320 m 24 Y s 1951 344 m 13 X s 1958 294 m -24 Y s 1951 270 m 13 X s 309 543 m 66 X 80 -9 d 94 -35 d 80 -44 d
 67 140 d 79 -148 d 59 -122 d 75 200 d 93 -61 d 97 18 d 89 -96 d 79 -96 d 90 8 d 136 340 d 165 -52 d 147 -366 d 153 87 d s /w 26 def /w2 {w 2 div} def /w3 {w 3 div} def 309 543 375 543 455 534 549 499 629 455 696 595 775 447 834 325 909 525 1002 464
 1099 482 1188 386 1267 290 1357 298 1493 638 1658 586 1805 220 1958 307 18 { m20} R 1 0 0 c 310 451 m 37 Y s 304 488 m 13 X s 310 425 m -37 Y s 304 388 m 13 X s 375 660 m 53 Y s 369 713 m 13 X s 375 634 m -53 Y s 369 581 m 13 X s 455 835 m 63 Y s
 449 898 m 13 X s 455 809 m -64 Y s 449 745 m 13 X s 548 686 m 55 Y s 542 741 m 13 X s 548 660 m -54 Y s 542 606 m 13 X s 628 556 m 45 Y s 622 601 m 13 X s 628 530 m -46 Y s 622 484 m 13 X s 699 434 m 35 Y s 692 469 m 13 X s 699 408 m -36 Y s 692 372
 m 13 X s 776 538 m 44 Y s 769 582 m 13 X s 776 512 m -44 Y s 769 468 m 13 X s 835 442 m 37 Y s 829 479 m 13 X s 835 416 m -36 Y s 829 380 m 13 X s 908 686 m 55 Y s 901 741 m 13 X s 908 660 m -54 Y s 901 606 m 13 X s 1002 468 m 39 Y s 995 507 m 13 X
 s 1002 442 m -38 Y s 995 404 m 13 X s 1099 442 m 37 Y s 1093 479 m 13 X s 1099 416 m -36 Y s 1093 380 m 13 X s 1188 373 m 29 Y s 1182 402 m 13 X s 1188 346 m -29 Y s 1182 317 m 13 X s 1268 390 m 31 Y s 1261 421 m 13 X s 1268 364 m -32 Y s 1261 332 m
 13 X s 1356 538 m 44 Y s 1350 582 m 13 X s 1356 512 m -44 Y s 1350 468 m 13 X s 1493 660 m 53 Y s 1486 713 m 13 X s 1493 634 m -53 Y s 1486 581 m 13 X s 1658 573 m 47 Y s 1652 620 m 13 X s 1658 547 m -47 Y s 1652 500 m 13 X s 1806 346 m 27 Y s 1800
 373 m 13 X s 1806 320 m -27 Y s 1800 293 m 13 X s 1958 538 m 44 Y s 1952 582 m 13 X s 1958 512 m -44 Y s 1952 468 m 13 X s black 1 0 0 c 310 438 m 65 209 d 80 175 d 93 -149 d 80 -130 d 71 -122 d 77 104 d 59 -96 d 73 244 d 94 -218 d 97 -26 d 89 -69 d
 80 17 d 88 148 d 137 122 d 165 -87 d 148 -227 d 152 192 d s 310 438 375 647 455 822 548 673 628 543 699 421 776 525 835 429 908 673 1002 455 1099 429 1188 360 1268 377 1356 525 1493 647 1658 560 1806 333 1958 525 18 { m20} R 0 1 0 c 309 495 m 40 Y s
 303 535 m 13 X s 309 469 m -41 Y s 303 428 m 13 X s 375 721 m 57 Y s 368 778 m 13 X s 375 695 m -57 Y s 368 638 m 13 X s 455 791 m 61 Y s 449 852 m 13 X s 455 765 m -61 Y s 449 704 m 13 X s 548 835 m 63 Y s 542 898 m 13 X s 548 809 m -64 Y s 542 745
 m 13 X s 628 477 m 39 Y s 622 516 m 13 X s 628 451 m -39 Y s 622 412 m 13 X s 697 477 m 39 Y s 690 516 m 13 X s 697 451 m -39 Y s 690 412 m 13 X s 776 573 m 47 Y s 769 620 m 13 X s 776 547 m -47 Y s 769 500 m 13 X s 835 338 m 26 Y s 828 364 m 13 X s
 835 312 m -26 Y s 828 286 m 13 X s 908 590 m 48 Y s 902 638 m 13 X s 908 564 m -48 Y s 902 516 m 13 X s 1002 529 m 44 Y s 995 573 m 13 X s 1002 503 m -43 Y s 995 460 m 13 X s 1099 800 m 61 Y s 1093 861 m 13 X s 1099 774 m -62 Y s 1093 712 m 13 X s
 1188 390 m 31 Y s 1182 421 m 13 X s 1188 364 m -32 Y s 1182 332 m 13 X s 1268 399 m 32 Y s 1262 431 m 13 X s 1268 373 m -33 Y s 1262 340 m 13 X s 1356 451 m 37 Y s 1350 488 m 13 X s 1356 425 m -37 Y s 1350 388 m 13 X s 1492 634 m 51 Y s 1486 685 m
 13 X s 1492 608 m -51 Y s 1486 557 m 13 X s 1658 861 m 65 Y s 1652 926 m 13 X s 1658 835 m -65 Y s 1652 770 m 13 X s 1806 390 m 31 Y s 1800 421 m 13 X s 1806 364 m -32 Y s 1800 332 m 13 X s 1958 538 m 44 Y s 1951 582 m 14 X s 1958 512 m -44 Y s 1951
 468 m 14 X s black 0 1 0 c 309 482 m 66 226 d 80 70 d 93 44 d 80 -358 d 69 X 79 96 d 59 -235 d 73 252 d 94 -61 d 97 271 d 89 -410 d 80 9 d 88 52 d 136 183 d 166 227 d 148 -471 d 152 148 d s 309 482 375 708 455 778 548 822 628 464 697 464 776 560 835
 325 908 577 1002 516 1099 787 1188 377 1268 386 1356 438 1492 621 1658 848 1806 377 1958 525 18 { m20} R 0 0 1 c 310 390 m 31 Y s 303 421 m 13 X s 310 364 m -32 Y s 303 332 m 13 X s 376 556 m 45 Y s 369 601 m 13 X s 376 530 m -46 Y s 369 484 m 13 X
 s 455 538 m 44 Y s 448 582 m 13 X s 455 512 m -44 Y s 448 468 m 13 X s 548 782 m 61 Y s 541 843 m 13 X s 548 756 m -60 Y s 541 696 m 13 X s 628 468 m 39 Y s 622 507 m 13 X s 628 442 m -38 Y s 622 404 m 13 X s 697 608 m 49 Y s 690 657 m 13 X s 697
 582 m -49 Y s 690 533 m 13 X s 776 634 m 51 Y s 769 685 m 13 X s 776 608 m -51 Y s 769 557 m 13 X s 833 434 m 35 Y s 827 469 m 13 X s 833 408 m -36 Y s 827 372 m 13 X s 909 590 m 48 Y s 903 638 m 13 X s 909 564 m -48 Y s 903 516 m 13 X s 1002 678 m
 54 Y s 995 732 m 13 X s 1002 652 m -54 Y s 995 598 m 13 X s 1099 512 m 42 Y s 1093 554 m 13 X s 1099 486 m -42 Y s 1093 444 m 13 X s 1188 625 m 51 Y s 1182 676 m 13 X s 1188 599 m -50 Y s 1182 549 m 13 X s 1268 468 m 39 Y s 1261 507 m 13 X s 1268
 442 m -38 Y s 1261 404 m 13 X s 1356 521 m 43 Y s 1350 564 m 13 X s 1356 495 m -43 Y s 1350 452 m 13 X s 1492 782 m 61 Y s 1486 843 m 13 X s 1492 756 m -60 Y s 1486 696 m 13 X s 1658 547 m 45 Y s 1652 592 m 13 X s 1658 521 m -45 Y s 1652 476 m 13 X
 s 1806 590 m 48 Y s 1799 638 m 13 X s 1806 564 m -48 Y s 1799 516 m 13 X s 1958 739 m 58 Y s 1952 797 m 13 X s 1958 713 m -58 Y s 1952 655 m 13 X s black 0 0 1 c 310 377 m 66 166 d 79 -18 d 93 244 d 80 -314 d 69 140 d 79 26 d 57 -200 d 76 156 d 93
 88 d 97 -166 d 89 113 d 80 -157 d 88 53 d 136 261 d 166 -235 d 148 43 d 152 149 d s 310 377 376 543 455 525 548 769 628 455 697 595 776 621 833 421 909 577 1002 665 1099 499 1188 612 1268 455 1356 508 1492 769 1658 534 1806 577 1958 726 18 { m20} R
 1 1 0 c 310 617 m 49 Y s 303 666 m 13 X s 310 591 m -50 Y s 303 541 m 13 X s 375 573 m 47 Y s 368 620 m 13 X s 375 547 m -47 Y s 368 500 m 13 X s 456 791 m 61 Y s 449 852 m 13 X s 456 765 m -61 Y s 449 704 m 13 X s 549 582 m 47 Y s 542 629 m 13 X s
 549 556 m -48 Y s 542 508 m 13 X s 628 390 m 31 Y s 622 421 m 13 X s 628 364 m -32 Y s 622 332 m 13 X s 697 564 m 46 Y s 690 610 m 13 X s 697 538 m -46 Y s 690 492 m 13 X s 775 477 m 39 Y s 768 516 m 13 X s 775 451 m -39 Y s 768 412 m 13 X s 835 329
 m 25 Y s 828 354 m 13 X s 835 303 m -25 Y s 828 278 m 13 X s 909 686 m 55 Y s 903 741 m 13 X s 909 660 m -54 Y s 903 606 m 13 X s 1002 791 m 61 Y s 995 852 m 13 X s 1002 765 m -61 Y s 995 704 m 13 X s 1100 495 m 40 Y s 1093 535 m 13 X s 1100 469 m
 -41 Y s 1093 428 m 13 X s 1188 652 m 52 Y s 1182 704 m 13 X s 1188 625 m -52 Y s 1182 573 m 13 X s 1268 529 m 44 Y s 1261 573 m 13 X s 1268 503 m -43 Y s 1261 460 m 13 X s 1356 704 m 55 Y s 1350 759 m 13 X s 1356 678 m -56 Y s 1350 622 m 13 X s 1492
 852 m 65 Y s 1486 917 m 13 X s 1492 826 m -64 Y s 1486 762 m 13 X s 1658 730 m 57 Y s 1652 787 m 13 X s 1658 704 m -57 Y s 1652 647 m 13 X s 1806 704 m 55 Y s 1799 759 m 13 X s 1806 678 m -56 Y s 1799 622 m 13 X s 1958 582 m 47 Y s 1951 629 m 14 X s
 1958 556 m -48 Y s 1951 508 m 14 X s black 1 1 0 c 310 604 m 65 -44 d 81 218 d 93 -209 d 79 -192 d 69 174 d 78 -87 d 60 -148 d 74 357 d 93 105 d 98 -296 d 88 156 d 80 -122 d 88 175 d 136 148 d 166 -122 d 148 -26 d 152 -122 d s 310 604 375 560 456
 778 549 569 628 377 697 551 775 464 835 316 909 673 1002 778 1100 482 1188 638 1268 516 1356 691 1492 839 1658 717 1806 691 1958 569 18 { m20} R 1 0 1 c 310 765 m 59 Y s 303 824 m 13 X s 310 739 m -60 Y s 303 679 m 13 X s 375 922 m 68 Y s 369 990 m
 13 X s 375 896 m -69 Y s 369 827 m 13 X s 455 739 m 58 Y s 448 797 m 14 X s 455 713 m -58 Y s 448 655 m 14 X s 547 669 m 53 Y s 541 722 m 13 X s 547 643 m -53 Y s 541 590 m 13 X s 629 521 m 43 Y s 622 564 m 13 X s 629 495 m -43 Y s 622 452 m 13 X s
 697 547 m 45 Y s 690 592 m 13 X s 697 521 m -45 Y s 690 476 m 13 X s 775 373 m 29 Y s 769 402 m 13 X s 775 346 m -29 Y s 769 317 m 13 X s 834 355 m 28 Y s 827 383 m 13 X s 834 329 m -28 Y s 827 301 m 13 X s 909 634 m 51 Y s 902 685 m 13 X s 909 608
 m -51 Y s 902 557 m 13 X s 1003 608 m 49 Y s 996 657 m 13 X s 1003 582 m -49 Y s 996 533 m 13 X s 1099 512 m 42 Y s 1093 554 m 13 X s 1099 486 m -42 Y s 1093 444 m 13 X s 1188 503 m 42 Y s 1181 545 m 13 X s 1188 477 m -41 Y s 1181 436 m 13 X s 1268
 529 m 44 Y s 1261 573 m 13 X s 1268 503 m -43 Y s 1261 460 m 13 X s 1356 669 m 53 Y s 1350 722 m 13 X s 1356 643 m -53 Y s 1350 590 m 13 X s 1492 957 m 70 Y s 1486 1027 m 13 X s 1492 931 m -71 Y s 1486 860 m 13 X s 1658 582 m 47 Y s 1652 629 m 13 X
 s 1658 556 m -48 Y s 1652 508 m 13 X s 1806 904 m 68 Y s 1800 972 m 13 X s 1806 878 m -67 Y s 1800 811 m 13 X s 1958 869 m 66 Y s 1952 935 m 13 X s 1958 843 m -65 Y s 1952 778 m 13 X s black 1 0 1 c 310 752 m 65 157 d 80 -183 d 92 -70 d 82 -148 d 68
 26 d 78 -174 d 59 -18 d 75 279 d 94 -26 d 96 -96 d 89 -9 d 80 26 d 88 140 d 136 288 d 166 -375 d 148 322 d 152 -35 d s 310 752 375 909 455 726 547 656 629 508 697 534 775 360 834 342 909 621 1003 595 1099 499 1188 490 1268 516 1356 656 1492 944 1658
 569 1806 891 1958 856 18 { m20} R black[ 12 12] 0 sd 310 660 m 53 Y s 303 713 m 13 X s 310 634 m -53 Y s 303 581 m 13 X s 375 721 m 57 Y s 369 778 m 13 X s 375 695 m -57 Y s 369 638 m 13 X s 455 547 m 45 Y s 449 592 m 13 X s 455 521 m -45 Y s 449
 476 m 13 X s 548 669 m 53 Y s 541 722 m 13 X s 548 643 m -53 Y s 541 590 m 13 X s 628 381 m 31 Y s 622 412 m 13 X s 628 355 m -30 Y s 622 325 m 13 X s 696 390 m 31 Y s 689 421 m 13 X s 696 364 m -32 Y s 689 332 m 13 X s 776 442 m 37 Y s 769 479 m 13
 X s 776 416 m -36 Y s 769 380 m 13 X s 835 268 m 17 Y s 828 285 m 13 X s 835 242 m -17 Y s 828 225 m 13 X s 908 678 m 54 Y s 902 732 m 13 X s 908 652 m -54 Y s 902 598 m 13 X s 1002 329 m 25 Y s 995 354 m 13 X s 1002 303 m -25 Y s 995 278 m 13 X s
 1099 460 m 38 Y s 1093 498 m 13 X s 1099 434 m -38 Y s 1093 396 m 13 X s 1188 381 m 31 Y s 1182 412 m 13 X s 1188 355 m -30 Y s 1182 325 m 13 X s 1268 477 m 39 Y s 1261 516 m 13 X s 1268 451 m -39 Y s 1261 412 m 13 X s 1357 521 m 43 Y s 1350 564 m
 13 X s 1357 495 m -43 Y s 1350 452 m 13 X s 1492 468 m 39 Y s 1486 507 m 13 X s 1492 442 m -38 Y s 1486 404 m 13 X s 1658 538 m 44 Y s 1652 582 m 13 X s 1658 512 m -44 Y s 1652 468 m 13 X s 1806 460 m 38 Y s 1800 498 m 13 X s 1806 434 m -38 Y s 1800
 396 m 13 X s 1958 582 m 47 Y s 1952 629 m 13 X s 1958 556 m -48 Y s 1952 508 m 13 X s 310 647 m 65 61 d 80 -174 d 93 122 d 80 -288 d 68 9 d 80 52 d 59 -174 d 73 410 d 94 -349 d 97 131 d 89 -79 d 80 96 d 89 44 d 135 -53 d 166 70 d 148 -78 d 152 122 d
 s[  ] 0 sd 310 647 375 708 455 534 548 656 628 368 696 377 776 429 835 255 908 665 1002 316 1099 447 1188 368 1268 464 1357 508 1492 455 1658 525 1806 447 1958 569 18 { m21} R[ 12 12] 0 sd 1 0 0 c 309 512 m 42 Y s 303 554 m 13 X s 309 486 m -42 Y s
 303 444 m 13 X s 375 625 m 51 Y s 369 676 m 13 X s 375 599 m -50 Y s 369 549 m 13 X s 456 660 m 53 Y s 450 713 m 13 X s 456 634 m -53 Y s 450 581 m 13 X s 548 730 m 57 Y s 542 787 m 13 X s 548 704 m -57 Y s 542 647 m 13 X s 628 503 m 42 Y s 621 545
 m 14 X s 628 477 m -41 Y s 621 436 m 14 X s 696 538 m 44 Y s 689 582 m 14 X s 696 512 m -44 Y s 689 468 m 14 X s 775 529 m 44 Y s 768 573 m 13 X s 775 503 m -43 Y s 768 460 m 13 X s 834 338 m 26 Y s 828 364 m 13 X s 834 312 m -26 Y s 828 286 m 13 X
 s 907 407 m 34 Y s 901 441 m 13 X s 907 381 m -33 Y s 901 348 m 13 X s 1003 503 m 42 Y s 996 545 m 13 X s 1003 477 m -41 Y s 996 436 m 13 X s 1099 399 m 32 Y s 1093 431 m 13 X s 1099 373 m -33 Y s 1093 340 m 13 X s 1188 547 m 45 Y s 1182 592 m 13 X
 s 1188 521 m -45 Y s 1182 476 m 13 X s 1267 399 m 32 Y s 1261 431 m 13 X s 1267 373 m -33 Y s 1261 340 m 13 X s 1356 425 m 35 Y s 1350 460 m 13 X s 1356 399 m -35 Y s 1350 364 m 13 X s 1492 791 m 61 Y s 1486 852 m 13 X s 1492 765 m -61 Y s 1486 704
 m 13 X s 1658 582 m 47 Y s 1651 629 m 13 X s 1658 556 m -48 Y s 1651 508 m 13 X s 1806 294 m 21 Y s 1799 315 m 13 X s 1806 268 m -21 Y s 1799 247 m 13 X s 1958 503 m 42 Y s 1951 545 m 13 X s 1958 477 m -41 Y s 1951 436 m 13 X s black 1 0 0 c 309 499
 m 66 113 d 81 35 d 92 70 d 80 -227 d 68 35 d 79 -9 d 59 -191 d 73 69 d 96 96 d 96 -104 d 89 148 d 79 -148 d 89 26 d 136 366 d 166 -209 d 148 -288 d 152 209 d s[  ] 0 sd 309 499 375 612 456 647 548 717 628 490 696 525 775 516 834 325 907 394 1003 490
 1099 386 1188 534 1267 386 1356 412 1492 778 1658 569 1806 281 1958 490 18 { m21} R[ 12 12] 0 sd 0 1 0 c 310 547 m 45 Y s 303 592 m 13 X s 310 521 m -45 Y s 303 476 m 13 X s 375 582 m 47 Y s 369 629 m 13 X s 375 556 m -48 Y s 369 508 m 13 X s 456
 643 m 51 Y s 449 694 m 13 X s 456 617 m -52 Y s 449 565 m 13 X s 547 643 m 51 Y s 541 694 m 13 X s 547 617 m -52 Y s 541 565 m 13 X s 629 329 m 25 Y s 622 354 m 13 X s 629 303 m -25 Y s 622 278 m 13 X s 697 695 m 55 Y s 691 750 m 13 X s 697 669 m
 -55 Y s 691 614 m 13 X s 774 503 m 42 Y s 768 545 m 13 X s 774 477 m -41 Y s 768 436 m 13 X s 835 407 m 34 Y s 828 441 m 13 X s 835 381 m -33 Y s 828 348 m 13 X s 909 547 m 45 Y s 903 592 m 13 X s 909 521 m -45 Y s 903 476 m 13 X s 1002 529 m 44 Y s
 996 573 m 13 X s 1002 503 m -43 Y s 996 460 m 13 X s 1099 434 m 35 Y s 1093 469 m 13 X s 1099 408 m -36 Y s 1093 372 m 13 X s 1188 294 m 21 Y s 1181 315 m 13 X s 1188 268 m -21 Y s 1181 247 m 13 X s 1268 390 m 31 Y s 1261 421 m 13 X s 1268 364 m -32
 Y s 1261 332 m 13 X s 1357 503 m 42 Y s 1350 545 m 13 X s 1357 477 m -41 Y s 1350 436 m 13 X s 1492 730 m 57 Y s 1486 787 m 13 X s 1492 704 m -57 Y s 1486 647 m 13 X s 1658 634 m 51 Y s 1651 685 m 14 X s 1658 608 m -51 Y s 1651 557 m 14 X s 1806 477
 m 39 Y s 1799 516 m 13 X s 1806 451 m -39 Y s 1799 412 m 13 X s 1958 460 m 38 Y s 1952 498 m 13 X s 1958 434 m -38 Y s 1952 396 m 13 X s black 0 1 0 c 310 534 m 65 35 d 81 61 d 91 X 82 -314 d 68 366 d 77 -192 d 61 -96 d 74 140 d 93 -18 d 97 -95 d 89
 -140 d 80 96 d 89 113 d 135 227 d 166 -96 d 148 -157 d 152 -17 d s[  ] 0 sd 310 534 375 569 456 630 547 630 629 316 697 682 774 490 835 394 909 534 1002 516 1099 421 1188 281 1268 377 1357 490 1492 717 1658 621 1806 464 1958 447 18 { m21} R[ 12 12]
 0 sd 0 0 1 c 311 590 m 48 Y s 304 638 m 13 X s 311 564 m -48 Y s 304 516 m 13 X s 375 564 m 46 Y s 368 610 m 13 X s 375 538 m -46 Y s 368 492 m 13 X s 456 704 m 55 Y s 450 759 m 13 X s 456 678 m -56 Y s 450 622 m 13 X s 548 861 m 65 Y s 541 926 m 13
 X s 548 835 m -65 Y s 541 770 m 13 X s 628 329 m 25 Y s 621 354 m 13 X s 628 303 m -25 Y s 621 278 m 13 X s 697 608 m 49 Y s 691 657 m 13 X s 697 582 m -49 Y s 691 533 m 13 X s 775 460 m 38 Y s 768 498 m 13 X s 775 434 m -38 Y s 768 396 m 13 X s 833
 355 m 28 Y s 827 383 m 13 X s 833 329 m -28 Y s 827 301 m 13 X s 909 669 m 53 Y s 902 722 m 13 X s 909 643 m -53 Y s 902 590 m 13 X s 1003 695 m 55 Y s 996 750 m 13 X s 1003 669 m -55 Y s 996 614 m 13 X s 1100 582 m 47 Y s 1093 629 m 13 X s 1100 556
 m -48 Y s 1093 508 m 13 X s 1188 538 m 44 Y s 1182 582 m 13 X s 1188 512 m -44 Y s 1182 468 m 13 X s 1268 495 m 40 Y s 1261 535 m 13 X s 1268 469 m -41 Y s 1261 428 m 13 X s 1356 503 m 42 Y s 1350 545 m 13 X s 1356 477 m -41 Y s 1350 436 m 13 X s
 1492 564 m 46 Y s 1486 610 m 13 X s 1492 538 m -46 Y s 1486 492 m 13 X s 1658 547 m 45 Y s 1651 592 m 13 X s 1658 521 m -45 Y s 1651 476 m 13 X s 1806 538 m 44 Y s 1799 582 m 13 X s 1806 512 m -44 Y s 1799 468 m 13 X s 1958 608 m 49 Y s 1951 657 m
 13 X s 1958 582 m -49 Y s 1951 533 m 13 X s black 0 0 1 c 311 577 m 64 -26 d 81 140 d 92 157 d 80 -532 d 69 279 d 78 -148 d 58 -105 d 76 314 d 94 26 d 97 -113 d 88 -44 d 80 -43 d 88 8 d 136 61 d 166 -17 d 148 -9 d 152 70 d s[  ] 0 sd 311 577 375 551
 456 691 548 848 628 316 697 595 775 447 833 342 909 656 1003 682 1100 569 1188 525 1268 482 1356 490 1492 551 1658 534 1806 525 1958 595 18 { m21} R[ 12 12] 0 sd 1 1 0 c 310 808 m 62 Y s 304 870 m 13 X s 310 782 m -62 Y s 304 720 m 13 X s 375 643 m
 51 Y s 369 694 m 13 X s 375 617 m -52 Y s 369 565 m 13 X s 456 713 m 56 Y s 449 769 m 13 X s 456 686 m -56 Y s 449 630 m 13 X s 548 713 m 56 Y s 541 769 m 13 X s 548 686 m -56 Y s 541 630 m 13 X s 628 503 m 42 Y s 622 545 m 13 X s 628 477 m -41 Y s
 622 436 m 13 X s 697 808 m 62 Y s 690 870 m 13 X s 697 782 m -62 Y s 690 720 m 13 X s 774 608 m 49 Y s 767 657 m 13 X s 774 582 m -49 Y s 767 533 m 13 X s 834 294 m 21 Y s 828 315 m 13 X s 834 268 m -21 Y s 828 247 m 13 X s 909 390 m 31 Y s 902 421
 m 13 X s 909 364 m -32 Y s 902 332 m 13 X s 1001 442 m 37 Y s 995 479 m 13 X s 1001 416 m -36 Y s 995 380 m 13 X s 1100 590 m 48 Y s 1093 638 m 13 X s 1100 564 m -48 Y s 1093 516 m 13 X s 1188 460 m 38 Y s 1182 498 m 13 X s 1188 434 m -38 Y s 1182
 396 m 13 X s 1268 521 m 43 Y s 1262 564 m 13 X s 1268 495 m -43 Y s 1262 452 m 13 X s 1356 625 m 51 Y s 1350 676 m 13 X s 1356 599 m -50 Y s 1350 549 m 13 X s 1493 869 m 66 Y s 1486 935 m 13 X s 1493 843 m -65 Y s 1486 778 m 13 X s 1658 617 m 49 Y s
 1652 666 m 13 X s 1658 591 m -50 Y s 1652 541 m 13 X s 1807 486 m 40 Y s 1800 526 m 13 X s 1807 460 m -40 Y s 1800 420 m 13 X s 1958 617 m 49 Y s 1952 666 m 13 X s 1958 591 m -50 Y s 1952 541 m 13 X s black 1 1 0 c 310 795 m 65 -165 d 81 70 d 92 X
 80 -210 d 69 305 d 77 -200 d 60 -314 d 75 96 d 92 52 d 99 148 d 88 -130 d 80 61 d 88 104 d 137 244 d 165 -252 d 149 -131 d 151 131 d s[  ] 0 sd 310 795 375 630 456 700 548 700 628 490 697 795 774 595 834 281 909 377 1001 429 1100 577 1188 447 1268
 508 1356 612 1493 856 1658 604 1807 473 1958 604 18 { m21} R[ 12 12] 0 sd 1 0 1 c 310 582 m 47 Y s 303 629 m 13 X s 310 556 m -48 Y s 303 508 m 13 X s 375 756 m 59 Y s 368 815 m 13 X s 375 730 m -59 Y s 368 671 m 13 X s 455 922 m 68 Y s 449 990 m 13
 X s 455 896 m -69 Y s 449 827 m 13 X s 548 791 m 61 Y s 541 852 m 13 X s 548 765 m -61 Y s 541 704 m 13 X s 630 538 m 44 Y s 623 582 m 13 X s 630 512 m -44 Y s 623 468 m 13 X s 697 721 m 57 Y s 691 778 m 13 X s 697 695 m -57 Y s 691 638 m 13 X s 775
 678 m 54 Y s 768 732 m 13 X s 775 652 m -54 Y s 768 598 m 13 X s 833 329 m 25 Y s 827 354 m 13 X s 833 303 m -25 Y s 827 278 m 13 X s 908 573 m 47 Y s 901 620 m 14 X s 908 547 m -47 Y s 901 500 m 14 X s 1001 713 m 56 Y s 995 769 m 13 X s 1001 686 m
 -56 Y s 995 630 m 13 X s 1099 503 m 42 Y s 1093 545 m 13 X s 1099 477 m -41 Y s 1093 436 m 13 X s 1188 599 m 49 Y s 1182 648 m 13 X s 1188 573 m -48 Y s 1182 525 m 13 X s 1268 425 m 35 Y s 1261 460 m 13 X s 1268 399 m -35 Y s 1261 364 m 13 X s 1356
 582 m 47 Y s 1350 629 m 13 X s 1356 556 m -48 Y s 1350 508 m 13 X s 1492 747 m 59 Y s 1486 806 m 13 X s 1492 721 m -58 Y s 1486 663 m 13 X s 1658 896 m 67 Y s 1651 963 m 13 X s 1658 870 m -67 Y s 1651 803 m 13 X s 1806 564 m 46 Y s 1799 610 m 13 X s
 1806 538 m -46 Y s 1799 492 m 13 X s 1958 713 m 56 Y s 1952 769 m 13 X s 1958 686 m -56 Y s 1952 630 m 13 X s black 1 0 1 c 310 569 m 65 174 d 80 166 d 93 -131 d 82 -253 d 67 183 d 78 -43 d 58 -349 d 75 244 d 93 140 d 98 -210 d 89 96 d 80 -174 d 88
 157 d 136 165 d 166 149 d 148 -332 d 152 149 d s[  ] 0 sd 310 569 375 743 455 909 548 778 630 525 697 708 775 665 833 316 908 560 1001 700 1099 490 1188 586 1268 412 1356 569 1492 734 1658 883 1806 551 1958 700 18 { m21} R[ 12 12] 0 sd black
 gsave  2268 1538 0 0 C 325.821 1300.03 t 0 r /Helvetica-Bold findfont 58.6478 sf 0 0 m (Sct Disk \(left\)) show NC gr 
 gsave  2268 1538 0 0 C 430.084 1244.64 t 0 r /Helvetica-Bold findfont 58.6478 sf 0 0 m (Disk 0) show NC gr [  ] 0 sd 334 1256 m 80 X s 374 1256 m20
 gsave  2268 1538 0 0 C 430.084 1189.25 t 0 r /Helvetica-Bold findfont 58.6478 sf 0 0 m (Disk 1) show NC gr  1 0 0 c 334 1201 m 80 X s 374 1201 m20 black
 gsave  2268 1538 0 0 C 430.084 1133.86 t 0 r /Helvetica-Bold findfont 58.6478 sf 0 0 m (Disk 2) show NC gr  0 1 0 c 334 1146 m 80 X s 374 1146 m20 black
 gsave  2268 1538 0 0 C 430.084 1078.47 t 0 r /Helvetica-Bold findfont 58.6478 sf 0 0 m (Disk 3) show NC gr  0 0 1 c 334 1091 m 80 X s 374 1091 m20 black
 gsave  2268 1538 0 0 C 430.084 1026.34 t 0 r /Helvetica-Bold findfont 58.6478 sf 0 0 m (Disk 4) show NC gr  1 1 0 c 334 1036 m 80 X s 374 1036 m20 black
 gsave  2268 1538 0 0 C 430.084 970.948 t 0 r /Helvetica-Bold findfont 58.6478 sf 0 0 m (Disk 5) show NC gr  1 0 1 c 334 981 m 80 X s 374 981 m20 black
 gsave  2268 1538 0 0 C 622.319 1300.03 t 0 r /Helvetica-Bold findfont 58.6478 sf 0 0 m (  \(right\)) show NC gr 
 gsave  2268 1538 0 0 C 723.323 1244.64 t 0 r /Helvetica-Bold findfont 58.6478 sf 0 0 m (Disk 0) show NC gr [ 12 12] 0 sd 629 1256 m 80 X s[  ] 0 sd 669 1256 m21[ 12 12] 0 sd
 gsave  2268 1538 0 0 C 723.323 1189.25 t 0 r /Helvetica-Bold findfont 58.6478 sf 0 0 m (Disk 1) show NC gr  1 0 0 c 629 1201 m 80 X s[  ] 0 sd 669 1201 m21[ 12 12] 0 sd black
 gsave  2268 1538 0 0 C 723.323 1133.86 t 0 r /Helvetica-Bold findfont 58.6478 sf 0 0 m (Disk 2) show NC gr  0 1 0 c 629 1146 m 80 X s[  ] 0 sd 669 1146 m21[ 12 12] 0 sd black
 gsave  2268 1538 0 0 C 723.323 1078.47 t 0 r /Helvetica-Bold findfont 58.6478 sf 0 0 m (Disk 3) show NC gr  0 0 1 c 629 1091 m 80 X s[  ] 0 sd 669 1091 m21[ 12 12] 0 sd black
 gsave  2268 1538 0 0 C 723.323 1026.34 t 0 r /Helvetica-Bold findfont 58.6478 sf 0 0 m (Disk 4) show NC gr  1 1 0 c 629 1036 m 80 X s[  ] 0 sd 669 1036 m21[ 12 12] 0 sd black
 gsave  2268 1538 0 0 C 723.323 970.948 t 0 r /Helvetica-Bold findfont 58.6478 sf 0 0 m (Disk 5) show NC gr  1 0 1 c 629 981 m 80 X s[  ] 0 sd 669 981 m21[ 12 12] 0 sd
 gr  gr showpage
end
%%EOF
