%!PS-Adobe-2.0 EPSF-2.0
%%BoundingBox:  0 0 567 384
%%Title: pionDir/sct_occupancy/clus_sctlayer_mgz.eps: c1_n24
%%Creator: ROOT Version 6.04/12
%%CreationDate: Tue Apr 19 16:53:25 2016
%%DocumentNeededResources: ProcSet (FontSetInit)
%%EndComments
%%BeginProlog
80 dict begin
/s {stroke} def /l {lineto} def /m {moveto} def /t {translate} def
/r {rotate} def /rl {roll}  def /R {repeat} def
/d {rlineto} def /rm {rmoveto} def /gr {grestore} def /f {eofill} def
/c {setrgbcolor} def /black {0 setgray} def /sd {setdash} def
/cl {closepath} def /sf {scalefont setfont} def /lw {setlinewidth} def
/box {m dup 0 exch d exch 0 d 0 exch neg d cl} def
/NC{systemdict begin initclip end}def/C{NC box clip newpath}def
/bl {box s} def /bf {gsave box gsave f grestore 1 lw [] 0 sd s grestore} def /Y { 0 exch d} def /X { 0 d} def 
/K {{pop pop 0 moveto} exch kshow} bind def
/ita {/ang 15 def gsave [1 0 ang dup sin exch cos div 1 0 0] concat} def 
/mp {newpath /y exch def /x exch def} def
/side {[w .77 mul w .23 mul] .385 w mul sd w 0 l currentpoint t -144 r} def
/mr {mp x y w2 0 360 arc} def /m24 {mr s} def /m20 {mr f} def
/mb {mp x y w2 add m w2 neg 0 d 0 w neg d w 0 d 0 w d cl} def
/mt {mp x y w2 add m w2 neg w neg d w 0 d cl} def
/m21 {mb f} def /m25 {mb s} def /m22 {mt f} def /m26{mt s} def
/m23 {mp x y w2 sub m w2 w d w neg 0 d cl f} def
/m27 {mp x y w2 add m w3 neg w2 neg d w3 w2 neg d w3 w2 d cl s} def
/m28 {mp x w2 sub y w2 sub w3 add m w3 0 d  0 w3 neg d w3 0 d 0 w3 d w3 0 d  0 w3 d w3 neg 0 d 0 w3 d w3 neg 0 d 0 w3 neg d w3 neg 0 d cl s } def
/m29 {mp gsave x w2 sub y w2 add w3 sub m currentpoint t 4 {side} repeat cl fill gr} def
/m30 {mp gsave x w2 sub y w2 add w3 sub m currentpoint t 4 {side} repeat cl s gr} def
/m31 {mp x y w2 sub m 0 w d x w2 sub y m w 0 d x w2 sub y w2 add m w w neg d x w2 sub y w2 sub m w w d s} def
/m32 {mp x y w2 sub m w2 w d w neg 0 d cl s} def
/m33 {mp x y w2 add m w3 neg w2 neg d w3 w2 neg d w3 w2 d cl f} def
/m34 {mp x w2 sub y w2 sub w3 add m w3 0 d  0 w3 neg d w3 0 d 0 w3 d w3 0 d  0 w3 d w3 neg 0 d 0 w3 d w3 neg 0 d 0 w3 neg d w3 neg 0 d cl f } def
/m2 {mp x y w2 sub m 0 w d x w2 sub y m w 0 d s} def
/m5 {mp x w2 sub y w2 sub m w w d x w2 sub y w2 add m w w neg d s} def
%%IncludeResource: ProcSet (FontSetInit)
%%IncludeResource: font Times-Roman
%%IncludeResource: font Times-Italic
%%IncludeResource: font Times-Bold
%%IncludeResource: font Times-BoldItalic
%%IncludeResource: font Helvetica
%%IncludeResource: font Helvetica-Oblique
%%IncludeResource: font Helvetica-Bold
%%IncludeResource: font Helvetica-BoldOblique
%%IncludeResource: font Courier
%%IncludeResource: font Courier-Oblique
%%IncludeResource: font Courier-Bold
%%IncludeResource: font Courier-BoldOblique
%%IncludeResource: font Symbol
%%IncludeResource: font ZapfDingbats
/reEncode {exch findfont dup length dict begin {1 index /FID eq  {pop pop} {def} ifelse } forall /Encoding exch def currentdict end dup /FontName get exch definefont pop } def [/Times-Bold /Times-Italic /Times-BoldItalic /Helvetica /Helvetica-Oblique
 /Helvetica-Bold /Helvetica-BoldOblique /Courier /Courier-Oblique /Courier-Bold /Courier-BoldOblique /Times-Roman /AvantGarde-Book /AvantGarde-BookOblique /AvantGarde-Demi /AvantGarde-DemiOblique /Bookman-Demi /Bookman-DemiItalic /Bookman-Light
 /Bookman-LightItalic /Helvetica-Narrow /Helvetica-Narrow-Bold /Helvetica-Narrow-BoldOblique /Helvetica-Narrow-Oblique /NewCenturySchlbk-Roman /NewCenturySchlbk-Bold /NewCenturySchlbk-BoldItalic /NewCenturySchlbk-Italic /Palatino-Bold
 /Palatino-BoldItalic /Palatino-Italic /Palatino-Roman ] {ISOLatin1Encoding reEncode } forall
%%EndProlog
%%BeginSetup
%%EndSetup
newpath  gsave  .25 .25 scale  gsave  0 0 t black[  ] 0 sd 3 lw 1 1 1 c 2268 1538 0 0 bf black 1 1 1 c 1814 1230 227 154 bf black 1814 1230 227 154 bl 1 1 1 c 1814 1230 227 154 bf black 1814 1230 227 154 bl 227 154 m 1814 X s
 gsave  2268 1538 0 0 C 1853.92 35.8403 t 0 r /Helvetica-Bold findfont 58.6478 sf 0 0 m (z [mm]) show NC gr  399 191 m -37 Y s 460 172 m -18 Y s 521 172 m -18 Y s 583 172 m -18 Y s 644 191 m -37 Y s 705 172 m -18 Y s 766 172 m -18 Y s 828 172 m -18 Y
 s 889 191 m -37 Y s 950 172 m -18 Y s 1011 172 m -18 Y s 1073 172 m -18 Y s 1134 191 m -37 Y s 1195 172 m -18 Y s 1256 172 m -18 Y s 1318 172 m -18 Y s 1379 191 m -37 Y s 1440 172 m -18 Y s 1501 172 m -18 Y s 1563 172 m -18 Y s 1624 191 m -37 Y s
 1685 172 m -18 Y s 1746 172 m -18 Y s 1808 172 m -18 Y s 1869 191 m -37 Y s 399 191 m -37 Y s 338 172 m -18 Y s 276 172 m -18 Y s 1869 191 m -37 Y s 1930 172 m -18 Y s 1991 172 m -18 Y s
 gsave  2268 1538 0 0 C 361.662 97.7464 t 0 r /Helvetica-Bold findfont 58.6478 sf 0 0 m (600) show NC gr 
 gsave  2268 1538 0 0 C 332.338 97.7464 t 0 r /Symbol findfont 58.6478 sf 0 0 m (-) show NC gr 
 gsave  2268 1538 0 0 C 606.028 97.7464 t 0 r /Helvetica-Bold findfont 58.6478 sf 0 0 m (400) show NC gr 
 gsave  2268 1538 0 0 C 576.704 97.7464 t 0 r /Symbol findfont 58.6478 sf 0 0 m (-) show NC gr 
 gsave  2268 1538 0 0 C 850.394 97.7464 t 0 r /Helvetica-Bold findfont 58.6478 sf 0 0 m (200) show NC gr 
 gsave  2268 1538 0 0 C 821.07 97.7464 t 0 r /Symbol findfont 58.6478 sf 0 0 m (-) show NC gr 
 gsave  2268 1538 0 0 C 1114.31 97.7464 t 0 r /Helvetica-Bold findfont 58.6478 sf 0 0 m (0) show NC gr 
 gsave  2268 1538 0 0 C 1329.35 97.7464 t 0 r /Helvetica-Bold findfont 58.6478 sf 0 0 m (200) show NC gr 
 gsave  2268 1538 0 0 C 1573.72 97.7464 t 0 r /Helvetica-Bold findfont 58.6478 sf 0 0 m (400) show NC gr 
 gsave  2268 1538 0 0 C 1818.08 97.7464 t 0 r /Helvetica-Bold findfont 58.6478 sf 0 0 m (600) show NC gr  227 1384 m 1814 X s 399 1347 m 37 Y s 460 1366 m 18 Y s 521 1366 m 18 Y s 583 1366 m 18 Y s 644 1347 m 37 Y s 705 1366 m 18 Y s 766 1366 m 18 Y
 s 828 1366 m 18 Y s 889 1347 m 37 Y s 950 1366 m 18 Y s 1011 1366 m 18 Y s 1073 1366 m 18 Y s 1134 1347 m 37 Y s 1195 1366 m 18 Y s 1256 1366 m 18 Y s 1318 1366 m 18 Y s 1379 1347 m 37 Y s 1440 1366 m 18 Y s 1501 1366 m 18 Y s 1563 1366 m 18 Y s
 1624 1347 m 37 Y s 1685 1366 m 18 Y s 1746 1366 m 18 Y s 1808 1366 m 18 Y s 1869 1347 m 37 Y s 399 1347 m 37 Y s 338 1366 m 18 Y s 276 1366 m 18 Y s 1869 1347 m 37 Y s 1930 1366 m 18 Y s 1991 1366 m 18 Y s 227 154 m 1230 Y s
 gsave  2268 1538 0 0 C 97.7464 710.291 t 90 r /Helvetica-Bold findfont 58.6478 sf 0 0 m (Cluster per etaModuleID) show NC gr  281 154 m -54 X s 254 190 m -27 X s 254 226 m -27 X s 254 263 m -27 X s 254 299 m -27 X s 281 335 m -54 X s 254 372 m -27 X
 s 254 408 m -27 X s 254 444 m -27 X s 254 481 m -27 X s 281 517 m -54 X s 254 554 m -27 X s 254 590 m -27 X s 254 626 m -27 X s 254 663 m -27 X s 281 699 m -54 X s 254 735 m -27 X s 254 772 m -27 X s 254 808 m -27 X s 254 844 m -27 X s 281 881 m -54
 X s 254 917 m -27 X s 254 953 m -27 X s 254 990 m -27 X s 254 1026 m -27 X s 281 1062 m -54 X s 254 1099 m -27 X s 254 1135 m -27 X s 254 1171 m -27 X s 254 1208 m -27 X s 281 1244 m -54 X s 281 1244 m -54 X s 254 1280 m -27 X s 254 1317 m -27 X s
 254 1353 m -27 X s
 gsave  2268 1538 0 0 C 182.46 133.587 t 0 r /Helvetica-Bold findfont 58.6478 sf 0 0 m (0) show NC gr 
 gsave  2268 1538 0 0 C 133.587 312.788 t 0 r /Helvetica-Bold findfont 58.6478 sf 0 0 m (0.5) show NC gr 
 gsave  2268 1538 0 0 C 192.235 495.248 t 0 r /Helvetica-Bold findfont 58.6478 sf 0 0 m (1) show NC gr 
 gsave  2268 1538 0 0 C 133.587 677.708 t 0 r /Helvetica-Bold findfont 58.6478 sf 0 0 m (1.5) show NC gr 
 gsave  2268 1538 0 0 C 182.46 856.91 t 0 r /Helvetica-Bold findfont 58.6478 sf 0 0 m (2) show NC gr 
 gsave  2268 1538 0 0 C 133.587 1042.63 t 0 r /Helvetica-Bold findfont 58.6478 sf 0 0 m (2.5) show NC gr 
 gsave  2268 1538 0 0 C 182.46 1221.83 t 0 r /Helvetica-Bold findfont 58.6478 sf 0 0 m (3) show NC gr  2041 154 m 1230 Y s 1987 154 m 54 X s 2014 190 m 27 X s 2014 226 m 27 X s 2014 263 m 27 X s 2014 299 m 27 X s 1987 335 m 54 X s 2014 372 m 27 X s
 2014 408 m 27 X s 2014 444 m 27 X s 2014 481 m 27 X s 1987 517 m 54 X s 2014 554 m 27 X s 2014 590 m 27 X s 2014 626 m 27 X s 2014 663 m 27 X s 1987 699 m 54 X s 2014 735 m 27 X s 2014 772 m 27 X s 2014 808 m 27 X s 2014 844 m 27 X s 1987 881 m 54 X
 s 2014 917 m 27 X s 2014 953 m 27 X s 2014 990 m 27 X s 2014 1026 m 27 X s 1987 1062 m 54 X s 2014 1099 m 27 X s 2014 1135 m 27 X s 2014 1171 m 27 X s 2014 1208 m 27 X s 1987 1244 m 54 X s 1987 1244 m 54 X s 2014 1280 m 27 X s 2014 1317 m 27 X s
 2014 1353 m 27 X s 309 472 m 54 Y s 303 526 m 13 X s 309 446 m -54 Y s 303 392 m 13 X s 339 501 m 57 Y s 332 558 m 13 X s 339 475 m -57 Y s 332 418 m 13 X s 368 646 m 71 Y s 361 717 m 13 X s 368 620 m -70 Y s 361 550 m 13 X s 397 617 m 68 Y s 391
 685 m 13 X s 397 591 m -68 Y s 391 523 m 13 X s 429 341 m 38 Y s 423 379 m 13 X s 429 315 m -37 Y s 423 278 m 13 X s 459 225 m 16 Y s 452 241 m 13 X s 459 199 m -16 Y s 452 183 m 13 X s 488 283 m 28 Y s 482 311 m 13 X s 488 257 m -28 Y s 482 229 m
 13 X s 517 283 m 28 Y s 510 311 m 13 X s 517 257 m -28 Y s 510 229 m 13 X s 549 341 m 38 Y s 543 379 m 13 X s 549 315 m -37 Y s 543 278 m 13 X s 579 458 m 52 Y s 573 510 m 13 X s 579 431 m -52 Y s 573 379 m 13 X s 608 690 m 74 Y s 602 764 m 13 X s
 608 664 m -74 Y s 602 590 m 13 X s 637 414 m 47 Y s 631 461 m 13 X s 637 388 m -47 Y s 631 341 m 13 X s 669 428 m 49 Y s 663 477 m 13 X s 669 402 m -48 Y s 663 354 m 13 X s 699 501 m 57 Y s 692 558 m 13 X s 699 475 m -57 Y s 692 418 m 13 X s 728 516
 m 58 Y s 722 574 m 13 X s 728 490 m -59 Y s 722 431 m 13 X s 757 545 m 61 Y s 751 606 m 13 X s 757 519 m -61 Y s 751 458 m 13 X s 790 399 m 45 Y s 783 444 m 13 X s 790 373 m -45 Y s 783 328 m 13 X s 819 487 m 55 Y s 812 542 m 13 X s 819 461 m -56 Y
 s 812 405 m 13 X s 848 399 m 45 Y s 842 444 m 13 X s 848 373 m -45 Y s 842 328 m 13 X s 878 530 m 60 Y s 871 590 m 13 X s 878 504 m -60 Y s 871 444 m 13 X s 910 298 m 30 Y s 903 328 m 13 X s 910 272 m -31 Y s 903 241 m 13 X s 939 385 m 43 Y s 933
 428 m 13 X s 939 359 m -43 Y s 933 316 m 13 X s 968 458 m 52 Y s 962 510 m 13 X s 968 431 m -52 Y s 962 379 m 13 X s 998 734 m 77 Y s 991 811 m 13 X s 998 708 m -78 Y s 991 630 m 13 X s 1030 777 m 81 Y s 1023 858 m 13 X s 1030 751 m -81 Y s 1023 670
 m 13 X s 1059 530 m 60 Y s 1053 590 m 13 X s 1059 504 m -60 Y s 1053 444 m 13 X s 1088 385 m 43 Y s 1082 428 m 13 X s 1088 359 m -43 Y s 1082 316 m 13 X s 1118 443 m 50 Y s 1111 493 m 13 X s 1118 417 m -50 Y s 1111 367 m 13 X s 1150 603 m 66 Y s
 1143 669 m 13 X s 1150 577 m -67 Y s 1143 510 m 13 X s 1179 443 m 50 Y s 1173 493 m 13 X s 1179 417 m -50 Y s 1173 367 m 13 X s 1208 734 m 77 Y s 1202 811 m 13 X s 1208 708 m -78 Y s 1202 630 m 13 X s 1238 458 m 52 Y s 1231 510 m 13 X s 1238 431 m
 -52 Y s 1231 379 m 13 X s 1270 298 m 30 Y s 1264 328 m 13 X s 1270 272 m -31 Y s 1264 241 m 13 X s 1299 283 m 28 Y s 1293 311 m 13 X s 1299 257 m -28 Y s 1293 229 m 13 X s 1329 501 m 57 Y s 1322 558 m 13 X s 1329 475 m -57 Y s 1322 418 m 13 X s 1358
 399 m 45 Y s 1351 444 m 13 X s 1358 373 m -45 Y s 1351 328 m 13 X s 1390 283 m 28 Y s 1384 311 m 13 X s 1390 257 m -28 Y s 1384 229 m 13 X s 1420 385 m 43 Y s 1413 428 m 13 X s 1420 359 m -43 Y s 1413 316 m 13 X s 1449 399 m 45 Y s 1442 444 m 13 X s
 1449 373 m -45 Y s 1442 328 m 13 X s 1478 385 m 43 Y s 1471 428 m 13 X s 1478 359 m -43 Y s 1471 316 m 13 X s 1510 356 m 39 Y s 1504 395 m 13 X s 1510 330 m -40 Y s 1504 290 m 13 X s 1539 327 m 35 Y s 1533 362 m 13 X s 1539 301 m -36 Y s 1533 265 m
 13 X s 1569 312 m 33 Y s 1563 345 m 13 X s 1569 286 m -33 Y s 1563 253 m 13 X s 1598 458 m 52 Y s 1592 510 m 13 X s 1598 431 m -52 Y s 1592 379 m 13 X s 1631 530 m 60 Y s 1624 590 m 13 X s 1631 504 m -60 Y s 1624 444 m 13 X s 1660 632 m 69 Y s 1653
 701 m 13 X s 1660 606 m -69 Y s 1653 537 m 13 X s 1689 312 m 33 Y s 1682 345 m 13 X s 1689 286 m -33 Y s 1682 253 m 13 X s 1718 385 m 43 Y s 1712 428 m 13 X s 1718 359 m -43 Y s 1712 316 m 13 X s 1751 559 m 63 Y s 1744 622 m 13 X s 1751 533 m -62 Y
 s 1744 471 m 13 X s 1780 516 m 58 Y s 1773 574 m 13 X s 1780 490 m -59 Y s 1773 431 m 13 X s 1809 341 m 38 Y s 1803 379 m 13 X s 1809 315 m -37 Y s 1803 278 m 13 X s 1838 399 m 45 Y s 1832 444 m 13 X s 1838 373 m -45 Y s 1832 328 m 13 X s 1871 399 m
 45 Y s 1864 444 m 13 X s 1871 373 m -45 Y s 1864 328 m 13 X s 1900 559 m 63 Y s 1894 622 m 13 X s 1900 533 m -62 Y s 1894 471 m 13 X s 1929 545 m 61 Y s 1922 606 m 13 X s 1929 519 m -61 Y s 1922 458 m 13 X s 1958 414 m 47 Y s 1952 461 m 13 X s 1958
 388 m -47 Y s 1952 341 m 13 X s 309 459 m 30 29 d 29 145 d 29 -29 d 32 -276 d 30 -116 d 29 58 d 29 X 32 58 d 30 116 d 29 233 d 29 -276 d 32 14 d 30 73 d 29 15 d 29 29 d 33 -146 d 29 88 d 29 -88 d 30 131 d 32 -232 d 29 87 d 29 72 d 30 277 d 32 43 d
 29 -247 d 29 -145 d 30 58 d 32 160 d 29 -160 d 29 291 d 30 -277 d 32 -159 d 29 -15 d 30 218 d 29 -102 d 32 -116 d 30 102 d 29 14 d 29 -14 d 32 -29 d 29 -29 d 30 -15 d 29 145 d 33 73 d 29 102 d 29 -320 d 29 73 d 33 174 d 29 -43 d 29 -175 d 29 58 d 33
 X 29 160 d 29 -14 d 29 -131 d s /w 26 def /w2 {w 2 div} def /w3 {w 3 div} def 309 459 339 488 368 633 397 604 429 328 459 212 488 270 517 270 549 328 579 444 608 677 637 401 669 415 699 488 728 503 757 532 790 386 819 474 848 386 878 517 910 285 939
 372 968 444 998 721 1030 764 1059 517 1088 372 1118 430 1150 590 1179 430 1208 721 1238 444 1270 285 1299 270 1329 488 1358 386 1390 270 1420 372 1449 386 1478 372 1510 343 1539 314 1569 299 1598 444 1631 517 1660 619 1689 299 1718 372 1751 546 1780
 503 1809 328 1838 386 1871 386 1900 546 1929 532 1958 401 56 { m20} R 1 0 0 c 309 385 m 43 Y s 303 428 m 13 X s 309 359 m -43 Y s 303 316 m 13 X s 338 574 m 64 Y s 332 638 m 13 X s 338 548 m -64 Y s 332 484 m 13 X s 368 646 m 71 Y s 361 717 m 13 X s
 368 620 m -70 Y s 361 550 m 13 X s 397 632 m 69 Y s 391 701 m 13 X s 397 606 m -69 Y s 391 537 m 13 X s 429 458 m 52 Y s 423 510 m 13 X s 429 431 m -52 Y s 423 379 m 13 X s 459 327 m 35 Y s 452 362 m 13 X s 459 301 m -36 Y s 452 265 m 13 X s 488 341
 m 38 Y s 481 379 m 13 X s 488 315 m -37 Y s 481 278 m 13 X s 518 385 m 43 Y s 511 428 m 13 X s 518 359 m -43 Y s 511 316 m 13 X s 549 661 m 72 Y s 543 733 m 13 X s 549 635 m -72 Y s 543 563 m 13 X s 579 690 m 74 Y s 572 764 m 13 X s 579 664 m -74 Y
 s 572 590 m 13 X s 608 312 m 33 Y s 601 345 m 13 X s 608 286 m -33 Y s 601 253 m 13 X s 637 530 m 60 Y s 631 590 m 13 X s 637 504 m -60 Y s 631 444 m 13 X s 670 516 m 58 Y s 663 574 m 13 X s 670 490 m -59 Y s 663 431 m 13 X s 699 603 m 66 Y s 692
 669 m 13 X s 699 577 m -67 Y s 692 510 m 13 X s 728 458 m 52 Y s 722 510 m 13 X s 728 431 m -52 Y s 722 379 m 13 X s 757 487 m 55 Y s 751 542 m 13 X s 757 461 m -56 Y s 751 405 m 13 X s 790 385 m 43 Y s 783 428 m 13 X s 790 359 m -43 Y s 783 316 m
 13 X s 819 312 m 33 Y s 813 345 m 13 X s 819 286 m -33 Y s 813 253 m 13 X s 848 298 m 30 Y s 842 328 m 13 X s 848 272 m -31 Y s 842 241 m 13 X s 877 516 m 58 Y s 871 574 m 13 X s 877 490 m -59 Y s 871 431 m 13 X s 910 603 m 66 Y s 903 669 m 13 X s
 910 577 m -67 Y s 903 510 m 13 X s 939 341 m 38 Y s 933 379 m 13 X s 939 315 m -37 Y s 933 278 m 13 X s 968 370 m 42 Y s 962 412 m 13 X s 968 344 m -41 Y s 962 303 m 13 X s 998 908 m 91 Y s 991 999 m 13 X s 998 882 m -91 Y s 991 791 m 13 X s 1030
 545 m 61 Y s 1023 606 m 13 X s 1030 519 m -61 Y s 1023 458 m 13 X s 1059 428 m 49 Y s 1053 477 m 13 X s 1059 402 m -48 Y s 1053 354 m 13 X s 1088 283 m 28 Y s 1082 311 m 13 X s 1088 257 m -28 Y s 1082 229 m 13 X s 1118 487 m 55 Y s 1111 542 m 13 X s
 1118 461 m -56 Y s 1111 405 m 13 X s 1150 428 m 49 Y s 1144 477 m 13 X s 1150 402 m -48 Y s 1144 354 m 13 X s 1179 341 m 38 Y s 1173 379 m 13 X s 1179 315 m -37 Y s 1173 278 m 13 X s 1209 356 m 39 Y s 1202 395 m 13 X s 1209 330 m -40 Y s 1202 290 m
 13 X s 1238 559 m 63 Y s 1231 622 m 13 X s 1238 533 m -62 Y s 1231 471 m 13 X s 1270 443 m 50 Y s 1263 493 m 14 X s 1270 417 m -50 Y s 1263 367 m 14 X s 1299 603 m 66 Y s 1293 669 m 13 X s 1299 577 m -67 Y s 1293 510 m 13 X s 1328 269 m 25 Y s 1322
 294 m 13 X s 1328 243 m -26 Y s 1322 217 m 13 X s 1358 283 m 28 Y s 1351 311 m 13 X s 1358 257 m -28 Y s 1351 229 m 13 X s 1390 356 m 39 Y s 1384 395 m 13 X s 1390 330 m -40 Y s 1384 290 m 13 X s 1419 458 m 52 Y s 1413 510 m 13 X s 1419 431 m -52 Y
 s 1413 379 m 13 X s 1449 617 m 68 Y s 1442 685 m 13 X s 1449 591 m -68 Y s 1442 523 m 13 X s 1478 356 m 39 Y s 1472 395 m 13 X s 1478 330 m -40 Y s 1472 290 m 13 X s 1511 356 m 39 Y s 1504 395 m 13 X s 1511 330 m -40 Y s 1504 290 m 13 X s 1540 370 m
 42 Y s 1533 412 m 13 X s 1540 344 m -41 Y s 1533 303 m 13 X s 1569 414 m 47 Y s 1562 461 m 13 X s 1569 388 m -47 Y s 1562 341 m 13 X s 1598 385 m 43 Y s 1592 428 m 13 X s 1598 359 m -43 Y s 1592 316 m 13 X s 1630 399 m 45 Y s 1624 444 m 13 X s 1630
 373 m -45 Y s 1624 328 m 13 X s 1660 443 m 50 Y s 1653 493 m 13 X s 1660 417 m -50 Y s 1653 367 m 13 X s 1689 298 m 30 Y s 1682 328 m 13 X s 1689 272 m -31 Y s 1682 241 m 13 X s 1718 399 m 45 Y s 1712 444 m 13 X s 1718 373 m -45 Y s 1712 328 m 13 X
 s 1751 341 m 38 Y s 1744 379 m 13 X s 1751 315 m -37 Y s 1744 278 m 13 X s 1779 399 m 45 Y s 1773 444 m 13 X s 1779 373 m -45 Y s 1773 328 m 13 X s 1809 487 m 55 Y s 1803 542 m 13 X s 1809 461 m -56 Y s 1803 405 m 13 X s 1838 472 m 54 Y s 1832 526 m
 13 X s 1838 446 m -54 Y s 1832 392 m 13 X s 1871 385 m 43 Y s 1864 428 m 13 X s 1871 359 m -43 Y s 1864 316 m 13 X s 1899 385 m 43 Y s 1893 428 m 13 X s 1899 359 m -43 Y s 1893 316 m 13 X s 1929 385 m 43 Y s 1922 428 m 13 X s 1929 359 m -43 Y s 1922
 316 m 13 X s 1958 414 m 47 Y s 1952 461 m 13 X s 1958 388 m -47 Y s 1952 341 m 13 X s black 1 0 0 c 309 372 m 29 189 d 30 72 d 29 -14 d 32 -175 d 30 -130 d 29 14 d 30 44 d 31 276 d 30 29 d 29 -378 d 29 218 d 33 -14 d 29 87 d 29 -146 d 29 30 d 33
 -102 d 29 -73 d 29 -14 d 29 218 d 33 87 d 29 -262 d 29 29 d 30 538 d 32 -363 d 29 -117 d 29 -145 d 30 204 d 32 -59 d 29 -87 d 30 15 d 29 203 d 32 -116 d 29 160 d 29 -334 d 30 14 d 32 73 d 29 101 d 30 160 d 29 -261 d 33 X 29 14 d 29 44 d 29 -29 d 32
 14 d 30 44 d 29 -145 d 29 101 d 33 -58 d 28 58 d 30 88 d 29 -15 d 33 -87 d 58 X 29 29 d s 309 372 338 561 368 633 397 619 429 444 459 314 488 328 518 372 549 648 579 677 608 299 637 517 670 503 699 590 728 444 757 474 790 372 819 299 848 285 877 503
 910 590 939 328 968 357 998 895 1030 532 1059 415 1088 270 1118 474 1150 415 1179 328 1209 343 1238 546 1270 430 1299 590 1328 256 1358 270 1390 343 1419 444 1449 604 1478 343 1511 343 1540 357 1569 401 1598 372 1630 386 1660 430 1689 285 1718 386
 1751 328 1779 386 1809 474 1838 459 1871 372 1899 372 1929 372 1958 401 56 { m20} R 0 1 0 c 324 923 m 91 Y s 318 1014 m 13 X s 324 897 m -92 Y s 318 805 m 13 X s 382 821 m 84 Y s 376 905 m 13 X s 382 795 m -85 Y s 376 710 m 13 X s 444 501 m 57 Y s
 438 558 m 13 X s 444 475 m -57 Y s 438 418 m 13 X s 502 894 m 89 Y s 496 983 m 13 X s 502 868 m -90 Y s 496 778 m 13 X s 564 676 m 73 Y s 558 749 m 13 X s 564 650 m -73 Y s 558 577 m 13 X s 623 748 m 79 Y s 616 827 m 13 X s 623 722 m -79 Y s 616 643
 m 13 X s 684 719 m 77 Y s 678 796 m 13 X s 684 693 m -76 Y s 678 617 m 13 X s 743 821 m 84 Y s 736 905 m 13 X s 743 795 m -85 Y s 736 710 m 13 X s 805 719 m 77 Y s 798 796 m 13 X s 805 693 m -76 Y s 798 617 m 13 X s 863 865 m 87 Y s 856 952 m 13 X s
 863 838 m -87 Y s 856 751 m 13 X s 925 632 m 69 Y s 918 701 m 13 X s 925 606 m -69 Y s 918 537 m 13 X s 983 835 m 86 Y s 976 921 m 13 X s 983 809 m -85 Y s 976 724 m 13 X s 1045 632 m 69 Y s 1038 701 m 13 X s 1045 606 m -69 Y s 1038 537 m 13 X s
 1103 516 m 58 Y s 1097 574 m 13 X s 1103 490 m -59 Y s 1097 431 m 13 X s 1165 545 m 61 Y s 1158 606 m 13 X s 1165 519 m -61 Y s 1158 458 m 13 X s 1223 399 m 45 Y s 1217 444 m 13 X s 1223 373 m -45 Y s 1217 328 m 13 X s 1285 399 m 45 Y s 1278 444 m
 13 X s 1285 373 m -45 Y s 1278 328 m 13 X s 1343 937 m 93 Y s 1337 1030 m 13 X s 1343 911 m -93 Y s 1337 818 m 13 X s 1405 545 m 61 Y s 1398 606 m 13 X s 1405 519 m -61 Y s 1398 458 m 13 X s 1463 777 m 81 Y s 1457 858 m 13 X s 1463 751 m -81 Y s
 1457 670 m 13 X s 1525 661 m 72 Y s 1519 733 m 13 X s 1525 635 m -72 Y s 1519 563 m 13 X s 1583 661 m 72 Y s 1577 733 m 13 X s 1583 635 m -72 Y s 1577 563 m 13 X s 1645 734 m 77 Y s 1639 811 m 13 X s 1645 708 m -78 Y s 1639 630 m 13 X s 1704 690 m
 74 Y s 1697 764 m 13 X s 1704 664 m -74 Y s 1697 590 m 13 X s 1765 850 m 87 Y s 1759 937 m 13 X s 1765 824 m -87 Y s 1759 737 m 13 X s 1824 516 m 58 Y s 1817 574 m 13 X s 1824 490 m -59 Y s 1817 431 m 13 X s 1885 646 m 71 Y s 1879 717 m 13 X s 1885
 620 m -70 Y s 1879 550 m 13 X s 1944 603 m 66 Y s 1937 669 m 13 X s 1944 577 m -67 Y s 1937 510 m 13 X s black 0 1 0 c 324 910 m 58 -102 d 62 -320 d 58 393 d 62 -218 d 59 72 d 61 -29 d 59 102 d 62 -102 d 58 145 d 62 -232 d 58 203 d 62 -203 d 58 -116
 d 62 29 d 58 -146 d 62 X 58 538 d 62 -392 d 58 232 d 62 -116 d 58 X 62 73 d 59 -44 d 61 160 d 59 -334 d 61 130 d 59 -43 d s 324 910 382 808 444 488 502 881 564 663 623 735 684 706 743 808 805 706 863 851 925 619 983 822 1045 619 1103 503 1165 532
 1223 386 1285 386 1343 924 1405 532 1463 764 1525 648 1583 648 1645 721 1704 677 1765 837 1824 503 1885 633 1944 590 28 { m20} R 0 0 1 c 324 530 m 60 Y s 317 590 m 14 X s 324 504 m -60 Y s 317 444 m 14 X s 382 777 m 81 Y s 376 858 m 13 X s 382 751 m
 -81 Y s 376 670 m 13 X s 444 414 m 47 Y s 438 461 m 13 X s 444 388 m -47 Y s 438 341 m 13 X s 503 777 m 81 Y s 496 858 m 13 X s 503 751 m -81 Y s 496 670 m 13 X s 564 545 m 61 Y s 558 606 m 13 X s 564 519 m -61 Y s 558 458 m 13 X s 623 516 m 58 Y s
 616 574 m 13 X s 623 490 m -59 Y s 616 431 m 13 X s 684 443 m 50 Y s 678 493 m 13 X s 684 417 m -50 Y s 678 367 m 13 X s 743 821 m 84 Y s 736 905 m 13 X s 743 795 m -85 Y s 736 710 m 13 X s 804 341 m 38 Y s 798 379 m 13 X s 804 315 m -37 Y s 798 278
 m 13 X s 863 501 m 57 Y s 856 558 m 13 X s 863 475 m -57 Y s 856 418 m 13 X s 925 705 m 75 Y s 918 780 m 13 X s 925 679 m -76 Y s 918 603 m 13 X s 983 617 m 68 Y s 976 685 m 13 X s 983 591 m -68 Y s 976 523 m 13 X s 1044 414 m 47 Y s 1038 461 m 13 X
 s 1044 388 m -47 Y s 1038 341 m 13 X s 1103 734 m 77 Y s 1096 811 m 13 X s 1103 708 m -78 Y s 1096 630 m 13 X s 1165 283 m 28 Y s 1158 311 m 13 X s 1165 257 m -28 Y s 1158 229 m 13 X s 1223 298 m 30 Y s 1217 328 m 13 X s 1223 272 m -31 Y s 1217 241
 m 13 X s 1285 385 m 43 Y s 1278 428 m 13 X s 1285 359 m -43 Y s 1278 316 m 13 X s 1343 399 m 45 Y s 1337 444 m 13 X s 1343 373 m -45 Y s 1337 328 m 13 X s 1405 676 m 73 Y s 1398 749 m 13 X s 1405 650 m -73 Y s 1398 577 m 13 X s 1463 748 m 79 Y s
 1457 827 m 13 X s 1463 722 m -79 Y s 1457 643 m 13 X s 1525 298 m 30 Y s 1518 328 m 13 X s 1525 272 m -31 Y s 1518 241 m 13 X s 1583 516 m 58 Y s 1577 574 m 13 X s 1583 490 m -59 Y s 1577 431 m 13 X s 1645 487 m 55 Y s 1638 542 m 13 X s 1645 461 m
 -56 Y s 1638 405 m 13 X s 1703 603 m 66 Y s 1697 669 m 13 X s 1703 577 m -67 Y s 1697 510 m 13 X s 1765 676 m 73 Y s 1759 749 m 13 X s 1765 650 m -73 Y s 1759 577 m 13 X s 1824 588 m 66 Y s 1817 654 m 13 X s 1824 562 m -65 Y s 1817 497 m 13 X s 1885
 617 m 68 Y s 1879 685 m 13 X s 1885 591 m -68 Y s 1879 523 m 13 X s 1944 516 m 58 Y s 1937 574 m 13 X s 1944 490 m -59 Y s 1937 431 m 13 X s black 0 0 1 c 324 517 m 58 247 d 62 -363 d 59 363 d 61 -232 d 59 -29 d 61 -73 d 59 378 d 61 -480 d 59 160 d
 62 204 d 58 -88 d 61 -203 d 59 320 d 62 -451 d 58 15 d 62 87 d 58 14 d 62 277 d 58 72 d 62 -450 d 58 218 d 62 -29 d 58 116 d 62 73 d 59 -88 d 61 29 d 59 -101 d s 324 517 382 764 444 401 503 764 564 532 623 503 684 430 743 808 804 328 863 488 925 692
 983 604 1044 401 1103 721 1165 270 1223 285 1285 372 1343 386 1405 663 1463 735 1525 285 1583 503 1645 474 1703 590 1765 663 1824 575 1885 604 1944 503 28 { m20} R black
 gsave  2268 1538 0 0 C 1645.4 1283.74 t 0 r /Helvetica-Bold findfont 58.6478 sf 0 0 m (SCT Barrel) show NC gr 
 gsave  2268 1538 0 0 C 1762.69 1205.54 t 0 r /Helvetica-Bold findfont 58.6478 sf 0 0 m (Layer 0) show NC gr  1652 1223 m 92 X s 1698 1223 m20
 gsave  2268 1538 0 0 C 1762.69 1130.6 t 0 r /Helvetica-Bold findfont 58.6478 sf 0 0 m (Layer 1) show NC gr  1 0 0 c 1652 1146 m 92 X s 1698 1146 m20 black
 gsave  2268 1538 0 0 C 1762.69 1052.4 t 0 r /Helvetica-Bold findfont 58.6478 sf 0 0 m (Layer 2) show NC gr  0 1 0 c 1652 1069 m 92 X s 1698 1069 m20 black
 gsave  2268 1538 0 0 C 1762.69 977.464 t 0 r /Helvetica-Bold findfont 58.6478 sf 0 0 m (Layer 3) show NC gr  0 0 1 c 1652 992 m 92 X s 1698 992 m20
 gr  gr showpage
end
%%EOF
