%!PS-Adobe-2.0 EPSF-2.0
%%BoundingBox:  0 0 567 384
%%Title: pionDir/sct_occupancy/clus_sctlayer_mg.eps: c1_n23
%%Creator: ROOT Version 6.04/12
%%CreationDate: Tue Apr 19 16:53:25 2016
%%DocumentNeededResources: ProcSet (FontSetInit)
%%EndComments
%%BeginProlog
80 dict begin
/s {stroke} def /l {lineto} def /m {moveto} def /t {translate} def
/r {rotate} def /rl {roll}  def /R {repeat} def
/d {rlineto} def /rm {rmoveto} def /gr {grestore} def /f {eofill} def
/c {setrgbcolor} def /black {0 setgray} def /sd {setdash} def
/cl {closepath} def /sf {scalefont setfont} def /lw {setlinewidth} def
/box {m dup 0 exch d exch 0 d 0 exch neg d cl} def
/NC{systemdict begin initclip end}def/C{NC box clip newpath}def
/bl {box s} def /bf {gsave box gsave f grestore 1 lw [] 0 sd s grestore} def /Y { 0 exch d} def /X { 0 d} def 
/K {{pop pop 0 moveto} exch kshow} bind def
/ita {/ang 15 def gsave [1 0 ang dup sin exch cos div 1 0 0] concat} def 
/mp {newpath /y exch def /x exch def} def
/side {[w .77 mul w .23 mul] .385 w mul sd w 0 l currentpoint t -144 r} def
/mr {mp x y w2 0 360 arc} def /m24 {mr s} def /m20 {mr f} def
/mb {mp x y w2 add m w2 neg 0 d 0 w neg d w 0 d 0 w d cl} def
/mt {mp x y w2 add m w2 neg w neg d w 0 d cl} def
/m21 {mb f} def /m25 {mb s} def /m22 {mt f} def /m26{mt s} def
/m23 {mp x y w2 sub m w2 w d w neg 0 d cl f} def
/m27 {mp x y w2 add m w3 neg w2 neg d w3 w2 neg d w3 w2 d cl s} def
/m28 {mp x w2 sub y w2 sub w3 add m w3 0 d  0 w3 neg d w3 0 d 0 w3 d w3 0 d  0 w3 d w3 neg 0 d 0 w3 d w3 neg 0 d 0 w3 neg d w3 neg 0 d cl s } def
/m29 {mp gsave x w2 sub y w2 add w3 sub m currentpoint t 4 {side} repeat cl fill gr} def
/m30 {mp gsave x w2 sub y w2 add w3 sub m currentpoint t 4 {side} repeat cl s gr} def
/m31 {mp x y w2 sub m 0 w d x w2 sub y m w 0 d x w2 sub y w2 add m w w neg d x w2 sub y w2 sub m w w d s} def
/m32 {mp x y w2 sub m w2 w d w neg 0 d cl s} def
/m33 {mp x y w2 add m w3 neg w2 neg d w3 w2 neg d w3 w2 d cl f} def
/m34 {mp x w2 sub y w2 sub w3 add m w3 0 d  0 w3 neg d w3 0 d 0 w3 d w3 0 d  0 w3 d w3 neg 0 d 0 w3 d w3 neg 0 d 0 w3 neg d w3 neg 0 d cl f } def
/m2 {mp x y w2 sub m 0 w d x w2 sub y m w 0 d s} def
/m5 {mp x w2 sub y w2 sub m w w d x w2 sub y w2 add m w w neg d s} def
%%IncludeResource: ProcSet (FontSetInit)
%%IncludeResource: font Times-Roman
%%IncludeResource: font Times-Italic
%%IncludeResource: font Times-Bold
%%IncludeResource: font Times-BoldItalic
%%IncludeResource: font Helvetica
%%IncludeResource: font Helvetica-Oblique
%%IncludeResource: font Helvetica-Bold
%%IncludeResource: font Helvetica-BoldOblique
%%IncludeResource: font Courier
%%IncludeResource: font Courier-Oblique
%%IncludeResource: font Courier-Bold
%%IncludeResource: font Courier-BoldOblique
%%IncludeResource: font Symbol
%%IncludeResource: font ZapfDingbats
/reEncode {exch findfont dup length dict begin {1 index /FID eq  {pop pop} {def} ifelse } forall /Encoding exch def currentdict end dup /FontName get exch definefont pop } def [/Times-Bold /Times-Italic /Times-BoldItalic /Helvetica /Helvetica-Oblique
 /Helvetica-Bold /Helvetica-BoldOblique /Courier /Courier-Oblique /Courier-Bold /Courier-BoldOblique /Times-Roman /AvantGarde-Book /AvantGarde-BookOblique /AvantGarde-Demi /AvantGarde-DemiOblique /Bookman-Demi /Bookman-DemiItalic /Bookman-Light
 /Bookman-LightItalic /Helvetica-Narrow /Helvetica-Narrow-Bold /Helvetica-Narrow-BoldOblique /Helvetica-Narrow-Oblique /NewCenturySchlbk-Roman /NewCenturySchlbk-Bold /NewCenturySchlbk-BoldItalic /NewCenturySchlbk-Italic /Palatino-Bold
 /Palatino-BoldItalic /Palatino-Italic /Palatino-Roman ] {ISOLatin1Encoding reEncode } forall
%%EndProlog
%%BeginSetup
%%EndSetup
newpath  gsave  .25 .25 scale  gsave  0 0 t black[  ] 0 sd 3 lw 1 1 1 c 2268 1538 0 0 bf black 1 1 1 c 1814 1230 227 154 bf black 1814 1230 227 154 bl 1 1 1 c 1814 1230 227 154 bf black 1814 1230 227 154 bl 227 154 m 1814 X s
 gsave  2268 1538 0 0 C 1772.47 32.5821 t 0 r /Helvetica-Bold findfont 58.6478 sf 0 0 m (moduleID) show NC gr  250 191 m -37 Y s 309 172 m -18 Y s 368 172 m -18 Y s 427 172 m -18 Y s 486 172 m -18 Y s 545 191 m -37 Y s 604 172 m -18 Y s 663 172 m -18
 Y s 722 172 m -18 Y s 780 172 m -18 Y s 839 191 m -37 Y s 898 172 m -18 Y s 957 172 m -18 Y s 1016 172 m -18 Y s 1075 172 m -18 Y s 1134 191 m -37 Y s 1193 172 m -18 Y s 1252 172 m -18 Y s 1311 172 m -18 Y s 1369 172 m -18 Y s 1428 191 m -37 Y s
 1487 172 m -18 Y s 1546 172 m -18 Y s 1605 172 m -18 Y s 1664 172 m -18 Y s 1723 191 m -37 Y s 1782 172 m -18 Y s 1841 172 m -18 Y s 1900 172 m -18 Y s 1958 172 m -18 Y s 2017 191 m -37 Y s 250 191 m -37 Y s 2017 191 m -37 Y s
 gsave  2268 1538 0 0 C 228.075 97.7464 t 0 r /Helvetica-Bold findfont 58.6478 sf 0 0 m (30) show NC gr 
 gsave  2268 1538 0 0 C 198.751 97.7464 t 0 r /Symbol findfont 58.6478 sf 0 0 m (-) show NC gr 
 gsave  2268 1538 0 0 C 524.572 97.7464 t 0 r /Helvetica-Bold findfont 58.6478 sf 0 0 m (20) show NC gr 
 gsave  2268 1538 0 0 C 495.248 97.7464 t 0 r /Symbol findfont 58.6478 sf 0 0 m (-) show NC gr 
 gsave  2268 1538 0 0 C 817.812 97.7464 t 0 r /Helvetica-Bold findfont 58.6478 sf 0 0 m (10) show NC gr 
 gsave  2268 1538 0 0 C 788.488 97.7464 t 0 r /Symbol findfont 58.6478 sf 0 0 m (-) show NC gr 
 gsave  2268 1538 0 0 C 1117.57 97.7464 t 0 r /Helvetica-Bold findfont 58.6478 sf 0 0 m (0) show NC gr 
 gsave  2268 1538 0 0 C 1394.52 97.7464 t 0 r /Helvetica-Bold findfont 58.6478 sf 0 0 m (10) show NC gr 
 gsave  2268 1538 0 0 C 1687.75 97.7464 t 0 r /Helvetica-Bold findfont 58.6478 sf 0 0 m (20) show NC gr 
 gsave  2268 1538 0 0 C 1984.25 97.7464 t 0 r /Helvetica-Bold findfont 58.6478 sf 0 0 m (30) show NC gr  227 1384 m 1814 X s 250 1347 m 37 Y s 309 1366 m 18 Y s 368 1366 m 18 Y s 427 1366 m 18 Y s 486 1366 m 18 Y s 545 1347 m 37 Y s 604 1366 m 18 Y s
 663 1366 m 18 Y s 722 1366 m 18 Y s 780 1366 m 18 Y s 839 1347 m 37 Y s 898 1366 m 18 Y s 957 1366 m 18 Y s 1016 1366 m 18 Y s 1075 1366 m 18 Y s 1134 1347 m 37 Y s 1193 1366 m 18 Y s 1252 1366 m 18 Y s 1311 1366 m 18 Y s 1369 1366 m 18 Y s 1428
 1347 m 37 Y s 1487 1366 m 18 Y s 1546 1366 m 18 Y s 1605 1366 m 18 Y s 1664 1366 m 18 Y s 1723 1347 m 37 Y s 1782 1366 m 18 Y s 1841 1366 m 18 Y s 1900 1366 m 18 Y s 1958 1366 m 18 Y s 2017 1347 m 37 Y s 250 1347 m 37 Y s 2017 1347 m 37 Y s 227 154
 m 1230 Y s
 gsave  2268 1538 0 0 C 97.7464 710.291 t 90 r /Helvetica-Bold findfont 58.6478 sf 0 0 m (Cluster per etaModuleID) show NC gr  281 154 m -54 X s 254 190 m -27 X s 254 226 m -27 X s 254 263 m -27 X s 254 299 m -27 X s 281 335 m -54 X s 254 372 m -27 X
 s 254 408 m -27 X s 254 444 m -27 X s 254 481 m -27 X s 281 517 m -54 X s 254 554 m -27 X s 254 590 m -27 X s 254 626 m -27 X s 254 663 m -27 X s 281 699 m -54 X s 254 735 m -27 X s 254 772 m -27 X s 254 808 m -27 X s 254 844 m -27 X s 281 881 m -54
 X s 254 917 m -27 X s 254 953 m -27 X s 254 990 m -27 X s 254 1026 m -27 X s 281 1062 m -54 X s 254 1099 m -27 X s 254 1135 m -27 X s 254 1171 m -27 X s 254 1208 m -27 X s 281 1244 m -54 X s 281 1244 m -54 X s 254 1280 m -27 X s 254 1317 m -27 X s
 254 1353 m -27 X s
 gsave  2268 1538 0 0 C 182.46 133.587 t 0 r /Helvetica-Bold findfont 58.6478 sf 0 0 m (0) show NC gr 
 gsave  2268 1538 0 0 C 133.587 312.788 t 0 r /Helvetica-Bold findfont 58.6478 sf 0 0 m (0.5) show NC gr 
 gsave  2268 1538 0 0 C 192.235 495.248 t 0 r /Helvetica-Bold findfont 58.6478 sf 0 0 m (1) show NC gr 
 gsave  2268 1538 0 0 C 133.587 677.708 t 0 r /Helvetica-Bold findfont 58.6478 sf 0 0 m (1.5) show NC gr 
 gsave  2268 1538 0 0 C 182.46 856.91 t 0 r /Helvetica-Bold findfont 58.6478 sf 0 0 m (2) show NC gr 
 gsave  2268 1538 0 0 C 133.587 1042.63 t 0 r /Helvetica-Bold findfont 58.6478 sf 0 0 m (2.5) show NC gr 
 gsave  2268 1538 0 0 C 182.46 1221.83 t 0 r /Helvetica-Bold findfont 58.6478 sf 0 0 m (3) show NC gr  2041 154 m 1230 Y s 1987 154 m 54 X s 2014 190 m 27 X s 2014 226 m 27 X s 2014 263 m 27 X s 2014 299 m 27 X s 1987 335 m 54 X s 2014 372 m 27 X s
 2014 408 m 27 X s 2014 444 m 27 X s 2014 481 m 27 X s 1987 517 m 54 X s 2014 554 m 27 X s 2014 590 m 27 X s 2014 626 m 27 X s 2014 663 m 27 X s 1987 699 m 54 X s 2014 735 m 27 X s 2014 772 m 27 X s 2014 808 m 27 X s 2014 844 m 27 X s 1987 881 m 54 X
 s 2014 917 m 27 X s 2014 953 m 27 X s 2014 990 m 27 X s 2014 1026 m 27 X s 1987 1062 m 54 X s 2014 1099 m 27 X s 2014 1135 m 27 X s 2014 1171 m 27 X s 2014 1208 m 27 X s 1987 1244 m 54 X s 1987 1244 m 54 X s 2014 1280 m 27 X s 2014 1317 m 27 X s
 2014 1353 m 27 X s 309 472 m 54 Y s 303 526 m 13 X s 309 446 m -54 Y s 303 392 m 13 X s 339 501 m 57 Y s 332 558 m 13 X s 339 475 m -57 Y s 332 418 m 13 X s 368 646 m 71 Y s 362 717 m 13 X s 368 620 m -70 Y s 362 550 m 13 X s 398 617 m 68 Y s 391
 685 m 13 X s 398 591 m -68 Y s 391 523 m 13 X s 427 341 m 38 Y s 421 379 m 13 X s 427 315 m -37 Y s 421 278 m 13 X s 456 225 m 16 Y s 450 241 m 13 X s 456 199 m -16 Y s 450 183 m 13 X s 486 283 m 28 Y s 479 311 m 13 X s 486 257 m -28 Y s 479 229 m
 13 X s 515 283 m 28 Y s 509 311 m 13 X s 515 257 m -28 Y s 509 229 m 13 X s 545 341 m 38 Y s 538 379 m 13 X s 545 315 m -37 Y s 538 278 m 13 X s 574 458 m 52 Y s 568 510 m 13 X s 574 431 m -52 Y s 568 379 m 13 X s 604 690 m 74 Y s 597 764 m 13 X s
 604 664 m -74 Y s 597 590 m 13 X s 633 414 m 47 Y s 627 461 m 13 X s 633 388 m -47 Y s 627 341 m 13 X s 663 428 m 49 Y s 656 477 m 13 X s 663 402 m -48 Y s 656 354 m 13 X s 692 501 m 57 Y s 686 558 m 13 X s 692 475 m -57 Y s 686 418 m 13 X s 722 516
 m 58 Y s 715 574 m 13 X s 722 490 m -59 Y s 715 431 m 13 X s 751 545 m 61 Y s 744 606 m 14 X s 751 519 m -61 Y s 744 458 m 14 X s 780 399 m 45 Y s 774 444 m 13 X s 780 373 m -45 Y s 774 328 m 13 X s 810 487 m 55 Y s 803 542 m 13 X s 810 461 m -56 Y
 s 803 405 m 13 X s 839 399 m 45 Y s 833 444 m 13 X s 839 373 m -45 Y s 833 328 m 13 X s 869 530 m 60 Y s 862 590 m 13 X s 869 504 m -60 Y s 862 444 m 13 X s 898 298 m 30 Y s 892 328 m 13 X s 898 272 m -31 Y s 892 241 m 13 X s 928 385 m 43 Y s 921
 428 m 13 X s 928 359 m -43 Y s 921 316 m 13 X s 957 458 m 52 Y s 951 510 m 13 X s 957 431 m -52 Y s 951 379 m 13 X s 987 734 m 77 Y s 980 811 m 13 X s 987 708 m -78 Y s 980 630 m 13 X s 1016 777 m 81 Y s 1010 858 m 13 X s 1016 751 m -81 Y s 1010 670
 m 13 X s 1046 530 m 60 Y s 1039 590 m 13 X s 1046 504 m -60 Y s 1039 444 m 13 X s 1075 385 m 43 Y s 1068 428 m 13 X s 1075 359 m -43 Y s 1068 316 m 13 X s 1104 443 m 50 Y s 1098 493 m 13 X s 1104 417 m -50 Y s 1098 367 m 13 X s 1163 603 m 66 Y s
 1157 669 m 13 X s 1163 577 m -67 Y s 1157 510 m 13 X s 1193 443 m 50 Y s 1186 493 m 13 X s 1193 417 m -50 Y s 1186 367 m 13 X s 1222 734 m 77 Y s 1216 811 m 13 X s 1222 708 m -78 Y s 1216 630 m 13 X s 1252 458 m 52 Y s 1245 510 m 13 X s 1252 431 m
 -52 Y s 1245 379 m 13 X s 1281 298 m 30 Y s 1275 328 m 13 X s 1281 272 m -31 Y s 1275 241 m 13 X s 1311 283 m 28 Y s 1304 311 m 13 X s 1311 257 m -28 Y s 1304 229 m 13 X s 1340 501 m 57 Y s 1333 558 m 14 X s 1340 475 m -57 Y s 1333 418 m 14 X s 1369
 399 m 45 Y s 1363 444 m 13 X s 1369 373 m -45 Y s 1363 328 m 13 X s 1399 283 m 28 Y s 1392 311 m 13 X s 1399 257 m -28 Y s 1392 229 m 13 X s 1428 385 m 43 Y s 1422 428 m 13 X s 1428 359 m -43 Y s 1422 316 m 13 X s 1458 399 m 45 Y s 1451 444 m 13 X s
 1458 373 m -45 Y s 1451 328 m 13 X s 1487 385 m 43 Y s 1481 428 m 13 X s 1487 359 m -43 Y s 1481 316 m 13 X s 1517 356 m 39 Y s 1510 395 m 13 X s 1517 330 m -40 Y s 1510 290 m 13 X s 1546 327 m 35 Y s 1540 362 m 13 X s 1546 301 m -36 Y s 1540 265 m
 13 X s 1576 312 m 33 Y s 1569 345 m 13 X s 1576 286 m -33 Y s 1569 253 m 13 X s 1605 458 m 52 Y s 1599 510 m 13 X s 1605 431 m -52 Y s 1599 379 m 13 X s 1635 530 m 60 Y s 1628 590 m 13 X s 1635 504 m -60 Y s 1628 444 m 13 X s 1664 632 m 69 Y s 1657
 701 m 13 X s 1664 606 m -69 Y s 1657 537 m 13 X s 1693 312 m 33 Y s 1687 345 m 13 X s 1693 286 m -33 Y s 1687 253 m 13 X s 1723 385 m 43 Y s 1716 428 m 13 X s 1723 359 m -43 Y s 1716 316 m 13 X s 1752 559 m 63 Y s 1746 622 m 13 X s 1752 533 m -62 Y
 s 1746 471 m 13 X s 1782 516 m 58 Y s 1775 574 m 13 X s 1782 490 m -59 Y s 1775 431 m 13 X s 1811 341 m 38 Y s 1805 379 m 13 X s 1811 315 m -37 Y s 1805 278 m 13 X s 1841 399 m 45 Y s 1834 444 m 13 X s 1841 373 m -45 Y s 1834 328 m 13 X s 1870 399 m
 45 Y s 1864 444 m 13 X s 1870 373 m -45 Y s 1864 328 m 13 X s 1900 559 m 63 Y s 1893 622 m 13 X s 1900 533 m -62 Y s 1893 471 m 13 X s 1929 545 m 61 Y s 1923 606 m 13 X s 1929 519 m -61 Y s 1923 458 m 13 X s 1958 414 m 47 Y s 1952 461 m 13 X s 1958
 388 m -47 Y s 1952 341 m 13 X s 309 459 m 30 29 d 29 145 d 30 -29 d 29 -276 d 29 -116 d 30 58 d 29 X 30 58 d 29 116 d 30 233 d 29 -276 d 30 14 d 29 73 d 30 15 d 29 29 d 29 -146 d 30 88 d 29 -88 d 30 131 d 29 -232 d 30 87 d 29 72 d 30 277 d 29 43 d
 30 -247 d 29 -145 d 29 58 d 59 160 d 30 -160 d 29 291 d 30 -277 d 29 -159 d 30 -15 d 29 218 d 29 -102 d 30 -116 d 29 102 d 30 14 d 29 -14 d 30 -29 d 29 -29 d 30 -15 d 29 145 d 30 73 d 29 102 d 29 -320 d 30 73 d 29 174 d 30 -43 d 29 -175 d 30 58 d 29
 X 30 160 d 29 -14 d 29 -131 d s /w 26 def /w2 {w 2 div} def /w3 {w 3 div} def 309 459 339 488 368 633 398 604 427 328 456 212 486 270 515 270 545 328 574 444 604 677 633 401 663 415 692 488 722 503 751 532 780 386 810 474 839 386 869 517 898 285 928
 372 957 444 987 721 1016 764 1046 517 1075 372 1104 430 1163 590 1193 430 1222 721 1252 444 1281 285 1311 270 1340 488 1369 386 1399 270 1428 372 1458 386 1487 372 1517 343 1546 314 1576 299 1605 444 1635 517 1664 619 1693 299 1723 372 1752 546 1782
 503 1811 328 1841 386 1870 386 1900 546 1929 532 1958 401 56 { m20} R 1 0 0 c 309 385 m 43 Y s 303 428 m 13 X s 309 359 m -43 Y s 303 316 m 13 X s 339 574 m 64 Y s 332 638 m 13 X s 339 548 m -64 Y s 332 484 m 13 X s 368 646 m 71 Y s 362 717 m 13 X s
 368 620 m -70 Y s 362 550 m 13 X s 398 632 m 69 Y s 391 701 m 13 X s 398 606 m -69 Y s 391 537 m 13 X s 427 458 m 52 Y s 421 510 m 13 X s 427 431 m -52 Y s 421 379 m 13 X s 456 327 m 35 Y s 450 362 m 13 X s 456 301 m -36 Y s 450 265 m 13 X s 486 341
 m 38 Y s 479 379 m 13 X s 486 315 m -37 Y s 479 278 m 13 X s 515 385 m 43 Y s 509 428 m 13 X s 515 359 m -43 Y s 509 316 m 13 X s 545 661 m 72 Y s 538 733 m 13 X s 545 635 m -72 Y s 538 563 m 13 X s 574 690 m 74 Y s 568 764 m 13 X s 574 664 m -74 Y
 s 568 590 m 13 X s 604 312 m 33 Y s 597 345 m 13 X s 604 286 m -33 Y s 597 253 m 13 X s 633 530 m 60 Y s 627 590 m 13 X s 633 504 m -60 Y s 627 444 m 13 X s 663 516 m 58 Y s 656 574 m 13 X s 663 490 m -59 Y s 656 431 m 13 X s 692 603 m 66 Y s 686
 669 m 13 X s 692 577 m -67 Y s 686 510 m 13 X s 722 458 m 52 Y s 715 510 m 13 X s 722 431 m -52 Y s 715 379 m 13 X s 751 487 m 55 Y s 744 542 m 14 X s 751 461 m -56 Y s 744 405 m 14 X s 780 385 m 43 Y s 774 428 m 13 X s 780 359 m -43 Y s 774 316 m
 13 X s 810 312 m 33 Y s 803 345 m 13 X s 810 286 m -33 Y s 803 253 m 13 X s 839 298 m 30 Y s 833 328 m 13 X s 839 272 m -31 Y s 833 241 m 13 X s 869 516 m 58 Y s 862 574 m 13 X s 869 490 m -59 Y s 862 431 m 13 X s 898 603 m 66 Y s 892 669 m 13 X s
 898 577 m -67 Y s 892 510 m 13 X s 928 341 m 38 Y s 921 379 m 13 X s 928 315 m -37 Y s 921 278 m 13 X s 957 370 m 42 Y s 951 412 m 13 X s 957 344 m -41 Y s 951 303 m 13 X s 987 908 m 91 Y s 980 999 m 13 X s 987 882 m -91 Y s 980 791 m 13 X s 1016
 545 m 61 Y s 1010 606 m 13 X s 1016 519 m -61 Y s 1010 458 m 13 X s 1046 428 m 49 Y s 1039 477 m 13 X s 1046 402 m -48 Y s 1039 354 m 13 X s 1075 283 m 28 Y s 1068 311 m 13 X s 1075 257 m -28 Y s 1068 229 m 13 X s 1104 487 m 55 Y s 1098 542 m 13 X s
 1104 461 m -56 Y s 1098 405 m 13 X s 1163 428 m 49 Y s 1157 477 m 13 X s 1163 402 m -48 Y s 1157 354 m 13 X s 1193 341 m 38 Y s 1186 379 m 13 X s 1193 315 m -37 Y s 1186 278 m 13 X s 1222 356 m 39 Y s 1216 395 m 13 X s 1222 330 m -40 Y s 1216 290 m
 13 X s 1252 559 m 63 Y s 1245 622 m 13 X s 1252 533 m -62 Y s 1245 471 m 13 X s 1281 443 m 50 Y s 1275 493 m 13 X s 1281 417 m -50 Y s 1275 367 m 13 X s 1311 603 m 66 Y s 1304 669 m 13 X s 1311 577 m -67 Y s 1304 510 m 13 X s 1340 269 m 25 Y s 1333
 294 m 14 X s 1340 243 m -26 Y s 1333 217 m 14 X s 1369 283 m 28 Y s 1363 311 m 13 X s 1369 257 m -28 Y s 1363 229 m 13 X s 1399 356 m 39 Y s 1392 395 m 13 X s 1399 330 m -40 Y s 1392 290 m 13 X s 1428 458 m 52 Y s 1422 510 m 13 X s 1428 431 m -52 Y
 s 1422 379 m 13 X s 1458 617 m 68 Y s 1451 685 m 13 X s 1458 591 m -68 Y s 1451 523 m 13 X s 1487 356 m 39 Y s 1481 395 m 13 X s 1487 330 m -40 Y s 1481 290 m 13 X s 1517 356 m 39 Y s 1510 395 m 13 X s 1517 330 m -40 Y s 1510 290 m 13 X s 1546 370 m
 42 Y s 1540 412 m 13 X s 1546 344 m -41 Y s 1540 303 m 13 X s 1576 414 m 47 Y s 1569 461 m 13 X s 1576 388 m -47 Y s 1569 341 m 13 X s 1605 385 m 43 Y s 1599 428 m 13 X s 1605 359 m -43 Y s 1599 316 m 13 X s 1635 399 m 45 Y s 1628 444 m 13 X s 1635
 373 m -45 Y s 1628 328 m 13 X s 1664 443 m 50 Y s 1657 493 m 13 X s 1664 417 m -50 Y s 1657 367 m 13 X s 1693 298 m 30 Y s 1687 328 m 13 X s 1693 272 m -31 Y s 1687 241 m 13 X s 1723 399 m 45 Y s 1716 444 m 13 X s 1723 373 m -45 Y s 1716 328 m 13 X
 s 1752 341 m 38 Y s 1746 379 m 13 X s 1752 315 m -37 Y s 1746 278 m 13 X s 1782 399 m 45 Y s 1775 444 m 13 X s 1782 373 m -45 Y s 1775 328 m 13 X s 1811 487 m 55 Y s 1805 542 m 13 X s 1811 461 m -56 Y s 1805 405 m 13 X s 1841 472 m 54 Y s 1834 526 m
 13 X s 1841 446 m -54 Y s 1834 392 m 13 X s 1870 385 m 43 Y s 1864 428 m 13 X s 1870 359 m -43 Y s 1864 316 m 13 X s 1900 385 m 43 Y s 1893 428 m 13 X s 1900 359 m -43 Y s 1893 316 m 13 X s 1929 385 m 43 Y s 1923 428 m 13 X s 1929 359 m -43 Y s 1923
 316 m 13 X s 1958 414 m 47 Y s 1952 461 m 13 X s 1958 388 m -47 Y s 1952 341 m 13 X s black 1 0 0 c 309 372 m 30 189 d 29 72 d 30 -14 d 29 -175 d 29 -130 d 30 14 d 29 44 d 30 276 d 29 29 d 30 -378 d 29 218 d 30 -14 d 29 87 d 30 -146 d 29 30 d 29
 -102 d 30 -73 d 29 -14 d 30 218 d 29 87 d 30 -262 d 29 29 d 30 538 d 29 -363 d 30 -117 d 29 -145 d 29 204 d 59 -59 d 30 -87 d 29 15 d 30 203 d 29 -116 d 30 160 d 29 -334 d 29 14 d 30 73 d 29 101 d 30 160 d 29 -261 d 30 X 29 14 d 30 44 d 29 -29 d 30
 14 d 29 44 d 29 -145 d 30 101 d 29 -58 d 30 58 d 29 88 d 30 -15 d 29 -87 d 59 X 29 29 d s 309 372 339 561 368 633 398 619 427 444 456 314 486 328 515 372 545 648 574 677 604 299 633 517 663 503 692 590 722 444 751 474 780 372 810 299 839 285 869 503
 898 590 928 328 957 357 987 895 1016 532 1046 415 1075 270 1104 474 1163 415 1193 328 1222 343 1252 546 1281 430 1311 590 1340 256 1369 270 1399 343 1428 444 1458 604 1487 343 1517 343 1546 357 1576 401 1605 372 1635 386 1664 430 1693 285 1723 386
 1752 328 1782 386 1811 474 1841 459 1870 372 1900 372 1929 372 1958 401 56 { m20} R 0 1 0 c 722 923 m 91 Y s 715 1014 m 13 X s 722 897 m -92 Y s 715 805 m 13 X s 751 821 m 84 Y s 744 905 m 14 X s 751 795 m -85 Y s 744 710 m 14 X s 780 501 m 57 Y s
 774 558 m 13 X s 780 475 m -57 Y s 774 418 m 13 X s 810 894 m 89 Y s 803 983 m 13 X s 810 868 m -90 Y s 803 778 m 13 X s 839 676 m 73 Y s 833 749 m 13 X s 839 650 m -73 Y s 833 577 m 13 X s 869 748 m 79 Y s 862 827 m 13 X s 869 722 m -79 Y s 862 643
 m 13 X s 898 719 m 77 Y s 892 796 m 13 X s 898 693 m -76 Y s 892 617 m 13 X s 928 821 m 84 Y s 921 905 m 13 X s 928 795 m -85 Y s 921 710 m 13 X s 957 719 m 77 Y s 951 796 m 13 X s 957 693 m -76 Y s 951 617 m 13 X s 987 865 m 87 Y s 980 952 m 13 X s
 987 838 m -87 Y s 980 751 m 13 X s 1016 632 m 69 Y s 1010 701 m 13 X s 1016 606 m -69 Y s 1010 537 m 13 X s 1046 835 m 86 Y s 1039 921 m 13 X s 1046 809 m -85 Y s 1039 724 m 13 X s 1075 632 m 69 Y s 1068 701 m 13 X s 1075 606 m -69 Y s 1068 537 m 13
 X s 1104 516 m 58 Y s 1098 574 m 13 X s 1104 490 m -59 Y s 1098 431 m 13 X s 1163 545 m 61 Y s 1157 606 m 13 X s 1163 519 m -61 Y s 1157 458 m 13 X s 1193 399 m 45 Y s 1186 444 m 13 X s 1193 373 m -45 Y s 1186 328 m 13 X s 1222 399 m 45 Y s 1216 444
 m 13 X s 1222 373 m -45 Y s 1216 328 m 13 X s 1252 937 m 93 Y s 1245 1030 m 13 X s 1252 911 m -93 Y s 1245 818 m 13 X s 1281 545 m 61 Y s 1275 606 m 13 X s 1281 519 m -61 Y s 1275 458 m 13 X s 1311 777 m 81 Y s 1304 858 m 13 X s 1311 751 m -81 Y s
 1304 670 m 13 X s 1340 661 m 72 Y s 1333 733 m 14 X s 1340 635 m -72 Y s 1333 563 m 14 X s 1369 661 m 72 Y s 1363 733 m 13 X s 1369 635 m -72 Y s 1363 563 m 13 X s 1399 734 m 77 Y s 1392 811 m 13 X s 1399 708 m -78 Y s 1392 630 m 13 X s 1428 690 m
 74 Y s 1422 764 m 13 X s 1428 664 m -74 Y s 1422 590 m 13 X s 1458 850 m 87 Y s 1451 937 m 13 X s 1458 824 m -87 Y s 1451 737 m 13 X s 1487 516 m 58 Y s 1481 574 m 13 X s 1487 490 m -59 Y s 1481 431 m 13 X s 1517 646 m 71 Y s 1510 717 m 13 X s 1517
 620 m -70 Y s 1510 550 m 13 X s 1546 603 m 66 Y s 1540 669 m 13 X s 1546 577 m -67 Y s 1540 510 m 13 X s black 0 1 0 c 722 910 m 29 -102 d 29 -320 d 30 393 d 29 -218 d 30 72 d 29 -29 d 30 102 d 29 -102 d 30 145 d 29 -232 d 30 203 d 29 -203 d 29 -116
 d 59 29 d 30 -146 d 29 X 30 538 d 29 -392 d 30 232 d 29 -116 d 29 X 30 73 d 29 -44 d 30 160 d 29 -334 d 30 130 d 29 -43 d s 722 910 751 808 780 488 810 881 839 663 869 735 898 706 928 808 957 706 987 851 1016 619 1046 822 1075 619 1104 503 1163 532
 1193 386 1222 386 1252 924 1281 532 1311 764 1340 648 1369 648 1399 721 1428 677 1458 837 1487 503 1517 633 1546 590 28 { m20} R 0 0 1 c 722 530 m 60 Y s 715 590 m 13 X s 722 504 m -60 Y s 715 444 m 13 X s 751 777 m 81 Y s 744 858 m 14 X s 751 751 m
 -81 Y s 744 670 m 14 X s 780 414 m 47 Y s 774 461 m 13 X s 780 388 m -47 Y s 774 341 m 13 X s 810 777 m 81 Y s 803 858 m 13 X s 810 751 m -81 Y s 803 670 m 13 X s 839 545 m 61 Y s 833 606 m 13 X s 839 519 m -61 Y s 833 458 m 13 X s 869 516 m 58 Y s
 862 574 m 13 X s 869 490 m -59 Y s 862 431 m 13 X s 898 443 m 50 Y s 892 493 m 13 X s 898 417 m -50 Y s 892 367 m 13 X s 928 821 m 84 Y s 921 905 m 13 X s 928 795 m -85 Y s 921 710 m 13 X s 957 341 m 38 Y s 951 379 m 13 X s 957 315 m -37 Y s 951 278
 m 13 X s 987 501 m 57 Y s 980 558 m 13 X s 987 475 m -57 Y s 980 418 m 13 X s 1016 705 m 75 Y s 1010 780 m 13 X s 1016 679 m -76 Y s 1010 603 m 13 X s 1046 617 m 68 Y s 1039 685 m 13 X s 1046 591 m -68 Y s 1039 523 m 13 X s 1075 414 m 47 Y s 1068
 461 m 13 X s 1075 388 m -47 Y s 1068 341 m 13 X s 1104 734 m 77 Y s 1098 811 m 13 X s 1104 708 m -78 Y s 1098 630 m 13 X s 1163 283 m 28 Y s 1157 311 m 13 X s 1163 257 m -28 Y s 1157 229 m 13 X s 1193 298 m 30 Y s 1186 328 m 13 X s 1193 272 m -31 Y
 s 1186 241 m 13 X s 1222 385 m 43 Y s 1216 428 m 13 X s 1222 359 m -43 Y s 1216 316 m 13 X s 1252 399 m 45 Y s 1245 444 m 13 X s 1252 373 m -45 Y s 1245 328 m 13 X s 1281 676 m 73 Y s 1275 749 m 13 X s 1281 650 m -73 Y s 1275 577 m 13 X s 1311 748 m
 79 Y s 1304 827 m 13 X s 1311 722 m -79 Y s 1304 643 m 13 X s 1340 298 m 30 Y s 1333 328 m 14 X s 1340 272 m -31 Y s 1333 241 m 14 X s 1369 516 m 58 Y s 1363 574 m 13 X s 1369 490 m -59 Y s 1363 431 m 13 X s 1399 487 m 55 Y s 1392 542 m 13 X s 1399
 461 m -56 Y s 1392 405 m 13 X s 1428 603 m 66 Y s 1422 669 m 13 X s 1428 577 m -67 Y s 1422 510 m 13 X s 1458 676 m 73 Y s 1451 749 m 13 X s 1458 650 m -73 Y s 1451 577 m 13 X s 1487 588 m 66 Y s 1481 654 m 13 X s 1487 562 m -65 Y s 1481 497 m 13 X
 s 1517 617 m 68 Y s 1510 685 m 13 X s 1517 591 m -68 Y s 1510 523 m 13 X s 1546 516 m 58 Y s 1540 574 m 13 X s 1546 490 m -59 Y s 1540 431 m 13 X s black 0 0 1 c 722 517 m 29 247 d 29 -363 d 30 363 d 29 -232 d 30 -29 d 29 -73 d 30 378 d 29 -480 d 30
 160 d 29 204 d 30 -88 d 29 -203 d 29 320 d 59 -451 d 30 15 d 29 87 d 30 14 d 29 277 d 30 72 d 29 -450 d 29 218 d 30 -29 d 29 116 d 30 73 d 29 -88 d 30 29 d 29 -101 d s 722 517 751 764 780 401 810 764 839 532 869 503 898 430 928 808 957 328 987 488
 1016 692 1046 604 1075 401 1104 721 1163 270 1193 285 1222 372 1252 386 1281 663 1311 735 1340 285 1369 503 1399 474 1428 590 1458 663 1487 575 1517 604 1546 503 28 { m20} R black
 gsave  2268 1538 0 0 C 1645.4 1283.74 t 0 r /Helvetica-Bold findfont 58.6478 sf 0 0 m (SCT Barrel) show NC gr 
 gsave  2268 1538 0 0 C 1762.69 1205.54 t 0 r /Helvetica-Bold findfont 58.6478 sf 0 0 m (Layer 0) show NC gr  1652 1223 m 92 X s 1698 1223 m20
 gsave  2268 1538 0 0 C 1762.69 1130.6 t 0 r /Helvetica-Bold findfont 58.6478 sf 0 0 m (Layer 1) show NC gr  1 0 0 c 1652 1146 m 92 X s 1698 1146 m20 black
 gsave  2268 1538 0 0 C 1762.69 1052.4 t 0 r /Helvetica-Bold findfont 58.6478 sf 0 0 m (Layer 2) show NC gr  0 1 0 c 1652 1069 m 92 X s 1698 1069 m20 black
 gsave  2268 1538 0 0 C 1762.69 977.464 t 0 r /Helvetica-Bold findfont 58.6478 sf 0 0 m (Layer 3) show NC gr  0 0 1 c 1652 992 m 92 X s 1698 992 m20
 gr  gr showpage
end
%%EOF
