%!PS-Adobe-2.0 EPSF-2.0
%%BoundingBox:  0 0 567 384
%%Title: pionDir/sct_occupancy/clus_sctdisk_mg.eps: c1_n33
%%Creator: ROOT Version 6.04/12
%%CreationDate: Tue Apr 19 16:53:27 2016
%%DocumentNeededResources: ProcSet (FontSetInit)
%%EndComments
%%BeginProlog
80 dict begin
/s {stroke} def /l {lineto} def /m {moveto} def /t {translate} def
/r {rotate} def /rl {roll}  def /R {repeat} def
/d {rlineto} def /rm {rmoveto} def /gr {grestore} def /f {eofill} def
/c {setrgbcolor} def /black {0 setgray} def /sd {setdash} def
/cl {closepath} def /sf {scalefont setfont} def /lw {setlinewidth} def
/box {m dup 0 exch d exch 0 d 0 exch neg d cl} def
/NC{systemdict begin initclip end}def/C{NC box clip newpath}def
/bl {box s} def /bf {gsave box gsave f grestore 1 lw [] 0 sd s grestore} def /Y { 0 exch d} def /X { 0 d} def 
/K {{pop pop 0 moveto} exch kshow} bind def
/ita {/ang 15 def gsave [1 0 ang dup sin exch cos div 1 0 0] concat} def 
/mp {newpath /y exch def /x exch def} def
/side {[w .77 mul w .23 mul] .385 w mul sd w 0 l currentpoint t -144 r} def
/mr {mp x y w2 0 360 arc} def /m24 {mr s} def /m20 {mr f} def
/mb {mp x y w2 add m w2 neg 0 d 0 w neg d w 0 d 0 w d cl} def
/mt {mp x y w2 add m w2 neg w neg d w 0 d cl} def
/m21 {mb f} def /m25 {mb s} def /m22 {mt f} def /m26{mt s} def
/m23 {mp x y w2 sub m w2 w d w neg 0 d cl f} def
/m27 {mp x y w2 add m w3 neg w2 neg d w3 w2 neg d w3 w2 d cl s} def
/m28 {mp x w2 sub y w2 sub w3 add m w3 0 d  0 w3 neg d w3 0 d 0 w3 d w3 0 d  0 w3 d w3 neg 0 d 0 w3 d w3 neg 0 d 0 w3 neg d w3 neg 0 d cl s } def
/m29 {mp gsave x w2 sub y w2 add w3 sub m currentpoint t 4 {side} repeat cl fill gr} def
/m30 {mp gsave x w2 sub y w2 add w3 sub m currentpoint t 4 {side} repeat cl s gr} def
/m31 {mp x y w2 sub m 0 w d x w2 sub y m w 0 d x w2 sub y w2 add m w w neg d x w2 sub y w2 sub m w w d s} def
/m32 {mp x y w2 sub m w2 w d w neg 0 d cl s} def
/m33 {mp x y w2 add m w3 neg w2 neg d w3 w2 neg d w3 w2 d cl f} def
/m34 {mp x w2 sub y w2 sub w3 add m w3 0 d  0 w3 neg d w3 0 d 0 w3 d w3 0 d  0 w3 d w3 neg 0 d 0 w3 d w3 neg 0 d 0 w3 neg d w3 neg 0 d cl f } def
/m2 {mp x y w2 sub m 0 w d x w2 sub y m w 0 d s} def
/m5 {mp x w2 sub y w2 sub m w w d x w2 sub y w2 add m w w neg d s} def
%%IncludeResource: ProcSet (FontSetInit)
%%IncludeResource: font Times-Roman
%%IncludeResource: font Times-Italic
%%IncludeResource: font Times-Bold
%%IncludeResource: font Times-BoldItalic
%%IncludeResource: font Helvetica
%%IncludeResource: font Helvetica-Oblique
%%IncludeResource: font Helvetica-Bold
%%IncludeResource: font Helvetica-BoldOblique
%%IncludeResource: font Courier
%%IncludeResource: font Courier-Oblique
%%IncludeResource: font Courier-Bold
%%IncludeResource: font Courier-BoldOblique
%%IncludeResource: font Symbol
%%IncludeResource: font ZapfDingbats
/reEncode {exch findfont dup length dict begin {1 index /FID eq  {pop pop} {def} ifelse } forall /Encoding exch def currentdict end dup /FontName get exch definefont pop } def [/Times-Bold /Times-Italic /Times-BoldItalic /Helvetica /Helvetica-Oblique
 /Helvetica-Bold /Helvetica-BoldOblique /Courier /Courier-Oblique /Courier-Bold /Courier-BoldOblique /Times-Roman /AvantGarde-Book /AvantGarde-BookOblique /AvantGarde-Demi /AvantGarde-DemiOblique /Bookman-Demi /Bookman-DemiItalic /Bookman-Light
 /Bookman-LightItalic /Helvetica-Narrow /Helvetica-Narrow-Bold /Helvetica-Narrow-BoldOblique /Helvetica-Narrow-Oblique /NewCenturySchlbk-Roman /NewCenturySchlbk-Bold /NewCenturySchlbk-BoldItalic /NewCenturySchlbk-Italic /Palatino-Bold
 /Palatino-BoldItalic /Palatino-Italic /Palatino-Roman ] {ISOLatin1Encoding reEncode } forall
%%EndProlog
%%BeginSetup
%%EndSetup
newpath  gsave  .25 .25 scale  gsave  0 0 t black[  ] 0 sd 3 lw 1 1 1 c 2268 1538 0 0 bf black 1 1 1 c 1814 1230 227 154 bf black 1814 1230 227 154 bl 1 1 1 c 1814 1230 227 154 bf black 1814 1230 227 154 bl 227 154 m 1814 X s
 gsave  2268 1538 0 0 C 1772.47 32.5821 t 0 r /Helvetica-Bold findfont 58.6478 sf 0 0 m (moduleID) show NC gr  309 191 m -37 Y s 358 172 m -18 Y s 406 172 m -18 Y s 455 172 m -18 Y s 503 191 m -37 Y s 552 172 m -18 Y s 600 172 m -18 Y s 649 172 m -18
 Y s 697 191 m -37 Y s 746 172 m -18 Y s 794 172 m -18 Y s 843 172 m -18 Y s 891 191 m -37 Y s 940 172 m -18 Y s 988 172 m -18 Y s 1037 172 m -18 Y s 1085 191 m -37 Y s 1134 172 m -18 Y s 1182 172 m -18 Y s 1231 172 m -18 Y s 1279 191 m -37 Y s 1328
 172 m -18 Y s 1376 172 m -18 Y s 1425 172 m -18 Y s 1473 191 m -37 Y s 1522 172 m -18 Y s 1570 172 m -18 Y s 1619 172 m -18 Y s 1667 191 m -37 Y s 1716 172 m -18 Y s 1764 172 m -18 Y s 1813 172 m -18 Y s 1861 191 m -37 Y s 309 191 m -37 Y s 261 172
 m -18 Y s 1861 191 m -37 Y s 1910 172 m -18 Y s 1958 172 m -18 Y s 2007 172 m -18 Y s
 gsave  2268 1538 0 0 C 289.981 97.7464 t 0 r /Helvetica-Bold findfont 58.6478 sf 0 0 m (0) show NC gr 
 gsave  2268 1538 0 0 C 485.474 97.7464 t 0 r /Helvetica-Bold findfont 58.6478 sf 0 0 m (2) show NC gr 
 gsave  2268 1538 0 0 C 680.967 97.7464 t 0 r /Helvetica-Bold findfont 58.6478 sf 0 0 m (4) show NC gr 
 gsave  2268 1538 0 0 C 873.201 97.7464 t 0 r /Helvetica-Bold findfont 58.6478 sf 0 0 m (6) show NC gr 
 gsave  2268 1538 0 0 C 1068.69 97.7464 t 0 r /Helvetica-Bold findfont 58.6478 sf 0 0 m (8) show NC gr 
 gsave  2268 1538 0 0 C 1244.64 97.7464 t 0 r /Helvetica-Bold findfont 58.6478 sf 0 0 m (10) show NC gr 
 gsave  2268 1538 0 0 C 1440.13 97.7464 t 0 r /Helvetica-Bold findfont 58.6478 sf 0 0 m (12) show NC gr 
 gsave  2268 1538 0 0 C 1632.36 97.7464 t 0 r /Helvetica-Bold findfont 58.6478 sf 0 0 m (14) show NC gr 
 gsave  2268 1538 0 0 C 1827.86 97.7464 t 0 r /Helvetica-Bold findfont 58.6478 sf 0 0 m (16) show NC gr  227 1384 m 1814 X s 309 1347 m 37 Y s 358 1366 m 18 Y s 406 1366 m 18 Y s 455 1366 m 18 Y s 503 1347 m 37 Y s 552 1366 m 18 Y s 600 1366 m 18 Y s
 649 1366 m 18 Y s 697 1347 m 37 Y s 746 1366 m 18 Y s 794 1366 m 18 Y s 843 1366 m 18 Y s 891 1347 m 37 Y s 940 1366 m 18 Y s 988 1366 m 18 Y s 1037 1366 m 18 Y s 1085 1347 m 37 Y s 1134 1366 m 18 Y s 1182 1366 m 18 Y s 1231 1366 m 18 Y s 1279 1347
 m 37 Y s 1328 1366 m 18 Y s 1376 1366 m 18 Y s 1425 1366 m 18 Y s 1473 1347 m 37 Y s 1522 1366 m 18 Y s 1570 1366 m 18 Y s 1619 1366 m 18 Y s 1667 1347 m 37 Y s 1716 1366 m 18 Y s 1764 1366 m 18 Y s 1813 1366 m 18 Y s 1861 1347 m 37 Y s 309 1347 m
 37 Y s 261 1366 m 18 Y s 1861 1347 m 37 Y s 1910 1366 m 18 Y s 1958 1366 m 18 Y s 2007 1366 m 18 Y s 227 154 m 1230 Y s
 gsave  2268 1538 0 0 C 97.7464 710.291 t 90 r /Helvetica-Bold findfont 58.6478 sf 0 0 m (Cluster per etaModuleID) show NC gr  281 368 m -54 X s 254 412 m -27 X s 254 455 m -27 X s 254 499 m -27 X s 254 543 m -27 X s 281 586 m -54 X s 254 630 m -27 X
 s 254 673 m -27 X s 254 717 m -27 X s 254 761 m -27 X s 281 804 m -54 X s 254 848 m -27 X s 254 891 m -27 X s 254 935 m -27 X s 254 979 m -27 X s 281 1022 m -54 X s 254 1066 m -27 X s 254 1109 m -27 X s 254 1153 m -27 X s 254 1196 m -27 X s 281 1240
 m -54 X s 281 368 m -54 X s 254 325 m -27 X s 254 281 m -27 X s 254 237 m -27 X s 254 194 m -27 X s 281 1240 m -54 X s 254 1284 m -27 X s 254 1327 m -27 X s 254 1371 m -27 X s
 gsave  2268 1538 0 0 C 192.235 348.629 t 0 r /Helvetica-Bold findfont 58.6478 sf 0 0 m (1) show NC gr 
 gsave  2268 1538 0 0 C 182.46 560.413 t 0 r /Helvetica-Bold findfont 58.6478 sf 0 0 m (2) show NC gr 
 gsave  2268 1538 0 0 C 182.46 781.971 t 0 r /Helvetica-Bold findfont 58.6478 sf 0 0 m (3) show NC gr 
 gsave  2268 1538 0 0 C 182.46 1000.27 t 0 r /Helvetica-Bold findfont 58.6478 sf 0 0 m (4) show NC gr 
 gsave  2268 1538 0 0 C 182.46 1218.57 t 0 r /Helvetica-Bold findfont 58.6478 sf 0 0 m (5) show NC gr  2041 154 m 1230 Y s 1987 368 m 54 X s 2014 412 m 27 X s 2014 455 m 27 X s 2014 499 m 27 X s 2014 543 m 27 X s 1987 586 m 54 X s 2014 630 m 27 X s
 2014 673 m 27 X s 2014 717 m 27 X s 2014 761 m 27 X s 1987 804 m 54 X s 2014 848 m 27 X s 2014 891 m 27 X s 2014 935 m 27 X s 2014 979 m 27 X s 1987 1022 m 54 X s 2014 1066 m 27 X s 2014 1109 m 27 X s 2014 1153 m 27 X s 2014 1196 m 27 X s 1987 1240
 m 54 X s 1987 368 m 54 X s 2014 325 m 27 X s 2014 281 m 27 X s 2014 237 m 27 X s 2014 194 m 27 X s 1987 1240 m 54 X s 2014 1284 m 27 X s 2014 1327 m 27 X s 2014 1371 m 27 X s 309 556 m 45 Y s 303 601 m 13 X s 309 530 m -46 Y s 303 484 m 13 X s 406
 556 m 45 Y s 400 601 m 13 X s 406 530 m -46 Y s 400 484 m 13 X s 503 547 m 45 Y s 497 592 m 13 X s 503 521 m -45 Y s 497 476 m 13 X s 600 512 m 42 Y s 594 554 m 13 X s 600 486 m -42 Y s 594 444 m 13 X s 697 468 m 39 Y s 691 507 m 13 X s 697 442 m
 -38 Y s 691 404 m 13 X s 794 608 m 49 Y s 788 657 m 13 X s 794 582 m -49 Y s 788 533 m 13 X s 891 460 m 38 Y s 885 498 m 13 X s 891 434 m -38 Y s 885 396 m 13 X s 988 338 m 26 Y s 982 364 m 13 X s 988 312 m -26 Y s 982 286 m 13 X s 1085 538 m 44 Y s
 1079 582 m 13 X s 1085 512 m -44 Y s 1079 468 m 13 X s 1182 477 m 39 Y s 1176 516 m 13 X s 1182 451 m -39 Y s 1176 412 m 13 X s 1279 495 m 40 Y s 1273 535 m 13 X s 1279 469 m -41 Y s 1273 428 m 13 X s 1376 399 m 32 Y s 1370 431 m 13 X s 1376 373 m
 -33 Y s 1370 340 m 13 X s 1473 303 m 22 Y s 1467 325 m 13 X s 1473 277 m -22 Y s 1467 255 m 13 X s 1570 312 m 22 Y s 1564 334 m 13 X s 1570 285 m -22 Y s 1564 263 m 13 X s 1667 652 m 52 Y s 1661 704 m 13 X s 1667 625 m -52 Y s 1661 573 m 13 X s 1764
 599 m 49 Y s 1758 648 m 13 X s 1764 573 m -48 Y s 1758 525 m 13 X s 1861 233 m 12 Y s 1855 245 m 13 X s 1861 207 m -12 Y s 1855 195 m 13 X s 1958 320 m 24 Y s 1952 344 m 13 X s 1958 294 m -24 Y s 1952 270 m 13 X s 309 543 m 97 X 97 -9 d 97 -35 d 97
 -44 d 97 140 d 97 -148 d 97 -122 d 97 200 d 97 -61 d 97 18 d 97 -96 d 97 -96 d 97 8 d 97 340 d 97 -52 d 97 -366 d 97 87 d s /w 26 def /w2 {w 2 div} def /w3 {w 3 div} def 309 543 406 543 503 534 600 499 697 455 794 595 891 447 988 325 1085 525 1182
 464 1279 482 1376 386 1473 290 1570 298 1667 638 1764 586 1861 220 1958 307 18 { m20} R 1 0 0 c 309 451 m 37 Y s 303 488 m 13 X s 309 425 m -37 Y s 303 388 m 13 X s 406 660 m 53 Y s 400 713 m 13 X s 406 634 m -53 Y s 400 581 m 13 X s 503 835 m 63 Y
 s 497 898 m 13 X s 503 809 m -64 Y s 497 745 m 13 X s 600 686 m 55 Y s 594 741 m 13 X s 600 660 m -54 Y s 594 606 m 13 X s 697 556 m 45 Y s 691 601 m 13 X s 697 530 m -46 Y s 691 484 m 13 X s 794 434 m 35 Y s 788 469 m 13 X s 794 408 m -36 Y s 788
 372 m 13 X s 891 538 m 44 Y s 885 582 m 13 X s 891 512 m -44 Y s 885 468 m 13 X s 988 442 m 37 Y s 982 479 m 13 X s 988 416 m -36 Y s 982 380 m 13 X s 1085 686 m 55 Y s 1079 741 m 13 X s 1085 660 m -54 Y s 1079 606 m 13 X s 1182 468 m 39 Y s 1176
 507 m 13 X s 1182 442 m -38 Y s 1176 404 m 13 X s 1279 442 m 37 Y s 1273 479 m 13 X s 1279 416 m -36 Y s 1273 380 m 13 X s 1376 373 m 29 Y s 1370 402 m 13 X s 1376 346 m -29 Y s 1370 317 m 13 X s 1473 390 m 31 Y s 1467 421 m 13 X s 1473 364 m -32 Y
 s 1467 332 m 13 X s 1570 538 m 44 Y s 1564 582 m 13 X s 1570 512 m -44 Y s 1564 468 m 13 X s 1667 660 m 53 Y s 1661 713 m 13 X s 1667 634 m -53 Y s 1661 581 m 13 X s 1764 573 m 47 Y s 1758 620 m 13 X s 1764 547 m -47 Y s 1758 500 m 13 X s 1861 346 m
 27 Y s 1855 373 m 13 X s 1861 320 m -27 Y s 1855 293 m 13 X s 1958 538 m 44 Y s 1952 582 m 13 X s 1958 512 m -44 Y s 1952 468 m 13 X s black 1 0 0 c 309 438 m 97 209 d 97 175 d 97 -149 d 97 -130 d 97 -122 d 97 104 d 97 -96 d 97 244 d 97 -218 d 97
 -26 d 97 -69 d 97 17 d 97 148 d 97 122 d 97 -87 d 97 -227 d 97 192 d s 309 438 406 647 503 822 600 673 697 543 794 421 891 525 988 429 1085 673 1182 455 1279 429 1376 360 1473 377 1570 525 1667 647 1764 560 1861 333 1958 525 18 { m20} R 0 1 0 c 309
 495 m 40 Y s 303 535 m 13 X s 309 469 m -41 Y s 303 428 m 13 X s 406 721 m 57 Y s 400 778 m 13 X s 406 695 m -57 Y s 400 638 m 13 X s 503 791 m 61 Y s 497 852 m 13 X s 503 765 m -61 Y s 497 704 m 13 X s 600 835 m 63 Y s 594 898 m 13 X s 600 809 m
 -64 Y s 594 745 m 13 X s 697 477 m 39 Y s 691 516 m 13 X s 697 451 m -39 Y s 691 412 m 13 X s 794 477 m 39 Y s 788 516 m 13 X s 794 451 m -39 Y s 788 412 m 13 X s 891 573 m 47 Y s 885 620 m 13 X s 891 547 m -47 Y s 885 500 m 13 X s 988 338 m 26 Y s
 982 364 m 13 X s 988 312 m -26 Y s 982 286 m 13 X s 1085 590 m 48 Y s 1079 638 m 13 X s 1085 564 m -48 Y s 1079 516 m 13 X s 1182 529 m 44 Y s 1176 573 m 13 X s 1182 503 m -43 Y s 1176 460 m 13 X s 1279 800 m 61 Y s 1273 861 m 13 X s 1279 774 m -62
 Y s 1273 712 m 13 X s 1376 390 m 31 Y s 1370 421 m 13 X s 1376 364 m -32 Y s 1370 332 m 13 X s 1473 399 m 32 Y s 1467 431 m 13 X s 1473 373 m -33 Y s 1467 340 m 13 X s 1570 451 m 37 Y s 1564 488 m 13 X s 1570 425 m -37 Y s 1564 388 m 13 X s 1667 634
 m 51 Y s 1661 685 m 13 X s 1667 608 m -51 Y s 1661 557 m 13 X s 1764 861 m 65 Y s 1758 926 m 13 X s 1764 835 m -65 Y s 1758 770 m 13 X s 1861 390 m 31 Y s 1855 421 m 13 X s 1861 364 m -32 Y s 1855 332 m 13 X s 1958 538 m 44 Y s 1952 582 m 13 X s
 1958 512 m -44 Y s 1952 468 m 13 X s black 0 1 0 c 309 482 m 97 226 d 97 70 d 97 44 d 97 -358 d 97 X 97 96 d 97 -235 d 97 252 d 97 -61 d 97 271 d 97 -410 d 97 9 d 97 52 d 97 183 d 97 227 d 97 -471 d 97 148 d s 309 482 406 708 503 778 600 822 697 464
 794 464 891 560 988 325 1085 577 1182 516 1279 787 1376 377 1473 386 1570 438 1667 621 1764 848 1861 377 1958 525 18 { m20} R 0 0 1 c 309 390 m 31 Y s 303 421 m 13 X s 309 364 m -32 Y s 303 332 m 13 X s 406 556 m 45 Y s 400 601 m 13 X s 406 530 m
 -46 Y s 400 484 m 13 X s 503 538 m 44 Y s 497 582 m 13 X s 503 512 m -44 Y s 497 468 m 13 X s 600 782 m 61 Y s 594 843 m 13 X s 600 756 m -60 Y s 594 696 m 13 X s 697 468 m 39 Y s 691 507 m 13 X s 697 442 m -38 Y s 691 404 m 13 X s 794 608 m 49 Y s
 788 657 m 13 X s 794 582 m -49 Y s 788 533 m 13 X s 891 634 m 51 Y s 885 685 m 13 X s 891 608 m -51 Y s 885 557 m 13 X s 988 434 m 35 Y s 982 469 m 13 X s 988 408 m -36 Y s 982 372 m 13 X s 1085 590 m 48 Y s 1079 638 m 13 X s 1085 564 m -48 Y s 1079
 516 m 13 X s 1182 678 m 54 Y s 1176 732 m 13 X s 1182 652 m -54 Y s 1176 598 m 13 X s 1279 512 m 42 Y s 1273 554 m 13 X s 1279 486 m -42 Y s 1273 444 m 13 X s 1376 625 m 51 Y s 1370 676 m 13 X s 1376 599 m -50 Y s 1370 549 m 13 X s 1473 468 m 39 Y s
 1467 507 m 13 X s 1473 442 m -38 Y s 1467 404 m 13 X s 1570 521 m 43 Y s 1564 564 m 13 X s 1570 495 m -43 Y s 1564 452 m 13 X s 1667 782 m 61 Y s 1661 843 m 13 X s 1667 756 m -60 Y s 1661 696 m 13 X s 1764 547 m 45 Y s 1758 592 m 13 X s 1764 521 m
 -45 Y s 1758 476 m 13 X s 1861 590 m 48 Y s 1855 638 m 13 X s 1861 564 m -48 Y s 1855 516 m 13 X s 1958 739 m 58 Y s 1952 797 m 13 X s 1958 713 m -58 Y s 1952 655 m 13 X s black 0 0 1 c 309 377 m 97 166 d 97 -18 d 97 244 d 97 -314 d 97 140 d 97 26 d
 97 -200 d 97 156 d 97 88 d 97 -166 d 97 113 d 97 -157 d 97 53 d 97 261 d 97 -235 d 97 43 d 97 149 d s 309 377 406 543 503 525 600 769 697 455 794 595 891 621 988 421 1085 577 1182 665 1279 499 1376 612 1473 455 1570 508 1667 769 1764 534 1861 577
 1958 726 18 { m20} R 1 1 0 c 309 617 m 49 Y s 303 666 m 13 X s 309 591 m -50 Y s 303 541 m 13 X s 406 573 m 47 Y s 400 620 m 13 X s 406 547 m -47 Y s 400 500 m 13 X s 503 791 m 61 Y s 497 852 m 13 X s 503 765 m -61 Y s 497 704 m 13 X s 600 582 m 47
 Y s 594 629 m 13 X s 600 556 m -48 Y s 594 508 m 13 X s 697 390 m 31 Y s 691 421 m 13 X s 697 364 m -32 Y s 691 332 m 13 X s 794 564 m 46 Y s 788 610 m 13 X s 794 538 m -46 Y s 788 492 m 13 X s 891 477 m 39 Y s 885 516 m 13 X s 891 451 m -39 Y s 885
 412 m 13 X s 988 329 m 25 Y s 982 354 m 13 X s 988 303 m -25 Y s 982 278 m 13 X s 1085 686 m 55 Y s 1079 741 m 13 X s 1085 660 m -54 Y s 1079 606 m 13 X s 1182 791 m 61 Y s 1176 852 m 13 X s 1182 765 m -61 Y s 1176 704 m 13 X s 1279 495 m 40 Y s
 1273 535 m 13 X s 1279 469 m -41 Y s 1273 428 m 13 X s 1376 652 m 52 Y s 1370 704 m 13 X s 1376 625 m -52 Y s 1370 573 m 13 X s 1473 529 m 44 Y s 1467 573 m 13 X s 1473 503 m -43 Y s 1467 460 m 13 X s 1570 704 m 55 Y s 1564 759 m 13 X s 1570 678 m
 -56 Y s 1564 622 m 13 X s 1667 852 m 65 Y s 1661 917 m 13 X s 1667 826 m -64 Y s 1661 762 m 13 X s 1764 730 m 57 Y s 1758 787 m 13 X s 1764 704 m -57 Y s 1758 647 m 13 X s 1861 704 m 55 Y s 1855 759 m 13 X s 1861 678 m -56 Y s 1855 622 m 13 X s 1958
 582 m 47 Y s 1952 629 m 13 X s 1958 556 m -48 Y s 1952 508 m 13 X s black 1 1 0 c 309 604 m 97 -44 d 97 218 d 97 -209 d 97 -192 d 97 174 d 97 -87 d 97 -148 d 97 357 d 97 105 d 97 -296 d 97 156 d 97 -122 d 97 175 d 97 148 d 97 -122 d 97 -26 d 97 -122
 d s 309 604 406 560 503 778 600 569 697 377 794 551 891 464 988 316 1085 673 1182 778 1279 482 1376 638 1473 516 1570 691 1667 839 1764 717 1861 691 1958 569 18 { m20} R 1 0 1 c 309 765 m 59 Y s 303 824 m 13 X s 309 739 m -60 Y s 303 679 m 13 X s
 406 922 m 68 Y s 400 990 m 13 X s 406 896 m -69 Y s 400 827 m 13 X s 503 739 m 58 Y s 497 797 m 13 X s 503 713 m -58 Y s 497 655 m 13 X s 600 669 m 53 Y s 594 722 m 13 X s 600 643 m -53 Y s 594 590 m 13 X s 697 521 m 43 Y s 691 564 m 13 X s 697 495
 m -43 Y s 691 452 m 13 X s 794 547 m 45 Y s 788 592 m 13 X s 794 521 m -45 Y s 788 476 m 13 X s 891 373 m 29 Y s 885 402 m 13 X s 891 346 m -29 Y s 885 317 m 13 X s 988 355 m 28 Y s 982 383 m 13 X s 988 329 m -28 Y s 982 301 m 13 X s 1085 634 m 51 Y
 s 1079 685 m 13 X s 1085 608 m -51 Y s 1079 557 m 13 X s 1182 608 m 49 Y s 1176 657 m 13 X s 1182 582 m -49 Y s 1176 533 m 13 X s 1279 512 m 42 Y s 1273 554 m 13 X s 1279 486 m -42 Y s 1273 444 m 13 X s 1376 503 m 42 Y s 1370 545 m 13 X s 1376 477 m
 -41 Y s 1370 436 m 13 X s 1473 529 m 44 Y s 1467 573 m 13 X s 1473 503 m -43 Y s 1467 460 m 13 X s 1570 669 m 53 Y s 1564 722 m 13 X s 1570 643 m -53 Y s 1564 590 m 13 X s 1667 957 m 70 Y s 1661 1027 m 13 X s 1667 931 m -71 Y s 1661 860 m 13 X s
 1764 582 m 47 Y s 1758 629 m 13 X s 1764 556 m -48 Y s 1758 508 m 13 X s 1861 904 m 68 Y s 1855 972 m 13 X s 1861 878 m -67 Y s 1855 811 m 13 X s 1958 869 m 66 Y s 1952 935 m 13 X s 1958 843 m -65 Y s 1952 778 m 13 X s black 1 0 1 c 309 752 m 97 157
 d 97 -183 d 97 -70 d 97 -148 d 97 26 d 97 -174 d 97 -18 d 97 279 d 97 -26 d 97 -96 d 97 -9 d 97 26 d 97 140 d 97 288 d 97 -375 d 97 322 d 97 -35 d s 309 752 406 909 503 726 600 656 697 508 794 534 891 360 988 342 1085 621 1182 595 1279 499 1376 490
 1473 516 1570 656 1667 944 1764 569 1861 891 1958 856 18 { m20} R black[ 12 12] 0 sd 309 660 m 53 Y s 303 713 m 13 X s 309 634 m -53 Y s 303 581 m 13 X s 406 721 m 57 Y s 400 778 m 13 X s 406 695 m -57 Y s 400 638 m 13 X s 503 547 m 45 Y s 497 592 m
 13 X s 503 521 m -45 Y s 497 476 m 13 X s 600 669 m 53 Y s 594 722 m 13 X s 600 643 m -53 Y s 594 590 m 13 X s 697 381 m 31 Y s 691 412 m 13 X s 697 355 m -30 Y s 691 325 m 13 X s 794 390 m 31 Y s 788 421 m 13 X s 794 364 m -32 Y s 788 332 m 13 X s
 891 442 m 37 Y s 885 479 m 13 X s 891 416 m -36 Y s 885 380 m 13 X s 988 268 m 17 Y s 982 285 m 13 X s 988 242 m -17 Y s 982 225 m 13 X s 1085 678 m 54 Y s 1079 732 m 13 X s 1085 652 m -54 Y s 1079 598 m 13 X s 1182 329 m 25 Y s 1176 354 m 13 X s
 1182 303 m -25 Y s 1176 278 m 13 X s 1279 460 m 38 Y s 1273 498 m 13 X s 1279 434 m -38 Y s 1273 396 m 13 X s 1376 381 m 31 Y s 1370 412 m 13 X s 1376 355 m -30 Y s 1370 325 m 13 X s 1473 477 m 39 Y s 1467 516 m 13 X s 1473 451 m -39 Y s 1467 412 m
 13 X s 1570 521 m 43 Y s 1564 564 m 13 X s 1570 495 m -43 Y s 1564 452 m 13 X s 1667 468 m 39 Y s 1661 507 m 13 X s 1667 442 m -38 Y s 1661 404 m 13 X s 1764 538 m 44 Y s 1758 582 m 13 X s 1764 512 m -44 Y s 1758 468 m 13 X s 1861 460 m 38 Y s 1855
 498 m 13 X s 1861 434 m -38 Y s 1855 396 m 13 X s 1958 582 m 47 Y s 1952 629 m 13 X s 1958 556 m -48 Y s 1952 508 m 13 X s 309 647 m 97 61 d 97 -174 d 97 122 d 97 -288 d 97 9 d 97 52 d 97 -174 d 97 410 d 97 -349 d 97 131 d 97 -79 d 97 96 d 97 44 d
 97 -53 d 97 70 d 97 -78 d 97 122 d s[  ] 0 sd 309 647 406 708 503 534 600 656 697 368 794 377 891 429 988 255 1085 665 1182 316 1279 447 1376 368 1473 464 1570 508 1667 455 1764 525 1861 447 1958 569 18 { m21} R[ 12 12] 0 sd 1 0 0 c 309 512 m 42 Y s
 303 554 m 13 X s 309 486 m -42 Y s 303 444 m 13 X s 406 625 m 51 Y s 400 676 m 13 X s 406 599 m -50 Y s 400 549 m 13 X s 503 660 m 53 Y s 497 713 m 13 X s 503 634 m -53 Y s 497 581 m 13 X s 600 730 m 57 Y s 594 787 m 13 X s 600 704 m -57 Y s 594 647
 m 13 X s 697 503 m 42 Y s 691 545 m 13 X s 697 477 m -41 Y s 691 436 m 13 X s 794 538 m 44 Y s 788 582 m 13 X s 794 512 m -44 Y s 788 468 m 13 X s 891 529 m 44 Y s 885 573 m 13 X s 891 503 m -43 Y s 885 460 m 13 X s 988 338 m 26 Y s 982 364 m 13 X s
 988 312 m -26 Y s 982 286 m 13 X s 1085 407 m 34 Y s 1079 441 m 13 X s 1085 381 m -33 Y s 1079 348 m 13 X s 1182 503 m 42 Y s 1176 545 m 13 X s 1182 477 m -41 Y s 1176 436 m 13 X s 1279 399 m 32 Y s 1273 431 m 13 X s 1279 373 m -33 Y s 1273 340 m 13
 X s 1376 547 m 45 Y s 1370 592 m 13 X s 1376 521 m -45 Y s 1370 476 m 13 X s 1473 399 m 32 Y s 1467 431 m 13 X s 1473 373 m -33 Y s 1467 340 m 13 X s 1570 425 m 35 Y s 1564 460 m 13 X s 1570 399 m -35 Y s 1564 364 m 13 X s 1667 791 m 61 Y s 1661 852
 m 13 X s 1667 765 m -61 Y s 1661 704 m 13 X s 1764 582 m 47 Y s 1758 629 m 13 X s 1764 556 m -48 Y s 1758 508 m 13 X s 1861 294 m 21 Y s 1855 315 m 13 X s 1861 268 m -21 Y s 1855 247 m 13 X s 1958 503 m 42 Y s 1952 545 m 13 X s 1958 477 m -41 Y s
 1952 436 m 13 X s black 1 0 0 c 309 499 m 97 113 d 97 35 d 97 70 d 97 -227 d 97 35 d 97 -9 d 97 -191 d 97 69 d 97 96 d 97 -104 d 97 148 d 97 -148 d 97 26 d 97 366 d 97 -209 d 97 -288 d 97 209 d s[  ] 0 sd 309 499 406 612 503 647 600 717 697 490 794
 525 891 516 988 325 1085 394 1182 490 1279 386 1376 534 1473 386 1570 412 1667 778 1764 569 1861 281 1958 490 18 { m21} R[ 12 12] 0 sd 0 1 0 c 309 547 m 45 Y s 303 592 m 13 X s 309 521 m -45 Y s 303 476 m 13 X s 406 582 m 47 Y s 400 629 m 13 X s 406
 556 m -48 Y s 400 508 m 13 X s 503 643 m 51 Y s 497 694 m 13 X s 503 617 m -52 Y s 497 565 m 13 X s 600 643 m 51 Y s 594 694 m 13 X s 600 617 m -52 Y s 594 565 m 13 X s 697 329 m 25 Y s 691 354 m 13 X s 697 303 m -25 Y s 691 278 m 13 X s 794 695 m
 55 Y s 788 750 m 13 X s 794 669 m -55 Y s 788 614 m 13 X s 891 503 m 42 Y s 885 545 m 13 X s 891 477 m -41 Y s 885 436 m 13 X s 988 407 m 34 Y s 982 441 m 13 X s 988 381 m -33 Y s 982 348 m 13 X s 1085 547 m 45 Y s 1079 592 m 13 X s 1085 521 m -45 Y
 s 1079 476 m 13 X s 1182 529 m 44 Y s 1176 573 m 13 X s 1182 503 m -43 Y s 1176 460 m 13 X s 1279 434 m 35 Y s 1273 469 m 13 X s 1279 408 m -36 Y s 1273 372 m 13 X s 1376 294 m 21 Y s 1370 315 m 13 X s 1376 268 m -21 Y s 1370 247 m 13 X s 1473 390 m
 31 Y s 1467 421 m 13 X s 1473 364 m -32 Y s 1467 332 m 13 X s 1570 503 m 42 Y s 1564 545 m 13 X s 1570 477 m -41 Y s 1564 436 m 13 X s 1667 730 m 57 Y s 1661 787 m 13 X s 1667 704 m -57 Y s 1661 647 m 13 X s 1764 634 m 51 Y s 1758 685 m 13 X s 1764
 608 m -51 Y s 1758 557 m 13 X s 1861 477 m 39 Y s 1855 516 m 13 X s 1861 451 m -39 Y s 1855 412 m 13 X s 1958 460 m 38 Y s 1952 498 m 13 X s 1958 434 m -38 Y s 1952 396 m 13 X s black 0 1 0 c 309 534 m 97 35 d 97 61 d 97 X 97 -314 d 97 366 d 97 -192
 d 97 -96 d 97 140 d 97 -18 d 97 -95 d 97 -140 d 97 96 d 97 113 d 97 227 d 97 -96 d 97 -157 d 97 -17 d s[  ] 0 sd 309 534 406 569 503 630 600 630 697 316 794 682 891 490 988 394 1085 534 1182 516 1279 421 1376 281 1473 377 1570 490 1667 717 1764 621
 1861 464 1958 447 18 { m21} R[ 12 12] 0 sd 0 0 1 c 309 590 m 48 Y s 303 638 m 13 X s 309 564 m -48 Y s 303 516 m 13 X s 406 564 m 46 Y s 400 610 m 13 X s 406 538 m -46 Y s 400 492 m 13 X s 503 704 m 55 Y s 497 759 m 13 X s 503 678 m -56 Y s 497 622
 m 13 X s 600 861 m 65 Y s 594 926 m 13 X s 600 835 m -65 Y s 594 770 m 13 X s 697 329 m 25 Y s 691 354 m 13 X s 697 303 m -25 Y s 691 278 m 13 X s 794 608 m 49 Y s 788 657 m 13 X s 794 582 m -49 Y s 788 533 m 13 X s 891 460 m 38 Y s 885 498 m 13 X s
 891 434 m -38 Y s 885 396 m 13 X s 988 355 m 28 Y s 982 383 m 13 X s 988 329 m -28 Y s 982 301 m 13 X s 1085 669 m 53 Y s 1079 722 m 13 X s 1085 643 m -53 Y s 1079 590 m 13 X s 1182 695 m 55 Y s 1176 750 m 13 X s 1182 669 m -55 Y s 1176 614 m 13 X s
 1279 582 m 47 Y s 1273 629 m 13 X s 1279 556 m -48 Y s 1273 508 m 13 X s 1376 538 m 44 Y s 1370 582 m 13 X s 1376 512 m -44 Y s 1370 468 m 13 X s 1473 495 m 40 Y s 1467 535 m 13 X s 1473 469 m -41 Y s 1467 428 m 13 X s 1570 503 m 42 Y s 1564 545 m
 13 X s 1570 477 m -41 Y s 1564 436 m 13 X s 1667 564 m 46 Y s 1661 610 m 13 X s 1667 538 m -46 Y s 1661 492 m 13 X s 1764 547 m 45 Y s 1758 592 m 13 X s 1764 521 m -45 Y s 1758 476 m 13 X s 1861 538 m 44 Y s 1855 582 m 13 X s 1861 512 m -44 Y s 1855
 468 m 13 X s 1958 608 m 49 Y s 1952 657 m 13 X s 1958 582 m -49 Y s 1952 533 m 13 X s black 0 0 1 c 309 577 m 97 -26 d 97 140 d 97 157 d 97 -532 d 97 279 d 97 -148 d 97 -105 d 97 314 d 97 26 d 97 -113 d 97 -44 d 97 -43 d 97 8 d 97 61 d 97 -17 d 97
 -9 d 97 70 d s[  ] 0 sd 309 577 406 551 503 691 600 848 697 316 794 595 891 447 988 342 1085 656 1182 682 1279 569 1376 525 1473 482 1570 490 1667 551 1764 534 1861 525 1958 595 18 { m21} R[ 12 12] 0 sd 1 1 0 c 309 808 m 62 Y s 303 870 m 13 X s 309
 782 m -62 Y s 303 720 m 13 X s 406 643 m 51 Y s 400 694 m 13 X s 406 617 m -52 Y s 400 565 m 13 X s 503 713 m 56 Y s 497 769 m 13 X s 503 686 m -56 Y s 497 630 m 13 X s 600 713 m 56 Y s 594 769 m 13 X s 600 686 m -56 Y s 594 630 m 13 X s 697 503 m
 42 Y s 691 545 m 13 X s 697 477 m -41 Y s 691 436 m 13 X s 794 808 m 62 Y s 788 870 m 13 X s 794 782 m -62 Y s 788 720 m 13 X s 891 608 m 49 Y s 885 657 m 13 X s 891 582 m -49 Y s 885 533 m 13 X s 988 294 m 21 Y s 982 315 m 13 X s 988 268 m -21 Y s
 982 247 m 13 X s 1085 390 m 31 Y s 1079 421 m 13 X s 1085 364 m -32 Y s 1079 332 m 13 X s 1182 442 m 37 Y s 1176 479 m 13 X s 1182 416 m -36 Y s 1176 380 m 13 X s 1279 590 m 48 Y s 1273 638 m 13 X s 1279 564 m -48 Y s 1273 516 m 13 X s 1376 460 m 38
 Y s 1370 498 m 13 X s 1376 434 m -38 Y s 1370 396 m 13 X s 1473 521 m 43 Y s 1467 564 m 13 X s 1473 495 m -43 Y s 1467 452 m 13 X s 1570 625 m 51 Y s 1564 676 m 13 X s 1570 599 m -50 Y s 1564 549 m 13 X s 1667 869 m 66 Y s 1661 935 m 13 X s 1667 843
 m -65 Y s 1661 778 m 13 X s 1764 617 m 49 Y s 1758 666 m 13 X s 1764 591 m -50 Y s 1758 541 m 13 X s 1861 486 m 40 Y s 1855 526 m 13 X s 1861 460 m -40 Y s 1855 420 m 13 X s 1958 617 m 49 Y s 1952 666 m 13 X s 1958 591 m -50 Y s 1952 541 m 13 X s
 black 1 1 0 c 309 795 m 97 -165 d 97 70 d 97 X 97 -210 d 97 305 d 97 -200 d 97 -314 d 97 96 d 97 52 d 97 148 d 97 -130 d 97 61 d 97 104 d 97 244 d 97 -252 d 97 -131 d 97 131 d s[  ] 0 sd 309 795 406 630 503 700 600 700 697 490 794 795 891 595 988
 281 1085 377 1182 429 1279 577 1376 447 1473 508 1570 612 1667 856 1764 604 1861 473 1958 604 18 { m21} R[ 12 12] 0 sd 1 0 1 c 309 582 m 47 Y s 303 629 m 13 X s 309 556 m -48 Y s 303 508 m 13 X s 406 756 m 59 Y s 400 815 m 13 X s 406 730 m -59 Y s
 400 671 m 13 X s 503 922 m 68 Y s 497 990 m 13 X s 503 896 m -69 Y s 497 827 m 13 X s 600 791 m 61 Y s 594 852 m 13 X s 600 765 m -61 Y s 594 704 m 13 X s 697 538 m 44 Y s 691 582 m 13 X s 697 512 m -44 Y s 691 468 m 13 X s 794 721 m 57 Y s 788 778
 m 13 X s 794 695 m -57 Y s 788 638 m 13 X s 891 678 m 54 Y s 885 732 m 13 X s 891 652 m -54 Y s 885 598 m 13 X s 988 329 m 25 Y s 982 354 m 13 X s 988 303 m -25 Y s 982 278 m 13 X s 1085 573 m 47 Y s 1079 620 m 13 X s 1085 547 m -47 Y s 1079 500 m
 13 X s 1182 713 m 56 Y s 1176 769 m 13 X s 1182 686 m -56 Y s 1176 630 m 13 X s 1279 503 m 42 Y s 1273 545 m 13 X s 1279 477 m -41 Y s 1273 436 m 13 X s 1376 599 m 49 Y s 1370 648 m 13 X s 1376 573 m -48 Y s 1370 525 m 13 X s 1473 425 m 35 Y s 1467
 460 m 13 X s 1473 399 m -35 Y s 1467 364 m 13 X s 1570 582 m 47 Y s 1564 629 m 13 X s 1570 556 m -48 Y s 1564 508 m 13 X s 1667 747 m 59 Y s 1661 806 m 13 X s 1667 721 m -58 Y s 1661 663 m 13 X s 1764 896 m 67 Y s 1758 963 m 13 X s 1764 870 m -67 Y
 s 1758 803 m 13 X s 1861 564 m 46 Y s 1855 610 m 13 X s 1861 538 m -46 Y s 1855 492 m 13 X s 1958 713 m 56 Y s 1952 769 m 13 X s 1958 686 m -56 Y s 1952 630 m 13 X s black 1 0 1 c 309 569 m 97 174 d 97 166 d 97 -131 d 97 -253 d 97 183 d 97 -43 d 97
 -349 d 97 244 d 97 140 d 97 -210 d 97 96 d 97 -174 d 97 157 d 97 165 d 97 149 d 97 -332 d 97 149 d s[  ] 0 sd 309 569 406 743 503 909 600 778 697 525 794 708 891 665 988 316 1085 560 1182 700 1279 490 1376 586 1473 412 1570 569 1667 734 1764 883
 1861 551 1958 700 18 { m21} R[ 12 12] 0 sd black
 gsave  2268 1538 0 0 C 325.821 1300.03 t 0 r /Helvetica-Bold findfont 58.6478 sf 0 0 m (Sct Disk \(left\)) show NC gr 
 gsave  2268 1538 0 0 C 430.084 1244.64 t 0 r /Helvetica-Bold findfont 58.6478 sf 0 0 m (Disk 0) show NC gr [  ] 0 sd 334 1256 m 80 X s 374 1256 m20
 gsave  2268 1538 0 0 C 430.084 1189.25 t 0 r /Helvetica-Bold findfont 58.6478 sf 0 0 m (Disk 1) show NC gr  1 0 0 c 334 1201 m 80 X s 374 1201 m20 black
 gsave  2268 1538 0 0 C 430.084 1133.86 t 0 r /Helvetica-Bold findfont 58.6478 sf 0 0 m (Disk 2) show NC gr  0 1 0 c 334 1146 m 80 X s 374 1146 m20 black
 gsave  2268 1538 0 0 C 430.084 1078.47 t 0 r /Helvetica-Bold findfont 58.6478 sf 0 0 m (Disk 3) show NC gr  0 0 1 c 334 1091 m 80 X s 374 1091 m20 black
 gsave  2268 1538 0 0 C 430.084 1026.34 t 0 r /Helvetica-Bold findfont 58.6478 sf 0 0 m (Disk 4) show NC gr  1 1 0 c 334 1036 m 80 X s 374 1036 m20 black
 gsave  2268 1538 0 0 C 430.084 970.948 t 0 r /Helvetica-Bold findfont 58.6478 sf 0 0 m (Disk 5) show NC gr  1 0 1 c 334 981 m 80 X s 374 981 m20 black
 gsave  2268 1538 0 0 C 622.319 1300.03 t 0 r /Helvetica-Bold findfont 58.6478 sf 0 0 m (  \(right\)) show NC gr 
 gsave  2268 1538 0 0 C 723.323 1244.64 t 0 r /Helvetica-Bold findfont 58.6478 sf 0 0 m (Disk 0) show NC gr [ 12 12] 0 sd 629 1256 m 80 X s[  ] 0 sd 669 1256 m21[ 12 12] 0 sd
 gsave  2268 1538 0 0 C 723.323 1189.25 t 0 r /Helvetica-Bold findfont 58.6478 sf 0 0 m (Disk 1) show NC gr  1 0 0 c 629 1201 m 80 X s[  ] 0 sd 669 1201 m21[ 12 12] 0 sd black
 gsave  2268 1538 0 0 C 723.323 1133.86 t 0 r /Helvetica-Bold findfont 58.6478 sf 0 0 m (Disk 2) show NC gr  0 1 0 c 629 1146 m 80 X s[  ] 0 sd 669 1146 m21[ 12 12] 0 sd black
 gsave  2268 1538 0 0 C 723.323 1078.47 t 0 r /Helvetica-Bold findfont 58.6478 sf 0 0 m (Disk 3) show NC gr  0 0 1 c 629 1091 m 80 X s[  ] 0 sd 669 1091 m21[ 12 12] 0 sd black
 gsave  2268 1538 0 0 C 723.323 1026.34 t 0 r /Helvetica-Bold findfont 58.6478 sf 0 0 m (Disk 4) show NC gr  1 1 0 c 629 1036 m 80 X s[  ] 0 sd 669 1036 m21[ 12 12] 0 sd black
 gsave  2268 1538 0 0 C 723.323 970.948 t 0 r /Helvetica-Bold findfont 58.6478 sf 0 0 m (Disk 5) show NC gr  1 0 1 c 629 981 m 80 X s[  ] 0 sd 669 981 m21[ 12 12] 0 sd
 gr  gr showpage
end
%%EOF
