%!PS-Adobe-2.0 EPSF-2.0
%%BoundingBox:  0 0 567 384
%%Title: pionDir/sct_occupancy/hit_sctdisk_mgr.eps: c1_n36
%%Creator: ROOT Version 6.04/12
%%CreationDate: Tue Apr 19 16:53:27 2016
%%DocumentNeededResources: ProcSet (FontSetInit)
%%EndComments
%%BeginProlog
80 dict begin
/s {stroke} def /l {lineto} def /m {moveto} def /t {translate} def
/r {rotate} def /rl {roll}  def /R {repeat} def
/d {rlineto} def /rm {rmoveto} def /gr {grestore} def /f {eofill} def
/c {setrgbcolor} def /black {0 setgray} def /sd {setdash} def
/cl {closepath} def /sf {scalefont setfont} def /lw {setlinewidth} def
/box {m dup 0 exch d exch 0 d 0 exch neg d cl} def
/NC{systemdict begin initclip end}def/C{NC box clip newpath}def
/bl {box s} def /bf {gsave box gsave f grestore 1 lw [] 0 sd s grestore} def /Y { 0 exch d} def /X { 0 d} def 
/K {{pop pop 0 moveto} exch kshow} bind def
/ita {/ang 15 def gsave [1 0 ang dup sin exch cos div 1 0 0] concat} def 
/mp {newpath /y exch def /x exch def} def
/side {[w .77 mul w .23 mul] .385 w mul sd w 0 l currentpoint t -144 r} def
/mr {mp x y w2 0 360 arc} def /m24 {mr s} def /m20 {mr f} def
/mb {mp x y w2 add m w2 neg 0 d 0 w neg d w 0 d 0 w d cl} def
/mt {mp x y w2 add m w2 neg w neg d w 0 d cl} def
/m21 {mb f} def /m25 {mb s} def /m22 {mt f} def /m26{mt s} def
/m23 {mp x y w2 sub m w2 w d w neg 0 d cl f} def
/m27 {mp x y w2 add m w3 neg w2 neg d w3 w2 neg d w3 w2 d cl s} def
/m28 {mp x w2 sub y w2 sub w3 add m w3 0 d  0 w3 neg d w3 0 d 0 w3 d w3 0 d  0 w3 d w3 neg 0 d 0 w3 d w3 neg 0 d 0 w3 neg d w3 neg 0 d cl s } def
/m29 {mp gsave x w2 sub y w2 add w3 sub m currentpoint t 4 {side} repeat cl fill gr} def
/m30 {mp gsave x w2 sub y w2 add w3 sub m currentpoint t 4 {side} repeat cl s gr} def
/m31 {mp x y w2 sub m 0 w d x w2 sub y m w 0 d x w2 sub y w2 add m w w neg d x w2 sub y w2 sub m w w d s} def
/m32 {mp x y w2 sub m w2 w d w neg 0 d cl s} def
/m33 {mp x y w2 add m w3 neg w2 neg d w3 w2 neg d w3 w2 d cl f} def
/m34 {mp x w2 sub y w2 sub w3 add m w3 0 d  0 w3 neg d w3 0 d 0 w3 d w3 0 d  0 w3 d w3 neg 0 d 0 w3 d w3 neg 0 d 0 w3 neg d w3 neg 0 d cl f } def
/m2 {mp x y w2 sub m 0 w d x w2 sub y m w 0 d s} def
/m5 {mp x w2 sub y w2 sub m w w d x w2 sub y w2 add m w w neg d s} def
%%IncludeResource: ProcSet (FontSetInit)
%%IncludeResource: font Times-Roman
%%IncludeResource: font Times-Italic
%%IncludeResource: font Times-Bold
%%IncludeResource: font Times-BoldItalic
%%IncludeResource: font Helvetica
%%IncludeResource: font Helvetica-Oblique
%%IncludeResource: font Helvetica-Bold
%%IncludeResource: font Helvetica-BoldOblique
%%IncludeResource: font Courier
%%IncludeResource: font Courier-Oblique
%%IncludeResource: font Courier-Bold
%%IncludeResource: font Courier-BoldOblique
%%IncludeResource: font Symbol
%%IncludeResource: font ZapfDingbats
/reEncode {exch findfont dup length dict begin {1 index /FID eq  {pop pop} {def} ifelse } forall /Encoding exch def currentdict end dup /FontName get exch definefont pop } def [/Times-Bold /Times-Italic /Times-BoldItalic /Helvetica /Helvetica-Oblique
 /Helvetica-Bold /Helvetica-BoldOblique /Courier /Courier-Oblique /Courier-Bold /Courier-BoldOblique /Times-Roman /AvantGarde-Book /AvantGarde-BookOblique /AvantGarde-Demi /AvantGarde-DemiOblique /Bookman-Demi /Bookman-DemiItalic /Bookman-Light
 /Bookman-LightItalic /Helvetica-Narrow /Helvetica-Narrow-Bold /Helvetica-Narrow-BoldOblique /Helvetica-Narrow-Oblique /NewCenturySchlbk-Roman /NewCenturySchlbk-Bold /NewCenturySchlbk-BoldItalic /NewCenturySchlbk-Italic /Palatino-Bold
 /Palatino-BoldItalic /Palatino-Italic /Palatino-Roman ] {ISOLatin1Encoding reEncode } forall
%%EndProlog
%%BeginSetup
%%EndSetup
newpath  gsave  .25 .25 scale  gsave  0 0 t black[  ] 0 sd 3 lw 1 1 1 c 2268 1538 0 0 bf black 1 1 1 c 1814 1230 227 154 bf black 1814 1230 227 154 bl 1 1 1 c 1814 1230 227 154 bf black 1814 1230 227 154 bl 227 154 m 1814 X s
 gsave  2268 1538 0 0 C 1860.44 35.8403 t 0 r /Helvetica-Bold findfont 58.6478 sf 0 0 m (r [mm]) show NC gr  326 191 m -37 Y s 387 172 m -18 Y s 447 172 m -18 Y s 508 172 m -18 Y s 569 172 m -18 Y s 629 191 m -37 Y s 690 172 m -18 Y s 751 172 m -18 Y
 s 811 172 m -18 Y s 872 172 m -18 Y s 933 191 m -37 Y s 993 172 m -18 Y s 1054 172 m -18 Y s 1115 172 m -18 Y s 1175 172 m -18 Y s 1236 191 m -37 Y s 1297 172 m -18 Y s 1357 172 m -18 Y s 1418 172 m -18 Y s 1479 172 m -18 Y s 1539 191 m -37 Y s 1600
 172 m -18 Y s 1661 172 m -18 Y s 1721 172 m -18 Y s 1782 172 m -18 Y s 1843 191 m -37 Y s 326 191 m -37 Y s 265 172 m -18 Y s 1843 191 m -37 Y s 1903 172 m -18 Y s 1964 172 m -18 Y s 2025 172 m -18 Y s
 gsave  2268 1538 0 0 C 276.948 97.7464 t 0 r /Helvetica-Bold findfont 58.6478 sf 0 0 m (400) show NC gr 
 gsave  2268 1538 0 0 C 579.962 97.7464 t 0 r /Helvetica-Bold findfont 58.6478 sf 0 0 m (500) show NC gr 
 gsave  2268 1538 0 0 C 882.976 97.7464 t 0 r /Helvetica-Bold findfont 58.6478 sf 0 0 m (600) show NC gr 
 gsave  2268 1538 0 0 C 1185.99 97.7464 t 0 r /Helvetica-Bold findfont 58.6478 sf 0 0 m (700) show NC gr 
 gsave  2268 1538 0 0 C 1489 97.7464 t 0 r /Helvetica-Bold findfont 58.6478 sf 0 0 m (800) show NC gr 
 gsave  2268 1538 0 0 C 1792.02 97.7464 t 0 r /Helvetica-Bold findfont 58.6478 sf 0 0 m (900) show NC gr  227 1384 m 1814 X s 326 1347 m 37 Y s 387 1366 m 18 Y s 447 1366 m 18 Y s 508 1366 m 18 Y s 569 1366 m 18 Y s 629 1347 m 37 Y s 690 1366 m 18 Y
 s 751 1366 m 18 Y s 811 1366 m 18 Y s 872 1366 m 18 Y s 933 1347 m 37 Y s 993 1366 m 18 Y s 1054 1366 m 18 Y s 1115 1366 m 18 Y s 1175 1366 m 18 Y s 1236 1347 m 37 Y s 1297 1366 m 18 Y s 1357 1366 m 18 Y s 1418 1366 m 18 Y s 1479 1366 m 18 Y s 1539
 1347 m 37 Y s 1600 1366 m 18 Y s 1661 1366 m 18 Y s 1721 1366 m 18 Y s 1782 1366 m 18 Y s 1843 1347 m 37 Y s 326 1347 m 37 Y s 265 1366 m 18 Y s 1843 1347 m 37 Y s 1903 1366 m 18 Y s 1964 1366 m 18 Y s 2025 1366 m 18 Y s 227 154 m 1230 Y s
 gsave  2268 1538 0 0 C 97.7464 801.521 t 90 r /Helvetica-Bold findfont 58.6478 sf 0 0 m (Hits per etaModuleID) show NC gr  281 274 m -54 X s 254 306 m -27 X s 254 338 m -27 X s 254 370 m -27 X s 254 402 m -27 X s 281 434 m -54 X s 254 465 m -27 X s
 254 497 m -27 X s 254 529 m -27 X s 254 561 m -27 X s 281 593 m -54 X s 254 625 m -27 X s 254 657 m -27 X s 254 689 m -27 X s 254 721 m -27 X s 281 753 m -54 X s 254 785 m -27 X s 254 817 m -27 X s 254 849 m -27 X s 254 881 m -27 X s 281 913 m -54 X
 s 254 945 m -27 X s 254 977 m -27 X s 254 1009 m -27 X s 254 1041 m -27 X s 281 1073 m -54 X s 254 1105 m -27 X s 254 1136 m -27 X s 254 1168 m -27 X s 254 1200 m -27 X s 281 1232 m -54 X s 281 274 m -54 X s 254 242 m -27 X s 254 210 m -27 X s 254
 178 m -27 X s 281 1232 m -54 X s 254 1264 m -27 X s 254 1296 m -27 X s 254 1328 m -27 X s 254 1360 m -27 X s
 gsave  2268 1538 0 0 C 192.235 254.141 t 0 r /Helvetica-Bold findfont 58.6478 sf 0 0 m (1) show NC gr 
 gsave  2268 1538 0 0 C 182.46 410.535 t 0 r /Helvetica-Bold findfont 58.6478 sf 0 0 m (2) show NC gr 
 gsave  2268 1538 0 0 C 182.46 573.446 t 0 r /Helvetica-Bold findfont 58.6478 sf 0 0 m (3) show NC gr 
 gsave  2268 1538 0 0 C 182.46 733.098 t 0 r /Helvetica-Bold findfont 58.6478 sf 0 0 m (4) show NC gr 
 gsave  2268 1538 0 0 C 182.46 892.75 t 0 r /Helvetica-Bold findfont 58.6478 sf 0 0 m (5) show NC gr 
 gsave  2268 1538 0 0 C 182.46 1052.4 t 0 r /Helvetica-Bold findfont 58.6478 sf 0 0 m (6) show NC gr 
 gsave  2268 1538 0 0 C 182.46 1212.06 t 0 r /Helvetica-Bold findfont 58.6478 sf 0 0 m (7) show NC gr  2041 154 m 1230 Y s 1987 274 m 54 X s 2014 306 m 27 X s 2014 338 m 27 X s 2014 370 m 27 X s 2014 402 m 27 X s 1987 434 m 54 X s 2014 465 m 27 X s
 2014 497 m 27 X s 2014 529 m 27 X s 2014 561 m 27 X s 1987 593 m 54 X s 2014 625 m 27 X s 2014 657 m 27 X s 2014 689 m 27 X s 2014 721 m 27 X s 1987 753 m 54 X s 2014 785 m 27 X s 2014 817 m 27 X s 2014 849 m 27 X s 2014 881 m 27 X s 1987 913 m 54 X
 s 2014 945 m 27 X s 2014 977 m 27 X s 2014 1009 m 27 X s 2014 1041 m 27 X s 1987 1073 m 54 X s 2014 1105 m 27 X s 2014 1136 m 27 X s 2014 1168 m 27 X s 2014 1200 m 27 X s 1987 1232 m 54 X s 1987 274 m 54 X s 2014 242 m 27 X s 2014 210 m 27 X s 2014
 178 m 27 X s 1987 1232 m 54 X s 2014 1264 m 27 X s 2014 1296 m 27 X s 2014 1328 m 27 X s 2014 1360 m 27 X s 309 510 m 18 Y s 303 528 m 13 X s 309 484 m -17 Y s 303 467 m 13 X s 375 498 m 26 Y s 368 524 m 13 X s 375 472 m -27 Y s 368 445 m 13 X s 455
 504 m 14 Y s 448 518 m 14 X s 455 478 m -14 Y s 448 464 m 14 X s 549 485 m 20 Y s 543 505 m 13 X s 549 459 m -20 Y s 543 439 m 13 X s 629 427 m 16 Y s 623 443 m 13 X s 629 401 m -16 Y s 623 385 m 13 X s 696 536 m 9 Y s 690 545 m 13 X s 696 510 m -9
 Y s 690 501 m 13 X s 775 383 m 1 Y s 768 384 m 13 X s 775 357 m -2 Y s 768 355 m 13 X s 834 325 m 11 Y s 828 336 m 13 X s 834 299 m -10 Y s 828 289 m 13 X s 909 549 m 30 Y s 902 579 m 13 X s 909 523 m -30 Y s 902 493 m 13 X s 1002 466 m 15 Y s 996
 481 m 13 X s 1002 440 m -16 Y s 996 424 m 13 X s 1099 447 m 17 Y s 1093 464 m 13 X s 1099 420 m -17 Y s 1093 403 m 13 X s 1188 415 m 13 Y s 1182 428 m 13 X s 1188 389 m -13 Y s 1182 376 m 13 X s 1267 293 m 23 Y s 1261 316 m 13 X s 1267 267 m -23 Y s
 1261 244 m 13 X s 1357 306 m 10 Y s 1350 316 m 13 X s 1357 280 m -10 Y s 1350 270 m 13 X s 1493 664 m 31 Y s 1486 695 m 13 X s 1493 638 m -31 Y s 1486 607 m 13 X s 1658 549 m 13 Y s 1652 562 m 13 X s 1658 523 m -14 Y s 1652 509 m 13 X s 1805 229 m 9
 Y s 1799 238 m 13 X s 1805 203 m -8 Y s 1799 195 m 13 X s 1958 312 m 4 Y s 1951 316 m 13 X s 1958 286 m -3 Y s 1951 283 m 13 X s 309 497 m 66 -12 d 80 6 d 94 -19 d 80 -58 d 67 109 d 79 -153 d 59 -58 d 75 224 d 93 -83 d 97 -19 d 89 -32 d 79 -122 d 90
 13 d 136 358 d 165 -115 d 147 -320 d 153 83 d s /w 26 def /w2 {w 2 div} def /w3 {w 3 div} def 309 497 375 485 455 491 549 472 629 414 696 523 775 370 834 312 909 536 1002 453 1099 434 1188 402 1267 280 1357 293 1493 651 1658 536 1805 216 1958 299 18
 { m20} R 1 0 0 c 310 479 m 13 Y s 304 492 m 13 X s 310 452 m -14 Y s 304 438 m 13 X s 375 606 m 20 Y s 369 626 m 13 X s 375 580 m -20 Y s 369 560 m 13 X s 455 728 m 16 Y s 449 744 m 13 X s 455 702 m -17 Y s 449 685 m 13 X s 548 638 m 18 Y s 542 656
 m 13 X s 548 612 m -18 Y s 542 594 m 13 X s 628 562 m 20 Y s 622 582 m 13 X s 628 536 m -21 Y s 622 515 m 13 X s 699 466 m 37 Y s 692 503 m 13 X s 699 440 m -38 Y s 692 402 m 13 X s 776 530 m 13 Y s 769 543 m 13 X s 776 504 m -14 Y s 769 490 m 13 X
 s 835 389 m 4 Y s 829 393 m 13 X s 835 363 m -4 Y s 829 359 m 13 X s 908 581 m 13 Y s 901 594 m 13 X s 908 555 m -14 Y s 901 541 m 13 X s 1002 447 m 24 Y s 995 471 m 13 X s 1002 420 m -23 Y s 995 397 m 13 X s 1099 402 m 15 Y s 1093 417 m 13 X s 1099
 376 m -16 Y s 1093 360 m 13 X s 1188 408 m 25 Y s 1182 433 m 13 X s 1188 382 m -25 Y s 1182 357 m 13 X s 1268 344 m 3 Y s 1261 347 m 13 X s 1268 318 m -2 Y s 1261 316 m 13 X s 1356 530 m 47 Y s 1350 577 m 13 X s 1356 504 m -48 Y s 1350 456 m 13 X s
 1493 760 m 30 Y s 1486 790 m 13 X s 1493 734 m -31 Y s 1486 703 m 13 X s 1658 581 m 19 Y s 1652 600 m 13 X s 1658 555 m -20 Y s 1652 535 m 13 X s 1806 312 m 9 Y s 1800 321 m 13 X s 1806 286 m -8 Y s 1800 278 m 13 X s 1958 536 m 23 Y s 1952 559 m 13
 X s 1958 510 m -23 Y s 1952 487 m 13 X s black 1 0 0 c 310 465 m 65 128 d 80 122 d 93 -90 d 80 -76 d 71 -96 d 77 64 d 59 -141 d 73 192 d 94 -134 d 97 -45 d 89 6 d 80 -64 d 88 186 d 137 230 d 165 -179 d 148 -269 d 152 224 d s 310 465 375 593 455 715
 548 625 628 549 699 453 776 517 835 376 908 568 1002 434 1099 389 1188 395 1268 331 1356 517 1493 747 1658 568 1806 299 1958 523 18 { m20} R 0 1 0 c 309 510 m 28 Y s 303 538 m 13 X s 309 484 m -27 Y s 303 457 m 13 X s 375 683 m 25 Y s 368 708 m 13 X
 s 375 657 m -25 Y s 368 632 m 13 X s 455 696 m 12 Y s 449 708 m 13 X s 455 670 m -12 Y s 449 658 m 13 X s 548 817 m 36 Y s 542 853 m 13 X s 548 791 m -36 Y s 542 755 m 13 X s 628 395 m 5 Y s 622 400 m 13 X s 628 369 m -4 Y s 622 365 m 13 X s 697 459
 m 29 Y s 690 488 m 13 X s 697 433 m -28 Y s 690 405 m 13 X s 776 485 m 4 Y s 769 489 m 13 X s 776 459 m -5 Y s 769 454 m 13 X s 835 280 m 2 Y s 828 282 m 13 X s 835 254 m -2 Y s 828 252 m 13 X s 908 549 m 24 Y s 902 573 m 13 X s 908 523 m -24 Y s
 902 499 m 13 X s 1002 479 m 12 Y s 995 491 m 13 X s 1002 452 m -12 Y s 995 440 m 13 X s 1099 792 m 21 Y s 1093 813 m 13 X s 1099 766 m -21 Y s 1093 745 m 13 X s 1188 332 m s 1182 332 m 13 X s 1188 305 m -1 Y s 1182 304 m 13 X s 1268 338 m 1 Y s 1262
 339 m 13 X s 1268 312 m -1 Y s 1262 311 m 13 X s 1356 434 m 27 Y s 1350 461 m 13 X s 1356 408 m -27 Y s 1350 381 m 13 X s 1492 619 m 19 Y s 1486 638 m 13 X s 1492 593 m -19 Y s 1486 574 m 13 X s 1658 856 m 29 Y s 1652 885 m 13 X s 1658 829 m -29 Y s
 1652 800 m 13 X s 1806 376 m 6 Y s 1800 382 m 13 X s 1806 350 m -6 Y s 1800 344 m 13 X s 1958 536 m 20 Y s 1951 556 m 14 X s 1958 510 m -20 Y s 1951 490 m 14 X s black 0 1 0 c 309 497 m 66 173 d 80 13 d 93 121 d 80 -422 d 69 64 d 79 26 d 59 -205 d
 73 269 d 94 -71 d 97 314 d 89 -461 d 80 7 d 88 96 d 136 185 d 166 237 d 148 -480 d 152 160 d s 309 497 375 670 455 683 548 804 628 382 697 446 776 472 835 267 908 536 1002 465 1099 779 1188 318 1268 325 1356 421 1492 606 1658 843 1806 363 1958 523
 18 { m20} R 0 0 1 c 310 338 m 9 Y s 303 347 m 13 X s 310 312 m -9 Y s 303 303 m 13 X s 376 504 m 21 Y s 369 525 m 13 X s 376 478 m -21 Y s 369 457 m 13 X s 455 523 m 19 Y s 448 542 m 13 X s 455 497 m -19 Y s 448 478 m 13 X s 548 715 m 20 Y s 541 735
 m 13 X s 548 689 m -20 Y s 541 669 m 13 X s 628 408 m 6 Y s 622 414 m 13 X s 628 382 m -6 Y s 622 376 m 13 X s 697 517 m 5 Y s 690 522 m 13 X s 697 491 m -5 Y s 690 486 m 13 X s 776 581 m 21 Y s 769 602 m 13 X s 776 555 m -21 Y s 769 534 m 13 X s
 833 395 m 27 Y s 827 422 m 13 X s 833 369 m -26 Y s 827 343 m 13 X s 909 498 m 6 Y s 903 504 m 13 X s 909 472 m -7 Y s 903 465 m 13 X s 1002 574 m 14 Y s 995 588 m 13 X s 1002 548 m -13 Y s 995 535 m 13 X s 1099 504 m 24 Y s 1093 528 m 13 X s 1099
 478 m -24 Y s 1093 454 m 13 X s 1188 619 m 22 Y s 1182 641 m 13 X s 1188 593 m -22 Y s 1182 571 m 13 X s 1268 427 m 8 Y s 1261 435 m 13 X s 1268 401 m -7 Y s 1261 394 m 13 X s 1356 459 m 8 Y s 1350 467 m 13 X s 1356 433 m -7 Y s 1350 426 m 13 X s
 1492 709 m 36 Y s 1486 745 m 13 X s 1492 682 m -36 Y s 1486 646 m 13 X s 1658 485 m 12 Y s 1652 497 m 13 X s 1658 459 m -12 Y s 1652 447 m 13 X s 1806 568 m 16 Y s 1799 584 m 13 X s 1806 542 m -16 Y s 1799 526 m 13 X s 1958 670 m 13 Y s 1952 683 m
 13 X s 1958 644 m -12 Y s 1952 632 m 13 X s black 0 0 1 c 310 325 m 66 166 d 79 19 d 93 192 d 80 -307 d 69 109 d 79 64 d 57 -186 d 76 103 d 93 76 d 97 -70 d 89 115 d 80 -192 d 88 32 d 136 250 d 166 -224 d 148 83 d 152 102 d s 310 325 376 491 455 510
 548 702 628 395 697 504 776 568 833 382 909 485 1002 561 1099 491 1188 606 1268 414 1356 446 1492 696 1658 472 1806 555 1958 657 18 { m20} R 1 1 0 c 310 542 m 17 Y s 303 559 m 13 X s 310 516 m -17 Y s 303 499 m 13 X s 375 555 m 14 Y s 368 569 m 13 X
 s 375 529 m -14 Y s 368 515 m 13 X s 456 638 m 4 Y s 449 642 m 13 X s 456 612 m -4 Y s 449 608 m 13 X s 549 549 m 20 Y s 542 569 m 13 X s 549 523 m -21 Y s 542 502 m 13 X s 697 479 m 4 Y s 690 483 m 13 X s 697 452 m -4 Y s 690 448 m 13 X s 775 427 m
 11 Y s 768 438 m 13 X s 775 401 m -11 Y s 768 390 m 13 X s 909 587 m 11 Y s 903 598 m 13 X s 909 561 m -11 Y s 903 550 m 13 X s 1002 677 m 10 Y s 995 687 m 13 X s 1002 651 m -11 Y s 995 640 m 13 X s 1100 427 m 7 Y s 1093 434 m 13 X s 1100 401 m -6 Y
 s 1093 395 m 13 X s 1188 562 m 8 Y s 1182 570 m 13 X s 1188 536 m -9 Y s 1182 527 m 13 X s 1268 479 m 6 Y s 1261 485 m 13 X s 1268 452 m -6 Y s 1261 446 m 13 X s 1356 594 m 6 Y s 1350 600 m 13 X s 1356 567 m -6 Y s 1350 561 m 13 X s 1492 721 m 13 Y
 s 1486 734 m 13 X s 1492 695 m -12 Y s 1486 683 m 13 X s 1658 613 m 10 Y s 1652 623 m 13 X s 1658 587 m -11 Y s 1652 576 m 13 X s 1806 613 m 25 Y s 1799 638 m 13 X s 1806 587 m -25 Y s 1799 562 m 13 X s 1958 504 m 6 Y s 1951 510 m 14 X s 1958 478 m
 -6 Y s 1951 472 m 14 X s black 1 1 0 c 310 529 m 65 13 d 81 83 d 93 -89 d 79 -237 d 69 166 d 78 -51 d 60 -179 d 74 339 d 93 90 d 98 -250 d 88 135 d 80 -84 d 88 116 d 136 127 d 166 -108 d 148 X 152 -109 d s 310 529 375 542 456 625 549 536 628 299 697
 465 775 414 835 235 909 574 1002 664 1100 414 1188 549 1268 465 1356 581 1492 708 1658 600 1806 600 1958 491 18 { m20} R 1 0 1 c 310 696 m 34 Y s 303 730 m 13 X s 310 670 m -35 Y s 303 635 m 13 X s 375 862 m 29 Y s 369 891 m 13 X s 375 836 m -29 Y s
 369 807 m 13 X s 455 645 m 15 Y s 448 660 m 14 X s 455 619 m -16 Y s 448 603 m 14 X s 547 645 m 31 Y s 541 676 m 13 X s 547 619 m -32 Y s 541 587 m 13 X s 697 498 m 12 Y s 690 510 m 13 X s 697 472 m -13 Y s 690 459 m 13 X s 834 344 m 15 Y s 827 359
 m 13 X s 834 318 m -14 Y s 827 304 m 13 X s 909 568 m 13 Y s 902 581 m 13 X s 909 542 m -14 Y s 902 528 m 13 X s 1003 542 m 24 Y s 996 566 m 13 X s 1003 516 m -23 Y s 996 493 m 13 X s 1099 466 m 27 Y s 1093 493 m 13 X s 1099 440 m -28 Y s 1093 412 m
 13 X s 1188 472 m 28 Y s 1181 500 m 13 X s 1188 446 m -27 Y s 1181 419 m 13 X s 1268 498 m 20 Y s 1261 518 m 13 X s 1268 472 m -20 Y s 1261 452 m 13 X s 1356 606 m 13 Y s 1350 619 m 13 X s 1356 580 m -13 Y s 1350 567 m 13 X s 1492 862 m 19 Y s 1486
 881 m 13 X s 1492 836 m -20 Y s 1486 816 m 13 X s 1658 491 m 5 Y s 1652 496 m 13 X s 1658 465 m -4 Y s 1652 461 m 13 X s 1806 804 m 16 Y s 1800 820 m 13 X s 1806 778 m -15 Y s 1800 763 m 13 X s 1958 753 m 11 Y s 1952 764 m 13 X s 1958 727 m -10 Y s
 1952 717 m 13 X s black 1 0 1 c 310 683 m 65 166 d 80 -217 d 92 X 82 -237 d 68 90 d 78 -205 d 59 51 d 75 224 d 94 -26 d 96 -76 d 89 6 d 80 26 d 88 108 d 136 256 d 166 -371 d 148 313 d 152 -51 d s 310 683 375 849 455 632 547 632 629 395 697 485 775
 280 834 331 909 555 1003 529 1099 453 1188 459 1268 485 1356 593 1492 849 1658 478 1806 791 1958 740 18 { m20} R black[ 12 12] 0 sd 310 670 m 28 Y s 303 698 m 13 X s 310 644 m -28 Y s 303 616 m 13 X s 375 689 m 21 Y s 369 710 m 13 X s 375 663 m -20
 Y s 369 643 m 13 X s 455 491 m 9 Y s 449 500 m 13 X s 455 465 m -8 Y s 449 457 m 13 X s 548 594 m 10 Y s 541 604 m 13 X s 548 567 m -10 Y s 541 557 m 13 X s 628 312 m 7 Y s 622 319 m 13 X s 628 286 m -7 Y s 622 279 m 13 X s 696 395 m 10 Y s 689 405
 m 13 X s 696 369 m -9 Y s 689 360 m 13 X s 776 453 m 31 Y s 769 484 m 13 X s 776 427 m -31 Y s 769 396 m 13 X s 835 248 m 5 Y s 828 253 m 13 X s 835 222 m -4 Y s 828 218 m 13 X s 908 696 m 43 Y s 902 739 m 13 X s 908 670 m -44 Y s 902 626 m 13 X s
 1002 274 m 2 Y s 995 276 m 13 X s 1002 248 m -2 Y s 995 246 m 13 X s 1099 427 m 12 Y s 1093 439 m 13 X s 1099 401 m -11 Y s 1093 390 m 13 X s 1188 351 m 11 Y s 1182 362 m 13 X s 1188 325 m -12 Y s 1182 313 m 13 X s 1268 485 m 24 Y s 1261 509 m 13 X
 s 1268 459 m -24 Y s 1261 435 m 13 X s 1357 587 m 46 Y s 1350 633 m 13 X s 1357 561 m -46 Y s 1350 515 m 13 X s 1492 824 m 188 Y s 1486 1012 m 13 X s 1492 798 m -188 Y s 1486 610 m 13 X s 1658 606 m 35 Y s 1652 641 m 13 X s 1658 580 m -34 Y s 1652
 546 m 13 X s 1806 395 m 8 Y s 1800 403 m 13 X s 1806 369 m -7 Y s 1800 362 m 13 X s 1958 587 m 16 Y s 1952 603 m 13 X s 1958 561 m -16 Y s 1952 545 m 13 X s 310 657 m 65 19 d 80 -198 d 93 103 d 80 -282 d 68 83 d 80 58 d 59 -205 d 73 448 d 94 -422 d
 97 153 d 89 -76 d 80 134 d 89 102 d 135 237 d 166 -218 d 148 -211 d 152 192 d s[  ] 0 sd 310 657 375 676 455 478 548 581 628 299 696 382 776 440 835 235 908 683 1002 261 1099 414 1188 338 1268 472 1357 574 1492 811 1658 593 1806 382 1958 574 18 {
 m21} R[ 12 12] 0 sd 1 0 0 c 309 453 m 13 Y s 303 466 m 13 X s 309 427 m -13 Y s 303 414 m 13 X s 375 568 m 18 Y s 369 586 m 13 X s 375 542 m -18 Y s 369 524 m 13 X s 456 657 m 48 Y s 450 705 m 13 X s 456 631 m -47 Y s 450 584 m 13 X s 548 664 m 19 Y
 s 542 683 m 13 X s 548 638 m -20 Y s 542 618 m 13 X s 628 536 m 19 Y s 621 555 m 14 X s 628 510 m -19 Y s 621 491 m 14 X s 696 472 m 13 Y s 689 485 m 14 X s 696 446 m -13 Y s 689 433 m 14 X s 775 485 m 10 Y s 768 495 m 13 X s 775 459 m -11 Y s 768
 448 m 13 X s 834 325 m 9 Y s 828 334 m 13 X s 834 299 m -9 Y s 828 290 m 13 X s 907 363 m 6 Y s 901 369 m 13 X s 907 337 m -5 Y s 901 332 m 13 X s 1003 472 m 17 Y s 996 489 m 13 X s 1003 446 m -17 Y s 996 429 m 13 X s 1099 389 m 21 Y s 1093 410 m 13
 X s 1099 363 m -21 Y s 1093 342 m 13 X s 1188 491 m 14 Y s 1182 505 m 13 X s 1188 465 m -14 Y s 1182 451 m 13 X s 1267 434 m 20 Y s 1261 454 m 13 X s 1267 408 m -21 Y s 1261 387 m 13 X s 1356 383 m 10 Y s 1350 393 m 13 X s 1356 357 m -11 Y s 1350
 346 m 13 X s 1492 785 m 55 Y s 1486 840 m 13 X s 1492 759 m -55 Y s 1486 704 m 13 X s 1658 594 m 22 Y s 1651 616 m 13 X s 1658 567 m -22 Y s 1651 545 m 13 X s 1806 280 m 10 Y s 1799 290 m 13 X s 1806 254 m -9 Y s 1799 245 m 13 X s 1958 472 m 7 Y s
 1951 479 m 13 X s 1958 446 m -7 Y s 1951 439 m 13 X s black 1 0 0 c 309 440 m 66 115 d 81 89 d 92 7 d 80 -128 d 68 -64 d 79 13 d 59 -160 d 73 38 d 96 109 d 96 -83 d 89 102 d 79 -57 d 89 -51 d 136 402 d 166 -191 d 148 -314 d 152 192 d s[  ] 0 sd 309
 440 375 555 456 644 548 651 628 523 696 459 775 472 834 312 907 350 1003 459 1099 376 1188 478 1267 421 1356 370 1492 772 1658 581 1806 267 1958 459 18 { m21} R[ 12 12] 0 sd 0 1 0 c 310 504 m 11 Y s 303 515 m 13 X s 310 478 m -11 Y s 303 467 m 13 X
 s 375 568 m 16 Y s 369 584 m 13 X s 375 542 m -16 Y s 369 526 m 13 X s 456 568 m 10 Y s 449 578 m 13 X s 456 542 m -10 Y s 449 532 m 13 X s 547 594 m 33 Y s 541 627 m 13 X s 547 567 m -33 Y s 541 534 m 13 X s 629 287 m s 622 287 m 13 X s 629 261 m
 -1 Y s 622 260 m 13 X s 697 613 m 13 Y s 691 626 m 13 X s 697 587 m -14 Y s 691 573 m 13 X s 774 453 m 11 Y s 768 464 m 13 X s 774 427 m -12 Y s 768 415 m 13 X s 835 376 m 12 Y s 828 388 m 13 X s 835 350 m -12 Y s 828 338 m 13 X s 909 562 m 12 Y s
 903 574 m 13 X s 909 536 m -12 Y s 903 524 m 13 X s 1002 485 m 12 Y s 996 497 m 13 X s 1002 459 m -12 Y s 996 447 m 13 X s 1099 363 m 2 Y s 1093 365 m 13 X s 1099 337 m -1 Y s 1093 336 m 13 X s 1357 510 m 16 Y s 1350 526 m 13 X s 1357 484 m -15 Y s
 1350 469 m 13 X s 1492 728 m 40 Y s 1486 768 m 13 X s 1492 702 m -40 Y s 1486 662 m 13 X s 1658 600 m 23 Y s 1651 623 m 14 X s 1658 574 m -23 Y s 1651 551 m 14 X s 1958 491 m 48 Y s 1952 539 m 13 X s 1958 465 m -47 Y s 1952 418 m 13 X s black 0 1 0
 c 310 491 m 65 64 d 81 X 91 26 d 82 -307 d 68 326 d 77 -160 d 61 -77 d 74 186 d 93 -77 d 97 -122 d 89 -95 d 80 51 d 89 191 d 135 218 d 166 -128 d 148 -217 d 152 108 d s[  ] 0 sd 310 491 375 555 456 555 547 581 629 274 697 600 774 440 835 363 909 549
 1002 472 1099 350 1188 255 1268 306 1357 497 1492 715 1658 587 1806 370 1958 478 18 { m21} R[ 12 12] 0 sd 0 0 1 c 311 491 m 4 Y s 304 495 m 13 X s 311 465 m -3 Y s 304 462 m 13 X s 375 485 m 7 Y s 368 492 m 13 X s 375 459 m -7 Y s 368 452 m 13 X s
 456 670 m 24 Y s 450 694 m 13 X s 456 644 m -24 Y s 450 620 m 13 X s 548 772 m 14 Y s 541 786 m 13 X s 548 746 m -13 Y s 541 733 m 13 X s 628 319 m 6 Y s 621 325 m 13 X s 628 293 m -7 Y s 621 286 m 13 X s 697 568 m 18 Y s 691 586 m 13 X s 697 542 m
 -18 Y s 691 524 m 13 X s 775 466 m 17 Y s 768 483 m 13 X s 775 440 m -18 Y s 768 422 m 13 X s 833 319 m 10 Y s 827 329 m 13 X s 833 293 m -11 Y s 827 282 m 13 X s 909 600 m 40 Y s 902 640 m 13 X s 909 574 m -40 Y s 902 534 m 13 X s 1003 619 m 11 Y s
 996 630 m 13 X s 1003 593 m -11 Y s 996 582 m 13 X s 1100 574 m 21 Y s 1093 595 m 13 X s 1100 548 m -21 Y s 1093 527 m 13 X s 1188 625 m 91 Y s 1182 716 m 13 X s 1188 599 m -91 Y s 1182 508 m 13 X s 1268 421 m 8 Y s 1261 429 m 13 X s 1268 395 m -8 Y
 s 1261 387 m 13 X s 1356 427 m 4 Y s 1350 431 m 13 X s 1356 401 m -3 Y s 1350 398 m 13 X s 1492 523 m 22 Y s 1486 545 m 13 X s 1492 497 m -21 Y s 1486 476 m 13 X s 1658 504 m 13 Y s 1651 517 m 13 X s 1658 478 m -13 Y s 1651 465 m 13 X s 1958 581 m
 16 Y s 1951 597 m 13 X s 1958 555 m -16 Y s 1951 539 m 13 X s black 0 0 1 c 311 478 m 64 -6 d 81 185 d 92 102 d 80 -453 d 69 249 d 78 -102 d 58 -147 d 76 281 d 94 19 d 97 -45 d 88 51 d 80 -204 d 88 6 d 136 96 d 166 -19 d 148 -89 d 152 166 d s[  ] 0
 sd 311 478 375 472 456 657 548 759 628 306 697 555 775 453 833 306 909 587 1003 606 1100 561 1188 612 1268 408 1356 414 1492 510 1658 491 1806 402 1958 568 18 { m21} R[ 12 12] 0 sd 1 1 0 c 310 804 m 33 Y s 304 837 m 13 X s 310 778 m -32 Y s 304 746
 m 13 X s 375 568 m 10 Y s 369 578 m 13 X s 375 542 m -10 Y s 369 532 m 13 X s 456 606 m 13 Y s 449 619 m 13 X s 456 580 m -12 Y s 449 568 m 13 X s 548 632 m 18 Y s 541 650 m 13 X s 548 606 m -19 Y s 541 587 m 13 X s 628 440 m 7 Y s 622 447 m 13 X s
 628 414 m -7 Y s 622 407 m 13 X s 697 881 m 53 Y s 690 934 m 13 X s 697 855 m -53 Y s 690 802 m 13 X s 774 562 m 27 Y s 767 589 m 13 X s 774 536 m -28 Y s 767 508 m 13 X s 909 338 m 2 Y s 902 340 m 13 X s 909 312 m -2 Y s 902 310 m 13 X s 1001 427 m
 16 Y s 995 443 m 13 X s 1001 401 m -16 Y s 995 385 m 13 X s 1100 498 m 4 Y s 1093 502 m 13 X s 1100 472 m -5 Y s 1093 467 m 13 X s 1188 408 m 9 Y s 1182 417 m 13 X s 1188 382 m -8 Y s 1182 374 m 13 X s 1268 427 m 2 Y s 1262 429 m 13 X s 1268 401 m
 -1 Y s 1262 400 m 13 X s 1356 594 m 24 Y s 1350 618 m 13 X s 1356 567 m -24 Y s 1350 543 m 13 X s 1493 753 m 14 Y s 1486 767 m 13 X s 1493 727 m -14 Y s 1486 713 m 13 X s 1658 594 m 23 Y s 1652 617 m 13 X s 1658 567 m -23 Y s 1652 544 m 13 X s 1807
 447 m 9 Y s 1800 456 m 13 X s 1807 420 m -9 Y s 1800 411 m 13 X s 1958 574 m 16 Y s 1952 590 m 13 X s 1958 548 m -15 Y s 1952 533 m 13 X s black 1 1 0 c 310 791 m 65 -236 d 81 38 d 92 26 d 80 -192 d 69 441 d 77 -319 d 60 -320 d 75 96 d 92 89 d 99 71
 d 88 -90 d 80 19 d 88 167 d 137 159 d 165 -159 d 149 -147 d 151 127 d s[  ] 0 sd 310 791 375 555 456 593 548 619 628 427 697 868 774 549 834 229 909 325 1001 414 1100 485 1188 395 1268 414 1356 581 1493 740 1658 581 1807 434 1958 561 18 { m21} R[ 12
 12] 0 sd 1 0 1 c 310 491 m 11 Y s 303 502 m 13 X s 310 465 m -10 Y s 303 455 m 13 X s 375 657 m 25 Y s 368 682 m 13 X s 375 631 m -24 Y s 368 607 m 13 X s 455 741 m 7 Y s 449 748 m 13 X s 455 714 m -7 Y s 449 707 m 13 X s 548 645 m 5 Y s 541 650 m
 13 X s 548 619 m -5 Y s 541 614 m 13 X s 630 485 m 17 Y s 623 502 m 13 X s 630 459 m -17 Y s 623 442 m 13 X s 697 638 m 10 Y s 691 648 m 13 X s 697 612 m -9 Y s 691 603 m 13 X s 775 625 m 21 Y s 768 646 m 13 X s 775 599 m -20 Y s 768 579 m 13 X s
 833 287 m 8 Y s 827 295 m 13 X s 833 261 m -8 Y s 827 253 m 13 X s 908 479 m 3 Y s 901 482 m 14 X s 908 452 m -3 Y s 901 449 m 14 X s 1001 670 m 18 Y s 995 688 m 13 X s 1001 644 m -17 Y s 995 627 m 13 X s 1099 466 m 10 Y s 1093 476 m 13 X s 1099 440
 m -11 Y s 1093 429 m 13 X s 1188 523 m 18 Y s 1182 541 m 13 X s 1188 497 m -18 Y s 1182 479 m 13 X s 1268 363 m 2 Y s 1261 365 m 13 X s 1268 337 m -2 Y s 1261 335 m 13 X s 1356 479 m 5 Y s 1350 484 m 13 X s 1356 452 m -5 Y s 1350 447 m 13 X s 1492
 689 m 18 Y s 1486 707 m 13 X s 1492 663 m -17 Y s 1486 646 m 13 X s 1658 753 m 14 Y s 1651 767 m 13 X s 1658 727 m -14 Y s 1651 713 m 13 X s 1806 510 m 11 Y s 1799 521 m 13 X s 1806 484 m -11 Y s 1799 473 m 13 X s 1958 657 m 21 Y s 1952 678 m 13 X s
 1958 631 m -20 Y s 1952 611 m 13 X s black 1 0 1 c 310 478 m 65 166 d 80 83 d 93 -95 d 82 -160 d 67 153 d 78 -13 d 58 -338 d 75 191 d 93 192 d 98 -204 d 89 57 d 80 -160 d 88 115 d 136 211 d 166 64 d 148 -243 d 152 147 d s[  ] 0 sd 310 478 375 644
 455 727 548 632 630 472 697 625 775 612 833 274 908 465 1001 657 1099 453 1188 510 1268 350 1356 465 1492 676 1658 740 1806 497 1958 644 18 { m21} R[ 12 12] 0 sd black
 gsave  2268 1538 0 0 C 325.821 1300.03 t 0 r /Helvetica-Bold findfont 58.6478 sf 0 0 m (Sct Disk \(left\)) show NC gr 
 gsave  2268 1538 0 0 C 430.084 1244.64 t 0 r /Helvetica-Bold findfont 58.6478 sf 0 0 m (Disk 0) show NC gr [  ] 0 sd 334 1256 m 80 X s 374 1256 m20
 gsave  2268 1538 0 0 C 430.084 1189.25 t 0 r /Helvetica-Bold findfont 58.6478 sf 0 0 m (Disk 1) show NC gr  1 0 0 c 334 1201 m 80 X s 374 1201 m20 black
 gsave  2268 1538 0 0 C 430.084 1133.86 t 0 r /Helvetica-Bold findfont 58.6478 sf 0 0 m (Disk 2) show NC gr  0 1 0 c 334 1146 m 80 X s 374 1146 m20 black
 gsave  2268 1538 0 0 C 430.084 1078.47 t 0 r /Helvetica-Bold findfont 58.6478 sf 0 0 m (Disk 3) show NC gr  0 0 1 c 334 1091 m 80 X s 374 1091 m20 black
 gsave  2268 1538 0 0 C 430.084 1026.34 t 0 r /Helvetica-Bold findfont 58.6478 sf 0 0 m (Disk 4) show NC gr  1 1 0 c 334 1036 m 80 X s 374 1036 m20 black
 gsave  2268 1538 0 0 C 430.084 970.948 t 0 r /Helvetica-Bold findfont 58.6478 sf 0 0 m (Disk 5) show NC gr  1 0 1 c 334 981 m 80 X s 374 981 m20 black
 gsave  2268 1538 0 0 C 622.319 1300.03 t 0 r /Helvetica-Bold findfont 58.6478 sf 0 0 m (  \(right\)) show NC gr 
 gsave  2268 1538 0 0 C 723.323 1244.64 t 0 r /Helvetica-Bold findfont 58.6478 sf 0 0 m (Disk 0) show NC gr [ 12 12] 0 sd 629 1256 m 80 X s[  ] 0 sd 669 1256 m21[ 12 12] 0 sd
 gsave  2268 1538 0 0 C 723.323 1189.25 t 0 r /Helvetica-Bold findfont 58.6478 sf 0 0 m (Disk 1) show NC gr  1 0 0 c 629 1201 m 80 X s[  ] 0 sd 669 1201 m21[ 12 12] 0 sd black
 gsave  2268 1538 0 0 C 723.323 1133.86 t 0 r /Helvetica-Bold findfont 58.6478 sf 0 0 m (Disk 2) show NC gr  0 1 0 c 629 1146 m 80 X s[  ] 0 sd 669 1146 m21[ 12 12] 0 sd black
 gsave  2268 1538 0 0 C 723.323 1078.47 t 0 r /Helvetica-Bold findfont 58.6478 sf 0 0 m (Disk 3) show NC gr  0 0 1 c 629 1091 m 80 X s[  ] 0 sd 669 1091 m21[ 12 12] 0 sd black
 gsave  2268 1538 0 0 C 723.323 1026.34 t 0 r /Helvetica-Bold findfont 58.6478 sf 0 0 m (Disk 4) show NC gr  1 1 0 c 629 1036 m 80 X s[  ] 0 sd 669 1036 m21[ 12 12] 0 sd black
 gsave  2268 1538 0 0 C 723.323 970.948 t 0 r /Helvetica-Bold findfont 58.6478 sf 0 0 m (Disk 5) show NC gr  1 0 1 c 629 981 m 80 X s[  ] 0 sd 669 981 m21[ 12 12] 0 sd
 gr  gr showpage
end
%%EOF
