%!PS-Adobe-2.0 EPSF-2.0
%%BoundingBox:  0 0 567 384
%%Title: pionDir/sct_occupancy/hit_sctlayer_mg.eps: c1_n25
%%Creator: ROOT Version 6.04/12
%%CreationDate: Tue Apr 19 16:53:25 2016
%%DocumentNeededResources: ProcSet (FontSetInit)
%%EndComments
%%BeginProlog
80 dict begin
/s {stroke} def /l {lineto} def /m {moveto} def /t {translate} def
/r {rotate} def /rl {roll}  def /R {repeat} def
/d {rlineto} def /rm {rmoveto} def /gr {grestore} def /f {eofill} def
/c {setrgbcolor} def /black {0 setgray} def /sd {setdash} def
/cl {closepath} def /sf {scalefont setfont} def /lw {setlinewidth} def
/box {m dup 0 exch d exch 0 d 0 exch neg d cl} def
/NC{systemdict begin initclip end}def/C{NC box clip newpath}def
/bl {box s} def /bf {gsave box gsave f grestore 1 lw [] 0 sd s grestore} def /Y { 0 exch d} def /X { 0 d} def 
/K {{pop pop 0 moveto} exch kshow} bind def
/ita {/ang 15 def gsave [1 0 ang dup sin exch cos div 1 0 0] concat} def 
/mp {newpath /y exch def /x exch def} def
/side {[w .77 mul w .23 mul] .385 w mul sd w 0 l currentpoint t -144 r} def
/mr {mp x y w2 0 360 arc} def /m24 {mr s} def /m20 {mr f} def
/mb {mp x y w2 add m w2 neg 0 d 0 w neg d w 0 d 0 w d cl} def
/mt {mp x y w2 add m w2 neg w neg d w 0 d cl} def
/m21 {mb f} def /m25 {mb s} def /m22 {mt f} def /m26{mt s} def
/m23 {mp x y w2 sub m w2 w d w neg 0 d cl f} def
/m27 {mp x y w2 add m w3 neg w2 neg d w3 w2 neg d w3 w2 d cl s} def
/m28 {mp x w2 sub y w2 sub w3 add m w3 0 d  0 w3 neg d w3 0 d 0 w3 d w3 0 d  0 w3 d w3 neg 0 d 0 w3 d w3 neg 0 d 0 w3 neg d w3 neg 0 d cl s } def
/m29 {mp gsave x w2 sub y w2 add w3 sub m currentpoint t 4 {side} repeat cl fill gr} def
/m30 {mp gsave x w2 sub y w2 add w3 sub m currentpoint t 4 {side} repeat cl s gr} def
/m31 {mp x y w2 sub m 0 w d x w2 sub y m w 0 d x w2 sub y w2 add m w w neg d x w2 sub y w2 sub m w w d s} def
/m32 {mp x y w2 sub m w2 w d w neg 0 d cl s} def
/m33 {mp x y w2 add m w3 neg w2 neg d w3 w2 neg d w3 w2 d cl f} def
/m34 {mp x w2 sub y w2 sub w3 add m w3 0 d  0 w3 neg d w3 0 d 0 w3 d w3 0 d  0 w3 d w3 neg 0 d 0 w3 d w3 neg 0 d 0 w3 neg d w3 neg 0 d cl f } def
/m2 {mp x y w2 sub m 0 w d x w2 sub y m w 0 d s} def
/m5 {mp x w2 sub y w2 sub m w w d x w2 sub y w2 add m w w neg d s} def
%%IncludeResource: ProcSet (FontSetInit)
%%IncludeResource: font Times-Roman
%%IncludeResource: font Times-Italic
%%IncludeResource: font Times-Bold
%%IncludeResource: font Times-BoldItalic
%%IncludeResource: font Helvetica
%%IncludeResource: font Helvetica-Oblique
%%IncludeResource: font Helvetica-Bold
%%IncludeResource: font Helvetica-BoldOblique
%%IncludeResource: font Courier
%%IncludeResource: font Courier-Oblique
%%IncludeResource: font Courier-Bold
%%IncludeResource: font Courier-BoldOblique
%%IncludeResource: font Symbol
%%IncludeResource: font ZapfDingbats
/reEncode {exch findfont dup length dict begin {1 index /FID eq  {pop pop} {def} ifelse } forall /Encoding exch def currentdict end dup /FontName get exch definefont pop } def [/Times-Bold /Times-Italic /Times-BoldItalic /Helvetica /Helvetica-Oblique
 /Helvetica-Bold /Helvetica-BoldOblique /Courier /Courier-Oblique /Courier-Bold /Courier-BoldOblique /Times-Roman /AvantGarde-Book /AvantGarde-BookOblique /AvantGarde-Demi /AvantGarde-DemiOblique /Bookman-Demi /Bookman-DemiItalic /Bookman-Light
 /Bookman-LightItalic /Helvetica-Narrow /Helvetica-Narrow-Bold /Helvetica-Narrow-BoldOblique /Helvetica-Narrow-Oblique /NewCenturySchlbk-Roman /NewCenturySchlbk-Bold /NewCenturySchlbk-BoldItalic /NewCenturySchlbk-Italic /Palatino-Bold
 /Palatino-BoldItalic /Palatino-Italic /Palatino-Roman ] {ISOLatin1Encoding reEncode } forall
%%EndProlog
%%BeginSetup
%%EndSetup
newpath  gsave  .25 .25 scale  gsave  0 0 t black[  ] 0 sd 3 lw 1 1 1 c 2268 1538 0 0 bf black 1 1 1 c 1814 1230 227 154 bf black 1814 1230 227 154 bl 1 1 1 c 1814 1230 227 154 bf black 1814 1230 227 154 bl 227 154 m 1814 X s
 gsave  2268 1538 0 0 C 1772.47 32.5821 t 0 r /Helvetica-Bold findfont 58.6478 sf 0 0 m (moduleID) show NC gr  250 191 m -37 Y s 309 172 m -18 Y s 368 172 m -18 Y s 427 172 m -18 Y s 486 172 m -18 Y s 545 191 m -37 Y s 604 172 m -18 Y s 663 172 m -18
 Y s 722 172 m -18 Y s 780 172 m -18 Y s 839 191 m -37 Y s 898 172 m -18 Y s 957 172 m -18 Y s 1016 172 m -18 Y s 1075 172 m -18 Y s 1134 191 m -37 Y s 1193 172 m -18 Y s 1252 172 m -18 Y s 1311 172 m -18 Y s 1369 172 m -18 Y s 1428 191 m -37 Y s
 1487 172 m -18 Y s 1546 172 m -18 Y s 1605 172 m -18 Y s 1664 172 m -18 Y s 1723 191 m -37 Y s 1782 172 m -18 Y s 1841 172 m -18 Y s 1900 172 m -18 Y s 1958 172 m -18 Y s 2017 191 m -37 Y s 250 191 m -37 Y s 2017 191 m -37 Y s
 gsave  2268 1538 0 0 C 228.075 97.7464 t 0 r /Helvetica-Bold findfont 58.6478 sf 0 0 m (30) show NC gr 
 gsave  2268 1538 0 0 C 198.751 97.7464 t 0 r /Symbol findfont 58.6478 sf 0 0 m (-) show NC gr 
 gsave  2268 1538 0 0 C 524.572 97.7464 t 0 r /Helvetica-Bold findfont 58.6478 sf 0 0 m (20) show NC gr 
 gsave  2268 1538 0 0 C 495.248 97.7464 t 0 r /Symbol findfont 58.6478 sf 0 0 m (-) show NC gr 
 gsave  2268 1538 0 0 C 817.812 97.7464 t 0 r /Helvetica-Bold findfont 58.6478 sf 0 0 m (10) show NC gr 
 gsave  2268 1538 0 0 C 788.488 97.7464 t 0 r /Symbol findfont 58.6478 sf 0 0 m (-) show NC gr 
 gsave  2268 1538 0 0 C 1117.57 97.7464 t 0 r /Helvetica-Bold findfont 58.6478 sf 0 0 m (0) show NC gr 
 gsave  2268 1538 0 0 C 1394.52 97.7464 t 0 r /Helvetica-Bold findfont 58.6478 sf 0 0 m (10) show NC gr 
 gsave  2268 1538 0 0 C 1687.75 97.7464 t 0 r /Helvetica-Bold findfont 58.6478 sf 0 0 m (20) show NC gr 
 gsave  2268 1538 0 0 C 1984.25 97.7464 t 0 r /Helvetica-Bold findfont 58.6478 sf 0 0 m (30) show NC gr  227 1384 m 1814 X s 250 1347 m 37 Y s 309 1366 m 18 Y s 368 1366 m 18 Y s 427 1366 m 18 Y s 486 1366 m 18 Y s 545 1347 m 37 Y s 604 1366 m 18 Y s
 663 1366 m 18 Y s 722 1366 m 18 Y s 780 1366 m 18 Y s 839 1347 m 37 Y s 898 1366 m 18 Y s 957 1366 m 18 Y s 1016 1366 m 18 Y s 1075 1366 m 18 Y s 1134 1347 m 37 Y s 1193 1366 m 18 Y s 1252 1366 m 18 Y s 1311 1366 m 18 Y s 1369 1366 m 18 Y s 1428
 1347 m 37 Y s 1487 1366 m 18 Y s 1546 1366 m 18 Y s 1605 1366 m 18 Y s 1664 1366 m 18 Y s 1723 1347 m 37 Y s 1782 1366 m 18 Y s 1841 1366 m 18 Y s 1900 1366 m 18 Y s 1958 1366 m 18 Y s 2017 1347 m 37 Y s 250 1347 m 37 Y s 2017 1347 m 37 Y s 227 154
 m 1230 Y s
 gsave  2268 1538 0 0 C 97.7464 801.521 t 90 r /Helvetica-Bold findfont 58.6478 sf 0 0 m (Hits per etaModuleID) show NC gr  281 154 m -54 X s 254 196 m -27 X s 254 238 m -27 X s 254 280 m -27 X s 254 322 m -27 X s 281 365 m -54 X s 254 407 m -27 X s
 254 449 m -27 X s 254 491 m -27 X s 254 533 m -27 X s 281 575 m -54 X s 254 618 m -27 X s 254 660 m -27 X s 254 702 m -27 X s 254 744 m -27 X s 281 786 m -54 X s 254 828 m -27 X s 254 870 m -27 X s 254 913 m -27 X s 254 955 m -27 X s 281 997 m -54 X
 s 254 1039 m -27 X s 254 1081 m -27 X s 254 1123 m -27 X s 254 1166 m -27 X s 281 1208 m -54 X s 281 1208 m -54 X s 254 1250 m -27 X s 254 1292 m -27 X s 254 1334 m -27 X s 254 1376 m -27 X s
 gsave  2268 1538 0 0 C 182.46 133.587 t 0 r /Helvetica-Bold findfont 58.6478 sf 0 0 m (0) show NC gr 
 gsave  2268 1538 0 0 C 192.235 342.112 t 0 r /Helvetica-Bold findfont 58.6478 sf 0 0 m (1) show NC gr 
 gsave  2268 1538 0 0 C 182.46 550.638 t 0 r /Helvetica-Bold findfont 58.6478 sf 0 0 m (2) show NC gr 
 gsave  2268 1538 0 0 C 182.46 765.68 t 0 r /Helvetica-Bold findfont 58.6478 sf 0 0 m (3) show NC gr 
 gsave  2268 1538 0 0 C 182.46 974.206 t 0 r /Helvetica-Bold findfont 58.6478 sf 0 0 m (4) show NC gr 
 gsave  2268 1538 0 0 C 182.46 1185.99 t 0 r /Helvetica-Bold findfont 58.6478 sf 0 0 m (5) show NC gr  2041 154 m 1230 Y s 1987 154 m 54 X s 2014 196 m 27 X s 2014 238 m 27 X s 2014 280 m 27 X s 2014 322 m 27 X s 1987 365 m 54 X s 2014 407 m 27 X s
 2014 449 m 27 X s 2014 491 m 27 X s 2014 533 m 27 X s 1987 575 m 54 X s 2014 618 m 27 X s 2014 660 m 27 X s 2014 702 m 27 X s 2014 744 m 27 X s 1987 786 m 54 X s 2014 828 m 27 X s 2014 870 m 27 X s 2014 913 m 27 X s 2014 955 m 27 X s 1987 997 m 54 X
 s 2014 1039 m 27 X s 2014 1081 m 27 X s 2014 1123 m 27 X s 2014 1166 m 27 X s 1987 1208 m 54 X s 1987 1208 m 54 X s 2014 1250 m 27 X s 2014 1292 m 27 X s 2014 1334 m 27 X s 2014 1376 m 27 X s 309 487 m 23 Y s 303 510 m 13 X s 309 461 m -23 Y s 303
 438 m 13 X s 339 470 m 17 Y s 332 487 m 13 X s 339 444 m -16 Y s 332 428 m 13 X s 368 622 m 34 Y s 362 656 m 13 X s 368 596 m -34 Y s 362 562 m 13 X s 398 622 m 41 Y s 391 663 m 13 X s 398 596 m -41 Y s 391 555 m 13 X s 427 386 m 30 Y s 421 416 m 13
 X s 427 360 m -30 Y s 421 330 m 13 X s 486 335 m 46 Y s 479 381 m 13 X s 486 309 m -45 Y s 479 264 m 13 X s 545 428 m 47 Y s 538 475 m 13 X s 545 402 m -47 Y s 538 355 m 13 X s 574 496 m 46 Y s 568 542 m 13 X s 574 470 m -47 Y s 568 423 m 13 X s 604
 673 m 42 Y s 597 715 m 13 X s 604 647 m -43 Y s 597 604 m 13 X s 633 378 m 17 Y s 627 395 m 13 X s 633 352 m -18 Y s 627 334 m 13 X s 663 403 m 22 Y s 656 425 m 13 X s 663 377 m -22 Y s 656 355 m 13 X s 692 420 m 9 Y s 686 429 m 13 X s 692 394 m -10
 Y s 686 384 m 13 X s 722 453 m 17 Y s 715 470 m 13 X s 722 427 m -16 Y s 715 411 m 13 X s 751 521 m 14 Y s 744 535 m 14 X s 751 495 m -14 Y s 744 481 m 14 X s 780 361 m 4 Y s 774 365 m 13 X s 780 335 m -5 Y s 774 330 m 13 X s 810 496 m 29 Y s 803
 525 m 13 X s 810 470 m -30 Y s 803 440 m 13 X s 839 453 m 61 Y s 833 514 m 13 X s 839 427 m -60 Y s 833 367 m 13 X s 869 521 m 47 Y s 862 568 m 13 X s 869 495 m -48 Y s 862 447 m 13 X s 898 310 m 7 Y s 892 317 m 13 X s 898 284 m -7 Y s 892 277 m 13
 X s 957 403 m 15 Y s 951 418 m 13 X s 957 377 m -16 Y s 951 361 m 13 X s 987 706 m 38 Y s 980 744 m 13 X s 987 680 m -37 Y s 980 643 m 13 X s 1016 664 m 24 Y s 1010 688 m 13 X s 1016 638 m -23 Y s 1010 615 m 13 X s 1046 479 m 8 Y s 1039 487 m 13 X s
 1046 453 m -9 Y s 1039 444 m 13 X s 1075 352 m 15 Y s 1068 367 m 13 X s 1075 326 m -14 Y s 1068 312 m 13 X s 1104 453 m 43 Y s 1098 496 m 13 X s 1104 427 m -42 Y s 1098 385 m 13 X s 1163 479 m 7 Y s 1157 486 m 13 X s 1163 453 m -7 Y s 1157 446 m 13
 X s 1193 445 m 19 Y s 1186 464 m 13 X s 1193 419 m -19 Y s 1186 400 m 13 X s 1222 698 m 28 Y s 1216 726 m 13 X s 1222 672 m -28 Y s 1216 644 m 13 X s 1252 394 m 16 Y s 1245 410 m 13 X s 1252 368 m -15 Y s 1245 353 m 13 X s 1281 319 m 8 Y s 1275 327
 m 13 X s 1281 293 m -9 Y s 1275 284 m 13 X s 1340 445 m 32 Y s 1333 477 m 14 X s 1340 419 m -32 Y s 1333 387 m 14 X s 1369 352 m 12 Y s 1363 364 m 13 X s 1369 326 m -11 Y s 1363 315 m 13 X s 1428 361 m 14 Y s 1422 375 m 13 X s 1428 335 m -15 Y s
 1422 320 m 13 X s 1458 352 m 4 Y s 1451 356 m 13 X s 1458 326 m -4 Y s 1451 322 m 13 X s 1487 327 m 2 Y s 1481 329 m 13 X s 1487 301 m -2 Y s 1481 299 m 13 X s 1517 369 m 22 Y s 1510 391 m 13 X s 1517 343 m -22 Y s 1510 321 m 13 X s 1546 293 m 1 Y s
 1540 294 m 13 X s 1546 267 m -1 Y s 1540 266 m 13 X s 1576 285 m 1 Y s 1569 286 m 13 X s 1576 259 m -1 Y s 1569 258 m 13 X s 1605 386 m 5 Y s 1599 391 m 13 X s 1605 360 m -5 Y s 1599 355 m 13 X s 1635 504 m 21 Y s 1628 525 m 13 X s 1635 478 m -21 Y
 s 1628 457 m 13 X s 1664 546 m 23 Y s 1657 569 m 13 X s 1664 520 m -23 Y s 1657 497 m 13 X s 1693 302 m s 1687 302 m 13 X s 1693 276 m -1 Y s 1687 275 m 13 X s 1723 546 m 73 Y s 1716 619 m 13 X s 1723 520 m -72 Y s 1716 448 m 13 X s 1752 639 m 46 Y
 s 1746 685 m 13 X s 1752 613 m -46 Y s 1746 567 m 13 X s 1782 740 m 73 Y s 1775 813 m 13 X s 1782 714 m -73 Y s 1775 641 m 13 X s 1811 352 m 22 Y s 1805 374 m 13 X s 1811 326 m -22 Y s 1805 304 m 13 X s 1841 428 m 23 Y s 1834 451 m 13 X s 1841 402 m
 -23 Y s 1834 379 m 13 X s 1870 428 m 37 Y s 1864 465 m 13 X s 1870 402 m -37 Y s 1864 365 m 13 X s 1900 588 m 71 Y s 1893 659 m 13 X s 1900 562 m -71 Y s 1893 491 m 13 X s 1929 824 m 79 Y s 1923 903 m 13 X s 1929 798 m -78 Y s 1923 720 m 13 X s 1958
 529 m 94 Y s 1952 623 m 13 X s 1958 503 m -93 Y s 1952 410 m 13 X s 309 474 m 30 -17 d 29 152 d 30 X 29 -236 d 29 -169 d 30 118 d 29 -84 d 30 177 d 29 68 d 30 177 d 29 -295 d 30 25 d 29 17 d 30 33 d 29 68 d 29 -160 d 30 135 d 29 -43 d 30 68 d 29
 -211 d 30 X 29 93 d 30 303 d 29 -42 d 30 -185 d 29 -127 d 29 101 d 59 26 d 30 -34 d 29 253 d 30 -304 d 29 -75 d 30 -85 d 29 211 d 29 -93 d 30 -92 d 29 101 d 30 -9 d 29 -25 d 30 42 d 29 -76 d 30 -8 d 29 101 d 30 118 d 29 42 d 29 -244 d 30 244 d 29 93
 d 30 101 d 29 -388 d 30 76 d 29 X 30 160 d 29 236 d 29 -295 d s /w 26 def /w2 {w 2 div} def /w3 {w 3 div} def 309 474 339 457 368 609 398 609 427 373 456 204 486 322 515 238 545 415 574 483 604 660 633 365 663 390 692 407 722 440 751 508 780 348 810
 483 839 440 869 508 898 297 928 297 957 390 987 693 1016 651 1046 466 1075 339 1104 440 1163 466 1193 432 1222 685 1252 381 1281 306 1311 221 1340 432 1369 339 1399 247 1428 348 1458 339 1487 314 1517 356 1546 280 1576 272 1605 373 1635 491 1664 533
 1693 289 1723 533 1752 626 1782 727 1811 339 1841 415 1870 415 1900 575 1929 811 1958 516 56 { m20} R 1 0 0 c 309 352 m 4 Y s 303 356 m 13 X s 309 326 m -4 Y s 303 322 m 13 X s 339 614 m 48 Y s 332 662 m 13 X s 339 588 m -48 Y s 332 540 m 13 X s 368
 572 m 29 Y s 362 601 m 13 X s 368 545 m -29 Y s 362 516 m 13 X s 398 597 m 35 Y s 391 632 m 13 X s 398 571 m -35 Y s 391 536 m 13 X s 427 437 m 26 Y s 421 463 m 13 X s 427 411 m -27 Y s 421 384 m 13 X s 456 335 m 4 Y s 450 339 m 13 X s 456 309 m -3
 Y s 450 306 m 13 X s 515 394 m 13 Y s 509 407 m 13 X s 515 368 m -12 Y s 509 356 m 13 X s 545 647 m 31 Y s 538 678 m 13 X s 545 621 m -30 Y s 538 591 m 13 X s 574 631 m 27 Y s 568 658 m 13 X s 574 604 m -27 Y s 568 577 m 13 X s 604 302 m 5 Y s 597
 307 m 13 X s 604 276 m -6 Y s 597 270 m 13 X s 633 572 m 25 Y s 627 597 m 13 X s 633 545 m -25 Y s 627 520 m 13 X s 663 529 m 36 Y s 656 565 m 13 X s 663 503 m -35 Y s 656 468 m 13 X s 692 614 m 22 Y s 686 636 m 13 X s 692 588 m -23 Y s 686 565 m 13
 X s 722 487 m 36 Y s 715 523 m 13 X s 722 461 m -36 Y s 715 425 m 13 X s 751 428 m 7 Y s 744 435 m 14 X s 751 402 m -7 Y s 744 395 m 14 X s 839 310 m 28 Y s 833 338 m 13 X s 839 284 m -28 Y s 833 256 m 13 X s 869 445 m 16 Y s 862 461 m 13 X s 869
 419 m -16 Y s 862 403 m 13 X s 898 513 m 15 Y s 892 528 m 13 X s 898 486 m -15 Y s 892 471 m 13 X s 928 310 m 2 Y s 921 312 m 13 X s 928 284 m -2 Y s 921 282 m 13 X s 957 310 m 1 Y s 951 311 m 13 X s 957 284 m s 951 284 m 13 X s 987 892 m 45 Y s 980
 937 m 13 X s 987 866 m -45 Y s 980 821 m 13 X s 1016 504 m 24 Y s 1010 528 m 13 X s 1016 478 m -24 Y s 1010 454 m 13 X s 1046 420 m 14 Y s 1039 434 m 13 X s 1046 394 m -15 Y s 1039 379 m 13 X s 1104 420 m 15 Y s 1098 435 m 13 X s 1104 394 m -16 Y s
 1098 378 m 13 X s 1163 361 m 3 Y s 1157 364 m 13 X s 1163 335 m -4 Y s 1157 331 m 13 X s 1193 293 m s 1186 293 m 13 X s 1193 267 m s 1186 267 m 13 X s 1222 310 m 13 Y s 1216 323 m 13 X s 1222 284 m -13 Y s 1216 271 m 13 X s 1252 521 m 22 Y s 1245
 543 m 13 X s 1252 495 m -22 Y s 1245 473 m 13 X s 1281 411 m 18 Y s 1275 429 m 13 X s 1281 385 m -18 Y s 1275 367 m 13 X s 1311 453 m 3 Y s 1304 456 m 13 X s 1311 427 m -3 Y s 1304 424 m 13 X s 1340 260 m 4 Y s 1333 264 m 14 X s 1340 233 m -4 Y s
 1333 229 m 14 X s 1399 302 m 5 Y s 1392 307 m 13 X s 1399 276 m -6 Y s 1392 270 m 13 X s 1428 437 m 15 Y s 1422 452 m 13 X s 1428 411 m -16 Y s 1422 395 m 13 X s 1458 656 m 45 Y s 1451 701 m 13 X s 1458 630 m -45 Y s 1451 585 m 13 X s 1487 335 m 11
 Y s 1481 346 m 13 X s 1487 309 m -10 Y s 1481 299 m 13 X s 1546 428 m 61 Y s 1540 489 m 13 X s 1546 402 m -60 Y s 1540 342 m 13 X s 1576 369 m 15 Y s 1569 384 m 13 X s 1576 343 m -15 Y s 1569 328 m 13 X s 1605 335 m 3 Y s 1599 338 m 13 X s 1605 309
 m -3 Y s 1599 306 m 13 X s 1635 403 m 34 Y s 1628 437 m 13 X s 1635 377 m -34 Y s 1628 343 m 13 X s 1664 428 m 28 Y s 1657 456 m 13 X s 1664 402 m -28 Y s 1657 374 m 13 X s 1693 302 m 4 Y s 1687 306 m 13 X s 1693 276 m -4 Y s 1687 272 m 13 X s 1723
 411 m 25 Y s 1716 436 m 13 X s 1723 385 m -24 Y s 1716 361 m 13 X s 1752 394 m 31 Y s 1746 425 m 13 X s 1752 368 m -30 Y s 1746 338 m 13 X s 1782 445 m 10 Y s 1775 455 m 13 X s 1782 419 m -10 Y s 1775 409 m 13 X s 1811 639 m 124 Y s 1805 763 m 13 X
 s 1811 613 m -124 Y s 1805 489 m 13 X s 1841 529 m 45 Y s 1834 574 m 13 X s 1841 503 m -45 Y s 1834 458 m 13 X s 1870 319 m s 1864 319 m 13 X s 1870 293 m -1 Y s 1864 292 m 13 X s 1900 386 m 16 Y s 1893 402 m 13 X s 1900 360 m -16 Y s 1893 344 m 13
 X s 1929 681 m 104 Y s 1923 785 m 13 X s 1929 655 m -104 Y s 1923 551 m 13 X s 1958 437 m 50 Y s 1952 487 m 13 X s 1958 411 m -51 Y s 1952 360 m 13 X s black 1 0 0 c 309 339 m 30 262 d 29 -43 d 30 26 d 29 -160 d 29 -102 d 30 -59 d 29 118 d 30 253 d
 29 -16 d 30 -329 d 29 269 d 30 -42 d 29 85 d 30 -127 d 29 -59 d 29 -126 d 30 -42 d 29 50 d 30 135 d 29 67 d 30 -202 d 29 X 30 582 d 29 -388 d 30 -84 d 29 -186 d 29 186 d 59 -59 d 30 -68 d 29 17 d 30 211 d 29 -110 d 30 42 d 29 -193 d 29 X 30 42 d 29
 135 d 30 219 d 29 -321 d 30 -42 d 29 135 d 30 -59 d 29 -34 d 30 68 d 29 25 d 29 -126 d 30 109 d 29 -17 d 30 51 d 29 194 d 30 -110 d 29 -210 d 30 67 d 29 295 d 29 -244 d s 309 339 339 601 368 558 398 584 427 424 456 322 486 263 515 381 545 634 574
 618 604 289 633 558 663 516 692 601 722 474 751 415 780 289 810 247 839 297 869 432 898 499 928 297 957 297 987 879 1016 491 1046 407 1075 221 1104 407 1163 348 1193 280 1222 297 1252 508 1281 398 1311 440 1340 247 1369 247 1399 289 1428 424 1458
 643 1487 322 1517 280 1546 415 1576 356 1605 322 1635 390 1664 415 1693 289 1723 398 1752 381 1782 432 1811 626 1841 516 1870 306 1900 373 1929 668 1958 424 56 { m20} R 0 1 0 c 722 883 m 44 Y s 715 927 m 13 X s 722 857 m -43 Y s 715 814 m 13 X s 751
 698 m 31 Y s 744 729 m 14 X s 751 672 m -31 Y s 744 641 m 14 X s 780 487 m 34 Y s 774 521 m 13 X s 780 461 m -33 Y s 774 428 m 13 X s 810 909 m 49 Y s 803 958 m 13 X s 810 883 m -49 Y s 803 834 m 13 X s 839 757 m 104 Y s 833 861 m 13 X s 839 731 m
 -104 Y s 833 627 m 13 X s 869 673 m 28 Y s 862 701 m 13 X s 869 647 m -29 Y s 862 618 m 13 X s 898 580 m 11 Y s 892 591 m 13 X s 898 554 m -11 Y s 892 543 m 13 X s 928 883 m 76 Y s 921 959 m 13 X s 928 857 m -75 Y s 921 782 m 13 X s 957 673 m 28 Y s
 951 701 m 13 X s 957 647 m -29 Y s 951 618 m 13 X s 987 774 m 29 Y s 980 803 m 13 X s 987 748 m -29 Y s 980 719 m 13 X s 1016 572 m 21 Y s 1010 593 m 13 X s 1016 545 m -21 Y s 1010 524 m 13 X s 1046 757 m 42 Y s 1039 799 m 13 X s 1046 731 m -42 Y s
 1039 689 m 13 X s 1075 647 m 69 Y s 1068 716 m 13 X s 1075 621 m -69 Y s 1068 552 m 13 X s 1104 462 m 17 Y s 1098 479 m 13 X s 1104 436 m -17 Y s 1098 419 m 13 X s 1163 487 m 22 Y s 1157 509 m 13 X s 1163 461 m -22 Y s 1157 439 m 13 X s 1193 369 m
 17 Y s 1186 386 m 13 X s 1193 343 m -17 Y s 1186 326 m 13 X s 1222 352 m 8 Y s 1216 360 m 13 X s 1222 326 m -8 Y s 1216 318 m 13 X s 1252 875 m 36 Y s 1245 911 m 13 X s 1252 849 m -36 Y s 1245 813 m 13 X s 1281 470 m 15 Y s 1275 485 m 13 X s 1281
 444 m -14 Y s 1275 430 m 13 X s 1311 706 m 30 Y s 1304 736 m 13 X s 1311 680 m -29 Y s 1304 651 m 13 X s 1340 614 m 27 Y s 1333 641 m 14 X s 1340 588 m -28 Y s 1333 560 m 14 X s 1369 588 m 33 Y s 1363 621 m 13 X s 1369 562 m -32 Y s 1363 530 m 13 X
 s 1399 690 m 30 Y s 1392 720 m 13 X s 1399 663 m -30 Y s 1392 633 m 13 X s 1428 732 m 57 Y s 1422 789 m 13 X s 1428 706 m -58 Y s 1422 648 m 13 X s 1458 934 m 95 Y s 1451 1029 m 13 X s 1458 908 m -95 Y s 1451 813 m 13 X s 1487 411 m 4 Y s 1481 415 m
 13 X s 1487 385 m -4 Y s 1481 381 m 13 X s 1517 765 m 92 Y s 1510 857 m 13 X s 1517 739 m -91 Y s 1510 648 m 13 X s 1546 690 m 56 Y s 1540 746 m 13 X s 1546 663 m -56 Y s 1540 607 m 13 X s black 0 1 0 c 722 870 m 29 -185 d 29 -211 d 30 422 d 29 -152
 d 30 -84 d 29 -93 d 30 303 d 29 -210 d 30 101 d 29 -203 d 30 186 d 29 -110 d 29 -185 d 59 25 d 30 -118 d 29 -17 d 30 523 d 29 -405 d 30 236 d 29 -92 d 29 -26 d 30 102 d 29 42 d 30 202 d 29 -523 d 30 354 d 29 -75 d s 722 870 751 685 780 474 810 896
 839 744 869 660 898 567 928 870 957 660 987 761 1016 558 1046 744 1075 634 1104 449 1163 474 1193 356 1222 339 1252 862 1281 457 1311 693 1340 601 1369 575 1399 677 1428 719 1458 921 1487 398 1517 752 1546 677 28 { m20} R 0 0 1 c 722 437 m 6 Y s 715
 443 m 13 X s 722 411 m -7 Y s 715 404 m 13 X s 751 774 m 34 Y s 744 808 m 14 X s 751 748 m -34 Y s 744 714 m 14 X s 780 352 m 4 Y s 774 356 m 13 X s 780 326 m -3 Y s 774 323 m 13 X s 810 631 m 12 Y s 803 643 m 13 X s 810 604 m -12 Y s 803 592 m 13 X
 s 839 445 m 6 Y s 833 451 m 13 X s 839 419 m -6 Y s 833 413 m 13 X s 869 504 m 16 Y s 862 520 m 13 X s 869 478 m -16 Y s 862 462 m 13 X s 898 394 m 23 Y s 892 417 m 13 X s 898 368 m -22 Y s 892 346 m 13 X s 928 740 m 32 Y s 921 772 m 13 X s 928 714
 m -31 Y s 921 683 m 13 X s 957 335 m 10 Y s 951 345 m 13 X s 957 309 m -9 Y s 951 300 m 13 X s 987 411 m 12 Y s 980 423 m 13 X s 987 385 m -12 Y s 980 373 m 13 X s 1016 622 m 23 Y s 1010 645 m 13 X s 1016 596 m -22 Y s 1010 574 m 13 X s 1046 664 m
 57 Y s 1039 721 m 13 X s 1046 638 m -57 Y s 1039 581 m 13 X s 1075 403 m 19 Y s 1068 422 m 13 X s 1075 377 m -20 Y s 1068 357 m 13 X s 1104 647 m 34 Y s 1098 681 m 13 X s 1104 621 m -33 Y s 1098 588 m 13 X s 1163 327 m 18 Y s 1157 345 m 13 X s 1163
 301 m -18 Y s 1157 283 m 13 X s 1193 453 m 109 Y s 1186 562 m 13 X s 1193 427 m -108 Y s 1186 319 m 13 X s 1252 361 m 14 Y s 1245 375 m 13 X s 1252 335 m -15 Y s 1245 320 m 13 X s 1281 622 m 34 Y s 1275 656 m 13 X s 1281 596 m -34 Y s 1275 562 m 13
 X s 1311 605 m 17 Y s 1304 622 m 13 X s 1311 579 m -17 Y s 1304 562 m 13 X s 1340 344 m 61 Y s 1333 405 m 14 X s 1340 318 m -61 Y s 1333 257 m 14 X s 1369 504 m 25 Y s 1363 529 m 13 X s 1369 478 m -25 Y s 1363 453 m 13 X s 1399 420 m 13 Y s 1392 433
 m 13 X s 1399 394 m -13 Y s 1392 381 m 13 X s 1428 631 m 29 Y s 1422 660 m 13 X s 1428 604 m -29 Y s 1422 575 m 13 X s 1458 572 m 21 Y s 1451 593 m 13 X s 1458 545 m -21 Y s 1451 524 m 13 X s 1487 580 m 31 Y s 1481 611 m 13 X s 1487 554 m -31 Y s
 1481 523 m 13 X s 1517 597 m 46 Y s 1510 643 m 13 X s 1517 571 m -46 Y s 1510 525 m 13 X s 1546 513 m 31 Y s 1540 544 m 13 X s 1546 486 m -31 Y s 1540 455 m 13 X s black 0 0 1 c 722 424 m 29 337 d 29 -422 d 30 279 d 29 -186 d 30 59 d 29 -110 d 30
 346 d 29 -405 d 30 76 d 29 211 d 30 42 d 29 -261 d 29 244 d 59 -320 d 30 126 d 29 -143 d 30 51 d 29 261 d 30 -17 d 29 -261 d 29 160 d 30 -84 d 29 211 d 30 -60 d 29 9 d 30 17 d 29 -85 d s 722 424 751 761 780 339 810 618 839 432 869 491 898 381 928
 727 957 322 987 398 1016 609 1046 651 1075 390 1104 634 1163 314 1193 440 1222 297 1252 348 1281 609 1311 592 1340 331 1369 491 1399 407 1428 618 1458 558 1487 567 1517 584 1546 499 28 { m20} R black
 gsave  2268 1538 0 0 C 1645.4 1283.74 t 0 r /Helvetica-Bold findfont 58.6478 sf 0 0 m (SCT Barrel) show NC gr 
 gsave  2268 1538 0 0 C 1762.69 1205.54 t 0 r /Helvetica-Bold findfont 58.6478 sf 0 0 m (Layer 0) show NC gr  1652 1223 m 92 X s 1698 1223 m20
 gsave  2268 1538 0 0 C 1762.69 1130.6 t 0 r /Helvetica-Bold findfont 58.6478 sf 0 0 m (Layer 1) show NC gr  1 0 0 c 1652 1146 m 92 X s 1698 1146 m20 black
 gsave  2268 1538 0 0 C 1762.69 1052.4 t 0 r /Helvetica-Bold findfont 58.6478 sf 0 0 m (Layer 2) show NC gr  0 1 0 c 1652 1069 m 92 X s 1698 1069 m20 black
 gsave  2268 1538 0 0 C 1762.69 977.464 t 0 r /Helvetica-Bold findfont 58.6478 sf 0 0 m (Layer 3) show NC gr  0 0 1 c 1652 992 m 92 X s 1698 992 m20
 gr  gr showpage
end
%%EOF
