%!PS-Adobe-2.0 EPSF-2.0
%%BoundingBox:  0 0 567 384
%%Title: pionDir/sct_occupancy/hit_sctdisk_mg.eps: c1_n35
%%Creator: ROOT Version 6.04/12
%%CreationDate: Tue Apr 19 16:53:27 2016
%%DocumentNeededResources: ProcSet (FontSetInit)
%%EndComments
%%BeginProlog
80 dict begin
/s {stroke} def /l {lineto} def /m {moveto} def /t {translate} def
/r {rotate} def /rl {roll}  def /R {repeat} def
/d {rlineto} def /rm {rmoveto} def /gr {grestore} def /f {eofill} def
/c {setrgbcolor} def /black {0 setgray} def /sd {setdash} def
/cl {closepath} def /sf {scalefont setfont} def /lw {setlinewidth} def
/box {m dup 0 exch d exch 0 d 0 exch neg d cl} def
/NC{systemdict begin initclip end}def/C{NC box clip newpath}def
/bl {box s} def /bf {gsave box gsave f grestore 1 lw [] 0 sd s grestore} def /Y { 0 exch d} def /X { 0 d} def 
/K {{pop pop 0 moveto} exch kshow} bind def
/ita {/ang 15 def gsave [1 0 ang dup sin exch cos div 1 0 0] concat} def 
/mp {newpath /y exch def /x exch def} def
/side {[w .77 mul w .23 mul] .385 w mul sd w 0 l currentpoint t -144 r} def
/mr {mp x y w2 0 360 arc} def /m24 {mr s} def /m20 {mr f} def
/mb {mp x y w2 add m w2 neg 0 d 0 w neg d w 0 d 0 w d cl} def
/mt {mp x y w2 add m w2 neg w neg d w 0 d cl} def
/m21 {mb f} def /m25 {mb s} def /m22 {mt f} def /m26{mt s} def
/m23 {mp x y w2 sub m w2 w d w neg 0 d cl f} def
/m27 {mp x y w2 add m w3 neg w2 neg d w3 w2 neg d w3 w2 d cl s} def
/m28 {mp x w2 sub y w2 sub w3 add m w3 0 d  0 w3 neg d w3 0 d 0 w3 d w3 0 d  0 w3 d w3 neg 0 d 0 w3 d w3 neg 0 d 0 w3 neg d w3 neg 0 d cl s } def
/m29 {mp gsave x w2 sub y w2 add w3 sub m currentpoint t 4 {side} repeat cl fill gr} def
/m30 {mp gsave x w2 sub y w2 add w3 sub m currentpoint t 4 {side} repeat cl s gr} def
/m31 {mp x y w2 sub m 0 w d x w2 sub y m w 0 d x w2 sub y w2 add m w w neg d x w2 sub y w2 sub m w w d s} def
/m32 {mp x y w2 sub m w2 w d w neg 0 d cl s} def
/m33 {mp x y w2 add m w3 neg w2 neg d w3 w2 neg d w3 w2 d cl f} def
/m34 {mp x w2 sub y w2 sub w3 add m w3 0 d  0 w3 neg d w3 0 d 0 w3 d w3 0 d  0 w3 d w3 neg 0 d 0 w3 d w3 neg 0 d 0 w3 neg d w3 neg 0 d cl f } def
/m2 {mp x y w2 sub m 0 w d x w2 sub y m w 0 d s} def
/m5 {mp x w2 sub y w2 sub m w w d x w2 sub y w2 add m w w neg d s} def
%%IncludeResource: ProcSet (FontSetInit)
%%IncludeResource: font Times-Roman
%%IncludeResource: font Times-Italic
%%IncludeResource: font Times-Bold
%%IncludeResource: font Times-BoldItalic
%%IncludeResource: font Helvetica
%%IncludeResource: font Helvetica-Oblique
%%IncludeResource: font Helvetica-Bold
%%IncludeResource: font Helvetica-BoldOblique
%%IncludeResource: font Courier
%%IncludeResource: font Courier-Oblique
%%IncludeResource: font Courier-Bold
%%IncludeResource: font Courier-BoldOblique
%%IncludeResource: font Symbol
%%IncludeResource: font ZapfDingbats
/reEncode {exch findfont dup length dict begin {1 index /FID eq  {pop pop} {def} ifelse } forall /Encoding exch def currentdict end dup /FontName get exch definefont pop } def [/Times-Bold /Times-Italic /Times-BoldItalic /Helvetica /Helvetica-Oblique
 /Helvetica-Bold /Helvetica-BoldOblique /Courier /Courier-Oblique /Courier-Bold /Courier-BoldOblique /Times-Roman /AvantGarde-Book /AvantGarde-BookOblique /AvantGarde-Demi /AvantGarde-DemiOblique /Bookman-Demi /Bookman-DemiItalic /Bookman-Light
 /Bookman-LightItalic /Helvetica-Narrow /Helvetica-Narrow-Bold /Helvetica-Narrow-BoldOblique /Helvetica-Narrow-Oblique /NewCenturySchlbk-Roman /NewCenturySchlbk-Bold /NewCenturySchlbk-BoldItalic /NewCenturySchlbk-Italic /Palatino-Bold
 /Palatino-BoldItalic /Palatino-Italic /Palatino-Roman ] {ISOLatin1Encoding reEncode } forall
%%EndProlog
%%BeginSetup
%%EndSetup
newpath  gsave  .25 .25 scale  gsave  0 0 t black[  ] 0 sd 3 lw 1 1 1 c 2268 1538 0 0 bf black 1 1 1 c 1814 1230 227 154 bf black 1814 1230 227 154 bl 1 1 1 c 1814 1230 227 154 bf black 1814 1230 227 154 bl 227 154 m 1814 X s
 gsave  2268 1538 0 0 C 1772.47 32.5821 t 0 r /Helvetica-Bold findfont 58.6478 sf 0 0 m (moduleID) show NC gr  309 191 m -37 Y s 358 172 m -18 Y s 406 172 m -18 Y s 455 172 m -18 Y s 503 191 m -37 Y s 552 172 m -18 Y s 600 172 m -18 Y s 649 172 m -18
 Y s 697 191 m -37 Y s 746 172 m -18 Y s 794 172 m -18 Y s 843 172 m -18 Y s 891 191 m -37 Y s 940 172 m -18 Y s 988 172 m -18 Y s 1037 172 m -18 Y s 1085 191 m -37 Y s 1134 172 m -18 Y s 1182 172 m -18 Y s 1231 172 m -18 Y s 1279 191 m -37 Y s 1328
 172 m -18 Y s 1376 172 m -18 Y s 1425 172 m -18 Y s 1473 191 m -37 Y s 1522 172 m -18 Y s 1570 172 m -18 Y s 1619 172 m -18 Y s 1667 191 m -37 Y s 1716 172 m -18 Y s 1764 172 m -18 Y s 1813 172 m -18 Y s 1861 191 m -37 Y s 309 191 m -37 Y s 261 172
 m -18 Y s 1861 191 m -37 Y s 1910 172 m -18 Y s 1958 172 m -18 Y s 2007 172 m -18 Y s
 gsave  2268 1538 0 0 C 289.981 97.7464 t 0 r /Helvetica-Bold findfont 58.6478 sf 0 0 m (0) show NC gr 
 gsave  2268 1538 0 0 C 485.474 97.7464 t 0 r /Helvetica-Bold findfont 58.6478 sf 0 0 m (2) show NC gr 
 gsave  2268 1538 0 0 C 680.967 97.7464 t 0 r /Helvetica-Bold findfont 58.6478 sf 0 0 m (4) show NC gr 
 gsave  2268 1538 0 0 C 873.201 97.7464 t 0 r /Helvetica-Bold findfont 58.6478 sf 0 0 m (6) show NC gr 
 gsave  2268 1538 0 0 C 1068.69 97.7464 t 0 r /Helvetica-Bold findfont 58.6478 sf 0 0 m (8) show NC gr 
 gsave  2268 1538 0 0 C 1244.64 97.7464 t 0 r /Helvetica-Bold findfont 58.6478 sf 0 0 m (10) show NC gr 
 gsave  2268 1538 0 0 C 1440.13 97.7464 t 0 r /Helvetica-Bold findfont 58.6478 sf 0 0 m (12) show NC gr 
 gsave  2268 1538 0 0 C 1632.36 97.7464 t 0 r /Helvetica-Bold findfont 58.6478 sf 0 0 m (14) show NC gr 
 gsave  2268 1538 0 0 C 1827.86 97.7464 t 0 r /Helvetica-Bold findfont 58.6478 sf 0 0 m (16) show NC gr  227 1384 m 1814 X s 309 1347 m 37 Y s 358 1366 m 18 Y s 406 1366 m 18 Y s 455 1366 m 18 Y s 503 1347 m 37 Y s 552 1366 m 18 Y s 600 1366 m 18 Y s
 649 1366 m 18 Y s 697 1347 m 37 Y s 746 1366 m 18 Y s 794 1366 m 18 Y s 843 1366 m 18 Y s 891 1347 m 37 Y s 940 1366 m 18 Y s 988 1366 m 18 Y s 1037 1366 m 18 Y s 1085 1347 m 37 Y s 1134 1366 m 18 Y s 1182 1366 m 18 Y s 1231 1366 m 18 Y s 1279 1347
 m 37 Y s 1328 1366 m 18 Y s 1376 1366 m 18 Y s 1425 1366 m 18 Y s 1473 1347 m 37 Y s 1522 1366 m 18 Y s 1570 1366 m 18 Y s 1619 1366 m 18 Y s 1667 1347 m 37 Y s 1716 1366 m 18 Y s 1764 1366 m 18 Y s 1813 1366 m 18 Y s 1861 1347 m 37 Y s 309 1347 m
 37 Y s 261 1366 m 18 Y s 1861 1347 m 37 Y s 1910 1366 m 18 Y s 1958 1366 m 18 Y s 2007 1366 m 18 Y s 227 154 m 1230 Y s
 gsave  2268 1538 0 0 C 97.7464 801.521 t 90 r /Helvetica-Bold findfont 58.6478 sf 0 0 m (Hits per etaModuleID) show NC gr  281 274 m -54 X s 254 306 m -27 X s 254 338 m -27 X s 254 370 m -27 X s 254 402 m -27 X s 281 434 m -54 X s 254 465 m -27 X s
 254 497 m -27 X s 254 529 m -27 X s 254 561 m -27 X s 281 593 m -54 X s 254 625 m -27 X s 254 657 m -27 X s 254 689 m -27 X s 254 721 m -27 X s 281 753 m -54 X s 254 785 m -27 X s 254 817 m -27 X s 254 849 m -27 X s 254 881 m -27 X s 281 913 m -54 X
 s 254 945 m -27 X s 254 977 m -27 X s 254 1009 m -27 X s 254 1041 m -27 X s 281 1073 m -54 X s 254 1105 m -27 X s 254 1136 m -27 X s 254 1168 m -27 X s 254 1200 m -27 X s 281 1232 m -54 X s 281 274 m -54 X s 254 242 m -27 X s 254 210 m -27 X s 254
 178 m -27 X s 281 1232 m -54 X s 254 1264 m -27 X s 254 1296 m -27 X s 254 1328 m -27 X s 254 1360 m -27 X s
 gsave  2268 1538 0 0 C 192.235 254.141 t 0 r /Helvetica-Bold findfont 58.6478 sf 0 0 m (1) show NC gr 
 gsave  2268 1538 0 0 C 182.46 410.535 t 0 r /Helvetica-Bold findfont 58.6478 sf 0 0 m (2) show NC gr 
 gsave  2268 1538 0 0 C 182.46 573.446 t 0 r /Helvetica-Bold findfont 58.6478 sf 0 0 m (3) show NC gr 
 gsave  2268 1538 0 0 C 182.46 733.098 t 0 r /Helvetica-Bold findfont 58.6478 sf 0 0 m (4) show NC gr 
 gsave  2268 1538 0 0 C 182.46 892.75 t 0 r /Helvetica-Bold findfont 58.6478 sf 0 0 m (5) show NC gr 
 gsave  2268 1538 0 0 C 182.46 1052.4 t 0 r /Helvetica-Bold findfont 58.6478 sf 0 0 m (6) show NC gr 
 gsave  2268 1538 0 0 C 182.46 1212.06 t 0 r /Helvetica-Bold findfont 58.6478 sf 0 0 m (7) show NC gr  2041 154 m 1230 Y s 1987 274 m 54 X s 2014 306 m 27 X s 2014 338 m 27 X s 2014 370 m 27 X s 2014 402 m 27 X s 1987 434 m 54 X s 2014 465 m 27 X s
 2014 497 m 27 X s 2014 529 m 27 X s 2014 561 m 27 X s 1987 593 m 54 X s 2014 625 m 27 X s 2014 657 m 27 X s 2014 689 m 27 X s 2014 721 m 27 X s 1987 753 m 54 X s 2014 785 m 27 X s 2014 817 m 27 X s 2014 849 m 27 X s 2014 881 m 27 X s 1987 913 m 54 X
 s 2014 945 m 27 X s 2014 977 m 27 X s 2014 1009 m 27 X s 2014 1041 m 27 X s 1987 1073 m 54 X s 2014 1105 m 27 X s 2014 1136 m 27 X s 2014 1168 m 27 X s 2014 1200 m 27 X s 1987 1232 m 54 X s 1987 274 m 54 X s 2014 242 m 27 X s 2014 210 m 27 X s 2014
 178 m 27 X s 1987 1232 m 54 X s 2014 1264 m 27 X s 2014 1296 m 27 X s 2014 1328 m 27 X s 2014 1360 m 27 X s 309 510 m 18 Y s 303 528 m 13 X s 309 484 m -17 Y s 303 467 m 13 X s 406 498 m 26 Y s 400 524 m 13 X s 406 472 m -27 Y s 400 445 m 13 X s 503
 504 m 14 Y s 497 518 m 13 X s 503 478 m -14 Y s 497 464 m 13 X s 600 485 m 20 Y s 594 505 m 13 X s 600 459 m -20 Y s 594 439 m 13 X s 697 427 m 16 Y s 691 443 m 13 X s 697 401 m -16 Y s 691 385 m 13 X s 794 536 m 9 Y s 788 545 m 13 X s 794 510 m -9
 Y s 788 501 m 13 X s 891 383 m 1 Y s 885 384 m 13 X s 891 357 m -2 Y s 885 355 m 13 X s 988 325 m 11 Y s 982 336 m 13 X s 988 299 m -10 Y s 982 289 m 13 X s 1085 549 m 30 Y s 1079 579 m 13 X s 1085 523 m -30 Y s 1079 493 m 13 X s 1182 466 m 15 Y s
 1176 481 m 13 X s 1182 440 m -16 Y s 1176 424 m 13 X s 1279 447 m 17 Y s 1273 464 m 13 X s 1279 420 m -17 Y s 1273 403 m 13 X s 1376 415 m 13 Y s 1370 428 m 13 X s 1376 389 m -13 Y s 1370 376 m 13 X s 1473 293 m 23 Y s 1467 316 m 13 X s 1473 267 m
 -23 Y s 1467 244 m 13 X s 1570 306 m 10 Y s 1564 316 m 13 X s 1570 280 m -10 Y s 1564 270 m 13 X s 1667 664 m 31 Y s 1661 695 m 13 X s 1667 638 m -31 Y s 1661 607 m 13 X s 1764 549 m 13 Y s 1758 562 m 13 X s 1764 523 m -14 Y s 1758 509 m 13 X s 1861
 229 m 9 Y s 1855 238 m 13 X s 1861 203 m -8 Y s 1855 195 m 13 X s 1958 312 m 4 Y s 1952 316 m 13 X s 1958 286 m -3 Y s 1952 283 m 13 X s 309 497 m 97 -12 d 97 6 d 97 -19 d 97 -58 d 97 109 d 97 -153 d 97 -58 d 97 224 d 97 -83 d 97 -19 d 97 -32 d 97
 -122 d 97 13 d 97 358 d 97 -115 d 97 -320 d 97 83 d s /w 26 def /w2 {w 2 div} def /w3 {w 3 div} def 309 497 406 485 503 491 600 472 697 414 794 523 891 370 988 312 1085 536 1182 453 1279 434 1376 402 1473 280 1570 293 1667 651 1764 536 1861 216 1958
 299 18 { m20} R 1 0 0 c 309 479 m 13 Y s 303 492 m 13 X s 309 452 m -14 Y s 303 438 m 13 X s 406 606 m 20 Y s 400 626 m 13 X s 406 580 m -20 Y s 400 560 m 13 X s 503 728 m 16 Y s 497 744 m 13 X s 503 702 m -17 Y s 497 685 m 13 X s 600 638 m 18 Y s
 594 656 m 13 X s 600 612 m -18 Y s 594 594 m 13 X s 697 562 m 20 Y s 691 582 m 13 X s 697 536 m -21 Y s 691 515 m 13 X s 794 466 m 37 Y s 788 503 m 13 X s 794 440 m -38 Y s 788 402 m 13 X s 891 530 m 13 Y s 885 543 m 13 X s 891 504 m -14 Y s 885 490
 m 13 X s 988 389 m 4 Y s 982 393 m 13 X s 988 363 m -4 Y s 982 359 m 13 X s 1085 581 m 13 Y s 1079 594 m 13 X s 1085 555 m -14 Y s 1079 541 m 13 X s 1182 447 m 24 Y s 1176 471 m 13 X s 1182 420 m -23 Y s 1176 397 m 13 X s 1279 402 m 15 Y s 1273 417
 m 13 X s 1279 376 m -16 Y s 1273 360 m 13 X s 1376 408 m 25 Y s 1370 433 m 13 X s 1376 382 m -25 Y s 1370 357 m 13 X s 1473 344 m 3 Y s 1467 347 m 13 X s 1473 318 m -2 Y s 1467 316 m 13 X s 1570 530 m 47 Y s 1564 577 m 13 X s 1570 504 m -48 Y s 1564
 456 m 13 X s 1667 760 m 30 Y s 1661 790 m 13 X s 1667 734 m -31 Y s 1661 703 m 13 X s 1764 581 m 19 Y s 1758 600 m 13 X s 1764 555 m -20 Y s 1758 535 m 13 X s 1861 312 m 9 Y s 1855 321 m 13 X s 1861 286 m -8 Y s 1855 278 m 13 X s 1958 536 m 23 Y s
 1952 559 m 13 X s 1958 510 m -23 Y s 1952 487 m 13 X s black 1 0 0 c 309 465 m 97 128 d 97 122 d 97 -90 d 97 -76 d 97 -96 d 97 64 d 97 -141 d 97 192 d 97 -134 d 97 -45 d 97 6 d 97 -64 d 97 186 d 97 230 d 97 -179 d 97 -269 d 97 224 d s 309 465 406
 593 503 715 600 625 697 549 794 453 891 517 988 376 1085 568 1182 434 1279 389 1376 395 1473 331 1570 517 1667 747 1764 568 1861 299 1958 523 18 { m20} R 0 1 0 c 309 510 m 28 Y s 303 538 m 13 X s 309 484 m -27 Y s 303 457 m 13 X s 406 683 m 25 Y s
 400 708 m 13 X s 406 657 m -25 Y s 400 632 m 13 X s 503 696 m 12 Y s 497 708 m 13 X s 503 670 m -12 Y s 497 658 m 13 X s 600 817 m 36 Y s 594 853 m 13 X s 600 791 m -36 Y s 594 755 m 13 X s 697 395 m 5 Y s 691 400 m 13 X s 697 369 m -4 Y s 691 365 m
 13 X s 794 459 m 29 Y s 788 488 m 13 X s 794 433 m -28 Y s 788 405 m 13 X s 891 485 m 4 Y s 885 489 m 13 X s 891 459 m -5 Y s 885 454 m 13 X s 988 280 m 2 Y s 982 282 m 13 X s 988 254 m -2 Y s 982 252 m 13 X s 1085 549 m 24 Y s 1079 573 m 13 X s
 1085 523 m -24 Y s 1079 499 m 13 X s 1182 479 m 12 Y s 1176 491 m 13 X s 1182 452 m -12 Y s 1176 440 m 13 X s 1279 792 m 21 Y s 1273 813 m 13 X s 1279 766 m -21 Y s 1273 745 m 13 X s 1376 332 m s 1370 332 m 13 X s 1376 305 m -1 Y s 1370 304 m 13 X s
 1473 338 m 1 Y s 1467 339 m 13 X s 1473 312 m -1 Y s 1467 311 m 13 X s 1570 434 m 27 Y s 1564 461 m 13 X s 1570 408 m -27 Y s 1564 381 m 13 X s 1667 619 m 19 Y s 1661 638 m 13 X s 1667 593 m -19 Y s 1661 574 m 13 X s 1764 856 m 29 Y s 1758 885 m 13
 X s 1764 829 m -29 Y s 1758 800 m 13 X s 1861 376 m 6 Y s 1855 382 m 13 X s 1861 350 m -6 Y s 1855 344 m 13 X s 1958 536 m 20 Y s 1952 556 m 13 X s 1958 510 m -20 Y s 1952 490 m 13 X s black 0 1 0 c 309 497 m 97 173 d 97 13 d 97 121 d 97 -422 d 97
 64 d 97 26 d 97 -205 d 97 269 d 97 -71 d 97 314 d 97 -461 d 97 7 d 97 96 d 97 185 d 97 237 d 97 -480 d 97 160 d s 309 497 406 670 503 683 600 804 697 382 794 446 891 472 988 267 1085 536 1182 465 1279 779 1376 318 1473 325 1570 421 1667 606 1764 843
 1861 363 1958 523 18 { m20} R 0 0 1 c 309 338 m 9 Y s 303 347 m 13 X s 309 312 m -9 Y s 303 303 m 13 X s 406 504 m 21 Y s 400 525 m 13 X s 406 478 m -21 Y s 400 457 m 13 X s 503 523 m 19 Y s 497 542 m 13 X s 503 497 m -19 Y s 497 478 m 13 X s 600
 715 m 20 Y s 594 735 m 13 X s 600 689 m -20 Y s 594 669 m 13 X s 697 408 m 6 Y s 691 414 m 13 X s 697 382 m -6 Y s 691 376 m 13 X s 794 517 m 5 Y s 788 522 m 13 X s 794 491 m -5 Y s 788 486 m 13 X s 891 581 m 21 Y s 885 602 m 13 X s 891 555 m -21 Y
 s 885 534 m 13 X s 988 395 m 27 Y s 982 422 m 13 X s 988 369 m -26 Y s 982 343 m 13 X s 1085 498 m 6 Y s 1079 504 m 13 X s 1085 472 m -7 Y s 1079 465 m 13 X s 1182 574 m 14 Y s 1176 588 m 13 X s 1182 548 m -13 Y s 1176 535 m 13 X s 1279 504 m 24 Y s
 1273 528 m 13 X s 1279 478 m -24 Y s 1273 454 m 13 X s 1376 619 m 22 Y s 1370 641 m 13 X s 1376 593 m -22 Y s 1370 571 m 13 X s 1473 427 m 8 Y s 1467 435 m 13 X s 1473 401 m -7 Y s 1467 394 m 13 X s 1570 459 m 8 Y s 1564 467 m 13 X s 1570 433 m -7 Y
 s 1564 426 m 13 X s 1667 709 m 36 Y s 1661 745 m 13 X s 1667 682 m -36 Y s 1661 646 m 13 X s 1764 485 m 12 Y s 1758 497 m 13 X s 1764 459 m -12 Y s 1758 447 m 13 X s 1861 568 m 16 Y s 1855 584 m 13 X s 1861 542 m -16 Y s 1855 526 m 13 X s 1958 670 m
 13 Y s 1952 683 m 13 X s 1958 644 m -12 Y s 1952 632 m 13 X s black 0 0 1 c 309 325 m 97 166 d 97 19 d 97 192 d 97 -307 d 97 109 d 97 64 d 97 -186 d 97 103 d 97 76 d 97 -70 d 97 115 d 97 -192 d 97 32 d 97 250 d 97 -224 d 97 83 d 97 102 d s 309 325
 406 491 503 510 600 702 697 395 794 504 891 568 988 382 1085 485 1182 561 1279 491 1376 606 1473 414 1570 446 1667 696 1764 472 1861 555 1958 657 18 { m20} R 1 1 0 c 309 542 m 17 Y s 303 559 m 13 X s 309 516 m -17 Y s 303 499 m 13 X s 406 555 m 14 Y
 s 400 569 m 13 X s 406 529 m -14 Y s 400 515 m 13 X s 503 638 m 4 Y s 497 642 m 13 X s 503 612 m -4 Y s 497 608 m 13 X s 600 549 m 20 Y s 594 569 m 13 X s 600 523 m -21 Y s 594 502 m 13 X s 794 479 m 4 Y s 788 483 m 13 X s 794 452 m -4 Y s 788 448 m
 13 X s 891 427 m 11 Y s 885 438 m 13 X s 891 401 m -11 Y s 885 390 m 13 X s 1085 587 m 11 Y s 1079 598 m 13 X s 1085 561 m -11 Y s 1079 550 m 13 X s 1182 677 m 10 Y s 1176 687 m 13 X s 1182 651 m -11 Y s 1176 640 m 13 X s 1279 427 m 7 Y s 1273 434 m
 13 X s 1279 401 m -6 Y s 1273 395 m 13 X s 1376 562 m 8 Y s 1370 570 m 13 X s 1376 536 m -9 Y s 1370 527 m 13 X s 1473 479 m 6 Y s 1467 485 m 13 X s 1473 452 m -6 Y s 1467 446 m 13 X s 1570 594 m 6 Y s 1564 600 m 13 X s 1570 567 m -6 Y s 1564 561 m
 13 X s 1667 721 m 13 Y s 1661 734 m 13 X s 1667 695 m -12 Y s 1661 683 m 13 X s 1764 613 m 10 Y s 1758 623 m 13 X s 1764 587 m -11 Y s 1758 576 m 13 X s 1861 613 m 25 Y s 1855 638 m 13 X s 1861 587 m -25 Y s 1855 562 m 13 X s 1958 504 m 6 Y s 1952
 510 m 13 X s 1958 478 m -6 Y s 1952 472 m 13 X s black 1 1 0 c 309 529 m 97 13 d 97 83 d 97 -89 d 97 -237 d 97 166 d 97 -51 d 97 -179 d 97 339 d 97 90 d 97 -250 d 97 135 d 97 -84 d 97 116 d 97 127 d 97 -108 d 97 X 97 -109 d s 309 529 406 542 503 625
 600 536 697 299 794 465 891 414 988 235 1085 574 1182 664 1279 414 1376 549 1473 465 1570 581 1667 708 1764 600 1861 600 1958 491 18 { m20} R 1 0 1 c 309 696 m 34 Y s 303 730 m 13 X s 309 670 m -35 Y s 303 635 m 13 X s 406 862 m 29 Y s 400 891 m 13
 X s 406 836 m -29 Y s 400 807 m 13 X s 503 645 m 15 Y s 497 660 m 13 X s 503 619 m -16 Y s 497 603 m 13 X s 600 645 m 31 Y s 594 676 m 13 X s 600 619 m -32 Y s 594 587 m 13 X s 794 498 m 12 Y s 788 510 m 13 X s 794 472 m -13 Y s 788 459 m 13 X s 988
 344 m 15 Y s 982 359 m 13 X s 988 318 m -14 Y s 982 304 m 13 X s 1085 568 m 13 Y s 1079 581 m 13 X s 1085 542 m -14 Y s 1079 528 m 13 X s 1182 542 m 24 Y s 1176 566 m 13 X s 1182 516 m -23 Y s 1176 493 m 13 X s 1279 466 m 27 Y s 1273 493 m 13 X s
 1279 440 m -28 Y s 1273 412 m 13 X s 1376 472 m 28 Y s 1370 500 m 13 X s 1376 446 m -27 Y s 1370 419 m 13 X s 1473 498 m 20 Y s 1467 518 m 13 X s 1473 472 m -20 Y s 1467 452 m 13 X s 1570 606 m 13 Y s 1564 619 m 13 X s 1570 580 m -13 Y s 1564 567 m
 13 X s 1667 862 m 19 Y s 1661 881 m 13 X s 1667 836 m -20 Y s 1661 816 m 13 X s 1764 491 m 5 Y s 1758 496 m 13 X s 1764 465 m -4 Y s 1758 461 m 13 X s 1861 804 m 16 Y s 1855 820 m 13 X s 1861 778 m -15 Y s 1855 763 m 13 X s 1958 753 m 11 Y s 1952
 764 m 13 X s 1958 727 m -10 Y s 1952 717 m 13 X s black 1 0 1 c 309 683 m 97 166 d 97 -217 d 97 X 97 -237 d 97 90 d 97 -205 d 97 51 d 97 224 d 97 -26 d 97 -76 d 97 6 d 97 26 d 97 108 d 97 256 d 97 -371 d 97 313 d 97 -51 d s 309 683 406 849 503 632
 600 632 697 395 794 485 891 280 988 331 1085 555 1182 529 1279 453 1376 459 1473 485 1570 593 1667 849 1764 478 1861 791 1958 740 18 { m20} R black[ 12 12] 0 sd 309 670 m 28 Y s 303 698 m 13 X s 309 644 m -28 Y s 303 616 m 13 X s 406 689 m 21 Y s
 400 710 m 13 X s 406 663 m -20 Y s 400 643 m 13 X s 503 491 m 9 Y s 497 500 m 13 X s 503 465 m -8 Y s 497 457 m 13 X s 600 594 m 10 Y s 594 604 m 13 X s 600 567 m -10 Y s 594 557 m 13 X s 697 312 m 7 Y s 691 319 m 13 X s 697 286 m -7 Y s 691 279 m
 13 X s 794 395 m 10 Y s 788 405 m 13 X s 794 369 m -9 Y s 788 360 m 13 X s 891 453 m 31 Y s 885 484 m 13 X s 891 427 m -31 Y s 885 396 m 13 X s 988 248 m 5 Y s 982 253 m 13 X s 988 222 m -4 Y s 982 218 m 13 X s 1085 696 m 43 Y s 1079 739 m 13 X s
 1085 670 m -44 Y s 1079 626 m 13 X s 1182 274 m 2 Y s 1176 276 m 13 X s 1182 248 m -2 Y s 1176 246 m 13 X s 1279 427 m 12 Y s 1273 439 m 13 X s 1279 401 m -11 Y s 1273 390 m 13 X s 1376 351 m 11 Y s 1370 362 m 13 X s 1376 325 m -12 Y s 1370 313 m 13
 X s 1473 485 m 24 Y s 1467 509 m 13 X s 1473 459 m -24 Y s 1467 435 m 13 X s 1570 587 m 46 Y s 1564 633 m 13 X s 1570 561 m -46 Y s 1564 515 m 13 X s 1667 824 m 188 Y s 1661 1012 m 13 X s 1667 798 m -188 Y s 1661 610 m 13 X s 1764 606 m 35 Y s 1758
 641 m 13 X s 1764 580 m -34 Y s 1758 546 m 13 X s 1861 395 m 8 Y s 1855 403 m 13 X s 1861 369 m -7 Y s 1855 362 m 13 X s 1958 587 m 16 Y s 1952 603 m 13 X s 1958 561 m -16 Y s 1952 545 m 13 X s 309 657 m 97 19 d 97 -198 d 97 103 d 97 -282 d 97 83 d
 97 58 d 97 -205 d 97 448 d 97 -422 d 97 153 d 97 -76 d 97 134 d 97 102 d 97 237 d 97 -218 d 97 -211 d 97 192 d s[  ] 0 sd 309 657 406 676 503 478 600 581 697 299 794 382 891 440 988 235 1085 683 1182 261 1279 414 1376 338 1473 472 1570 574 1667 811
 1764 593 1861 382 1958 574 18 { m21} R[ 12 12] 0 sd 1 0 0 c 309 453 m 13 Y s 303 466 m 13 X s 309 427 m -13 Y s 303 414 m 13 X s 406 568 m 18 Y s 400 586 m 13 X s 406 542 m -18 Y s 400 524 m 13 X s 503 657 m 48 Y s 497 705 m 13 X s 503 631 m -47 Y s
 497 584 m 13 X s 600 664 m 19 Y s 594 683 m 13 X s 600 638 m -20 Y s 594 618 m 13 X s 697 536 m 19 Y s 691 555 m 13 X s 697 510 m -19 Y s 691 491 m 13 X s 794 472 m 13 Y s 788 485 m 13 X s 794 446 m -13 Y s 788 433 m 13 X s 891 485 m 10 Y s 885 495
 m 13 X s 891 459 m -11 Y s 885 448 m 13 X s 988 325 m 9 Y s 982 334 m 13 X s 988 299 m -9 Y s 982 290 m 13 X s 1085 363 m 6 Y s 1079 369 m 13 X s 1085 337 m -5 Y s 1079 332 m 13 X s 1182 472 m 17 Y s 1176 489 m 13 X s 1182 446 m -17 Y s 1176 429 m
 13 X s 1279 389 m 21 Y s 1273 410 m 13 X s 1279 363 m -21 Y s 1273 342 m 13 X s 1376 491 m 14 Y s 1370 505 m 13 X s 1376 465 m -14 Y s 1370 451 m 13 X s 1473 434 m 20 Y s 1467 454 m 13 X s 1473 408 m -21 Y s 1467 387 m 13 X s 1570 383 m 10 Y s 1564
 393 m 13 X s 1570 357 m -11 Y s 1564 346 m 13 X s 1667 785 m 55 Y s 1661 840 m 13 X s 1667 759 m -55 Y s 1661 704 m 13 X s 1764 594 m 22 Y s 1758 616 m 13 X s 1764 567 m -22 Y s 1758 545 m 13 X s 1861 280 m 10 Y s 1855 290 m 13 X s 1861 254 m -9 Y s
 1855 245 m 13 X s 1958 472 m 7 Y s 1952 479 m 13 X s 1958 446 m -7 Y s 1952 439 m 13 X s black 1 0 0 c 309 440 m 97 115 d 97 89 d 97 7 d 97 -128 d 97 -64 d 97 13 d 97 -160 d 97 38 d 97 109 d 97 -83 d 97 102 d 97 -57 d 97 -51 d 97 402 d 97 -191 d 97
 -314 d 97 192 d s[  ] 0 sd 309 440 406 555 503 644 600 651 697 523 794 459 891 472 988 312 1085 350 1182 459 1279 376 1376 478 1473 421 1570 370 1667 772 1764 581 1861 267 1958 459 18 { m21} R[ 12 12] 0 sd 0 1 0 c 309 504 m 11 Y s 303 515 m 13 X s
 309 478 m -11 Y s 303 467 m 13 X s 406 568 m 16 Y s 400 584 m 13 X s 406 542 m -16 Y s 400 526 m 13 X s 503 568 m 10 Y s 497 578 m 13 X s 503 542 m -10 Y s 497 532 m 13 X s 600 594 m 33 Y s 594 627 m 13 X s 600 567 m -33 Y s 594 534 m 13 X s 697 287
 m s 691 287 m 13 X s 697 261 m -1 Y s 691 260 m 13 X s 794 613 m 13 Y s 788 626 m 13 X s 794 587 m -14 Y s 788 573 m 13 X s 891 453 m 11 Y s 885 464 m 13 X s 891 427 m -12 Y s 885 415 m 13 X s 988 376 m 12 Y s 982 388 m 13 X s 988 350 m -12 Y s 982
 338 m 13 X s 1085 562 m 12 Y s 1079 574 m 13 X s 1085 536 m -12 Y s 1079 524 m 13 X s 1182 485 m 12 Y s 1176 497 m 13 X s 1182 459 m -12 Y s 1176 447 m 13 X s 1279 363 m 2 Y s 1273 365 m 13 X s 1279 337 m -1 Y s 1273 336 m 13 X s 1570 510 m 16 Y s
 1564 526 m 13 X s 1570 484 m -15 Y s 1564 469 m 13 X s 1667 728 m 40 Y s 1661 768 m 13 X s 1667 702 m -40 Y s 1661 662 m 13 X s 1764 600 m 23 Y s 1758 623 m 13 X s 1764 574 m -23 Y s 1758 551 m 13 X s 1958 491 m 48 Y s 1952 539 m 13 X s 1958 465 m
 -47 Y s 1952 418 m 13 X s black 0 1 0 c 309 491 m 97 64 d 97 X 97 26 d 97 -307 d 97 326 d 97 -160 d 97 -77 d 97 186 d 97 -77 d 97 -122 d 97 -95 d 97 51 d 97 191 d 97 218 d 97 -128 d 97 -217 d 97 108 d s[  ] 0 sd 309 491 406 555 503 555 600 581 697
 274 794 600 891 440 988 363 1085 549 1182 472 1279 350 1376 255 1473 306 1570 497 1667 715 1764 587 1861 370 1958 478 18 { m21} R[ 12 12] 0 sd 0 0 1 c 309 491 m 4 Y s 303 495 m 13 X s 309 465 m -3 Y s 303 462 m 13 X s 406 485 m 7 Y s 400 492 m 13 X
 s 406 459 m -7 Y s 400 452 m 13 X s 503 670 m 24 Y s 497 694 m 13 X s 503 644 m -24 Y s 497 620 m 13 X s 600 772 m 14 Y s 594 786 m 13 X s 600 746 m -13 Y s 594 733 m 13 X s 697 319 m 6 Y s 691 325 m 13 X s 697 293 m -7 Y s 691 286 m 13 X s 794 568
 m 18 Y s 788 586 m 13 X s 794 542 m -18 Y s 788 524 m 13 X s 891 466 m 17 Y s 885 483 m 13 X s 891 440 m -18 Y s 885 422 m 13 X s 988 319 m 10 Y s 982 329 m 13 X s 988 293 m -11 Y s 982 282 m 13 X s 1085 600 m 40 Y s 1079 640 m 13 X s 1085 574 m -40
 Y s 1079 534 m 13 X s 1182 619 m 11 Y s 1176 630 m 13 X s 1182 593 m -11 Y s 1176 582 m 13 X s 1279 574 m 21 Y s 1273 595 m 13 X s 1279 548 m -21 Y s 1273 527 m 13 X s 1376 625 m 91 Y s 1370 716 m 13 X s 1376 599 m -91 Y s 1370 508 m 13 X s 1473 421
 m 8 Y s 1467 429 m 13 X s 1473 395 m -8 Y s 1467 387 m 13 X s 1570 427 m 4 Y s 1564 431 m 13 X s 1570 401 m -3 Y s 1564 398 m 13 X s 1667 523 m 22 Y s 1661 545 m 13 X s 1667 497 m -21 Y s 1661 476 m 13 X s 1764 504 m 13 Y s 1758 517 m 13 X s 1764
 478 m -13 Y s 1758 465 m 13 X s 1958 581 m 16 Y s 1952 597 m 13 X s 1958 555 m -16 Y s 1952 539 m 13 X s black 0 0 1 c 309 478 m 97 -6 d 97 185 d 97 102 d 97 -453 d 97 249 d 97 -102 d 97 -147 d 97 281 d 97 19 d 97 -45 d 97 51 d 97 -204 d 97 6 d 97
 96 d 97 -19 d 97 -89 d 97 166 d s[  ] 0 sd 309 478 406 472 503 657 600 759 697 306 794 555 891 453 988 306 1085 587 1182 606 1279 561 1376 612 1473 408 1570 414 1667 510 1764 491 1861 402 1958 568 18 { m21} R[ 12 12] 0 sd 1 1 0 c 309 804 m 33 Y s
 303 837 m 13 X s 309 778 m -32 Y s 303 746 m 13 X s 406 568 m 10 Y s 400 578 m 13 X s 406 542 m -10 Y s 400 532 m 13 X s 503 606 m 13 Y s 497 619 m 13 X s 503 580 m -12 Y s 497 568 m 13 X s 600 632 m 18 Y s 594 650 m 13 X s 600 606 m -19 Y s 594 587
 m 13 X s 697 440 m 7 Y s 691 447 m 13 X s 697 414 m -7 Y s 691 407 m 13 X s 794 881 m 53 Y s 788 934 m 13 X s 794 855 m -53 Y s 788 802 m 13 X s 891 562 m 27 Y s 885 589 m 13 X s 891 536 m -28 Y s 885 508 m 13 X s 1085 338 m 2 Y s 1079 340 m 13 X s
 1085 312 m -2 Y s 1079 310 m 13 X s 1182 427 m 16 Y s 1176 443 m 13 X s 1182 401 m -16 Y s 1176 385 m 13 X s 1279 498 m 4 Y s 1273 502 m 13 X s 1279 472 m -5 Y s 1273 467 m 13 X s 1376 408 m 9 Y s 1370 417 m 13 X s 1376 382 m -8 Y s 1370 374 m 13 X
 s 1473 427 m 2 Y s 1467 429 m 13 X s 1473 401 m -1 Y s 1467 400 m 13 X s 1570 594 m 24 Y s 1564 618 m 13 X s 1570 567 m -24 Y s 1564 543 m 13 X s 1667 753 m 14 Y s 1661 767 m 13 X s 1667 727 m -14 Y s 1661 713 m 13 X s 1764 594 m 23 Y s 1758 617 m
 13 X s 1764 567 m -23 Y s 1758 544 m 13 X s 1861 447 m 9 Y s 1855 456 m 13 X s 1861 420 m -9 Y s 1855 411 m 13 X s 1958 574 m 16 Y s 1952 590 m 13 X s 1958 548 m -15 Y s 1952 533 m 13 X s black 1 1 0 c 309 791 m 97 -236 d 97 38 d 97 26 d 97 -192 d
 97 441 d 97 -319 d 97 -320 d 97 96 d 97 89 d 97 71 d 97 -90 d 97 19 d 97 167 d 97 159 d 97 -159 d 97 -147 d 97 127 d s[  ] 0 sd 309 791 406 555 503 593 600 619 697 427 794 868 891 549 988 229 1085 325 1182 414 1279 485 1376 395 1473 414 1570 581
 1667 740 1764 581 1861 434 1958 561 18 { m21} R[ 12 12] 0 sd 1 0 1 c 309 491 m 11 Y s 303 502 m 13 X s 309 465 m -10 Y s 303 455 m 13 X s 406 657 m 25 Y s 400 682 m 13 X s 406 631 m -24 Y s 400 607 m 13 X s 503 741 m 7 Y s 497 748 m 13 X s 503 714 m
 -7 Y s 497 707 m 13 X s 600 645 m 5 Y s 594 650 m 13 X s 600 619 m -5 Y s 594 614 m 13 X s 697 485 m 17 Y s 691 502 m 13 X s 697 459 m -17 Y s 691 442 m 13 X s 794 638 m 10 Y s 788 648 m 13 X s 794 612 m -9 Y s 788 603 m 13 X s 891 625 m 21 Y s 885
 646 m 13 X s 891 599 m -20 Y s 885 579 m 13 X s 988 287 m 8 Y s 982 295 m 13 X s 988 261 m -8 Y s 982 253 m 13 X s 1085 479 m 3 Y s 1079 482 m 13 X s 1085 452 m -3 Y s 1079 449 m 13 X s 1182 670 m 18 Y s 1176 688 m 13 X s 1182 644 m -17 Y s 1176 627
 m 13 X s 1279 466 m 10 Y s 1273 476 m 13 X s 1279 440 m -11 Y s 1273 429 m 13 X s 1376 523 m 18 Y s 1370 541 m 13 X s 1376 497 m -18 Y s 1370 479 m 13 X s 1473 363 m 2 Y s 1467 365 m 13 X s 1473 337 m -2 Y s 1467 335 m 13 X s 1570 479 m 5 Y s 1564
 484 m 13 X s 1570 452 m -5 Y s 1564 447 m 13 X s 1667 689 m 18 Y s 1661 707 m 13 X s 1667 663 m -17 Y s 1661 646 m 13 X s 1764 753 m 14 Y s 1758 767 m 13 X s 1764 727 m -14 Y s 1758 713 m 13 X s 1861 510 m 11 Y s 1855 521 m 13 X s 1861 484 m -11 Y s
 1855 473 m 13 X s 1958 657 m 21 Y s 1952 678 m 13 X s 1958 631 m -20 Y s 1952 611 m 13 X s black 1 0 1 c 309 478 m 97 166 d 97 83 d 97 -95 d 97 -160 d 97 153 d 97 -13 d 97 -338 d 97 191 d 97 192 d 97 -204 d 97 57 d 97 -160 d 97 115 d 97 211 d 97 64
 d 97 -243 d 97 147 d s[  ] 0 sd 309 478 406 644 503 727 600 632 697 472 794 625 891 612 988 274 1085 465 1182 657 1279 453 1376 510 1473 350 1570 465 1667 676 1764 740 1861 497 1958 644 18 { m21} R[ 12 12] 0 sd black
 gsave  2268 1538 0 0 C 325.821 1300.03 t 0 r /Helvetica-Bold findfont 58.6478 sf 0 0 m (Sct Disk \(left\)) show NC gr 
 gsave  2268 1538 0 0 C 430.084 1244.64 t 0 r /Helvetica-Bold findfont 58.6478 sf 0 0 m (Disk 0) show NC gr [  ] 0 sd 334 1256 m 80 X s 374 1256 m20
 gsave  2268 1538 0 0 C 430.084 1189.25 t 0 r /Helvetica-Bold findfont 58.6478 sf 0 0 m (Disk 1) show NC gr  1 0 0 c 334 1201 m 80 X s 374 1201 m20 black
 gsave  2268 1538 0 0 C 430.084 1133.86 t 0 r /Helvetica-Bold findfont 58.6478 sf 0 0 m (Disk 2) show NC gr  0 1 0 c 334 1146 m 80 X s 374 1146 m20 black
 gsave  2268 1538 0 0 C 430.084 1078.47 t 0 r /Helvetica-Bold findfont 58.6478 sf 0 0 m (Disk 3) show NC gr  0 0 1 c 334 1091 m 80 X s 374 1091 m20 black
 gsave  2268 1538 0 0 C 430.084 1026.34 t 0 r /Helvetica-Bold findfont 58.6478 sf 0 0 m (Disk 4) show NC gr  1 1 0 c 334 1036 m 80 X s 374 1036 m20 black
 gsave  2268 1538 0 0 C 430.084 970.948 t 0 r /Helvetica-Bold findfont 58.6478 sf 0 0 m (Disk 5) show NC gr  1 0 1 c 334 981 m 80 X s 374 981 m20 black
 gsave  2268 1538 0 0 C 622.319 1300.03 t 0 r /Helvetica-Bold findfont 58.6478 sf 0 0 m (  \(right\)) show NC gr 
 gsave  2268 1538 0 0 C 723.323 1244.64 t 0 r /Helvetica-Bold findfont 58.6478 sf 0 0 m (Disk 0) show NC gr [ 12 12] 0 sd 629 1256 m 80 X s[  ] 0 sd 669 1256 m21[ 12 12] 0 sd
 gsave  2268 1538 0 0 C 723.323 1189.25 t 0 r /Helvetica-Bold findfont 58.6478 sf 0 0 m (Disk 1) show NC gr  1 0 0 c 629 1201 m 80 X s[  ] 0 sd 669 1201 m21[ 12 12] 0 sd black
 gsave  2268 1538 0 0 C 723.323 1133.86 t 0 r /Helvetica-Bold findfont 58.6478 sf 0 0 m (Disk 2) show NC gr  0 1 0 c 629 1146 m 80 X s[  ] 0 sd 669 1146 m21[ 12 12] 0 sd black
 gsave  2268 1538 0 0 C 723.323 1078.47 t 0 r /Helvetica-Bold findfont 58.6478 sf 0 0 m (Disk 3) show NC gr  0 0 1 c 629 1091 m 80 X s[  ] 0 sd 669 1091 m21[ 12 12] 0 sd black
 gsave  2268 1538 0 0 C 723.323 1026.34 t 0 r /Helvetica-Bold findfont 58.6478 sf 0 0 m (Disk 4) show NC gr  1 1 0 c 629 1036 m 80 X s[  ] 0 sd 669 1036 m21[ 12 12] 0 sd black
 gsave  2268 1538 0 0 C 723.323 970.948 t 0 r /Helvetica-Bold findfont 58.6478 sf 0 0 m (Disk 5) show NC gr  1 0 1 c 629 981 m 80 X s[  ] 0 sd 669 981 m21[ 12 12] 0 sd
 gr  gr showpage
end
%%EOF
