%!PS-Adobe-2.0 EPSF-2.0
%%BoundingBox:  0 0 567 384
%%Title: pionDir/sct_occupancy/hit_sctlayer_mgz.eps: c1_n26
%%Creator: ROOT Version 6.04/12
%%CreationDate: Tue Apr 19 16:53:25 2016
%%DocumentNeededResources: ProcSet (FontSetInit)
%%EndComments
%%BeginProlog
80 dict begin
/s {stroke} def /l {lineto} def /m {moveto} def /t {translate} def
/r {rotate} def /rl {roll}  def /R {repeat} def
/d {rlineto} def /rm {rmoveto} def /gr {grestore} def /f {eofill} def
/c {setrgbcolor} def /black {0 setgray} def /sd {setdash} def
/cl {closepath} def /sf {scalefont setfont} def /lw {setlinewidth} def
/box {m dup 0 exch d exch 0 d 0 exch neg d cl} def
/NC{systemdict begin initclip end}def/C{NC box clip newpath}def
/bl {box s} def /bf {gsave box gsave f grestore 1 lw [] 0 sd s grestore} def /Y { 0 exch d} def /X { 0 d} def 
/K {{pop pop 0 moveto} exch kshow} bind def
/ita {/ang 15 def gsave [1 0 ang dup sin exch cos div 1 0 0] concat} def 
/mp {newpath /y exch def /x exch def} def
/side {[w .77 mul w .23 mul] .385 w mul sd w 0 l currentpoint t -144 r} def
/mr {mp x y w2 0 360 arc} def /m24 {mr s} def /m20 {mr f} def
/mb {mp x y w2 add m w2 neg 0 d 0 w neg d w 0 d 0 w d cl} def
/mt {mp x y w2 add m w2 neg w neg d w 0 d cl} def
/m21 {mb f} def /m25 {mb s} def /m22 {mt f} def /m26{mt s} def
/m23 {mp x y w2 sub m w2 w d w neg 0 d cl f} def
/m27 {mp x y w2 add m w3 neg w2 neg d w3 w2 neg d w3 w2 d cl s} def
/m28 {mp x w2 sub y w2 sub w3 add m w3 0 d  0 w3 neg d w3 0 d 0 w3 d w3 0 d  0 w3 d w3 neg 0 d 0 w3 d w3 neg 0 d 0 w3 neg d w3 neg 0 d cl s } def
/m29 {mp gsave x w2 sub y w2 add w3 sub m currentpoint t 4 {side} repeat cl fill gr} def
/m30 {mp gsave x w2 sub y w2 add w3 sub m currentpoint t 4 {side} repeat cl s gr} def
/m31 {mp x y w2 sub m 0 w d x w2 sub y m w 0 d x w2 sub y w2 add m w w neg d x w2 sub y w2 sub m w w d s} def
/m32 {mp x y w2 sub m w2 w d w neg 0 d cl s} def
/m33 {mp x y w2 add m w3 neg w2 neg d w3 w2 neg d w3 w2 d cl f} def
/m34 {mp x w2 sub y w2 sub w3 add m w3 0 d  0 w3 neg d w3 0 d 0 w3 d w3 0 d  0 w3 d w3 neg 0 d 0 w3 d w3 neg 0 d 0 w3 neg d w3 neg 0 d cl f } def
/m2 {mp x y w2 sub m 0 w d x w2 sub y m w 0 d s} def
/m5 {mp x w2 sub y w2 sub m w w d x w2 sub y w2 add m w w neg d s} def
%%IncludeResource: ProcSet (FontSetInit)
%%IncludeResource: font Times-Roman
%%IncludeResource: font Times-Italic
%%IncludeResource: font Times-Bold
%%IncludeResource: font Times-BoldItalic
%%IncludeResource: font Helvetica
%%IncludeResource: font Helvetica-Oblique
%%IncludeResource: font Helvetica-Bold
%%IncludeResource: font Helvetica-BoldOblique
%%IncludeResource: font Courier
%%IncludeResource: font Courier-Oblique
%%IncludeResource: font Courier-Bold
%%IncludeResource: font Courier-BoldOblique
%%IncludeResource: font Symbol
%%IncludeResource: font ZapfDingbats
/reEncode {exch findfont dup length dict begin {1 index /FID eq  {pop pop} {def} ifelse } forall /Encoding exch def currentdict end dup /FontName get exch definefont pop } def [/Times-Bold /Times-Italic /Times-BoldItalic /Helvetica /Helvetica-Oblique
 /Helvetica-Bold /Helvetica-BoldOblique /Courier /Courier-Oblique /Courier-Bold /Courier-BoldOblique /Times-Roman /AvantGarde-Book /AvantGarde-BookOblique /AvantGarde-Demi /AvantGarde-DemiOblique /Bookman-Demi /Bookman-DemiItalic /Bookman-Light
 /Bookman-LightItalic /Helvetica-Narrow /Helvetica-Narrow-Bold /Helvetica-Narrow-BoldOblique /Helvetica-Narrow-Oblique /NewCenturySchlbk-Roman /NewCenturySchlbk-Bold /NewCenturySchlbk-BoldItalic /NewCenturySchlbk-Italic /Palatino-Bold
 /Palatino-BoldItalic /Palatino-Italic /Palatino-Roman ] {ISOLatin1Encoding reEncode } forall
%%EndProlog
%%BeginSetup
%%EndSetup
newpath  gsave  .25 .25 scale  gsave  0 0 t black[  ] 0 sd 3 lw 1 1 1 c 2268 1538 0 0 bf black 1 1 1 c 1814 1230 227 154 bf black 1814 1230 227 154 bl 1 1 1 c 1814 1230 227 154 bf black 1814 1230 227 154 bl 227 154 m 1814 X s
 gsave  2268 1538 0 0 C 1853.92 35.8403 t 0 r /Helvetica-Bold findfont 58.6478 sf 0 0 m (z [mm]) show NC gr  399 191 m -37 Y s 460 172 m -18 Y s 521 172 m -18 Y s 583 172 m -18 Y s 644 191 m -37 Y s 705 172 m -18 Y s 766 172 m -18 Y s 828 172 m -18 Y
 s 889 191 m -37 Y s 950 172 m -18 Y s 1011 172 m -18 Y s 1073 172 m -18 Y s 1134 191 m -37 Y s 1195 172 m -18 Y s 1256 172 m -18 Y s 1318 172 m -18 Y s 1379 191 m -37 Y s 1440 172 m -18 Y s 1501 172 m -18 Y s 1563 172 m -18 Y s 1624 191 m -37 Y s
 1685 172 m -18 Y s 1746 172 m -18 Y s 1808 172 m -18 Y s 1869 191 m -37 Y s 399 191 m -37 Y s 338 172 m -18 Y s 276 172 m -18 Y s 1869 191 m -37 Y s 1930 172 m -18 Y s 1991 172 m -18 Y s
 gsave  2268 1538 0 0 C 361.662 97.7464 t 0 r /Helvetica-Bold findfont 58.6478 sf 0 0 m (600) show NC gr 
 gsave  2268 1538 0 0 C 332.338 97.7464 t 0 r /Symbol findfont 58.6478 sf 0 0 m (-) show NC gr 
 gsave  2268 1538 0 0 C 606.028 97.7464 t 0 r /Helvetica-Bold findfont 58.6478 sf 0 0 m (400) show NC gr 
 gsave  2268 1538 0 0 C 576.704 97.7464 t 0 r /Symbol findfont 58.6478 sf 0 0 m (-) show NC gr 
 gsave  2268 1538 0 0 C 850.394 97.7464 t 0 r /Helvetica-Bold findfont 58.6478 sf 0 0 m (200) show NC gr 
 gsave  2268 1538 0 0 C 821.07 97.7464 t 0 r /Symbol findfont 58.6478 sf 0 0 m (-) show NC gr 
 gsave  2268 1538 0 0 C 1114.31 97.7464 t 0 r /Helvetica-Bold findfont 58.6478 sf 0 0 m (0) show NC gr 
 gsave  2268 1538 0 0 C 1329.35 97.7464 t 0 r /Helvetica-Bold findfont 58.6478 sf 0 0 m (200) show NC gr 
 gsave  2268 1538 0 0 C 1573.72 97.7464 t 0 r /Helvetica-Bold findfont 58.6478 sf 0 0 m (400) show NC gr 
 gsave  2268 1538 0 0 C 1818.08 97.7464 t 0 r /Helvetica-Bold findfont 58.6478 sf 0 0 m (600) show NC gr  227 1384 m 1814 X s 399 1347 m 37 Y s 460 1366 m 18 Y s 521 1366 m 18 Y s 583 1366 m 18 Y s 644 1347 m 37 Y s 705 1366 m 18 Y s 766 1366 m 18 Y
 s 828 1366 m 18 Y s 889 1347 m 37 Y s 950 1366 m 18 Y s 1011 1366 m 18 Y s 1073 1366 m 18 Y s 1134 1347 m 37 Y s 1195 1366 m 18 Y s 1256 1366 m 18 Y s 1318 1366 m 18 Y s 1379 1347 m 37 Y s 1440 1366 m 18 Y s 1501 1366 m 18 Y s 1563 1366 m 18 Y s
 1624 1347 m 37 Y s 1685 1366 m 18 Y s 1746 1366 m 18 Y s 1808 1366 m 18 Y s 1869 1347 m 37 Y s 399 1347 m 37 Y s 338 1366 m 18 Y s 276 1366 m 18 Y s 1869 1347 m 37 Y s 1930 1366 m 18 Y s 1991 1366 m 18 Y s 227 154 m 1230 Y s
 gsave  2268 1538 0 0 C 97.7464 801.521 t 90 r /Helvetica-Bold findfont 58.6478 sf 0 0 m (Hits per etaModuleID) show NC gr  281 154 m -54 X s 254 196 m -27 X s 254 238 m -27 X s 254 280 m -27 X s 254 322 m -27 X s 281 365 m -54 X s 254 407 m -27 X s
 254 449 m -27 X s 254 491 m -27 X s 254 533 m -27 X s 281 575 m -54 X s 254 618 m -27 X s 254 660 m -27 X s 254 702 m -27 X s 254 744 m -27 X s 281 786 m -54 X s 254 828 m -27 X s 254 870 m -27 X s 254 913 m -27 X s 254 955 m -27 X s 281 997 m -54 X
 s 254 1039 m -27 X s 254 1081 m -27 X s 254 1123 m -27 X s 254 1166 m -27 X s 281 1208 m -54 X s 281 1208 m -54 X s 254 1250 m -27 X s 254 1292 m -27 X s 254 1334 m -27 X s 254 1376 m -27 X s
 gsave  2268 1538 0 0 C 182.46 133.587 t 0 r /Helvetica-Bold findfont 58.6478 sf 0 0 m (0) show NC gr 
 gsave  2268 1538 0 0 C 192.235 342.112 t 0 r /Helvetica-Bold findfont 58.6478 sf 0 0 m (1) show NC gr 
 gsave  2268 1538 0 0 C 182.46 550.638 t 0 r /Helvetica-Bold findfont 58.6478 sf 0 0 m (2) show NC gr 
 gsave  2268 1538 0 0 C 182.46 765.68 t 0 r /Helvetica-Bold findfont 58.6478 sf 0 0 m (3) show NC gr 
 gsave  2268 1538 0 0 C 182.46 974.206 t 0 r /Helvetica-Bold findfont 58.6478 sf 0 0 m (4) show NC gr 
 gsave  2268 1538 0 0 C 182.46 1185.99 t 0 r /Helvetica-Bold findfont 58.6478 sf 0 0 m (5) show NC gr  2041 154 m 1230 Y s 1987 154 m 54 X s 2014 196 m 27 X s 2014 238 m 27 X s 2014 280 m 27 X s 2014 322 m 27 X s 1987 365 m 54 X s 2014 407 m 27 X s
 2014 449 m 27 X s 2014 491 m 27 X s 2014 533 m 27 X s 1987 575 m 54 X s 2014 618 m 27 X s 2014 660 m 27 X s 2014 702 m 27 X s 2014 744 m 27 X s 1987 786 m 54 X s 2014 828 m 27 X s 2014 870 m 27 X s 2014 913 m 27 X s 2014 955 m 27 X s 1987 997 m 54 X
 s 2014 1039 m 27 X s 2014 1081 m 27 X s 2014 1123 m 27 X s 2014 1166 m 27 X s 1987 1208 m 54 X s 1987 1208 m 54 X s 2014 1250 m 27 X s 2014 1292 m 27 X s 2014 1334 m 27 X s 2014 1376 m 27 X s 309 487 m 23 Y s 303 510 m 13 X s 309 461 m -23 Y s 303
 438 m 13 X s 339 470 m 17 Y s 332 487 m 13 X s 339 444 m -16 Y s 332 428 m 13 X s 368 622 m 34 Y s 361 656 m 13 X s 368 596 m -34 Y s 361 562 m 13 X s 397 622 m 41 Y s 391 663 m 13 X s 397 596 m -41 Y s 391 555 m 13 X s 429 386 m 30 Y s 423 416 m 13
 X s 429 360 m -30 Y s 423 330 m 13 X s 488 335 m 46 Y s 482 381 m 13 X s 488 309 m -45 Y s 482 264 m 13 X s 549 428 m 47 Y s 543 475 m 13 X s 549 402 m -47 Y s 543 355 m 13 X s 579 496 m 46 Y s 573 542 m 13 X s 579 470 m -47 Y s 573 423 m 13 X s 608
 673 m 42 Y s 602 715 m 13 X s 608 647 m -43 Y s 602 604 m 13 X s 637 378 m 17 Y s 631 395 m 13 X s 637 352 m -18 Y s 631 334 m 13 X s 669 403 m 22 Y s 663 425 m 13 X s 669 377 m -22 Y s 663 355 m 13 X s 699 420 m 9 Y s 692 429 m 13 X s 699 394 m -10
 Y s 692 384 m 13 X s 728 453 m 17 Y s 722 470 m 13 X s 728 427 m -16 Y s 722 411 m 13 X s 757 521 m 14 Y s 751 535 m 13 X s 757 495 m -14 Y s 751 481 m 13 X s 790 361 m 4 Y s 783 365 m 13 X s 790 335 m -5 Y s 783 330 m 13 X s 819 496 m 29 Y s 812
 525 m 13 X s 819 470 m -30 Y s 812 440 m 13 X s 848 453 m 61 Y s 842 514 m 13 X s 848 427 m -60 Y s 842 367 m 13 X s 878 521 m 47 Y s 871 568 m 13 X s 878 495 m -48 Y s 871 447 m 13 X s 910 310 m 7 Y s 903 317 m 13 X s 910 284 m -7 Y s 903 277 m 13
 X s 968 403 m 15 Y s 962 418 m 13 X s 968 377 m -16 Y s 962 361 m 13 X s 998 706 m 38 Y s 991 744 m 13 X s 998 680 m -37 Y s 991 643 m 13 X s 1030 664 m 24 Y s 1023 688 m 13 X s 1030 638 m -23 Y s 1023 615 m 13 X s 1059 479 m 8 Y s 1053 487 m 13 X s
 1059 453 m -9 Y s 1053 444 m 13 X s 1088 352 m 15 Y s 1082 367 m 13 X s 1088 326 m -14 Y s 1082 312 m 13 X s 1118 453 m 43 Y s 1111 496 m 13 X s 1118 427 m -42 Y s 1111 385 m 13 X s 1150 479 m 7 Y s 1143 486 m 13 X s 1150 453 m -7 Y s 1143 446 m 13
 X s 1179 445 m 19 Y s 1173 464 m 13 X s 1179 419 m -19 Y s 1173 400 m 13 X s 1208 698 m 28 Y s 1202 726 m 13 X s 1208 672 m -28 Y s 1202 644 m 13 X s 1238 394 m 16 Y s 1231 410 m 13 X s 1238 368 m -15 Y s 1231 353 m 13 X s 1270 319 m 8 Y s 1264 327
 m 13 X s 1270 293 m -9 Y s 1264 284 m 13 X s 1329 445 m 32 Y s 1322 477 m 13 X s 1329 419 m -32 Y s 1322 387 m 13 X s 1358 352 m 12 Y s 1351 364 m 13 X s 1358 326 m -11 Y s 1351 315 m 13 X s 1420 361 m 14 Y s 1413 375 m 13 X s 1420 335 m -15 Y s
 1413 320 m 13 X s 1449 352 m 4 Y s 1442 356 m 13 X s 1449 326 m -4 Y s 1442 322 m 13 X s 1478 327 m 2 Y s 1471 329 m 13 X s 1478 301 m -2 Y s 1471 299 m 13 X s 1510 369 m 22 Y s 1504 391 m 13 X s 1510 343 m -22 Y s 1504 321 m 13 X s 1539 293 m 1 Y s
 1533 294 m 13 X s 1539 267 m -1 Y s 1533 266 m 13 X s 1569 285 m 1 Y s 1563 286 m 13 X s 1569 259 m -1 Y s 1563 258 m 13 X s 1598 386 m 5 Y s 1592 391 m 13 X s 1598 360 m -5 Y s 1592 355 m 13 X s 1631 504 m 21 Y s 1624 525 m 13 X s 1631 478 m -21 Y
 s 1624 457 m 13 X s 1660 546 m 23 Y s 1653 569 m 13 X s 1660 520 m -23 Y s 1653 497 m 13 X s 1689 302 m s 1682 302 m 13 X s 1689 276 m -1 Y s 1682 275 m 13 X s 1718 546 m 73 Y s 1712 619 m 13 X s 1718 520 m -72 Y s 1712 448 m 13 X s 1751 639 m 46 Y
 s 1744 685 m 13 X s 1751 613 m -46 Y s 1744 567 m 13 X s 1780 740 m 73 Y s 1773 813 m 13 X s 1780 714 m -73 Y s 1773 641 m 13 X s 1809 352 m 22 Y s 1803 374 m 13 X s 1809 326 m -22 Y s 1803 304 m 13 X s 1838 428 m 23 Y s 1832 451 m 13 X s 1838 402 m
 -23 Y s 1832 379 m 13 X s 1871 428 m 37 Y s 1864 465 m 13 X s 1871 402 m -37 Y s 1864 365 m 13 X s 1900 588 m 71 Y s 1894 659 m 13 X s 1900 562 m -71 Y s 1894 491 m 13 X s 1929 824 m 79 Y s 1922 903 m 13 X s 1929 798 m -78 Y s 1922 720 m 13 X s 1958
 529 m 94 Y s 1952 623 m 13 X s 1958 503 m -93 Y s 1952 410 m 13 X s 309 474 m 30 -17 d 29 152 d 29 X 32 -236 d 30 -169 d 29 118 d 29 -84 d 32 177 d 30 68 d 29 177 d 29 -295 d 32 25 d 30 17 d 29 33 d 29 68 d 33 -160 d 29 135 d 29 -43 d 30 68 d 32
 -211 d 29 X 29 93 d 30 303 d 32 -42 d 29 -185 d 29 -127 d 30 101 d 32 26 d 29 -34 d 29 253 d 30 -304 d 32 -75 d 29 -85 d 30 211 d 29 -93 d 32 -92 d 30 101 d 29 -9 d 29 -25 d 32 42 d 29 -76 d 30 -8 d 29 101 d 33 118 d 29 42 d 29 -244 d 29 244 d 33 93
 d 29 101 d 29 -388 d 29 76 d 33 X 29 160 d 29 236 d 29 -295 d s /w 26 def /w2 {w 2 div} def /w3 {w 3 div} def 309 474 339 457 368 609 397 609 429 373 459 204 488 322 517 238 549 415 579 483 608 660 637 365 669 390 699 407 728 440 757 508 790 348 819
 483 848 440 878 508 910 297 939 297 968 390 998 693 1030 651 1059 466 1088 339 1118 440 1150 466 1179 432 1208 685 1238 381 1270 306 1299 221 1329 432 1358 339 1390 247 1420 348 1449 339 1478 314 1510 356 1539 280 1569 272 1598 373 1631 491 1660 533
 1689 289 1718 533 1751 626 1780 727 1809 339 1838 415 1871 415 1900 575 1929 811 1958 516 56 { m20} R 1 0 0 c 309 352 m 4 Y s 303 356 m 13 X s 309 326 m -4 Y s 303 322 m 13 X s 338 614 m 48 Y s 332 662 m 13 X s 338 588 m -48 Y s 332 540 m 13 X s 368
 572 m 29 Y s 361 601 m 13 X s 368 545 m -29 Y s 361 516 m 13 X s 397 597 m 35 Y s 391 632 m 13 X s 397 571 m -35 Y s 391 536 m 13 X s 429 437 m 26 Y s 423 463 m 13 X s 429 411 m -27 Y s 423 384 m 13 X s 459 335 m 4 Y s 452 339 m 13 X s 459 309 m -3
 Y s 452 306 m 13 X s 518 394 m 13 Y s 511 407 m 13 X s 518 368 m -12 Y s 511 356 m 13 X s 549 647 m 31 Y s 543 678 m 13 X s 549 621 m -30 Y s 543 591 m 13 X s 579 631 m 27 Y s 572 658 m 13 X s 579 604 m -27 Y s 572 577 m 13 X s 608 302 m 5 Y s 601
 307 m 13 X s 608 276 m -6 Y s 601 270 m 13 X s 637 572 m 25 Y s 631 597 m 13 X s 637 545 m -25 Y s 631 520 m 13 X s 670 529 m 36 Y s 663 565 m 13 X s 670 503 m -35 Y s 663 468 m 13 X s 699 614 m 22 Y s 692 636 m 13 X s 699 588 m -23 Y s 692 565 m 13
 X s 728 487 m 36 Y s 722 523 m 13 X s 728 461 m -36 Y s 722 425 m 13 X s 757 428 m 7 Y s 751 435 m 13 X s 757 402 m -7 Y s 751 395 m 13 X s 848 310 m 28 Y s 842 338 m 13 X s 848 284 m -28 Y s 842 256 m 13 X s 877 445 m 16 Y s 871 461 m 13 X s 877
 419 m -16 Y s 871 403 m 13 X s 910 513 m 15 Y s 903 528 m 13 X s 910 486 m -15 Y s 903 471 m 13 X s 939 310 m 2 Y s 933 312 m 13 X s 939 284 m -2 Y s 933 282 m 13 X s 968 310 m 1 Y s 962 311 m 13 X s 968 284 m s 962 284 m 13 X s 998 892 m 45 Y s 991
 937 m 13 X s 998 866 m -45 Y s 991 821 m 13 X s 1030 504 m 24 Y s 1023 528 m 13 X s 1030 478 m -24 Y s 1023 454 m 13 X s 1059 420 m 14 Y s 1053 434 m 13 X s 1059 394 m -15 Y s 1053 379 m 13 X s 1118 420 m 15 Y s 1111 435 m 13 X s 1118 394 m -16 Y s
 1111 378 m 13 X s 1150 361 m 3 Y s 1144 364 m 13 X s 1150 335 m -4 Y s 1144 331 m 13 X s 1179 293 m s 1173 293 m 13 X s 1179 267 m s 1173 267 m 13 X s 1209 310 m 13 Y s 1202 323 m 13 X s 1209 284 m -13 Y s 1202 271 m 13 X s 1238 521 m 22 Y s 1231
 543 m 13 X s 1238 495 m -22 Y s 1231 473 m 13 X s 1270 411 m 18 Y s 1263 429 m 14 X s 1270 385 m -18 Y s 1263 367 m 14 X s 1299 453 m 3 Y s 1293 456 m 13 X s 1299 427 m -3 Y s 1293 424 m 13 X s 1328 260 m 4 Y s 1322 264 m 13 X s 1328 233 m -4 Y s
 1322 229 m 13 X s 1390 302 m 5 Y s 1384 307 m 13 X s 1390 276 m -6 Y s 1384 270 m 13 X s 1419 437 m 15 Y s 1413 452 m 13 X s 1419 411 m -16 Y s 1413 395 m 13 X s 1449 656 m 45 Y s 1442 701 m 13 X s 1449 630 m -45 Y s 1442 585 m 13 X s 1478 335 m 11
 Y s 1472 346 m 13 X s 1478 309 m -10 Y s 1472 299 m 13 X s 1540 428 m 61 Y s 1533 489 m 13 X s 1540 402 m -60 Y s 1533 342 m 13 X s 1569 369 m 15 Y s 1562 384 m 13 X s 1569 343 m -15 Y s 1562 328 m 13 X s 1598 335 m 3 Y s 1592 338 m 13 X s 1598 309
 m -3 Y s 1592 306 m 13 X s 1630 403 m 34 Y s 1624 437 m 13 X s 1630 377 m -34 Y s 1624 343 m 13 X s 1660 428 m 28 Y s 1653 456 m 13 X s 1660 402 m -28 Y s 1653 374 m 13 X s 1689 302 m 4 Y s 1682 306 m 13 X s 1689 276 m -4 Y s 1682 272 m 13 X s 1718
 411 m 25 Y s 1712 436 m 13 X s 1718 385 m -24 Y s 1712 361 m 13 X s 1751 394 m 31 Y s 1744 425 m 13 X s 1751 368 m -30 Y s 1744 338 m 13 X s 1779 445 m 10 Y s 1773 455 m 13 X s 1779 419 m -10 Y s 1773 409 m 13 X s 1809 639 m 124 Y s 1803 763 m 13 X
 s 1809 613 m -124 Y s 1803 489 m 13 X s 1838 529 m 45 Y s 1832 574 m 13 X s 1838 503 m -45 Y s 1832 458 m 13 X s 1871 319 m s 1864 319 m 13 X s 1871 293 m -1 Y s 1864 292 m 13 X s 1899 386 m 16 Y s 1893 402 m 13 X s 1899 360 m -16 Y s 1893 344 m 13
 X s 1929 681 m 104 Y s 1922 785 m 13 X s 1929 655 m -104 Y s 1922 551 m 13 X s 1958 437 m 50 Y s 1952 487 m 13 X s 1958 411 m -51 Y s 1952 360 m 13 X s black 1 0 0 c 309 339 m 29 262 d 30 -43 d 29 26 d 32 -160 d 30 -102 d 29 -59 d 30 118 d 31 253 d
 30 -16 d 29 -329 d 29 269 d 33 -42 d 29 85 d 29 -127 d 29 -59 d 33 -126 d 29 -42 d 29 50 d 29 135 d 33 67 d 29 -202 d 29 X 30 582 d 32 -388 d 29 -84 d 29 -186 d 30 186 d 32 -59 d 29 -68 d 30 17 d 29 211 d 32 -110 d 29 42 d 29 -193 d 30 X 32 42 d 29
 135 d 30 219 d 29 -321 d 33 -42 d 29 135 d 29 -59 d 29 -34 d 32 68 d 30 25 d 29 -126 d 29 109 d 33 -17 d 28 51 d 30 194 d 29 -110 d 33 -210 d 28 67 d 30 295 d 29 -244 d s 309 339 338 601 368 558 397 584 429 424 459 322 488 263 518 381 549 634 579
 618 608 289 637 558 670 516 699 601 728 474 757 415 790 289 819 247 848 297 877 432 910 499 939 297 968 297 998 879 1030 491 1059 407 1088 221 1118 407 1150 348 1179 280 1209 297 1238 508 1270 398 1299 440 1328 247 1358 247 1390 289 1419 424 1449
 643 1478 322 1511 280 1540 415 1569 356 1598 322 1630 390 1660 415 1689 289 1718 398 1751 381 1779 432 1809 626 1838 516 1871 306 1899 373 1929 668 1958 424 56 { m20} R 0 1 0 c 324 883 m 44 Y s 318 927 m 13 X s 324 857 m -43 Y s 318 814 m 13 X s 382
 698 m 31 Y s 376 729 m 13 X s 382 672 m -31 Y s 376 641 m 13 X s 444 487 m 34 Y s 438 521 m 13 X s 444 461 m -33 Y s 438 428 m 13 X s 502 909 m 49 Y s 496 958 m 13 X s 502 883 m -49 Y s 496 834 m 13 X s 564 757 m 104 Y s 558 861 m 13 X s 564 731 m
 -104 Y s 558 627 m 13 X s 623 673 m 28 Y s 616 701 m 13 X s 623 647 m -29 Y s 616 618 m 13 X s 684 580 m 11 Y s 678 591 m 13 X s 684 554 m -11 Y s 678 543 m 13 X s 743 883 m 76 Y s 736 959 m 13 X s 743 857 m -75 Y s 736 782 m 13 X s 805 673 m 28 Y s
 798 701 m 13 X s 805 647 m -29 Y s 798 618 m 13 X s 863 774 m 29 Y s 856 803 m 13 X s 863 748 m -29 Y s 856 719 m 13 X s 925 572 m 21 Y s 918 593 m 13 X s 925 545 m -21 Y s 918 524 m 13 X s 983 757 m 42 Y s 976 799 m 13 X s 983 731 m -42 Y s 976 689
 m 13 X s 1045 647 m 69 Y s 1038 716 m 13 X s 1045 621 m -69 Y s 1038 552 m 13 X s 1103 462 m 17 Y s 1097 479 m 13 X s 1103 436 m -17 Y s 1097 419 m 13 X s 1165 487 m 22 Y s 1158 509 m 13 X s 1165 461 m -22 Y s 1158 439 m 13 X s 1223 369 m 17 Y s
 1217 386 m 13 X s 1223 343 m -17 Y s 1217 326 m 13 X s 1285 352 m 8 Y s 1278 360 m 13 X s 1285 326 m -8 Y s 1278 318 m 13 X s 1343 875 m 36 Y s 1337 911 m 13 X s 1343 849 m -36 Y s 1337 813 m 13 X s 1405 470 m 15 Y s 1398 485 m 13 X s 1405 444 m -14
 Y s 1398 430 m 13 X s 1463 706 m 30 Y s 1457 736 m 13 X s 1463 680 m -29 Y s 1457 651 m 13 X s 1525 614 m 27 Y s 1519 641 m 13 X s 1525 588 m -28 Y s 1519 560 m 13 X s 1583 588 m 33 Y s 1577 621 m 13 X s 1583 562 m -32 Y s 1577 530 m 13 X s 1645 690
 m 30 Y s 1639 720 m 13 X s 1645 663 m -30 Y s 1639 633 m 13 X s 1704 732 m 57 Y s 1697 789 m 13 X s 1704 706 m -58 Y s 1697 648 m 13 X s 1765 934 m 95 Y s 1759 1029 m 13 X s 1765 908 m -95 Y s 1759 813 m 13 X s 1824 411 m 4 Y s 1817 415 m 13 X s
 1824 385 m -4 Y s 1817 381 m 13 X s 1885 765 m 92 Y s 1879 857 m 13 X s 1885 739 m -91 Y s 1879 648 m 13 X s 1944 690 m 56 Y s 1937 746 m 13 X s 1944 663 m -56 Y s 1937 607 m 13 X s black 0 1 0 c 324 870 m 58 -185 d 62 -211 d 58 422 d 62 -152 d 59
 -84 d 61 -93 d 59 303 d 62 -210 d 58 101 d 62 -203 d 58 186 d 62 -110 d 58 -185 d 62 25 d 58 -118 d 62 -17 d 58 523 d 62 -405 d 58 236 d 62 -92 d 58 -26 d 62 102 d 59 42 d 61 202 d 59 -523 d 61 354 d 59 -75 d s 324 870 382 685 444 474 502 896 564
 744 623 660 684 567 743 870 805 660 863 761 925 558 983 744 1045 634 1103 449 1165 474 1223 356 1285 339 1343 862 1405 457 1463 693 1525 601 1583 575 1645 677 1704 719 1765 921 1824 398 1885 752 1944 677 28 { m20} R 0 0 1 c 324 437 m 6 Y s 317 443 m
 14 X s 324 411 m -7 Y s 317 404 m 14 X s 382 774 m 34 Y s 376 808 m 13 X s 382 748 m -34 Y s 376 714 m 13 X s 444 352 m 4 Y s 438 356 m 13 X s 444 326 m -3 Y s 438 323 m 13 X s 503 631 m 12 Y s 496 643 m 13 X s 503 604 m -12 Y s 496 592 m 13 X s 564
 445 m 6 Y s 558 451 m 13 X s 564 419 m -6 Y s 558 413 m 13 X s 623 504 m 16 Y s 616 520 m 13 X s 623 478 m -16 Y s 616 462 m 13 X s 684 394 m 23 Y s 678 417 m 13 X s 684 368 m -22 Y s 678 346 m 13 X s 743 740 m 32 Y s 736 772 m 13 X s 743 714 m -31
 Y s 736 683 m 13 X s 804 335 m 10 Y s 798 345 m 13 X s 804 309 m -9 Y s 798 300 m 13 X s 863 411 m 12 Y s 856 423 m 13 X s 863 385 m -12 Y s 856 373 m 13 X s 925 622 m 23 Y s 918 645 m 13 X s 925 596 m -22 Y s 918 574 m 13 X s 983 664 m 57 Y s 976
 721 m 13 X s 983 638 m -57 Y s 976 581 m 13 X s 1044 403 m 19 Y s 1038 422 m 13 X s 1044 377 m -20 Y s 1038 357 m 13 X s 1103 647 m 34 Y s 1096 681 m 13 X s 1103 621 m -33 Y s 1096 588 m 13 X s 1165 327 m 18 Y s 1158 345 m 13 X s 1165 301 m -18 Y s
 1158 283 m 13 X s 1223 453 m 109 Y s 1217 562 m 13 X s 1223 427 m -108 Y s 1217 319 m 13 X s 1343 361 m 14 Y s 1337 375 m 13 X s 1343 335 m -15 Y s 1337 320 m 13 X s 1405 622 m 34 Y s 1398 656 m 13 X s 1405 596 m -34 Y s 1398 562 m 13 X s 1463 605 m
 17 Y s 1457 622 m 13 X s 1463 579 m -17 Y s 1457 562 m 13 X s 1525 344 m 61 Y s 1518 405 m 13 X s 1525 318 m -61 Y s 1518 257 m 13 X s 1583 504 m 25 Y s 1577 529 m 13 X s 1583 478 m -25 Y s 1577 453 m 13 X s 1645 420 m 13 Y s 1638 433 m 13 X s 1645
 394 m -13 Y s 1638 381 m 13 X s 1703 631 m 29 Y s 1697 660 m 13 X s 1703 604 m -29 Y s 1697 575 m 13 X s 1765 572 m 21 Y s 1759 593 m 13 X s 1765 545 m -21 Y s 1759 524 m 13 X s 1824 580 m 31 Y s 1817 611 m 13 X s 1824 554 m -31 Y s 1817 523 m 13 X
 s 1885 597 m 46 Y s 1879 643 m 13 X s 1885 571 m -46 Y s 1879 525 m 13 X s 1944 513 m 31 Y s 1937 544 m 13 X s 1944 486 m -31 Y s 1937 455 m 13 X s black 0 0 1 c 324 424 m 58 337 d 62 -422 d 59 279 d 61 -186 d 59 59 d 61 -110 d 59 346 d 61 -405 d 59
 76 d 62 211 d 58 42 d 61 -261 d 59 244 d 62 -320 d 58 126 d 62 -143 d 58 51 d 62 261 d 58 -17 d 62 -261 d 58 160 d 62 -84 d 58 211 d 62 -60 d 59 9 d 61 17 d 59 -85 d s 324 424 382 761 444 339 503 618 564 432 623 491 684 381 743 727 804 322 863 398
 925 609 983 651 1044 390 1103 634 1165 314 1223 440 1285 297 1343 348 1405 609 1463 592 1525 331 1583 491 1645 407 1703 618 1765 558 1824 567 1885 584 1944 499 28 { m20} R black
 gsave  2268 1538 0 0 C 1394.52 1273.96 t 0 r /Helvetica-Bold findfont 58.6478 sf 0 0 m (SCT Barrel) show NC gr 
 gsave  2268 1538 0 0 C 1495.52 1228.35 t 0 r /Helvetica-Bold findfont 58.6478 sf 0 0 m (Layer 0) show NC gr  1400 1238 m 80 X s 1440 1238 m20
 gsave  2268 1538 0 0 C 1495.52 1182.73 t 0 r /Helvetica-Bold findfont 58.6478 sf 0 0 m (Layer 1) show NC gr  1 0 0 c 1400 1192 m 80 X s 1440 1192 m20 black
 gsave  2268 1538 0 0 C 1495.52 1137.12 t 0 r /Helvetica-Bold findfont 58.6478 sf 0 0 m (Layer 2) show NC gr  0 1 0 c 1400 1146 m 80 X s 1440 1146 m20 black
 gsave  2268 1538 0 0 C 1495.52 1091.5 t 0 r /Helvetica-Bold findfont 58.6478 sf 0 0 m (Layer 3) show NC gr  0 0 1 c 1400 1100 m 80 X s 1440 1100 m20
 gr  gr showpage
end
%%EOF
