%!PS-Adobe-2.0 EPSF-2.0
%%BoundingBox:  0 0 567 384
%%Title: pionDir/sct_occupancy/size_sctlayer_mg.eps: c1_n29
%%Creator: ROOT Version 6.04/12
%%CreationDate: Tue Apr 19 16:53:26 2016
%%DocumentNeededResources: ProcSet (FontSetInit)
%%EndComments
%%BeginProlog
80 dict begin
/s {stroke} def /l {lineto} def /m {moveto} def /t {translate} def
/r {rotate} def /rl {roll}  def /R {repeat} def
/d {rlineto} def /rm {rmoveto} def /gr {grestore} def /f {eofill} def
/c {setrgbcolor} def /black {0 setgray} def /sd {setdash} def
/cl {closepath} def /sf {scalefont setfont} def /lw {setlinewidth} def
/box {m dup 0 exch d exch 0 d 0 exch neg d cl} def
/NC{systemdict begin initclip end}def/C{NC box clip newpath}def
/bl {box s} def /bf {gsave box gsave f grestore 1 lw [] 0 sd s grestore} def /Y { 0 exch d} def /X { 0 d} def 
/K {{pop pop 0 moveto} exch kshow} bind def
/ita {/ang 15 def gsave [1 0 ang dup sin exch cos div 1 0 0] concat} def 
/mp {newpath /y exch def /x exch def} def
/side {[w .77 mul w .23 mul] .385 w mul sd w 0 l currentpoint t -144 r} def
/mr {mp x y w2 0 360 arc} def /m24 {mr s} def /m20 {mr f} def
/mb {mp x y w2 add m w2 neg 0 d 0 w neg d w 0 d 0 w d cl} def
/mt {mp x y w2 add m w2 neg w neg d w 0 d cl} def
/m21 {mb f} def /m25 {mb s} def /m22 {mt f} def /m26{mt s} def
/m23 {mp x y w2 sub m w2 w d w neg 0 d cl f} def
/m27 {mp x y w2 add m w3 neg w2 neg d w3 w2 neg d w3 w2 d cl s} def
/m28 {mp x w2 sub y w2 sub w3 add m w3 0 d  0 w3 neg d w3 0 d 0 w3 d w3 0 d  0 w3 d w3 neg 0 d 0 w3 d w3 neg 0 d 0 w3 neg d w3 neg 0 d cl s } def
/m29 {mp gsave x w2 sub y w2 add w3 sub m currentpoint t 4 {side} repeat cl fill gr} def
/m30 {mp gsave x w2 sub y w2 add w3 sub m currentpoint t 4 {side} repeat cl s gr} def
/m31 {mp x y w2 sub m 0 w d x w2 sub y m w 0 d x w2 sub y w2 add m w w neg d x w2 sub y w2 sub m w w d s} def
/m32 {mp x y w2 sub m w2 w d w neg 0 d cl s} def
/m33 {mp x y w2 add m w3 neg w2 neg d w3 w2 neg d w3 w2 d cl f} def
/m34 {mp x w2 sub y w2 sub w3 add m w3 0 d  0 w3 neg d w3 0 d 0 w3 d w3 0 d  0 w3 d w3 neg 0 d 0 w3 d w3 neg 0 d 0 w3 neg d w3 neg 0 d cl f } def
/m2 {mp x y w2 sub m 0 w d x w2 sub y m w 0 d s} def
/m5 {mp x w2 sub y w2 sub m w w d x w2 sub y w2 add m w w neg d s} def
%%IncludeResource: ProcSet (FontSetInit)
%%IncludeResource: font Times-Roman
%%IncludeResource: font Times-Italic
%%IncludeResource: font Times-Bold
%%IncludeResource: font Times-BoldItalic
%%IncludeResource: font Helvetica
%%IncludeResource: font Helvetica-Oblique
%%IncludeResource: font Helvetica-Bold
%%IncludeResource: font Helvetica-BoldOblique
%%IncludeResource: font Courier
%%IncludeResource: font Courier-Oblique
%%IncludeResource: font Courier-Bold
%%IncludeResource: font Courier-BoldOblique
%%IncludeResource: font Symbol
%%IncludeResource: font ZapfDingbats
/reEncode {exch findfont dup length dict begin {1 index /FID eq  {pop pop} {def} ifelse } forall /Encoding exch def currentdict end dup /FontName get exch definefont pop } def [/Times-Bold /Times-Italic /Times-BoldItalic /Helvetica /Helvetica-Oblique
 /Helvetica-Bold /Helvetica-BoldOblique /Courier /Courier-Oblique /Courier-Bold /Courier-BoldOblique /Times-Roman /AvantGarde-Book /AvantGarde-BookOblique /AvantGarde-Demi /AvantGarde-DemiOblique /Bookman-Demi /Bookman-DemiItalic /Bookman-Light
 /Bookman-LightItalic /Helvetica-Narrow /Helvetica-Narrow-Bold /Helvetica-Narrow-BoldOblique /Helvetica-Narrow-Oblique /NewCenturySchlbk-Roman /NewCenturySchlbk-Bold /NewCenturySchlbk-BoldItalic /NewCenturySchlbk-Italic /Palatino-Bold
 /Palatino-BoldItalic /Palatino-Italic /Palatino-Roman ] {ISOLatin1Encoding reEncode } forall
%%EndProlog
%%BeginSetup
%%EndSetup
newpath  gsave  .25 .25 scale  gsave  0 0 t black[  ] 0 sd 3 lw 1 1 1 c 2268 1538 0 0 bf black 1 1 1 c 1814 1230 227 154 bf black 1814 1230 227 154 bl 1 1 1 c 1814 1230 227 154 bf black 1814 1230 227 154 bl 227 154 m 1814 X s
 gsave  2268 1538 0 0 C 1772.47 32.5821 t 0 r /Helvetica-Bold findfont 58.6478 sf 0 0 m (moduleID) show NC gr  250 191 m -37 Y s 309 172 m -18 Y s 368 172 m -18 Y s 427 172 m -18 Y s 486 172 m -18 Y s 545 191 m -37 Y s 604 172 m -18 Y s 663 172 m -18
 Y s 722 172 m -18 Y s 780 172 m -18 Y s 839 191 m -37 Y s 898 172 m -18 Y s 957 172 m -18 Y s 1016 172 m -18 Y s 1075 172 m -18 Y s 1134 191 m -37 Y s 1193 172 m -18 Y s 1252 172 m -18 Y s 1311 172 m -18 Y s 1369 172 m -18 Y s 1428 191 m -37 Y s
 1487 172 m -18 Y s 1546 172 m -18 Y s 1605 172 m -18 Y s 1664 172 m -18 Y s 1723 191 m -37 Y s 1782 172 m -18 Y s 1841 172 m -18 Y s 1900 172 m -18 Y s 1958 172 m -18 Y s 2017 191 m -37 Y s 250 191 m -37 Y s 2017 191 m -37 Y s
 gsave  2268 1538 0 0 C 228.075 97.7464 t 0 r /Helvetica-Bold findfont 58.6478 sf 0 0 m (30) show NC gr 
 gsave  2268 1538 0 0 C 198.751 97.7464 t 0 r /Symbol findfont 58.6478 sf 0 0 m (-) show NC gr 
 gsave  2268 1538 0 0 C 524.572 97.7464 t 0 r /Helvetica-Bold findfont 58.6478 sf 0 0 m (20) show NC gr 
 gsave  2268 1538 0 0 C 495.248 97.7464 t 0 r /Symbol findfont 58.6478 sf 0 0 m (-) show NC gr 
 gsave  2268 1538 0 0 C 817.812 97.7464 t 0 r /Helvetica-Bold findfont 58.6478 sf 0 0 m (10) show NC gr 
 gsave  2268 1538 0 0 C 788.488 97.7464 t 0 r /Symbol findfont 58.6478 sf 0 0 m (-) show NC gr 
 gsave  2268 1538 0 0 C 1117.57 97.7464 t 0 r /Helvetica-Bold findfont 58.6478 sf 0 0 m (0) show NC gr 
 gsave  2268 1538 0 0 C 1394.52 97.7464 t 0 r /Helvetica-Bold findfont 58.6478 sf 0 0 m (10) show NC gr 
 gsave  2268 1538 0 0 C 1687.75 97.7464 t 0 r /Helvetica-Bold findfont 58.6478 sf 0 0 m (20) show NC gr 
 gsave  2268 1538 0 0 C 1984.25 97.7464 t 0 r /Helvetica-Bold findfont 58.6478 sf 0 0 m (30) show NC gr  227 1384 m 1814 X s 250 1347 m 37 Y s 309 1366 m 18 Y s 368 1366 m 18 Y s 427 1366 m 18 Y s 486 1366 m 18 Y s 545 1347 m 37 Y s 604 1366 m 18 Y s
 663 1366 m 18 Y s 722 1366 m 18 Y s 780 1366 m 18 Y s 839 1347 m 37 Y s 898 1366 m 18 Y s 957 1366 m 18 Y s 1016 1366 m 18 Y s 1075 1366 m 18 Y s 1134 1347 m 37 Y s 1193 1366 m 18 Y s 1252 1366 m 18 Y s 1311 1366 m 18 Y s 1369 1366 m 18 Y s 1428
 1347 m 37 Y s 1487 1366 m 18 Y s 1546 1366 m 18 Y s 1605 1366 m 18 Y s 1664 1366 m 18 Y s 1723 1347 m 37 Y s 1782 1366 m 18 Y s 1841 1366 m 18 Y s 1900 1366 m 18 Y s 1958 1366 m 18 Y s 2017 1347 m 37 Y s 250 1347 m 37 Y s 2017 1347 m 37 Y s 227 154
 m 1230 Y s
 gsave  2268 1538 0 0 C 104.263 1055.66 t 90 r /Helvetica-Bold findfont 58.6478 sf 0 0 m (Cluster size) show NC gr  281 194 m -54 X s 254 230 m -27 X s 254 266 m -27 X s 254 302 m -27 X s 254 339 m -27 X s 281 375 m -54 X s 254 411 m -27 X s 254 448
 m -27 X s 254 484 m -27 X s 254 520 m -27 X s 281 556 m -54 X s 254 593 m -27 X s 254 629 m -27 X s 254 665 m -27 X s 254 702 m -27 X s 281 738 m -54 X s 254 774 m -27 X s 254 810 m -27 X s 254 847 m -27 X s 254 883 m -27 X s 281 919 m -54 X s 254
 956 m -27 X s 254 992 m -27 X s 254 1028 m -27 X s 254 1064 m -27 X s 281 1101 m -54 X s 254 1137 m -27 X s 254 1173 m -27 X s 254 1209 m -27 X s 254 1246 m -27 X s 281 1282 m -54 X s 281 194 m -54 X s 254 157 m -27 X s 281 1282 m -54 X s 254 1318 m
 -27 X s 254 1355 m -27 X s
 gsave  2268 1538 0 0 C 192.235 172.685 t 0 r /Helvetica-Bold findfont 58.6478 sf 0 0 m (1) show NC gr 
 gsave  2268 1538 0 0 C 182.46 351.887 t 0 r /Helvetica-Bold findfont 58.6478 sf 0 0 m (2) show NC gr 
 gsave  2268 1538 0 0 C 182.46 534.347 t 0 r /Helvetica-Bold findfont 58.6478 sf 0 0 m (3) show NC gr 
 gsave  2268 1538 0 0 C 182.46 716.807 t 0 r /Helvetica-Bold findfont 58.6478 sf 0 0 m (4) show NC gr 
 gsave  2268 1538 0 0 C 182.46 899.267 t 0 r /Helvetica-Bold findfont 58.6478 sf 0 0 m (5) show NC gr 
 gsave  2268 1538 0 0 C 182.46 1078.47 t 0 r /Helvetica-Bold findfont 58.6478 sf 0 0 m (6) show NC gr 
 gsave  2268 1538 0 0 C 182.46 1260.93 t 0 r /Helvetica-Bold findfont 58.6478 sf 0 0 m (7) show NC gr  2041 154 m 1230 Y s 1987 194 m 54 X s 2014 230 m 27 X s 2014 266 m 27 X s 2014 302 m 27 X s 2014 339 m 27 X s 1987 375 m 54 X s 2014 411 m 27 X s
 2014 448 m 27 X s 2014 484 m 27 X s 2014 520 m 27 X s 1987 556 m 54 X s 2014 593 m 27 X s 2014 629 m 27 X s 2014 665 m 27 X s 2014 702 m 27 X s 1987 738 m 54 X s 2014 774 m 27 X s 2014 810 m 27 X s 2014 847 m 27 X s 2014 883 m 27 X s 1987 919 m 54 X
 s 2014 956 m 27 X s 2014 992 m 27 X s 2014 1028 m 27 X s 2014 1064 m 27 X s 1987 1101 m 54 X s 2014 1137 m 27 X s 2014 1173 m 27 X s 2014 1209 m 27 X s 2014 1246 m 27 X s 1987 1282 m 54 X s 1987 194 m 54 X s 2014 157 m 27 X s 1987 1282 m 54 X s 2014
 1318 m 27 X s 2014 1355 m 27 X s 309 353 m 24 Y s 303 377 m 13 X s 309 327 m -23 Y s 303 304 m 13 X s 339 309 m 15 Y s 332 324 m 13 X s 339 283 m -14 Y s 332 269 m 13 X s 368 322 m 17 Y s 362 339 m 13 X s 368 296 m -17 Y s 362 279 m 13 X s 398 341 m
 25 Y s 391 366 m 13 X s 398 315 m -24 Y s 391 291 m 13 X s 427 418 m 64 Y s 421 482 m 13 X s 427 392 m -64 Y s 421 328 m 13 X s 456 297 m 40 Y s 450 337 m 13 X s 456 271 m -39 Y s 450 232 m 13 X s 486 479 m 144 Y s 479 623 m 13 X s 486 453 m -144 Y
 s 479 309 m 13 X s 515 252 m 17 Y s 509 269 m 13 X s 515 226 m -17 Y s 509 209 m 13 X s 545 494 m 95 Y s 538 589 m 13 X s 545 468 m -95 Y s 538 373 m 13 X s 574 379 m 51 Y s 568 430 m 13 X s 574 353 m -51 Y s 568 302 m 13 X s 604 328 m 20 Y s 597
 348 m 13 X s 604 301 m -20 Y s 597 281 m 13 X s 633 292 m 25 Y s 627 317 m 13 X s 633 266 m -26 Y s 627 240 m 13 X s 663 307 m 29 Y s 656 336 m 13 X s 663 281 m -29 Y s 656 252 m 13 X s 692 262 m 8 Y s 686 270 m 13 X s 692 236 m -8 Y s 686 228 m 13
 X s 722 282 m 14 Y s 715 296 m 13 X s 722 256 m -13 Y s 715 243 m 13 X s 751 318 m 10 Y s 744 328 m 14 X s 751 292 m -9 Y s 744 283 m 14 X s 780 286 m 10 Y s 774 296 m 13 X s 780 260 m -10 Y s 774 250 m 13 X s 810 347 m 28 Y s 803 375 m 13 X s 810
 321 m -28 Y s 803 293 m 13 X s 839 411 m 86 Y s 833 497 m 13 X s 839 385 m -87 Y s 833 298 m 13 X s 869 330 m 39 Y s 862 369 m 13 X s 869 304 m -39 Y s 862 265 m 13 X s 898 368 m 34 Y s 892 402 m 13 X s 898 342 m -34 Y s 892 308 m 13 X s 928 231 m 3
 Y s 921 234 m 13 X s 928 205 m -4 Y s 921 201 m 13 X s 957 279 m 18 Y s 951 297 m 13 X s 957 253 m -17 Y s 951 236 m 13 X s 987 323 m 15 Y s 980 338 m 13 X s 987 297 m -15 Y s 980 282 m 13 X s 1016 280 m 6 Y s 1010 286 m 13 X s 1016 254 m -6 Y s
 1010 248 m 13 X s 1046 294 m 5 Y s 1039 299 m 13 X s 1046 268 m -6 Y s 1039 262 m 13 X s 1075 291 m 26 Y s 1068 317 m 13 X s 1075 265 m -26 Y s 1068 239 m 13 X s 1104 350 m 50 Y s 1098 400 m 13 X s 1104 324 m -50 Y s 1098 274 m 13 X s 1163 249 m 1 Y
 s 1157 250 m 13 X s 1163 223 m -1 Y s 1157 222 m 13 X s 1193 340 m 24 Y s 1186 364 m 13 X s 1193 314 m -23 Y s 1186 291 m 13 X s 1222 318 m 10 Y s 1216 328 m 13 X s 1222 292 m -10 Y s 1216 282 m 13 X s 1252 270 m 17 Y s 1245 287 m 13 X s 1252 244 m
 -17 Y s 1245 227 m 13 X s 1281 388 m 39 Y s 1275 427 m 13 X s 1281 362 m -39 Y s 1275 323 m 13 X s 1340 285 m 30 Y s 1333 315 m 14 X s 1340 259 m -29 Y s 1333 230 m 14 X s 1369 275 m 19 Y s 1363 294 m 13 X s 1369 249 m -20 Y s 1363 229 m 13 X s 1399
 275 m 20 Y s 1392 295 m 13 X s 1399 249 m -21 Y s 1392 228 m 13 X s 1428 303 m 26 Y s 1422 329 m 13 X s 1428 277 m -26 Y s 1422 251 m 13 X s 1458 275 m 9 Y s 1451 284 m 13 X s 1458 249 m -10 Y s 1451 239 m 13 X s 1487 255 m 8 Y s 1481 263 m 13 X s
 1487 229 m -9 Y s 1481 220 m 13 X s 1517 360 m 45 Y s 1510 405 m 13 X s 1517 334 m -44 Y s 1510 290 m 13 X s 1546 273 m 14 Y s 1540 287 m 13 X s 1546 246 m -14 Y s 1540 232 m 13 X s 1576 279 m 17 Y s 1569 296 m 13 X s 1576 253 m -17 Y s 1569 236 m
 13 X s 1605 261 m 6 Y s 1599 267 m 13 X s 1605 235 m -6 Y s 1599 229 m 13 X s 1635 315 m 17 Y s 1628 332 m 13 X s 1635 289 m -16 Y s 1628 273 m 13 X s 1664 280 m 11 Y s 1657 291 m 13 X s 1664 254 m -11 Y s 1657 243 m 13 X s 1693 315 m 17 Y s 1687
 332 m 13 X s 1693 289 m -16 Y s 1687 273 m 13 X s 1723 569 m 110 Y s 1716 679 m 13 X s 1723 543 m -109 Y s 1716 434 m 13 X s 1752 401 m 35 Y s 1746 436 m 13 X s 1752 375 m -34 Y s 1746 341 m 13 X s 1782 539 m 64 Y s 1775 603 m 13 X s 1782 513 m -64
 Y s 1775 449 m 13 X s 1811 358 m 49 Y s 1805 407 m 13 X s 1811 332 m -50 Y s 1805 282 m 13 X s 1841 377 m 35 Y s 1834 412 m 13 X s 1841 351 m -36 Y s 1834 315 m 13 X s 1870 377 m 54 Y s 1864 431 m 13 X s 1870 351 m -55 Y s 1864 296 m 13 X s 1900 361
 m 54 Y s 1893 415 m 13 X s 1900 335 m -54 Y s 1893 281 m 13 X s 1929 569 m 63 Y s 1923 632 m 13 X s 1929 543 m -63 Y s 1923 480 m 13 X s 1958 484 m 122 Y s 1952 606 m 13 X s 1958 458 m -122 Y s 1952 336 m 13 X s 309 340 m 30 -44 d 29 13 d 30 19 d 29
 77 d 29 -121 d 30 182 d 29 -227 d 30 242 d 29 -115 d 30 -52 d 29 -35 d 30 15 d 29 -45 d 30 20 d 29 36 d 29 -32 d 30 61 d 29 64 d 30 -81 d 29 38 d 30 -137 d 29 48 d 30 44 d 29 -43 d 30 14 d 29 -3 d 29 59 d 59 -101 d 30 91 d 29 -22 d 30 -48 d 29 118 d
 30 -181 d 29 78 d 29 -10 d 30 X 29 28 d 30 -28 d 29 -20 d 30 105 d 29 -87 d 30 6 d 29 -18 d 30 54 d 29 -35 d 29 35 d 30 254 d 29 -168 d 30 138 d 29 -181 d 30 19 d 29 X 30 -16 d 29 208 d 29 -85 d s /w 26 def /w2 {w 2 div} def /w3 {w 3 div} def 309
 340 339 296 368 309 398 328 427 405 456 284 486 466 515 239 545 481 574 366 604 314 633 279 663 294 692 249 722 269 751 305 780 273 810 334 839 398 869 317 898 355 928 218 957 266 987 310 1016 267 1046 281 1075 278 1104 337 1163 236 1193 327 1222
 305 1252 257 1281 375 1311 194 1340 272 1369 262 1399 262 1428 290 1458 262 1487 242 1517 347 1546 260 1576 266 1605 248 1635 302 1664 267 1693 302 1723 556 1752 388 1782 526 1811 345 1841 364 1870 364 1900 348 1929 556 1958 471 56 { m20} R 1 0 0 c
 309 291 m 11 Y s 303 302 m 13 X s 309 265 m -11 Y s 303 254 m 13 X s 339 369 m 34 Y s 332 403 m 13 X s 339 342 m -33 Y s 332 309 m 13 X s 368 289 m 14 Y s 362 303 m 13 X s 368 263 m -14 Y s 362 249 m 13 X s 398 314 m 20 Y s 391 334 m 13 X s 398 288
 m -19 Y s 391 269 m 13 X s 427 315 m 30 Y s 421 345 m 13 X s 427 289 m -29 Y s 421 260 m 13 X s 456 355 m 20 Y s 450 375 m 13 X s 456 329 m -20 Y s 450 309 m 13 X s 486 222 m 2 Y s 479 224 m 13 X s 486 196 m -2 Y s 479 194 m 13 X s 515 352 m 23 Y s
 509 375 m 13 X s 515 326 m -24 Y s 509 302 m 13 X s 545 329 m 15 Y s 538 344 m 13 X s 545 303 m -14 Y s 538 289 m 13 X s 574 302 m 12 Y s 568 314 m 13 X s 574 276 m -11 Y s 568 265 m 13 X s 604 315 m 28 Y s 597 343 m 13 X s 604 289 m -27 Y s 597 262
 m 13 X s 633 373 m 20 Y s 627 393 m 13 X s 633 347 m -20 Y s 627 327 m 13 X s 663 350 m 31 Y s 656 381 m 13 X s 663 324 m -30 Y s 656 294 m 13 X s 692 346 m 12 Y s 686 358 m 13 X s 692 320 m -13 Y s 686 307 m 13 X s 722 370 m 39 Y s 715 409 m 13 X s
 722 344 m -40 Y s 715 304 m 13 X s 751 281 m 6 Y s 744 287 m 14 X s 751 255 m -7 Y s 744 248 m 14 X s 810 225 m 5 Y s 803 230 m 13 X s 810 199 m -5 Y s 803 194 m 13 X s 839 368 m 85 Y s 833 453 m 13 X s 839 342 m -85 Y s 833 257 m 13 X s 869 275 m
 13 Y s 862 288 m 13 X s 869 249 m -14 Y s 862 235 m 13 X s 898 273 m 7 Y s 892 280 m 13 X s 898 247 m -7 Y s 892 240 m 13 X s 928 282 m 14 Y s 921 296 m 13 X s 928 256 m -14 Y s 921 242 m 13 X s 957 245 m 8 Y s 951 253 m 13 X s 957 219 m -7 Y s 951
 212 m 13 X s 987 331 m 12 Y s 980 343 m 13 X s 987 305 m -12 Y s 980 293 m 13 X s 1016 304 m 18 Y s 1010 322 m 13 X s 1016 278 m -17 Y s 1010 261 m 13 X s 1046 328 m 19 Y s 1039 347 m 13 X s 1046 301 m -19 Y s 1039 282 m 13 X s 1104 273 m 15 Y s
 1098 288 m 13 X s 1104 246 m -15 Y s 1098 231 m 13 X s 1163 257 m 7 Y s 1157 264 m 13 X s 1163 231 m -7 Y s 1157 224 m 13 X s 1193 252 m 11 Y s 1186 263 m 13 X s 1193 226 m -11 Y s 1186 215 m 13 X s 1222 262 m 30 Y s 1216 292 m 13 X s 1222 236 m -30
 Y s 1216 206 m 13 X s 1252 307 m 15 Y s 1245 322 m 13 X s 1252 281 m -15 Y s 1245 266 m 13 X s 1281 302 m 22 Y s 1275 324 m 13 X s 1281 276 m -22 Y s 1275 254 m 13 X s 1340 310 m 41 Y s 1333 351 m 14 X s 1340 284 m -41 Y s 1333 243 m 14 X s 1369 275
 m 20 Y s 1363 295 m 13 X s 1369 249 m -21 Y s 1363 228 m 13 X s 1399 248 m 18 Y s 1392 266 m 13 X s 1399 222 m -17 Y s 1392 205 m 13 X s 1428 315 m 18 Y s 1422 333 m 13 X s 1428 289 m -17 Y s 1422 272 m 13 X s 1458 365 m 27 Y s 1451 392 m 13 X s
 1458 339 m -28 Y s 1451 311 m 13 X s 1487 304 m 26 Y s 1481 330 m 13 X s 1487 278 m -26 Y s 1481 252 m 13 X s 1517 234 m 6 Y s 1510 240 m 13 X s 1517 208 m -5 Y s 1510 203 m 13 X s 1546 427 m 100 Y s 1540 527 m 13 X s 1546 401 m -100 Y s 1540 301 m
 13 X s 1576 281 m 22 Y s 1569 303 m 13 X s 1576 255 m -22 Y s 1569 233 m 13 X s 1605 267 m 10 Y s 1599 277 m 13 X s 1605 241 m -10 Y s 1599 231 m 13 X s 1635 343 m 50 Y s 1628 393 m 13 X s 1635 317 m -50 Y s 1628 267 m 13 X s 1664 321 m 34 Y s 1657
 355 m 13 X s 1664 295 m -33 Y s 1657 262 m 13 X s 1693 348 m 27 Y s 1687 375 m 13 X s 1693 322 m -28 Y s 1687 294 m 13 X s 1723 354 m 37 Y s 1716 391 m 13 X s 1723 328 m -37 Y s 1716 291 m 13 X s 1752 433 m 65 Y s 1746 498 m 13 X s 1752 407 m -64 Y
 s 1746 343 m 13 X s 1782 399 m 18 Y s 1775 417 m 13 X s 1782 373 m -18 Y s 1775 355 m 13 X s 1811 487 m 121 Y s 1805 608 m 13 X s 1811 461 m -121 Y s 1805 340 m 13 X s 1841 397 m 46 Y s 1834 443 m 13 X s 1841 371 m -47 Y s 1834 324 m 13 X s 1870 243
 m 6 Y s 1864 249 m 13 X s 1870 217 m -7 Y s 1864 210 m 13 X s 1900 340 m 28 Y s 1893 368 m 13 X s 1900 314 m -29 Y s 1893 285 m 13 X s 1929 763 m 154 Y s 1923 917 m 13 X s 1929 737 m -155 Y s 1923 582 m 13 X s 1958 367 m 67 Y s 1952 434 m 13 X s
 1958 341 m -68 Y s 1952 273 m 13 X s black 1 0 0 c 309 278 m 30 78 d 29 -80 d 30 25 d 29 1 d 29 40 d 30 -133 d 29 130 d 30 -23 d 29 -27 d 30 13 d 29 58 d 30 -23 d 29 -4 d 30 24 d 29 -89 d 29 -62 d 30 6 d 29 143 d 30 -93 d 29 -2 d 30 9 d 29 -37 d 30
 86 d 29 -27 d 30 23 d 29 -120 d 29 66 d 59 -16 d 30 -5 d 29 10 d 30 45 d 29 -5 d 30 -71 d 29 79 d 29 -35 d 30 -27 d 29 67 d 30 50 d 29 -61 d 30 -70 d 29 193 d 30 -146 d 29 -14 d 30 76 d 29 -22 d 29 27 d 30 6 d 29 79 d 30 -34 d 29 88 d 30 -90 d 29
 -154 d 30 97 d 29 423 d 29 -396 d s 309 278 339 356 368 276 398 301 427 302 456 342 486 209 515 339 545 316 574 289 604 302 633 360 663 337 692 333 722 357 751 268 780 206 810 212 839 355 869 262 898 260 928 269 957 232 987 318 1016 291 1046 314
 1075 194 1104 260 1163 244 1193 239 1222 249 1252 294 1281 289 1311 218 1340 297 1369 262 1399 235 1428 302 1458 352 1487 291 1517 221 1546 414 1576 268 1605 254 1635 330 1664 308 1693 335 1723 341 1752 420 1782 386 1811 474 1841 384 1870 230 1900
 327 1929 750 1958 354 56 { m20} R 0 1 0 c 722 322 m 10 Y s 715 332 m 13 X s 722 296 m -11 Y s 715 285 m 13 X s 751 279 m 8 Y s 744 287 m 14 X s 751 253 m -8 Y s 744 245 m 14 X s 780 325 m 30 Y s 774 355 m 13 X s 780 299 m -31 Y s 774 268 m 13 X s
 810 344 m 14 Y s 803 358 m 13 X s 810 318 m -13 Y s 803 305 m 13 X s 839 388 m 59 Y s 833 447 m 13 X s 839 362 m -59 Y s 833 303 m 13 X s 869 297 m 10 Y s 862 307 m 13 X s 869 271 m -9 Y s 862 262 m 13 X s 898 259 m 1 Y s 892 260 m 13 X s 898 233 m
 s 892 233 m 13 X s 928 368 m 29 Y s 921 397 m 13 X s 928 342 m -30 Y s 921 312 m 13 X s 957 312 m 10 Y s 951 322 m 13 X s 957 286 m -11 Y s 951 275 m 13 X s 987 297 m 6 Y s 980 303 m 13 X s 987 271 m -5 Y s 980 266 m 13 X s 1016 297 m 10 Y s 1010
 307 m 13 X s 1016 271 m -10 Y s 1010 261 m 13 X s 1046 301 m 13 Y s 1039 314 m 13 X s 1046 275 m -12 Y s 1039 263 m 13 X s 1075 348 m 42 Y s 1068 390 m 13 X s 1075 322 m -42 Y s 1068 280 m 13 X s 1104 290 m 13 Y s 1098 303 m 13 X s 1104 264 m -14 Y
 s 1098 250 m 13 X s 1163 290 m 16 Y s 1157 306 m 13 X s 1163 264 m -16 Y s 1157 248 m 13 X s 1193 297 m 28 Y s 1186 325 m 13 X s 1193 271 m -27 Y s 1186 244 m 13 X s 1222 275 m 15 Y s 1216 290 m 13 X s 1222 249 m -16 Y s 1216 233 m 13 X s 1252 313 m
 6 Y s 1245 319 m 13 X s 1252 287 m -7 Y s 1245 280 m 13 X s 1281 276 m 10 Y s 1275 286 m 13 X s 1281 250 m -9 Y s 1275 241 m 13 X s 1311 302 m 8 Y s 1304 310 m 13 X s 1311 276 m -9 Y s 1304 267 m 13 X s 1340 308 m 13 Y s 1333 321 m 14 X s 1340 282 m
 -13 Y s 1333 269 m 14 X s 1369 292 m 16 Y s 1363 308 m 13 X s 1369 266 m -16 Y s 1363 250 m 13 X s 1399 314 m 10 Y s 1392 324 m 13 X s 1399 288 m -11 Y s 1392 277 m 13 X s 1428 363 m 29 Y s 1422 392 m 13 X s 1428 337 m -29 Y s 1422 308 m 13 X s 1458
 376 m 37 Y s 1451 413 m 13 X s 1458 350 m -36 Y s 1451 314 m 13 X s 1487 244 m 3 Y s 1481 247 m 13 X s 1487 218 m -2 Y s 1481 216 m 13 X s 1517 415 m 55 Y s 1510 470 m 13 X s 1517 389 m -55 Y s 1510 334 m 13 X s 1546 400 m 37 Y s 1540 437 m 13 X s
 1546 374 m -37 Y s 1540 337 m 13 X s black 0 1 0 c 722 309 m 29 -43 d 29 46 d 30 19 d 29 44 d 30 -91 d 29 -38 d 30 109 d 29 -56 d 30 -15 d 29 X 30 4 d 29 47 d 29 -58 d 59 X 30 7 d 29 -22 d 30 38 d 29 -37 d 30 26 d 29 6 d 29 -16 d 30 22 d 29 49 d 30
 13 d 29 -132 d 30 171 d 29 -15 d s 722 309 751 266 780 312 810 331 839 375 869 284 898 246 928 355 957 299 987 284 1016 284 1046 288 1075 335 1104 277 1163 277 1193 284 1222 262 1252 300 1281 263 1311 289 1340 295 1369 279 1399 301 1428 350 1458 363
 1487 231 1517 402 1546 387 28 { m20} R 0 0 1 c 722 257 m 4 Y s 715 261 m 13 X s 722 231 m -3 Y s 715 228 m 13 X s 751 336 m 11 Y s 744 347 m 14 X s 751 310 m -11 Y s 744 299 m 14 X s 780 260 m 8 Y s 774 268 m 13 X s 780 234 m -8 Y s 774 226 m 13 X s
 810 263 m s 803 263 m 13 X s 810 237 m s 803 237 m 13 X s 839 255 m 3 Y s 833 258 m 13 X s 839 229 m -3 Y s 833 226 m 13 X s 869 328 m 12 Y s 862 340 m 13 X s 869 301 m -13 Y s 862 288 m 13 X s 898 283 m 27 Y s 892 310 m 13 X s 898 257 m -27 Y s 892
 230 m 13 X s 928 299 m 9 Y s 921 308 m 13 X s 928 273 m -8 Y s 921 265 m 13 X s 957 328 m 27 Y s 951 355 m 13 X s 957 301 m -27 Y s 951 274 m 13 X s 987 254 m 10 Y s 980 264 m 13 X s 987 228 m -11 Y s 980 217 m 13 X s 1016 290 m 8 Y s 1010 298 m 13
 X s 1016 264 m -8 Y s 1010 256 m 13 X s 1046 370 m 36 Y s 1039 406 m 13 X s 1046 344 m -35 Y s 1039 309 m 13 X s 1075 324 m 28 Y s 1068 352 m 13 X s 1075 298 m -28 Y s 1068 270 m 13 X s 1104 290 m 13 Y s 1098 303 m 13 X s 1104 264 m -12 Y s 1098 252
 m 13 X s 1163 456 m 71 Y s 1157 527 m 13 X s 1163 430 m -71 Y s 1157 359 m 13 X s 1193 711 m 278 Y s 1186 989 m 13 X s 1193 684 m -278 Y s 1186 406 m 13 X s 1222 231 m 3 Y s 1216 234 m 13 X s 1222 205 m -4 Y s 1216 201 m 13 X s 1252 286 m 24 Y s
 1245 310 m 13 X s 1252 260 m -24 Y s 1245 236 m 13 X s 1281 305 m 16 Y s 1275 321 m 13 X s 1281 279 m -16 Y s 1275 263 m 13 X s 1311 261 m 3 Y s 1304 264 m 13 X s 1311 235 m -3 Y s 1304 232 m 13 X s 1340 448 m 164 Y s 1333 612 m 14 X s 1340 422 m
 -163 Y s 1333 259 m 14 X s 1369 328 m 20 Y s 1363 348 m 13 X s 1369 301 m -20 Y s 1363 281 m 13 X s 1399 273 m 12 Y s 1392 285 m 13 X s 1399 246 m -12 Y s 1392 234 m 13 X s 1428 358 m 17 Y s 1422 375 m 13 X s 1428 332 m -18 Y s 1422 314 m 13 X s
 1458 274 m 8 Y s 1451 282 m 13 X s 1458 248 m -8 Y s 1451 240 m 13 X s 1487 332 m 19 Y s 1481 351 m 13 X s 1487 306 m -20 Y s 1481 286 m 13 X s 1517 324 m 27 Y s 1510 351 m 13 X s 1517 298 m -28 Y s 1510 270 m 13 X s 1546 335 m 27 Y s 1540 362 m 13
 X s 1546 309 m -27 Y s 1540 282 m 13 X s black 0 0 1 c 722 244 m 29 79 d 29 -76 d 30 3 d 29 -8 d 30 72 d 29 -44 d 30 16 d 29 28 d 30 -73 d 29 36 d 30 80 d 29 -46 d 29 -34 d 59 166 d 30 254 d 29 -479 d 30 55 d 29 19 d 30 -44 d 29 187 d 29 -121 d 30
 -54 d 29 85 d 30 -84 d 29 58 d 30 -8 d 29 11 d s 722 244 751 323 780 247 810 250 839 242 869 314 898 270 928 286 957 314 987 241 1016 277 1046 357 1075 311 1104 277 1163 443 1193 697 1222 218 1252 273 1281 292 1311 248 1340 435 1369 314 1399 260
 1428 345 1458 261 1487 319 1517 311 1546 322 28 { m20} R black
 gsave  2268 1538 0 0 C 1531.36 1329.35 t 0 r /Helvetica-Bold findfont 58.6478 sf 0 0 m (SCT Barrel) show NC gr 
 gsave  2268 1538 0 0 C 1648.66 1254.41 t 0 r /Helvetica-Bold findfont 58.6478 sf 0 0 m (Layer 0) show NC gr  1539 1269 m 91 X s 1585 1269 m20
 gsave  2268 1538 0 0 C 1648.66 1176.21 t 0 r /Helvetica-Bold findfont 58.6478 sf 0 0 m (Layer 1) show NC gr  1 0 0 c 1539 1192 m 91 X s 1585 1192 m20 black
 gsave  2268 1538 0 0 C 1648.66 1098.02 t 0 r /Helvetica-Bold findfont 58.6478 sf 0 0 m (Layer 2) show NC gr  0 1 0 c 1539 1115 m 91 X s 1585 1115 m20 black
 gsave  2268 1538 0 0 C 1648.66 1023.08 t 0 r /Helvetica-Bold findfont 58.6478 sf 0 0 m (Layer 3) show NC gr  0 0 1 c 1539 1038 m 91 X s 1585 1038 m20
 gr  gr showpage
end
%%EOF
