%!PS-Adobe-2.0 EPSF-2.0
%%BoundingBox:  0 0 567 384
%%Title: pionDir/sct_occupancy/size_sctdisk_mgr.eps: c1_n39
%%Creator: ROOT Version 6.04/12
%%CreationDate: Tue Apr 19 16:53:28 2016
%%DocumentNeededResources: ProcSet (FontSetInit)
%%EndComments
%%BeginProlog
80 dict begin
/s {stroke} def /l {lineto} def /m {moveto} def /t {translate} def
/r {rotate} def /rl {roll}  def /R {repeat} def
/d {rlineto} def /rm {rmoveto} def /gr {grestore} def /f {eofill} def
/c {setrgbcolor} def /black {0 setgray} def /sd {setdash} def
/cl {closepath} def /sf {scalefont setfont} def /lw {setlinewidth} def
/box {m dup 0 exch d exch 0 d 0 exch neg d cl} def
/NC{systemdict begin initclip end}def/C{NC box clip newpath}def
/bl {box s} def /bf {gsave box gsave f grestore 1 lw [] 0 sd s grestore} def /Y { 0 exch d} def /X { 0 d} def 
/K {{pop pop 0 moveto} exch kshow} bind def
/ita {/ang 15 def gsave [1 0 ang dup sin exch cos div 1 0 0] concat} def 
/mp {newpath /y exch def /x exch def} def
/side {[w .77 mul w .23 mul] .385 w mul sd w 0 l currentpoint t -144 r} def
/mr {mp x y w2 0 360 arc} def /m24 {mr s} def /m20 {mr f} def
/mb {mp x y w2 add m w2 neg 0 d 0 w neg d w 0 d 0 w d cl} def
/mt {mp x y w2 add m w2 neg w neg d w 0 d cl} def
/m21 {mb f} def /m25 {mb s} def /m22 {mt f} def /m26{mt s} def
/m23 {mp x y w2 sub m w2 w d w neg 0 d cl f} def
/m27 {mp x y w2 add m w3 neg w2 neg d w3 w2 neg d w3 w2 d cl s} def
/m28 {mp x w2 sub y w2 sub w3 add m w3 0 d  0 w3 neg d w3 0 d 0 w3 d w3 0 d  0 w3 d w3 neg 0 d 0 w3 d w3 neg 0 d 0 w3 neg d w3 neg 0 d cl s } def
/m29 {mp gsave x w2 sub y w2 add w3 sub m currentpoint t 4 {side} repeat cl fill gr} def
/m30 {mp gsave x w2 sub y w2 add w3 sub m currentpoint t 4 {side} repeat cl s gr} def
/m31 {mp x y w2 sub m 0 w d x w2 sub y m w 0 d x w2 sub y w2 add m w w neg d x w2 sub y w2 sub m w w d s} def
/m32 {mp x y w2 sub m w2 w d w neg 0 d cl s} def
/m33 {mp x y w2 add m w3 neg w2 neg d w3 w2 neg d w3 w2 d cl f} def
/m34 {mp x w2 sub y w2 sub w3 add m w3 0 d  0 w3 neg d w3 0 d 0 w3 d w3 0 d  0 w3 d w3 neg 0 d 0 w3 d w3 neg 0 d 0 w3 neg d w3 neg 0 d cl f } def
/m2 {mp x y w2 sub m 0 w d x w2 sub y m w 0 d s} def
/m5 {mp x w2 sub y w2 sub m w w d x w2 sub y w2 add m w w neg d s} def
%%IncludeResource: ProcSet (FontSetInit)
%%IncludeResource: font Times-Roman
%%IncludeResource: font Times-Italic
%%IncludeResource: font Times-Bold
%%IncludeResource: font Times-BoldItalic
%%IncludeResource: font Helvetica
%%IncludeResource: font Helvetica-Oblique
%%IncludeResource: font Helvetica-Bold
%%IncludeResource: font Helvetica-BoldOblique
%%IncludeResource: font Courier
%%IncludeResource: font Courier-Oblique
%%IncludeResource: font Courier-Bold
%%IncludeResource: font Courier-BoldOblique
%%IncludeResource: font Symbol
%%IncludeResource: font ZapfDingbats
/reEncode {exch findfont dup length dict begin {1 index /FID eq  {pop pop} {def} ifelse } forall /Encoding exch def currentdict end dup /FontName get exch definefont pop } def [/Times-Bold /Times-Italic /Times-BoldItalic /Helvetica /Helvetica-Oblique
 /Helvetica-Bold /Helvetica-BoldOblique /Courier /Courier-Oblique /Courier-Bold /Courier-BoldOblique /Times-Roman /AvantGarde-Book /AvantGarde-BookOblique /AvantGarde-Demi /AvantGarde-DemiOblique /Bookman-Demi /Bookman-DemiItalic /Bookman-Light
 /Bookman-LightItalic /Helvetica-Narrow /Helvetica-Narrow-Bold /Helvetica-Narrow-BoldOblique /Helvetica-Narrow-Oblique /NewCenturySchlbk-Roman /NewCenturySchlbk-Bold /NewCenturySchlbk-BoldItalic /NewCenturySchlbk-Italic /Palatino-Bold
 /Palatino-BoldItalic /Palatino-Italic /Palatino-Roman ] {ISOLatin1Encoding reEncode } forall
%%EndProlog
%%BeginSetup
%%EndSetup
newpath  gsave  .25 .25 scale  gsave  0 0 t black[  ] 0 sd 3 lw 1 1 1 c 2268 1538 0 0 bf black 1 1 1 c 1814 1230 227 154 bf black 1814 1230 227 154 bl 1 1 1 c 1814 1230 227 154 bf black 1814 1230 227 154 bl 227 154 m 1814 X s
 gsave  2268 1538 0 0 C 1860.44 35.8403 t 0 r /Helvetica-Bold findfont 58.6478 sf 0 0 m (r [mm]) show NC gr  326 191 m -37 Y s 387 172 m -18 Y s 447 172 m -18 Y s 508 172 m -18 Y s 569 172 m -18 Y s 629 191 m -37 Y s 690 172 m -18 Y s 751 172 m -18 Y
 s 811 172 m -18 Y s 872 172 m -18 Y s 933 191 m -37 Y s 993 172 m -18 Y s 1054 172 m -18 Y s 1115 172 m -18 Y s 1175 172 m -18 Y s 1236 191 m -37 Y s 1297 172 m -18 Y s 1357 172 m -18 Y s 1418 172 m -18 Y s 1479 172 m -18 Y s 1539 191 m -37 Y s 1600
 172 m -18 Y s 1661 172 m -18 Y s 1721 172 m -18 Y s 1782 172 m -18 Y s 1843 191 m -37 Y s 326 191 m -37 Y s 265 172 m -18 Y s 1843 191 m -37 Y s 1903 172 m -18 Y s 1964 172 m -18 Y s 2025 172 m -18 Y s
 gsave  2268 1538 0 0 C 276.948 97.7464 t 0 r /Helvetica-Bold findfont 58.6478 sf 0 0 m (400) show NC gr 
 gsave  2268 1538 0 0 C 579.962 97.7464 t 0 r /Helvetica-Bold findfont 58.6478 sf 0 0 m (500) show NC gr 
 gsave  2268 1538 0 0 C 882.976 97.7464 t 0 r /Helvetica-Bold findfont 58.6478 sf 0 0 m (600) show NC gr 
 gsave  2268 1538 0 0 C 1185.99 97.7464 t 0 r /Helvetica-Bold findfont 58.6478 sf 0 0 m (700) show NC gr 
 gsave  2268 1538 0 0 C 1489 97.7464 t 0 r /Helvetica-Bold findfont 58.6478 sf 0 0 m (800) show NC gr 
 gsave  2268 1538 0 0 C 1792.02 97.7464 t 0 r /Helvetica-Bold findfont 58.6478 sf 0 0 m (900) show NC gr  227 1384 m 1814 X s 326 1347 m 37 Y s 387 1366 m 18 Y s 447 1366 m 18 Y s 508 1366 m 18 Y s 569 1366 m 18 Y s 629 1347 m 37 Y s 690 1366 m 18 Y
 s 751 1366 m 18 Y s 811 1366 m 18 Y s 872 1366 m 18 Y s 933 1347 m 37 Y s 993 1366 m 18 Y s 1054 1366 m 18 Y s 1115 1366 m 18 Y s 1175 1366 m 18 Y s 1236 1347 m 37 Y s 1297 1366 m 18 Y s 1357 1366 m 18 Y s 1418 1366 m 18 Y s 1479 1366 m 18 Y s 1539
 1347 m 37 Y s 1600 1366 m 18 Y s 1661 1366 m 18 Y s 1721 1366 m 18 Y s 1782 1366 m 18 Y s 1843 1347 m 37 Y s 326 1347 m 37 Y s 265 1366 m 18 Y s 1843 1347 m 37 Y s 1903 1366 m 18 Y s 1964 1366 m 18 Y s 2025 1366 m 18 Y s 227 154 m 1230 Y s
 gsave  2268 1538 0 0 C 104.263 1055.66 t 90 r /Helvetica-Bold findfont 58.6478 sf 0 0 m (Cluster size) show NC gr  281 193 m -54 X s 254 219 m -27 X s 254 245 m -27 X s 254 270 m -27 X s 254 296 m -27 X s 281 322 m -54 X s 254 348 m -27 X s 254 374
 m -27 X s 254 400 m -27 X s 254 426 m -27 X s 281 452 m -54 X s 254 477 m -27 X s 254 503 m -27 X s 254 529 m -27 X s 254 555 m -27 X s 281 581 m -54 X s 254 607 m -27 X s 254 633 m -27 X s 254 659 m -27 X s 254 684 m -27 X s 281 710 m -54 X s 254
 736 m -27 X s 254 762 m -27 X s 254 788 m -27 X s 254 814 m -27 X s 281 840 m -54 X s 254 865 m -27 X s 254 891 m -27 X s 254 917 m -27 X s 254 943 m -27 X s 281 969 m -54 X s 254 995 m -27 X s 254 1021 m -27 X s 254 1047 m -27 X s 254 1072 m -27 X
 s 281 1098 m -54 X s 254 1124 m -27 X s 254 1150 m -27 X s 254 1176 m -27 X s 254 1202 m -27 X s 281 1228 m -54 X s 254 1254 m -27 X s 254 1279 m -27 X s 254 1305 m -27 X s 254 1331 m -27 X s 281 1357 m -54 X s 281 193 m -54 X s 254 167 m -27 X s
 281 1357 m -54 X s 254 1383 m -27 X s
 gsave  2268 1538 0 0 C 192.235 172.685 t 0 r /Helvetica-Bold findfont 58.6478 sf 0 0 m (1) show NC gr 
 gsave  2268 1538 0 0 C 133.587 299.756 t 0 r /Helvetica-Bold findfont 58.6478 sf 0 0 m (1.5) show NC gr 
 gsave  2268 1538 0 0 C 182.46 426.826 t 0 r /Helvetica-Bold findfont 58.6478 sf 0 0 m (2) show NC gr 
 gsave  2268 1538 0 0 C 133.587 560.413 t 0 r /Helvetica-Bold findfont 58.6478 sf 0 0 m (2.5) show NC gr 
 gsave  2268 1538 0 0 C 182.46 687.483 t 0 r /Helvetica-Bold findfont 58.6478 sf 0 0 m (3) show NC gr 
 gsave  2268 1538 0 0 C 133.587 817.812 t 0 r /Helvetica-Bold findfont 58.6478 sf 0 0 m (3.5) show NC gr 
 gsave  2268 1538 0 0 C 182.46 948.14 t 0 r /Helvetica-Bold findfont 58.6478 sf 0 0 m (4) show NC gr 
 gsave  2268 1538 0 0 C 133.587 1078.47 t 0 r /Helvetica-Bold findfont 58.6478 sf 0 0 m (4.5) show NC gr 
 gsave  2268 1538 0 0 C 182.46 1205.54 t 0 r /Helvetica-Bold findfont 58.6478 sf 0 0 m (5) show NC gr 
 gsave  2268 1538 0 0 C 133.587 1335.87 t 0 r /Helvetica-Bold findfont 58.6478 sf 0 0 m (5.5) show NC gr  2041 154 m 1230 Y s 1987 193 m 54 X s 2014 219 m 27 X s 2014 245 m 27 X s 2014 270 m 27 X s 2014 296 m 27 X s 1987 322 m 54 X s 2014 348 m 27 X
 s 2014 374 m 27 X s 2014 400 m 27 X s 2014 426 m 27 X s 1987 452 m 54 X s 2014 477 m 27 X s 2014 503 m 27 X s 2014 529 m 27 X s 2014 555 m 27 X s 1987 581 m 54 X s 2014 607 m 27 X s 2014 633 m 27 X s 2014 659 m 27 X s 2014 684 m 27 X s 1987 710 m 54
 X s 2014 736 m 27 X s 2014 762 m 27 X s 2014 788 m 27 X s 2014 814 m 27 X s 1987 840 m 54 X s 2014 865 m 27 X s 2014 891 m 27 X s 2014 917 m 27 X s 2014 943 m 27 X s 1987 969 m 54 X s 2014 995 m 27 X s 2014 1021 m 27 X s 2014 1047 m 27 X s 2014 1072
 m 27 X s 1987 1098 m 54 X s 2014 1124 m 27 X s 2014 1150 m 27 X s 2014 1176 m 27 X s 2014 1202 m 27 X s 1987 1228 m 54 X s 2014 1254 m 27 X s 2014 1279 m 27 X s 2014 1305 m 27 X s 2014 1331 m 27 X s 1987 1357 m 54 X s 1987 193 m 54 X s 2014 167 m 27
 X s 1987 1357 m 54 X s 2014 1383 m 27 X s 309 292 m 14 Y s 303 306 m 13 X s 309 266 m -14 Y s 303 252 m 13 X s 375 281 m 22 Y s 368 303 m 13 X s 375 254 m -22 Y s 368 232 m 13 X s 455 294 m 12 Y s 448 306 m 14 X s 455 268 m -12 Y s 448 256 m 14 X s
 549 309 m 20 Y s 543 329 m 13 X s 549 283 m -20 Y s 543 263 m 13 X s 629 295 m 20 Y s 623 315 m 13 X s 629 268 m -20 Y s 623 248 m 13 X s 696 272 m 4 Y s 690 276 m 13 X s 696 246 m -5 Y s 690 241 m 13 X s 775 251 m 5 Y s 768 256 m 13 X s 775 225 m
 -4 Y s 768 221 m 13 X s 834 348 m 35 Y s 828 383 m 13 X s 834 322 m -35 Y s 828 287 m 13 X s 909 344 m 28 Y s 902 372 m 13 X s 909 318 m -28 Y s 902 290 m 13 X s 1002 328 m 19 Y s 996 347 m 13 X s 1002 302 m -19 Y s 996 283 m 13 X s 1099 288 m 19 Y
 s 1093 307 m 13 X s 1099 261 m -19 Y s 1093 242 m 13 X s 1188 378 m 26 Y s 1182 404 m 13 X s 1188 352 m -26 Y s 1182 326 m 13 X s 1267 368 m 78 Y s 1261 446 m 13 X s 1267 341 m -78 Y s 1261 263 m 13 X s 1357 373 m 41 Y s 1350 414 m 13 X s 1357 347 m
 -41 Y s 1350 306 m 13 X s 1493 335 m 19 Y s 1486 354 m 13 X s 1493 309 m -18 Y s 1486 291 m 13 X s 1658 289 m 8 Y s 1652 297 m 13 X s 1658 263 m -9 Y s 1652 254 m 13 X s 1805 465 m 96 Y s 1799 561 m 13 X s 1805 438 m -96 Y s 1799 342 m 13 X s 1958
 364 m 24 Y s 1951 388 m 13 X s 1958 338 m -24 Y s 1951 314 m 13 X s 309 279 m 66 -11 d 80 13 d 94 15 d 80 -15 d 67 -22 d 79 -21 d 59 97 d 75 -4 d 93 -16 d 97 -41 d 89 91 d 79 -11 d 90 6 d 136 -38 d 165 -46 d 147 176 d 153 -101 d s /w 26 def /w2 {w 2
 div} def /w3 {w 3 div} def 309 279 375 268 455 281 549 296 629 281 696 259 775 238 834 335 909 331 1002 315 1099 274 1188 365 1267 354 1357 360 1493 322 1658 276 1805 452 1958 351 18 { m20} R 1 0 0 c 310 378 m 20 Y s 304 398 m 13 X s 310 352 m -20 Y
 s 304 332 m 13 X s 375 288 m 10 Y s 369 298 m 13 X s 375 261 m -10 Y s 369 251 m 13 X s 455 263 m 2 Y s 449 265 m 13 X s 455 237 m -3 Y s 449 234 m 13 X s 548 292 m 8 Y s 542 300 m 13 X s 548 266 m -8 Y s 542 258 m 13 X s 628 338 m 17 Y s 622 355 m
 13 X s 628 312 m -17 Y s 622 295 m 13 X s 699 389 m 53 Y s 692 442 m 13 X s 699 363 m -53 Y s 692 310 m 13 X s 776 326 m 12 Y s 769 338 m 13 X s 776 300 m -12 Y s 769 288 m 13 X s 835 279 m 7 Y s 829 286 m 13 X s 835 253 m -8 Y s 829 245 m 13 X s
 908 253 m 5 Y s 901 258 m 13 X s 908 227 m -5 Y s 901 222 m 13 X s 1002 317 m 29 Y s 995 346 m 13 X s 1002 291 m -30 Y s 995 261 m 13 X s 1099 295 m 23 Y s 1093 318 m 13 X s 1099 269 m -23 Y s 1093 246 m 13 X s 1188 421 m 51 Y s 1182 472 m 13 X s
 1188 395 m -50 Y s 1182 345 m 13 X s 1268 285 m 11 Y s 1261 296 m 13 X s 1268 259 m -11 Y s 1261 248 m 13 X s 1356 326 m 44 Y s 1350 370 m 13 X s 1356 300 m -44 Y s 1350 256 m 13 X s 1493 396 m 18 Y s 1486 414 m 13 X s 1493 370 m -17 Y s 1486 353 m
 13 X s 1658 338 m 15 Y s 1652 353 m 13 X s 1658 312 m -15 Y s 1652 297 m 13 X s 1806 304 m 29 Y s 1800 333 m 13 X s 1806 278 m -28 Y s 1800 250 m 13 X s 1958 332 m 21 Y s 1952 353 m 13 X s 1958 306 m -21 Y s 1952 285 m 13 X s black 1 0 0 c 310 365 m
 65 -91 d 80 -24 d 93 29 d 80 46 d 71 51 d 77 -63 d 59 -47 d 73 -26 d 94 64 d 97 -22 d 89 126 d 80 -136 d 88 41 d 137 70 d 165 -58 d 148 -34 d 152 28 d s 310 365 375 274 455 250 548 279 628 325 699 376 776 313 835 266 908 240 1002 304 1099 282 1188
 408 1268 272 1356 313 1493 383 1658 325 1806 291 1958 319 18 { m20} R 0 1 0 c 309 356 m 30 Y s 303 386 m 13 X s 309 330 m -31 Y s 303 299 m 13 X s 375 299 m 11 Y s 368 310 m 13 X s 375 273 m -11 Y s 368 262 m 13 X s 455 267 m 1 Y s 449 268 m 13 X s
 455 241 m -1 Y s 449 240 m 13 X s 548 310 m 13 Y s 542 323 m 13 X s 548 284 m -13 Y s 542 271 m 13 X s 628 249 m 6 Y s 622 255 m 13 X s 628 223 m -6 Y s 622 217 m 13 X s 697 321 m 33 Y s 690 354 m 13 X s 697 295 m -34 Y s 690 261 m 13 X s 776 255 m
 2 Y s 769 257 m 13 X s 776 229 m -2 Y s 769 227 m 13 X s 835 258 m 17 Y s 828 275 m 13 X s 835 231 m -17 Y s 828 214 m 13 X s 908 296 m 17 Y s 902 313 m 13 X s 908 270 m -18 Y s 902 252 m 13 X s 1002 286 m 11 Y s 995 297 m 13 X s 1002 260 m -11 Y s
 995 249 m 13 X s 1099 316 m 5 Y s 1093 321 m 13 X s 1099 290 m -6 Y s 1093 284 m 13 X s 1188 266 m 8 Y s 1182 274 m 13 X s 1188 239 m -8 Y s 1182 231 m 13 X s 1268 263 m 8 Y s 1262 271 m 13 X s 1268 237 m -8 Y s 1262 229 m 13 X s 1356 323 m 37 Y s
 1350 360 m 13 X s 1356 297 m -36 Y s 1350 261 m 13 X s 1492 316 m 11 Y s 1486 327 m 13 X s 1492 290 m -11 Y s 1486 279 m 13 X s 1658 316 m 8 Y s 1652 324 m 13 X s 1658 290 m -9 Y s 1652 281 m 13 X s 1806 335 m 17 Y s 1800 352 m 13 X s 1806 309 m -16
 Y s 1800 293 m 13 X s 1958 332 m 19 Y s 1951 351 m 14 X s 1958 306 m -18 Y s 1951 288 m 14 X s black 0 1 0 c 309 343 m 66 -57 d 80 -32 d 93 43 d 80 -61 d 69 72 d 79 -66 d 59 3 d 73 38 d 94 -10 d 97 30 d 89 -51 d 80 -2 d 88 60 d 136 -7 d 166 X 148 19
 d 152 -3 d s 309 343 375 286 455 254 548 297 628 236 697 308 776 242 835 245 908 283 1002 273 1099 303 1188 252 1268 250 1356 310 1492 303 1658 303 1806 322 1958 319 18 { m20} R 0 0 1 c 310 275 m 21 Y s 303 296 m 13 X s 310 249 m -20 Y s 303 229 m
 13 X s 376 286 m 18 Y s 369 304 m 13 X s 376 260 m -17 Y s 369 243 m 13 X s 455 320 m 17 Y s 448 337 m 13 X s 455 294 m -17 Y s 448 277 m 13 X s 548 282 m 6 Y s 541 288 m 13 X s 548 256 m -6 Y s 541 250 m 13 X s 628 272 m 9 Y s 622 281 m 13 X s 628
 246 m -9 Y s 622 237 m 13 X s 697 257 m 1 Y s 690 258 m 13 X s 697 230 m -1 Y s 690 229 m 13 X s 776 287 m 13 Y s 769 300 m 13 X s 776 261 m -12 Y s 769 249 m 13 X s 833 298 m 38 Y s 827 336 m 13 X s 833 272 m -39 Y s 827 233 m 13 X s 909 253 m 4 Y
 s 903 257 m 13 X s 909 227 m -3 Y s 903 224 m 13 X s 1002 254 m 5 Y s 995 259 m 13 X s 1002 228 m -5 Y s 995 223 m 13 X s 1099 329 m 24 Y s 1093 353 m 13 X s 1099 303 m -24 Y s 1093 279 m 13 X s 1188 323 m 14 Y s 1182 337 m 13 X s 1188 297 m -14 Y s
 1182 283 m 13 X s 1268 295 m 10 Y s 1261 305 m 13 X s 1268 268 m -10 Y s 1261 258 m 13 X s 1356 275 m 7 Y s 1350 282 m 13 X s 1356 249 m -7 Y s 1350 242 m 13 X s 1492 279 m 15 Y s 1486 294 m 13 X s 1492 253 m -15 Y s 1486 238 m 13 X s 1658 276 m 10
 Y s 1652 286 m 13 X s 1658 250 m -9 Y s 1652 241 m 13 X s 1806 311 m 11 Y s 1799 322 m 13 X s 1806 285 m -10 Y s 1799 275 m 13 X s 1958 280 m 3 Y s 1952 283 m 13 X s 1958 254 m -2 Y s 1952 252 m 13 X s black 0 0 1 c 310 262 m 66 11 d 79 34 d 93 -38
 d 80 -10 d 69 -15 d 79 30 d 57 11 d 76 -45 d 93 1 d 97 75 d 89 -6 d 80 -29 d 88 -19 d 136 4 d 166 -3 d 148 35 d 152 -31 d s 310 262 376 273 455 307 548 269 628 259 697 244 776 274 833 285 909 240 1002 241 1099 316 1188 310 1268 281 1356 262 1492 266
 1658 263 1806 298 1958 267 18 { m20} R 1 1 0 c 310 270 m 11 Y s 303 281 m 13 X s 310 244 m -10 Y s 303 234 m 13 X s 375 316 m 10 Y s 368 326 m 13 X s 375 290 m -10 Y s 368 280 m 13 X s 549 303 m 15 Y s 542 318 m 13 X s 549 277 m -16 Y s 542 261 m 13
 X s 628 236 m 3 Y s 622 239 m 13 X s 628 210 m -4 Y s 622 206 m 13 X s 697 256 m 3 Y s 690 259 m 13 X s 697 230 m -2 Y s 690 228 m 13 X s 775 285 m 14 Y s 768 299 m 13 X s 775 259 m -14 Y s 768 245 m 13 X s 909 258 m 3 Y s 903 261 m 13 X s 909 231 m
 -3 Y s 903 228 m 13 X s 1002 256 m s 995 256 m 13 X s 1002 230 m s 995 230 m 13 X s 1100 267 m 8 Y s 1093 275 m 13 X s 1100 241 m -7 Y s 1093 234 m 13 X s 1188 261 m 3 Y s 1182 264 m 13 X s 1188 235 m -3 Y s 1182 232 m 13 X s 1268 286 m 6 Y s 1261
 292 m 13 X s 1268 260 m -6 Y s 1261 254 m 13 X s 1658 250 m 1 Y s 1652 251 m 13 X s 1658 224 m -2 Y s 1652 222 m 13 X s 1806 264 m 12 Y s 1799 276 m 13 X s 1806 238 m -12 Y s 1799 226 m 13 X s 1958 265 m 3 Y s 1951 268 m 14 X s 1958 239 m -3 Y s
 1951 236 m 14 X s black 1 1 0 c 310 257 m 65 46 d 81 -81 d 93 68 d 79 -67 d 69 20 d 78 29 d 60 -79 d 74 52 d 93 -2 d 98 11 d 88 -6 d 80 25 d 88 -34 d 136 X 166 -2 d 148 14 d 152 1 d s 310 257 375 303 456 222 549 290 628 223 697 243 775 272 835 193
 909 245 1002 243 1100 254 1188 248 1268 273 1356 239 1492 239 1658 237 1806 251 1958 252 18 { m20} R 1 0 1 c 310 281 m 15 Y s 303 296 m 13 X s 310 255 m -15 Y s 303 240 m 13 X s 375 289 m 7 Y s 369 296 m 13 X s 375 263 m -7 Y s 369 256 m 13 X s 455
 265 m 4 Y s 448 269 m 14 X s 455 239 m -5 Y s 448 234 m 14 X s 547 308 m 19 Y s 541 327 m 13 X s 547 282 m -18 Y s 541 264 m 13 X s 697 288 m 11 Y s 690 299 m 13 X s 697 262 m -10 Y s 690 252 m 13 X s 775 227 m 2 Y s 769 229 m 13 X s 775 201 m -2 Y
 s 769 199 m 13 X s 834 347 m 37 Y s 827 384 m 13 X s 834 321 m -37 Y s 827 284 m 13 X s 909 278 m 6 Y s 902 284 m 13 X s 909 252 m -7 Y s 902 245 m 13 X s 1003 277 m 16 Y s 996 293 m 13 X s 1003 251 m -16 Y s 996 235 m 13 X s 1099 290 m 28 Y s 1093
 318 m 13 X s 1099 264 m -28 Y s 1093 236 m 13 X s 1188 305 m 29 Y s 1181 334 m 13 X s 1188 279 m -29 Y s 1181 250 m 13 X s 1268 304 m 19 Y s 1261 323 m 13 X s 1268 278 m -18 Y s 1261 260 m 13 X s 1356 282 m 5 Y s 1350 287 m 13 X s 1356 256 m -5 Y s
 1350 251 m 13 X s 1492 274 m 1 Y s 1486 275 m 13 X s 1492 248 m -1 Y s 1486 247 m 13 X s 1658 254 m 2 Y s 1652 256 m 13 X s 1658 228 m -1 Y s 1652 227 m 13 X s 1806 270 m s 1800 270 m 13 X s 1806 244 m -1 Y s 1800 243 m 13 X s black 1 0 1 c 310 268
 m 65 8 d 80 -24 d 92 43 d 82 -83 d 68 63 d 78 -61 d 59 120 d 75 -69 d 94 -1 d 96 13 d 89 15 d 80 -1 d 88 -22 d 136 -8 d 166 -20 d 148 16 d 152 -10 d s 310 268 375 276 455 252 547 295 629 212 697 275 775 214 834 334 909 265 1003 264 1099 277 1188 292
 1268 291 1356 269 1492 261 1658 241 1806 257 1958 247 18 { m20} R black[ 12 12] 0 sd 310 333 m 16 Y s 303 349 m 13 X s 310 307 m -16 Y s 303 291 m 13 X s 375 303 m 8 Y s 369 311 m 13 X s 375 277 m -8 Y s 369 269 m 13 X s 455 282 m 7 Y s 449 289 m 13
 X s 455 256 m -7 Y s 449 249 m 13 X s 548 273 m 3 Y s 541 276 m 13 X s 548 247 m -4 Y s 541 243 m 13 X s 628 247 m 19 Y s 622 266 m 13 X s 628 221 m -19 Y s 622 202 m 13 X s 696 365 m 22 Y s 689 387 m 13 X s 696 339 m -22 Y s 689 317 m 13 X s 776
 359 m 43 Y s 769 402 m 13 X s 776 333 m -42 Y s 769 291 m 13 X s 835 357 m 46 Y s 828 403 m 13 X s 835 331 m -47 Y s 828 284 m 13 X s 908 337 m 26 Y s 902 363 m 13 X s 908 311 m -25 Y s 902 286 m 13 X s 1002 260 m 19 Y s 995 279 m 13 X s 1002 234 m
 -19 Y s 995 215 m 13 X s 1099 305 m 16 Y s 1093 321 m 13 X s 1099 279 m -16 Y s 1093 263 m 13 X s 1188 309 m 27 Y s 1182 336 m 13 X s 1188 283 m -26 Y s 1182 257 m 13 X s 1268 350 m 28 Y s 1261 378 m 13 X s 1268 323 m -28 Y s 1261 295 m 13 X s 1357
 401 m 46 Y s 1350 447 m 13 X s 1357 375 m -45 Y s 1350 330 m 13 X s 1492 753 m 219 Y s 1486 972 m 13 X s 1492 727 m -220 Y s 1486 507 m 13 X s 1658 398 m 32 Y s 1652 430 m 13 X s 1658 372 m -31 Y s 1652 341 m 13 X s 1806 267 m 11 Y s 1800 278 m 13 X
 s 1806 241 m -12 Y s 1800 229 m 13 X s 1958 335 m 12 Y s 1952 347 m 13 X s 1958 309 m -11 Y s 1952 298 m 13 X s 310 320 m 65 -30 d 80 -21 d 93 -9 d 80 -26 d 68 118 d 80 -6 d 59 -2 d 73 -20 d 94 -77 d 97 45 d 89 4 d 80 41 d 89 51 d 135 352 d 166 -355
 d 148 -131 d 152 68 d s[  ] 0 sd 310 320 375 290 455 269 548 260 628 234 696 352 776 346 835 344 908 324 1002 247 1099 292 1188 296 1268 337 1357 388 1492 740 1658 385 1806 254 1958 322 18 { m21} R[ 12 12] 0 sd 1 0 0 c 309 277 m 13 Y s 303 290 m 13
 X s 309 251 m -13 Y s 303 238 m 13 X s 375 284 m 11 Y s 369 295 m 13 X s 375 258 m -11 Y s 369 247 m 13 X s 456 324 m 30 Y s 450 354 m 13 X s 456 298 m -30 Y s 450 268 m 13 X s 548 281 m 8 Y s 542 289 m 13 X s 548 255 m -7 Y s 542 248 m 13 X s 628
 372 m 20 Y s 621 392 m 14 X s 628 346 m -21 Y s 621 325 m 14 X s 696 272 m 11 Y s 689 283 m 14 X s 696 246 m -12 Y s 689 234 m 14 X s 775 292 m 10 Y s 768 302 m 13 X s 775 266 m -10 Y s 768 256 m 13 X s 834 348 m 31 Y s 828 379 m 13 X s 834 322 m
 -31 Y s 828 291 m 13 X s 907 289 m 14 Y s 901 303 m 13 X s 907 263 m -14 Y s 901 249 m 13 X s 1003 305 m 18 Y s 996 323 m 13 X s 1003 279 m -18 Y s 996 261 m 13 X s 1099 340 m 37 Y s 1093 377 m 13 X s 1099 314 m -38 Y s 1093 276 m 13 X s 1188 282 m
 12 Y s 1182 294 m 13 X s 1188 256 m -11 Y s 1182 245 m 13 X s 1267 407 m 37 Y s 1261 444 m 13 X s 1267 381 m -37 Y s 1261 344 m 13 X s 1356 292 m 18 Y s 1350 310 m 13 X s 1356 266 m -18 Y s 1350 248 m 13 X s 1492 317 m 25 Y s 1486 342 m 13 X s 1492
 291 m -25 Y s 1486 266 m 13 X s 1658 341 m 16 Y s 1651 357 m 13 X s 1658 314 m -16 Y s 1651 298 m 13 X s 1806 361 m 48 Y s 1799 409 m 13 X s 1806 335 m -48 Y s 1799 287 m 13 X s 1958 305 m 8 Y s 1951 313 m 13 X s 1958 279 m -7 Y s 1951 272 m 13 X s
 black 1 0 0 c 309 264 m 66 7 d 81 40 d 92 -43 d 80 91 d 68 -100 d 79 20 d 59 56 d 73 -59 d 96 16 d 96 35 d 89 -58 d 79 125 d 89 -115 d 136 25 d 166 24 d 148 20 d 152 -56 d s[  ] 0 sd 309 264 375 271 456 311 548 268 628 359 696 259 775 279 834 335
 907 276 1003 292 1099 327 1188 269 1267 394 1356 279 1492 304 1658 328 1806 348 1958 292 18 { m21} R[ 12 12] 0 sd 0 1 0 c 310 294 m 9 Y s 303 303 m 13 X s 310 268 m -9 Y s 303 259 m 13 X s 375 319 m 11 Y s 369 330 m 13 X s 375 293 m -11 Y s 369 282
 m 13 X s 456 272 m 3 Y s 449 275 m 13 X s 456 246 m -4 Y s 449 242 m 13 X s 547 290 m 22 Y s 541 312 m 13 X s 547 264 m -21 Y s 541 243 m 13 X s 629 288 m 15 Y s 622 303 m 13 X s 629 261 m -15 Y s 622 246 m 13 X s 697 269 m 5 Y s 691 274 m 13 X s
 697 243 m -4 Y s 691 239 m 13 X s 774 285 m 13 Y s 768 298 m 13 X s 774 259 m -12 Y s 768 247 m 13 X s 835 307 m 23 Y s 828 330 m 13 X s 835 281 m -23 Y s 828 258 m 13 X s 909 347 m 10 Y s 903 357 m 13 X s 909 321 m -10 Y s 903 311 m 13 X s 1002 292
 m 11 Y s 996 303 m 13 X s 1002 266 m -11 Y s 996 255 m 13 X s 1099 256 m 6 Y s 1093 262 m 13 X s 1099 230 m -6 Y s 1093 224 m 13 X s 1188 327 m 21 Y s 1181 348 m 13 X s 1188 300 m -21 Y s 1181 279 m 13 X s 1268 246 m 5 Y s 1261 251 m 13 X s 1268 220
 m -6 Y s 1261 214 m 13 X s 1357 345 m 17 Y s 1350 362 m 13 X s 1357 319 m -17 Y s 1350 302 m 13 X s 1492 321 m 20 Y s 1486 341 m 13 X s 1492 295 m -20 Y s 1486 275 m 13 X s 1658 302 m 13 Y s 1651 315 m 14 X s 1658 276 m -14 Y s 1651 262 m 14 X s
 1806 235 m s 1799 235 m 13 X s 1806 208 m s 1799 208 m 13 X s 1958 381 m 59 Y s 1952 440 m 13 X s 1958 355 m -59 Y s 1952 296 m 13 X s black 0 1 0 c 310 281 m 65 25 d 81 -47 d 91 18 d 82 -3 d 68 -18 d 77 16 d 61 22 d 74 40 d 93 -55 d 97 -36 d 89 71
 d 80 -81 d 89 99 d 135 -24 d 166 -19 d 148 -67 d 152 146 d s[  ] 0 sd 310 281 375 306 456 259 547 277 629 274 697 256 774 272 835 294 909 334 1002 279 1099 243 1188 314 1268 233 1357 332 1492 308 1658 289 1806 222 1958 368 18 { m21} R[ 12 12] 0 sd 0
 0 1 c 311 248 m 1 Y s 304 249 m 13 X s 311 222 m -1 Y s 304 221 m 13 X s 375 262 m 5 Y s 368 267 m 13 X s 375 236 m -5 Y s 368 231 m 13 X s 456 302 m 11 Y s 450 313 m 13 X s 456 276 m -11 Y s 450 265 m 13 X s 548 274 m s 541 274 m 13 X s 548 248 m
 -1 Y s 541 247 m 13 X s 628 356 m 28 Y s 621 384 m 13 X s 628 330 m -29 Y s 621 301 m 13 X s 697 297 m 12 Y s 691 309 m 13 X s 697 271 m -12 Y s 691 259 m 13 X s 775 350 m 24 Y s 768 374 m 13 X s 775 324 m -23 Y s 768 301 m 13 X s 833 300 m 30 Y s
 827 330 m 13 X s 833 274 m -31 Y s 827 243 m 13 X s 909 277 m 24 Y s 902 301 m 13 X s 909 251 m -24 Y s 902 227 m 13 X s 1003 274 m 3 Y s 996 277 m 13 X s 1003 248 m -3 Y s 996 245 m 13 X s 1100 324 m 16 Y s 1093 340 m 13 X s 1100 298 m -15 Y s 1093
 283 m 13 X s 1188 416 m 85 Y s 1182 501 m 13 X s 1188 390 m -85 Y s 1182 305 m 13 X s 1268 260 m 9 Y s 1261 269 m 13 X s 1268 234 m -9 Y s 1261 225 m 13 X s 1356 259 m 4 Y s 1350 263 m 13 X s 1356 233 m -4 Y s 1350 229 m 13 X s 1492 296 m 17 Y s
 1486 313 m 13 X s 1492 270 m -18 Y s 1486 252 m 13 X s 1658 294 m 11 Y s 1651 305 m 13 X s 1658 268 m -11 Y s 1651 257 m 13 X s 1958 307 m 10 Y s 1951 317 m 13 X s 1958 281 m -10 Y s 1951 271 m 13 X s black 0 0 1 c 311 235 m 64 14 d 81 40 d 92 -28 d
 80 82 d 69 -59 d 78 53 d 58 -50 d 76 -23 d 94 -3 d 97 50 d 88 92 d 80 -156 d 88 -1 d 136 37 d 166 -2 d 148 -76 d 152 89 d s[  ] 0 sd 311 235 375 249 456 289 548 261 628 343 697 284 775 337 833 287 909 264 1003 261 1100 311 1188 403 1268 247 1356 246
 1492 283 1658 281 1806 205 1958 294 18 { m21} R[ 12 12] 0 sd 1 1 0 c 310 318 m 12 Y s 304 330 m 13 X s 310 292 m -12 Y s 304 280 m 13 X s 375 272 m 3 Y s 369 275 m 13 X s 375 246 m -4 Y s 369 242 m 13 X s 456 255 m 3 Y s 449 258 m 13 X s 456 229 m
 -3 Y s 449 226 m 13 X s 548 272 m 7 Y s 541 279 m 13 X s 548 245 m -7 Y s 541 238 m 13 X s 628 272 m 8 Y s 622 280 m 13 X s 628 246 m -8 Y s 622 238 m 13 X s 697 360 m 23 Y s 690 383 m 13 X s 697 334 m -24 Y s 690 310 m 13 X s 774 292 m 19 Y s 767
 311 m 13 X s 774 266 m -19 Y s 767 247 m 13 X s 834 258 m 14 Y s 828 272 m 13 X s 834 231 m -14 Y s 828 217 m 13 X s 909 275 m 10 Y s 902 285 m 13 X s 909 249 m -10 Y s 902 239 m 13 X s 1001 327 m 24 Y s 995 351 m 13 X s 1001 301 m -24 Y s 995 277 m
 13 X s 1100 253 m 2 Y s 1093 255 m 13 X s 1100 227 m -1 Y s 1093 226 m 13 X s 1188 282 m 13 Y s 1182 295 m 13 X s 1188 256 m -13 Y s 1182 243 m 13 X s 1268 244 m 1 Y s 1262 245 m 13 X s 1268 218 m -2 Y s 1262 216 m 13 X s 1356 303 m 16 Y s 1350 319
 m 13 X s 1356 277 m -16 Y s 1350 261 m 13 X s 1493 260 m s 1486 260 m 13 X s 1493 234 m s 1486 234 m 13 X s 1658 310 m 16 Y s 1652 326 m 13 X s 1658 284 m -15 Y s 1652 269 m 13 X s 1807 297 m 12 Y s 1800 309 m 13 X s 1807 271 m -12 Y s 1800 259 m 13
 X s 1958 295 m 10 Y s 1952 305 m 13 X s 1958 269 m -9 Y s 1952 260 m 13 X s black 1 1 0 c 310 305 m 65 -46 d 81 -17 d 92 16 d 80 1 d 69 88 d 77 -68 d 60 -34 d 75 17 d 92 52 d 99 -74 d 88 29 d 80 -38 d 88 59 d 137 -43 d 165 50 d 149 -13 d 151 -2 d s[
  ] 0 sd 310 305 375 259 456 242 548 258 628 259 697 347 774 279 834 245 909 262 1001 314 1100 240 1188 269 1268 231 1356 290 1493 247 1658 297 1807 284 1958 282 18 { m21} R[ 12 12] 0 sd 1 0 1 c 310 254 m 7 Y s 303 261 m 13 X s 310 228 m -7 Y s 303
 221 m 13 X s 375 263 m 9 Y s 368 272 m 13 X s 375 237 m -9 Y s 368 228 m 13 X s 630 284 m 15 Y s 623 299 m 13 X s 630 258 m -15 Y s 623 243 m 13 X s 697 270 m 2 Y s 691 272 m 13 X s 697 244 m -1 Y s 691 243 m 13 X s 775 289 m 10 Y s 768 299 m 13 X s
 775 263 m -10 Y s 768 253 m 13 X s 833 288 m 31 Y s 827 319 m 13 X s 833 261 m -31 Y s 827 230 m 13 X s 908 250 m 1 Y s 901 251 m 14 X s 908 224 m -2 Y s 901 222 m 14 X s 1001 296 m 7 Y s 995 303 m 13 X s 1001 270 m -6 Y s 995 264 m 13 X s 1099 299
 m 11 Y s 1093 310 m 13 X s 1099 273 m -12 Y s 1093 261 m 13 X s 1188 268 m 12 Y s 1182 280 m 13 X s 1188 242 m -12 Y s 1182 230 m 13 X s 1268 266 m 7 Y s 1261 273 m 13 X s 1268 240 m -7 Y s 1261 233 m 13 X s 1356 244 m 2 Y s 1350 246 m 13 X s 1356
 217 m -2 Y s 1350 215 m 13 X s 1492 287 m 5 Y s 1486 292 m 13 X s 1492 261 m -6 Y s 1486 255 m 13 X s 1806 285 m 8 Y s 1799 293 m 13 X s 1806 258 m -8 Y s 1799 250 m 13 X s 1958 288 m 9 Y s 1952 297 m 13 X s 1958 262 m -9 Y s 1952 253 m 13 X s black
 1 0 1 c 310 241 m 65 9 d 80 -30 d 93 5 d 82 46 d 67 -14 d 78 19 d 58 -2 d 75 -37 d 93 46 d 98 3 d 89 -31 d 80 -2 d 88 -22 d 136 43 d 166 -38 d 148 36 d 152 3 d s[  ] 0 sd 310 241 375 250 455 220 548 225 630 271 697 257 775 276 833 274 908 237 1001
 283 1099 286 1188 255 1268 253 1356 231 1492 274 1658 236 1806 272 1958 275 18 { m21} R[ 12 12] 0 sd black
 gsave  2268 1538 0 0 C 325.821 1300.03 t 0 r /Helvetica-Bold findfont 58.6478 sf 0 0 m (Sct Disk \(left\)) show NC gr 
 gsave  2268 1538 0 0 C 430.084 1244.64 t 0 r /Helvetica-Bold findfont 58.6478 sf 0 0 m (Disk 0) show NC gr [  ] 0 sd 334 1256 m 80 X s 374 1256 m20
 gsave  2268 1538 0 0 C 430.084 1189.25 t 0 r /Helvetica-Bold findfont 58.6478 sf 0 0 m (Disk 1) show NC gr  1 0 0 c 334 1201 m 80 X s 374 1201 m20 black
 gsave  2268 1538 0 0 C 430.084 1133.86 t 0 r /Helvetica-Bold findfont 58.6478 sf 0 0 m (Disk 2) show NC gr  0 1 0 c 334 1146 m 80 X s 374 1146 m20 black
 gsave  2268 1538 0 0 C 430.084 1078.47 t 0 r /Helvetica-Bold findfont 58.6478 sf 0 0 m (Disk 3) show NC gr  0 0 1 c 334 1091 m 80 X s 374 1091 m20 black
 gsave  2268 1538 0 0 C 430.084 1026.34 t 0 r /Helvetica-Bold findfont 58.6478 sf 0 0 m (Disk 4) show NC gr  1 1 0 c 334 1036 m 80 X s 374 1036 m20 black
 gsave  2268 1538 0 0 C 430.084 970.948 t 0 r /Helvetica-Bold findfont 58.6478 sf 0 0 m (Disk 5) show NC gr  1 0 1 c 334 981 m 80 X s 374 981 m20 black
 gsave  2268 1538 0 0 C 915.558 1300.03 t 0 r /Helvetica-Bold findfont 58.6478 sf 0 0 m (  \(right\)) show NC gr 
 gsave  2268 1538 0 0 C 1019.82 1244.64 t 0 r /Helvetica-Bold findfont 58.6478 sf 0 0 m (Disk 0) show NC gr [ 12 12] 0 sd 924 1256 m 79 X s[  ] 0 sd 964 1256 m21[ 12 12] 0 sd
 gsave  2268 1538 0 0 C 1019.82 1189.25 t 0 r /Helvetica-Bold findfont 58.6478 sf 0 0 m (Disk 1) show NC gr  1 0 0 c 924 1201 m 79 X s[  ] 0 sd 964 1201 m21[ 12 12] 0 sd black
 gsave  2268 1538 0 0 C 1019.82 1133.86 t 0 r /Helvetica-Bold findfont 58.6478 sf 0 0 m (Disk 2) show NC gr  0 1 0 c 924 1146 m 79 X s[  ] 0 sd 964 1146 m21[ 12 12] 0 sd black
 gsave  2268 1538 0 0 C 1019.82 1078.47 t 0 r /Helvetica-Bold findfont 58.6478 sf 0 0 m (Disk 3) show NC gr  0 0 1 c 924 1091 m 79 X s[  ] 0 sd 964 1091 m21[ 12 12] 0 sd black
 gsave  2268 1538 0 0 C 1019.82 1026.34 t 0 r /Helvetica-Bold findfont 58.6478 sf 0 0 m (Disk 4) show NC gr  1 1 0 c 924 1036 m 79 X s[  ] 0 sd 964 1036 m21[ 12 12] 0 sd black
 gsave  2268 1538 0 0 C 1019.82 970.948 t 0 r /Helvetica-Bold findfont 58.6478 sf 0 0 m (Disk 5) show NC gr  1 0 1 c 924 981 m 79 X s[  ] 0 sd 964 981 m21[ 12 12] 0 sd
 gr  gr showpage
end
%%EOF
