%!PS-Adobe-2.0 EPSF-2.0
%%BoundingBox:  0 0 567 384
%%Title: pionDir/sct_occupancy/size_sctlayer_mgz.eps: c1_n30
%%Creator: ROOT Version 6.04/12
%%CreationDate: Tue Apr 19 16:53:26 2016
%%DocumentNeededResources: ProcSet (FontSetInit)
%%EndComments
%%BeginProlog
80 dict begin
/s {stroke} def /l {lineto} def /m {moveto} def /t {translate} def
/r {rotate} def /rl {roll}  def /R {repeat} def
/d {rlineto} def /rm {rmoveto} def /gr {grestore} def /f {eofill} def
/c {setrgbcolor} def /black {0 setgray} def /sd {setdash} def
/cl {closepath} def /sf {scalefont setfont} def /lw {setlinewidth} def
/box {m dup 0 exch d exch 0 d 0 exch neg d cl} def
/NC{systemdict begin initclip end}def/C{NC box clip newpath}def
/bl {box s} def /bf {gsave box gsave f grestore 1 lw [] 0 sd s grestore} def /Y { 0 exch d} def /X { 0 d} def 
/K {{pop pop 0 moveto} exch kshow} bind def
/ita {/ang 15 def gsave [1 0 ang dup sin exch cos div 1 0 0] concat} def 
/mp {newpath /y exch def /x exch def} def
/side {[w .77 mul w .23 mul] .385 w mul sd w 0 l currentpoint t -144 r} def
/mr {mp x y w2 0 360 arc} def /m24 {mr s} def /m20 {mr f} def
/mb {mp x y w2 add m w2 neg 0 d 0 w neg d w 0 d 0 w d cl} def
/mt {mp x y w2 add m w2 neg w neg d w 0 d cl} def
/m21 {mb f} def /m25 {mb s} def /m22 {mt f} def /m26{mt s} def
/m23 {mp x y w2 sub m w2 w d w neg 0 d cl f} def
/m27 {mp x y w2 add m w3 neg w2 neg d w3 w2 neg d w3 w2 d cl s} def
/m28 {mp x w2 sub y w2 sub w3 add m w3 0 d  0 w3 neg d w3 0 d 0 w3 d w3 0 d  0 w3 d w3 neg 0 d 0 w3 d w3 neg 0 d 0 w3 neg d w3 neg 0 d cl s } def
/m29 {mp gsave x w2 sub y w2 add w3 sub m currentpoint t 4 {side} repeat cl fill gr} def
/m30 {mp gsave x w2 sub y w2 add w3 sub m currentpoint t 4 {side} repeat cl s gr} def
/m31 {mp x y w2 sub m 0 w d x w2 sub y m w 0 d x w2 sub y w2 add m w w neg d x w2 sub y w2 sub m w w d s} def
/m32 {mp x y w2 sub m w2 w d w neg 0 d cl s} def
/m33 {mp x y w2 add m w3 neg w2 neg d w3 w2 neg d w3 w2 d cl f} def
/m34 {mp x w2 sub y w2 sub w3 add m w3 0 d  0 w3 neg d w3 0 d 0 w3 d w3 0 d  0 w3 d w3 neg 0 d 0 w3 d w3 neg 0 d 0 w3 neg d w3 neg 0 d cl f } def
/m2 {mp x y w2 sub m 0 w d x w2 sub y m w 0 d s} def
/m5 {mp x w2 sub y w2 sub m w w d x w2 sub y w2 add m w w neg d s} def
%%IncludeResource: ProcSet (FontSetInit)
%%IncludeResource: font Times-Roman
%%IncludeResource: font Times-Italic
%%IncludeResource: font Times-Bold
%%IncludeResource: font Times-BoldItalic
%%IncludeResource: font Helvetica
%%IncludeResource: font Helvetica-Oblique
%%IncludeResource: font Helvetica-Bold
%%IncludeResource: font Helvetica-BoldOblique
%%IncludeResource: font Courier
%%IncludeResource: font Courier-Oblique
%%IncludeResource: font Courier-Bold
%%IncludeResource: font Courier-BoldOblique
%%IncludeResource: font Symbol
%%IncludeResource: font ZapfDingbats
/reEncode {exch findfont dup length dict begin {1 index /FID eq  {pop pop} {def} ifelse } forall /Encoding exch def currentdict end dup /FontName get exch definefont pop } def [/Times-Bold /Times-Italic /Times-BoldItalic /Helvetica /Helvetica-Oblique
 /Helvetica-Bold /Helvetica-BoldOblique /Courier /Courier-Oblique /Courier-Bold /Courier-BoldOblique /Times-Roman /AvantGarde-Book /AvantGarde-BookOblique /AvantGarde-Demi /AvantGarde-DemiOblique /Bookman-Demi /Bookman-DemiItalic /Bookman-Light
 /Bookman-LightItalic /Helvetica-Narrow /Helvetica-Narrow-Bold /Helvetica-Narrow-BoldOblique /Helvetica-Narrow-Oblique /NewCenturySchlbk-Roman /NewCenturySchlbk-Bold /NewCenturySchlbk-BoldItalic /NewCenturySchlbk-Italic /Palatino-Bold
 /Palatino-BoldItalic /Palatino-Italic /Palatino-Roman ] {ISOLatin1Encoding reEncode } forall
%%EndProlog
%%BeginSetup
%%EndSetup
newpath  gsave  .25 .25 scale  gsave  0 0 t black[  ] 0 sd 3 lw 1 1 1 c 2268 1538 0 0 bf black 1 1 1 c 1814 1230 227 154 bf black 1814 1230 227 154 bl 1 1 1 c 1814 1230 227 154 bf black 1814 1230 227 154 bl 227 154 m 1814 X s
 gsave  2268 1538 0 0 C 1853.92 35.8403 t 0 r /Helvetica-Bold findfont 58.6478 sf 0 0 m (z [mm]) show NC gr  399 191 m -37 Y s 460 172 m -18 Y s 521 172 m -18 Y s 583 172 m -18 Y s 644 191 m -37 Y s 705 172 m -18 Y s 766 172 m -18 Y s 828 172 m -18 Y
 s 889 191 m -37 Y s 950 172 m -18 Y s 1011 172 m -18 Y s 1073 172 m -18 Y s 1134 191 m -37 Y s 1195 172 m -18 Y s 1256 172 m -18 Y s 1318 172 m -18 Y s 1379 191 m -37 Y s 1440 172 m -18 Y s 1501 172 m -18 Y s 1563 172 m -18 Y s 1624 191 m -37 Y s
 1685 172 m -18 Y s 1746 172 m -18 Y s 1808 172 m -18 Y s 1869 191 m -37 Y s 399 191 m -37 Y s 338 172 m -18 Y s 276 172 m -18 Y s 1869 191 m -37 Y s 1930 172 m -18 Y s 1991 172 m -18 Y s
 gsave  2268 1538 0 0 C 361.662 97.7464 t 0 r /Helvetica-Bold findfont 58.6478 sf 0 0 m (600) show NC gr 
 gsave  2268 1538 0 0 C 332.338 97.7464 t 0 r /Symbol findfont 58.6478 sf 0 0 m (-) show NC gr 
 gsave  2268 1538 0 0 C 606.028 97.7464 t 0 r /Helvetica-Bold findfont 58.6478 sf 0 0 m (400) show NC gr 
 gsave  2268 1538 0 0 C 576.704 97.7464 t 0 r /Symbol findfont 58.6478 sf 0 0 m (-) show NC gr 
 gsave  2268 1538 0 0 C 850.394 97.7464 t 0 r /Helvetica-Bold findfont 58.6478 sf 0 0 m (200) show NC gr 
 gsave  2268 1538 0 0 C 821.07 97.7464 t 0 r /Symbol findfont 58.6478 sf 0 0 m (-) show NC gr 
 gsave  2268 1538 0 0 C 1114.31 97.7464 t 0 r /Helvetica-Bold findfont 58.6478 sf 0 0 m (0) show NC gr 
 gsave  2268 1538 0 0 C 1329.35 97.7464 t 0 r /Helvetica-Bold findfont 58.6478 sf 0 0 m (200) show NC gr 
 gsave  2268 1538 0 0 C 1573.72 97.7464 t 0 r /Helvetica-Bold findfont 58.6478 sf 0 0 m (400) show NC gr 
 gsave  2268 1538 0 0 C 1818.08 97.7464 t 0 r /Helvetica-Bold findfont 58.6478 sf 0 0 m (600) show NC gr  227 1384 m 1814 X s 399 1347 m 37 Y s 460 1366 m 18 Y s 521 1366 m 18 Y s 583 1366 m 18 Y s 644 1347 m 37 Y s 705 1366 m 18 Y s 766 1366 m 18 Y
 s 828 1366 m 18 Y s 889 1347 m 37 Y s 950 1366 m 18 Y s 1011 1366 m 18 Y s 1073 1366 m 18 Y s 1134 1347 m 37 Y s 1195 1366 m 18 Y s 1256 1366 m 18 Y s 1318 1366 m 18 Y s 1379 1347 m 37 Y s 1440 1366 m 18 Y s 1501 1366 m 18 Y s 1563 1366 m 18 Y s
 1624 1347 m 37 Y s 1685 1366 m 18 Y s 1746 1366 m 18 Y s 1808 1366 m 18 Y s 1869 1347 m 37 Y s 399 1347 m 37 Y s 338 1366 m 18 Y s 276 1366 m 18 Y s 1869 1347 m 37 Y s 1930 1366 m 18 Y s 1991 1366 m 18 Y s 227 154 m 1230 Y s
 gsave  2268 1538 0 0 C 104.263 1055.66 t 90 r /Helvetica-Bold findfont 58.6478 sf 0 0 m (Cluster size) show NC gr  281 194 m -54 X s 254 230 m -27 X s 254 266 m -27 X s 254 302 m -27 X s 254 339 m -27 X s 281 375 m -54 X s 254 411 m -27 X s 254 448
 m -27 X s 254 484 m -27 X s 254 520 m -27 X s 281 556 m -54 X s 254 593 m -27 X s 254 629 m -27 X s 254 665 m -27 X s 254 702 m -27 X s 281 738 m -54 X s 254 774 m -27 X s 254 810 m -27 X s 254 847 m -27 X s 254 883 m -27 X s 281 919 m -54 X s 254
 956 m -27 X s 254 992 m -27 X s 254 1028 m -27 X s 254 1064 m -27 X s 281 1101 m -54 X s 254 1137 m -27 X s 254 1173 m -27 X s 254 1209 m -27 X s 254 1246 m -27 X s 281 1282 m -54 X s 281 194 m -54 X s 254 157 m -27 X s 281 1282 m -54 X s 254 1318 m
 -27 X s 254 1355 m -27 X s
 gsave  2268 1538 0 0 C 192.235 172.685 t 0 r /Helvetica-Bold findfont 58.6478 sf 0 0 m (1) show NC gr 
 gsave  2268 1538 0 0 C 182.46 351.887 t 0 r /Helvetica-Bold findfont 58.6478 sf 0 0 m (2) show NC gr 
 gsave  2268 1538 0 0 C 182.46 534.347 t 0 r /Helvetica-Bold findfont 58.6478 sf 0 0 m (3) show NC gr 
 gsave  2268 1538 0 0 C 182.46 716.807 t 0 r /Helvetica-Bold findfont 58.6478 sf 0 0 m (4) show NC gr 
 gsave  2268 1538 0 0 C 182.46 899.267 t 0 r /Helvetica-Bold findfont 58.6478 sf 0 0 m (5) show NC gr 
 gsave  2268 1538 0 0 C 182.46 1078.47 t 0 r /Helvetica-Bold findfont 58.6478 sf 0 0 m (6) show NC gr 
 gsave  2268 1538 0 0 C 182.46 1260.93 t 0 r /Helvetica-Bold findfont 58.6478 sf 0 0 m (7) show NC gr  2041 154 m 1230 Y s 1987 194 m 54 X s 2014 230 m 27 X s 2014 266 m 27 X s 2014 302 m 27 X s 2014 339 m 27 X s 1987 375 m 54 X s 2014 411 m 27 X s
 2014 448 m 27 X s 2014 484 m 27 X s 2014 520 m 27 X s 1987 556 m 54 X s 2014 593 m 27 X s 2014 629 m 27 X s 2014 665 m 27 X s 2014 702 m 27 X s 1987 738 m 54 X s 2014 774 m 27 X s 2014 810 m 27 X s 2014 847 m 27 X s 2014 883 m 27 X s 1987 919 m 54 X
 s 2014 956 m 27 X s 2014 992 m 27 X s 2014 1028 m 27 X s 2014 1064 m 27 X s 1987 1101 m 54 X s 2014 1137 m 27 X s 2014 1173 m 27 X s 2014 1209 m 27 X s 2014 1246 m 27 X s 1987 1282 m 54 X s 1987 194 m 54 X s 2014 157 m 27 X s 1987 1282 m 54 X s 2014
 1318 m 27 X s 2014 1355 m 27 X s 309 353 m 24 Y s 303 377 m 13 X s 309 327 m -23 Y s 303 304 m 13 X s 339 309 m 15 Y s 332 324 m 13 X s 339 283 m -14 Y s 332 269 m 13 X s 368 322 m 17 Y s 361 339 m 13 X s 368 296 m -17 Y s 361 279 m 13 X s 397 341 m
 25 Y s 391 366 m 13 X s 397 315 m -24 Y s 391 291 m 13 X s 429 418 m 64 Y s 423 482 m 13 X s 429 392 m -64 Y s 423 328 m 13 X s 459 297 m 40 Y s 452 337 m 13 X s 459 271 m -39 Y s 452 232 m 13 X s 488 479 m 144 Y s 482 623 m 13 X s 488 453 m -144 Y
 s 482 309 m 13 X s 517 252 m 17 Y s 510 269 m 13 X s 517 226 m -17 Y s 510 209 m 13 X s 549 494 m 95 Y s 543 589 m 13 X s 549 468 m -95 Y s 543 373 m 13 X s 579 379 m 51 Y s 573 430 m 13 X s 579 353 m -51 Y s 573 302 m 13 X s 608 328 m 20 Y s 602
 348 m 13 X s 608 301 m -20 Y s 602 281 m 13 X s 637 292 m 25 Y s 631 317 m 13 X s 637 266 m -26 Y s 631 240 m 13 X s 669 307 m 29 Y s 663 336 m 13 X s 669 281 m -29 Y s 663 252 m 13 X s 699 262 m 8 Y s 692 270 m 13 X s 699 236 m -8 Y s 692 228 m 13
 X s 728 282 m 14 Y s 722 296 m 13 X s 728 256 m -13 Y s 722 243 m 13 X s 757 318 m 10 Y s 751 328 m 13 X s 757 292 m -9 Y s 751 283 m 13 X s 790 286 m 10 Y s 783 296 m 13 X s 790 260 m -10 Y s 783 250 m 13 X s 819 347 m 28 Y s 812 375 m 13 X s 819
 321 m -28 Y s 812 293 m 13 X s 848 411 m 86 Y s 842 497 m 13 X s 848 385 m -87 Y s 842 298 m 13 X s 878 330 m 39 Y s 871 369 m 13 X s 878 304 m -39 Y s 871 265 m 13 X s 910 368 m 34 Y s 903 402 m 13 X s 910 342 m -34 Y s 903 308 m 13 X s 939 231 m 3
 Y s 933 234 m 13 X s 939 205 m -4 Y s 933 201 m 13 X s 968 279 m 18 Y s 962 297 m 13 X s 968 253 m -17 Y s 962 236 m 13 X s 998 323 m 15 Y s 991 338 m 13 X s 998 297 m -15 Y s 991 282 m 13 X s 1030 280 m 6 Y s 1023 286 m 13 X s 1030 254 m -6 Y s
 1023 248 m 13 X s 1059 294 m 5 Y s 1053 299 m 13 X s 1059 268 m -6 Y s 1053 262 m 13 X s 1088 291 m 26 Y s 1082 317 m 13 X s 1088 265 m -26 Y s 1082 239 m 13 X s 1118 350 m 50 Y s 1111 400 m 13 X s 1118 324 m -50 Y s 1111 274 m 13 X s 1150 249 m 1 Y
 s 1143 250 m 13 X s 1150 223 m -1 Y s 1143 222 m 13 X s 1179 340 m 24 Y s 1173 364 m 13 X s 1179 314 m -23 Y s 1173 291 m 13 X s 1208 318 m 10 Y s 1202 328 m 13 X s 1208 292 m -10 Y s 1202 282 m 13 X s 1238 270 m 17 Y s 1231 287 m 13 X s 1238 244 m
 -17 Y s 1231 227 m 13 X s 1270 388 m 39 Y s 1264 427 m 13 X s 1270 362 m -39 Y s 1264 323 m 13 X s 1329 285 m 30 Y s 1322 315 m 13 X s 1329 259 m -29 Y s 1322 230 m 13 X s 1358 275 m 19 Y s 1351 294 m 13 X s 1358 249 m -20 Y s 1351 229 m 13 X s 1390
 275 m 20 Y s 1384 295 m 13 X s 1390 249 m -21 Y s 1384 228 m 13 X s 1420 303 m 26 Y s 1413 329 m 13 X s 1420 277 m -26 Y s 1413 251 m 13 X s 1449 275 m 9 Y s 1442 284 m 13 X s 1449 249 m -10 Y s 1442 239 m 13 X s 1478 255 m 8 Y s 1471 263 m 13 X s
 1478 229 m -9 Y s 1471 220 m 13 X s 1510 360 m 45 Y s 1504 405 m 13 X s 1510 334 m -44 Y s 1504 290 m 13 X s 1539 273 m 14 Y s 1533 287 m 13 X s 1539 246 m -14 Y s 1533 232 m 13 X s 1569 279 m 17 Y s 1563 296 m 13 X s 1569 253 m -17 Y s 1563 236 m
 13 X s 1598 261 m 6 Y s 1592 267 m 13 X s 1598 235 m -6 Y s 1592 229 m 13 X s 1631 315 m 17 Y s 1624 332 m 13 X s 1631 289 m -16 Y s 1624 273 m 13 X s 1660 280 m 11 Y s 1653 291 m 13 X s 1660 254 m -11 Y s 1653 243 m 13 X s 1689 315 m 17 Y s 1682
 332 m 13 X s 1689 289 m -16 Y s 1682 273 m 13 X s 1718 569 m 110 Y s 1712 679 m 13 X s 1718 543 m -109 Y s 1712 434 m 13 X s 1751 401 m 35 Y s 1744 436 m 13 X s 1751 375 m -34 Y s 1744 341 m 13 X s 1780 539 m 64 Y s 1773 603 m 13 X s 1780 513 m -64
 Y s 1773 449 m 13 X s 1809 358 m 49 Y s 1803 407 m 13 X s 1809 332 m -50 Y s 1803 282 m 13 X s 1838 377 m 35 Y s 1832 412 m 13 X s 1838 351 m -36 Y s 1832 315 m 13 X s 1871 377 m 54 Y s 1864 431 m 13 X s 1871 351 m -55 Y s 1864 296 m 13 X s 1900 361
 m 54 Y s 1894 415 m 13 X s 1900 335 m -54 Y s 1894 281 m 13 X s 1929 569 m 63 Y s 1922 632 m 13 X s 1929 543 m -63 Y s 1922 480 m 13 X s 1958 484 m 122 Y s 1952 606 m 13 X s 1958 458 m -122 Y s 1952 336 m 13 X s 309 340 m 30 -44 d 29 13 d 29 19 d 32
 77 d 30 -121 d 29 182 d 29 -227 d 32 242 d 30 -115 d 29 -52 d 29 -35 d 32 15 d 30 -45 d 29 20 d 29 36 d 33 -32 d 29 61 d 29 64 d 30 -81 d 32 38 d 29 -137 d 29 48 d 30 44 d 32 -43 d 29 14 d 29 -3 d 30 59 d 32 -101 d 29 91 d 29 -22 d 30 -48 d 32 118 d
 29 -181 d 30 78 d 29 -10 d 32 X 30 28 d 29 -28 d 29 -20 d 32 105 d 29 -87 d 30 6 d 29 -18 d 33 54 d 29 -35 d 29 35 d 29 254 d 33 -168 d 29 138 d 29 -181 d 29 19 d 33 X 29 -16 d 29 208 d 29 -85 d s /w 26 def /w2 {w 2 div} def /w3 {w 3 div} def 309
 340 339 296 368 309 397 328 429 405 459 284 488 466 517 239 549 481 579 366 608 314 637 279 669 294 699 249 728 269 757 305 790 273 819 334 848 398 878 317 910 355 939 218 968 266 998 310 1030 267 1059 281 1088 278 1118 337 1150 236 1179 327 1208
 305 1238 257 1270 375 1299 194 1329 272 1358 262 1390 262 1420 290 1449 262 1478 242 1510 347 1539 260 1569 266 1598 248 1631 302 1660 267 1689 302 1718 556 1751 388 1780 526 1809 345 1838 364 1871 364 1900 348 1929 556 1958 471 56 { m20} R 1 0 0 c
 309 291 m 11 Y s 303 302 m 13 X s 309 265 m -11 Y s 303 254 m 13 X s 338 369 m 34 Y s 332 403 m 13 X s 338 342 m -33 Y s 332 309 m 13 X s 368 289 m 14 Y s 361 303 m 13 X s 368 263 m -14 Y s 361 249 m 13 X s 397 314 m 20 Y s 391 334 m 13 X s 397 288
 m -19 Y s 391 269 m 13 X s 429 315 m 30 Y s 423 345 m 13 X s 429 289 m -29 Y s 423 260 m 13 X s 459 355 m 20 Y s 452 375 m 13 X s 459 329 m -20 Y s 452 309 m 13 X s 488 222 m 2 Y s 481 224 m 13 X s 488 196 m -2 Y s 481 194 m 13 X s 518 352 m 23 Y s
 511 375 m 13 X s 518 326 m -24 Y s 511 302 m 13 X s 549 329 m 15 Y s 543 344 m 13 X s 549 303 m -14 Y s 543 289 m 13 X s 579 302 m 12 Y s 572 314 m 13 X s 579 276 m -11 Y s 572 265 m 13 X s 608 315 m 28 Y s 601 343 m 13 X s 608 289 m -27 Y s 601 262
 m 13 X s 637 373 m 20 Y s 631 393 m 13 X s 637 347 m -20 Y s 631 327 m 13 X s 670 350 m 31 Y s 663 381 m 13 X s 670 324 m -30 Y s 663 294 m 13 X s 699 346 m 12 Y s 692 358 m 13 X s 699 320 m -13 Y s 692 307 m 13 X s 728 370 m 39 Y s 722 409 m 13 X s
 728 344 m -40 Y s 722 304 m 13 X s 757 281 m 6 Y s 751 287 m 13 X s 757 255 m -7 Y s 751 248 m 13 X s 819 225 m 5 Y s 813 230 m 13 X s 819 199 m -5 Y s 813 194 m 13 X s 848 368 m 85 Y s 842 453 m 13 X s 848 342 m -85 Y s 842 257 m 13 X s 877 275 m
 13 Y s 871 288 m 13 X s 877 249 m -14 Y s 871 235 m 13 X s 910 273 m 7 Y s 903 280 m 13 X s 910 247 m -7 Y s 903 240 m 13 X s 939 282 m 14 Y s 933 296 m 13 X s 939 256 m -14 Y s 933 242 m 13 X s 968 245 m 8 Y s 962 253 m 13 X s 968 219 m -7 Y s 962
 212 m 13 X s 998 331 m 12 Y s 991 343 m 13 X s 998 305 m -12 Y s 991 293 m 13 X s 1030 304 m 18 Y s 1023 322 m 13 X s 1030 278 m -17 Y s 1023 261 m 13 X s 1059 328 m 19 Y s 1053 347 m 13 X s 1059 301 m -19 Y s 1053 282 m 13 X s 1118 273 m 15 Y s
 1111 288 m 13 X s 1118 246 m -15 Y s 1111 231 m 13 X s 1150 257 m 7 Y s 1144 264 m 13 X s 1150 231 m -7 Y s 1144 224 m 13 X s 1179 252 m 11 Y s 1173 263 m 13 X s 1179 226 m -11 Y s 1173 215 m 13 X s 1209 262 m 30 Y s 1202 292 m 13 X s 1209 236 m -30
 Y s 1202 206 m 13 X s 1238 307 m 15 Y s 1231 322 m 13 X s 1238 281 m -15 Y s 1231 266 m 13 X s 1270 302 m 22 Y s 1263 324 m 14 X s 1270 276 m -22 Y s 1263 254 m 14 X s 1328 310 m 41 Y s 1322 351 m 13 X s 1328 284 m -41 Y s 1322 243 m 13 X s 1358 275
 m 20 Y s 1351 295 m 13 X s 1358 249 m -21 Y s 1351 228 m 13 X s 1390 248 m 18 Y s 1384 266 m 13 X s 1390 222 m -17 Y s 1384 205 m 13 X s 1419 315 m 18 Y s 1413 333 m 13 X s 1419 289 m -17 Y s 1413 272 m 13 X s 1449 365 m 27 Y s 1442 392 m 13 X s
 1449 339 m -28 Y s 1442 311 m 13 X s 1478 304 m 26 Y s 1472 330 m 13 X s 1478 278 m -26 Y s 1472 252 m 13 X s 1511 234 m 6 Y s 1504 240 m 13 X s 1511 208 m -5 Y s 1504 203 m 13 X s 1540 427 m 100 Y s 1533 527 m 13 X s 1540 401 m -100 Y s 1533 301 m
 13 X s 1569 281 m 22 Y s 1562 303 m 13 X s 1569 255 m -22 Y s 1562 233 m 13 X s 1598 267 m 10 Y s 1592 277 m 13 X s 1598 241 m -10 Y s 1592 231 m 13 X s 1630 343 m 50 Y s 1624 393 m 13 X s 1630 317 m -50 Y s 1624 267 m 13 X s 1660 321 m 34 Y s 1653
 355 m 13 X s 1660 295 m -33 Y s 1653 262 m 13 X s 1689 348 m 27 Y s 1682 375 m 13 X s 1689 322 m -28 Y s 1682 294 m 13 X s 1718 354 m 37 Y s 1712 391 m 13 X s 1718 328 m -37 Y s 1712 291 m 13 X s 1751 433 m 65 Y s 1744 498 m 13 X s 1751 407 m -64 Y
 s 1744 343 m 13 X s 1779 399 m 18 Y s 1773 417 m 13 X s 1779 373 m -18 Y s 1773 355 m 13 X s 1809 487 m 121 Y s 1803 608 m 13 X s 1809 461 m -121 Y s 1803 340 m 13 X s 1838 397 m 46 Y s 1832 443 m 13 X s 1838 371 m -47 Y s 1832 324 m 13 X s 1871 243
 m 6 Y s 1864 249 m 13 X s 1871 217 m -7 Y s 1864 210 m 13 X s 1899 340 m 28 Y s 1893 368 m 13 X s 1899 314 m -29 Y s 1893 285 m 13 X s 1929 763 m 154 Y s 1922 917 m 13 X s 1929 737 m -155 Y s 1922 582 m 13 X s 1958 367 m 67 Y s 1952 434 m 13 X s
 1958 341 m -68 Y s 1952 273 m 13 X s black 1 0 0 c 309 278 m 29 78 d 30 -80 d 29 25 d 32 1 d 30 40 d 29 -133 d 30 130 d 31 -23 d 30 -27 d 29 13 d 29 58 d 33 -23 d 29 -4 d 29 24 d 29 -89 d 33 -62 d 29 6 d 29 143 d 29 -93 d 33 -2 d 29 9 d 29 -37 d 30
 86 d 32 -27 d 29 23 d 29 -120 d 30 66 d 32 -16 d 29 -5 d 30 10 d 29 45 d 32 -5 d 29 -71 d 29 79 d 30 -35 d 32 -27 d 29 67 d 30 50 d 29 -61 d 33 -70 d 29 193 d 29 -146 d 29 -14 d 32 76 d 30 -22 d 29 27 d 29 6 d 33 79 d 28 -34 d 30 88 d 29 -90 d 33
 -154 d 28 97 d 30 423 d 29 -396 d s 309 278 338 356 368 276 397 301 429 302 459 342 488 209 518 339 549 316 579 289 608 302 637 360 670 337 699 333 728 357 757 268 790 206 819 212 848 355 877 262 910 260 939 269 968 232 998 318 1030 291 1059 314
 1088 194 1118 260 1150 244 1179 239 1209 249 1238 294 1270 289 1299 218 1328 297 1358 262 1390 235 1419 302 1449 352 1478 291 1511 221 1540 414 1569 268 1598 254 1630 330 1660 308 1689 335 1718 341 1751 420 1779 386 1809 474 1838 384 1871 230 1899
 327 1929 750 1958 354 56 { m20} R 0 1 0 c 324 322 m 10 Y s 318 332 m 13 X s 324 296 m -11 Y s 318 285 m 13 X s 382 279 m 8 Y s 376 287 m 13 X s 382 253 m -8 Y s 376 245 m 13 X s 444 325 m 30 Y s 438 355 m 13 X s 444 299 m -31 Y s 438 268 m 13 X s
 502 344 m 14 Y s 496 358 m 13 X s 502 318 m -13 Y s 496 305 m 13 X s 564 388 m 59 Y s 558 447 m 13 X s 564 362 m -59 Y s 558 303 m 13 X s 623 297 m 10 Y s 616 307 m 13 X s 623 271 m -9 Y s 616 262 m 13 X s 684 259 m 1 Y s 678 260 m 13 X s 684 233 m
 s 678 233 m 13 X s 743 368 m 29 Y s 736 397 m 13 X s 743 342 m -30 Y s 736 312 m 13 X s 805 312 m 10 Y s 798 322 m 13 X s 805 286 m -11 Y s 798 275 m 13 X s 863 297 m 6 Y s 856 303 m 13 X s 863 271 m -5 Y s 856 266 m 13 X s 925 297 m 10 Y s 918 307
 m 13 X s 925 271 m -10 Y s 918 261 m 13 X s 983 301 m 13 Y s 976 314 m 13 X s 983 275 m -12 Y s 976 263 m 13 X s 1045 348 m 42 Y s 1038 390 m 13 X s 1045 322 m -42 Y s 1038 280 m 13 X s 1103 290 m 13 Y s 1097 303 m 13 X s 1103 264 m -14 Y s 1097 250
 m 13 X s 1165 290 m 16 Y s 1158 306 m 13 X s 1165 264 m -16 Y s 1158 248 m 13 X s 1223 297 m 28 Y s 1217 325 m 13 X s 1223 271 m -27 Y s 1217 244 m 13 X s 1285 275 m 15 Y s 1278 290 m 13 X s 1285 249 m -16 Y s 1278 233 m 13 X s 1343 313 m 6 Y s 1337
 319 m 13 X s 1343 287 m -7 Y s 1337 280 m 13 X s 1405 276 m 10 Y s 1398 286 m 13 X s 1405 250 m -9 Y s 1398 241 m 13 X s 1463 302 m 8 Y s 1457 310 m 13 X s 1463 276 m -9 Y s 1457 267 m 13 X s 1525 308 m 13 Y s 1519 321 m 13 X s 1525 282 m -13 Y s
 1519 269 m 13 X s 1583 292 m 16 Y s 1577 308 m 13 X s 1583 266 m -16 Y s 1577 250 m 13 X s 1645 314 m 10 Y s 1639 324 m 13 X s 1645 288 m -11 Y s 1639 277 m 13 X s 1704 363 m 29 Y s 1697 392 m 13 X s 1704 337 m -29 Y s 1697 308 m 13 X s 1765 376 m
 37 Y s 1759 413 m 13 X s 1765 350 m -36 Y s 1759 314 m 13 X s 1824 244 m 3 Y s 1817 247 m 13 X s 1824 218 m -2 Y s 1817 216 m 13 X s 1885 415 m 55 Y s 1879 470 m 13 X s 1885 389 m -55 Y s 1879 334 m 13 X s 1944 400 m 37 Y s 1937 437 m 13 X s 1944
 374 m -37 Y s 1937 337 m 13 X s black 0 1 0 c 324 309 m 58 -43 d 62 46 d 58 19 d 62 44 d 59 -91 d 61 -38 d 59 109 d 62 -56 d 58 -15 d 62 X 58 4 d 62 47 d 58 -58 d 62 X 58 7 d 62 -22 d 58 38 d 62 -37 d 58 26 d 62 6 d 58 -16 d 62 22 d 59 49 d 61 13 d
 59 -132 d 61 171 d 59 -15 d s 324 309 382 266 444 312 502 331 564 375 623 284 684 246 743 355 805 299 863 284 925 284 983 288 1045 335 1103 277 1165 277 1223 284 1285 262 1343 300 1405 263 1463 289 1525 295 1583 279 1645 301 1704 350 1765 363 1824
 231 1885 402 1944 387 28 { m20} R 0 0 1 c 324 257 m 4 Y s 317 261 m 14 X s 324 231 m -3 Y s 317 228 m 14 X s 382 336 m 11 Y s 376 347 m 13 X s 382 310 m -11 Y s 376 299 m 13 X s 444 260 m 8 Y s 438 268 m 13 X s 444 234 m -8 Y s 438 226 m 13 X s 503
 263 m s 496 263 m 13 X s 503 237 m s 496 237 m 13 X s 564 255 m 3 Y s 558 258 m 13 X s 564 229 m -3 Y s 558 226 m 13 X s 623 328 m 12 Y s 616 340 m 13 X s 623 301 m -13 Y s 616 288 m 13 X s 684 283 m 27 Y s 678 310 m 13 X s 684 257 m -27 Y s 678 230
 m 13 X s 743 299 m 9 Y s 736 308 m 13 X s 743 273 m -8 Y s 736 265 m 13 X s 804 328 m 27 Y s 798 355 m 13 X s 804 301 m -27 Y s 798 274 m 13 X s 863 254 m 10 Y s 856 264 m 13 X s 863 228 m -11 Y s 856 217 m 13 X s 925 290 m 8 Y s 918 298 m 13 X s
 925 264 m -8 Y s 918 256 m 13 X s 983 370 m 36 Y s 976 406 m 13 X s 983 344 m -35 Y s 976 309 m 13 X s 1044 324 m 28 Y s 1038 352 m 13 X s 1044 298 m -28 Y s 1038 270 m 13 X s 1103 290 m 13 Y s 1096 303 m 13 X s 1103 264 m -12 Y s 1096 252 m 13 X s
 1165 456 m 71 Y s 1158 527 m 13 X s 1165 430 m -71 Y s 1158 359 m 13 X s 1223 711 m 278 Y s 1217 989 m 13 X s 1223 684 m -278 Y s 1217 406 m 13 X s 1285 231 m 3 Y s 1278 234 m 13 X s 1285 205 m -4 Y s 1278 201 m 13 X s 1343 286 m 24 Y s 1337 310 m
 13 X s 1343 260 m -24 Y s 1337 236 m 13 X s 1405 305 m 16 Y s 1398 321 m 13 X s 1405 279 m -16 Y s 1398 263 m 13 X s 1463 261 m 3 Y s 1457 264 m 13 X s 1463 235 m -3 Y s 1457 232 m 13 X s 1525 448 m 164 Y s 1518 612 m 13 X s 1525 422 m -163 Y s 1518
 259 m 13 X s 1583 328 m 20 Y s 1577 348 m 13 X s 1583 301 m -20 Y s 1577 281 m 13 X s 1645 273 m 12 Y s 1638 285 m 13 X s 1645 246 m -12 Y s 1638 234 m 13 X s 1703 358 m 17 Y s 1697 375 m 13 X s 1703 332 m -18 Y s 1697 314 m 13 X s 1765 274 m 8 Y s
 1759 282 m 13 X s 1765 248 m -8 Y s 1759 240 m 13 X s 1824 332 m 19 Y s 1817 351 m 13 X s 1824 306 m -20 Y s 1817 286 m 13 X s 1885 324 m 27 Y s 1879 351 m 13 X s 1885 298 m -28 Y s 1879 270 m 13 X s 1944 335 m 27 Y s 1937 362 m 13 X s 1944 309 m
 -27 Y s 1937 282 m 13 X s black 0 0 1 c 324 244 m 58 79 d 62 -76 d 59 3 d 61 -8 d 59 72 d 61 -44 d 59 16 d 61 28 d 59 -73 d 62 36 d 58 80 d 61 -46 d 59 -34 d 62 166 d 58 254 d 62 -479 d 58 55 d 62 19 d 58 -44 d 62 187 d 58 -121 d 62 -54 d 58 85 d 62
 -84 d 59 58 d 61 -8 d 59 11 d s 324 244 382 323 444 247 503 250 564 242 623 314 684 270 743 286 804 314 863 241 925 277 983 357 1044 311 1103 277 1165 443 1223 697 1285 218 1343 273 1405 292 1463 248 1525 435 1583 314 1645 260 1703 345 1765 261 1824
 319 1885 311 1944 322 28 { m20} R black
 gsave  2268 1538 0 0 C 1394.52 1273.96 t 0 r /Helvetica-Bold findfont 58.6478 sf 0 0 m (SCT Barrel) show NC gr 
 gsave  2268 1538 0 0 C 1495.52 1228.35 t 0 r /Helvetica-Bold findfont 58.6478 sf 0 0 m (Layer 0) show NC gr  1400 1238 m 80 X s 1440 1238 m20
 gsave  2268 1538 0 0 C 1495.52 1182.73 t 0 r /Helvetica-Bold findfont 58.6478 sf 0 0 m (Layer 1) show NC gr  1 0 0 c 1400 1192 m 80 X s 1440 1192 m20 black
 gsave  2268 1538 0 0 C 1495.52 1137.12 t 0 r /Helvetica-Bold findfont 58.6478 sf 0 0 m (Layer 2) show NC gr  0 1 0 c 1400 1146 m 80 X s 1440 1146 m20 black
 gsave  2268 1538 0 0 C 1495.52 1091.5 t 0 r /Helvetica-Bold findfont 58.6478 sf 0 0 m (Layer 3) show NC gr  0 0 1 c 1400 1100 m 80 X s 1440 1100 m20
 gr  gr showpage
end
%%EOF
