%!PS-Adobe-2.0 EPSF-2.0
%%BoundingBox:  0 0 567 384
%%Title: pionDir/sct_occupancy/size_sctdisk_mg.eps: c1_n47
%%Creator: ROOT Version 6.04/12
%%CreationDate: Tue Apr 19 16:53:29 2016
%%DocumentNeededResources: ProcSet (FontSetInit)
%%EndComments
%%BeginProlog
80 dict begin
/s {stroke} def /l {lineto} def /m {moveto} def /t {translate} def
/r {rotate} def /rl {roll}  def /R {repeat} def
/d {rlineto} def /rm {rmoveto} def /gr {grestore} def /f {eofill} def
/c {setrgbcolor} def /black {0 setgray} def /sd {setdash} def
/cl {closepath} def /sf {scalefont setfont} def /lw {setlinewidth} def
/box {m dup 0 exch d exch 0 d 0 exch neg d cl} def
/NC{systemdict begin initclip end}def/C{NC box clip newpath}def
/bl {box s} def /bf {gsave box gsave f grestore 1 lw [] 0 sd s grestore} def /Y { 0 exch d} def /X { 0 d} def 
/K {{pop pop 0 moveto} exch kshow} bind def
/ita {/ang 15 def gsave [1 0 ang dup sin exch cos div 1 0 0] concat} def 
/mp {newpath /y exch def /x exch def} def
/side {[w .77 mul w .23 mul] .385 w mul sd w 0 l currentpoint t -144 r} def
/mr {mp x y w2 0 360 arc} def /m24 {mr s} def /m20 {mr f} def
/mb {mp x y w2 add m w2 neg 0 d 0 w neg d w 0 d 0 w d cl} def
/mt {mp x y w2 add m w2 neg w neg d w 0 d cl} def
/m21 {mb f} def /m25 {mb s} def /m22 {mt f} def /m26{mt s} def
/m23 {mp x y w2 sub m w2 w d w neg 0 d cl f} def
/m27 {mp x y w2 add m w3 neg w2 neg d w3 w2 neg d w3 w2 d cl s} def
/m28 {mp x w2 sub y w2 sub w3 add m w3 0 d  0 w3 neg d w3 0 d 0 w3 d w3 0 d  0 w3 d w3 neg 0 d 0 w3 d w3 neg 0 d 0 w3 neg d w3 neg 0 d cl s } def
/m29 {mp gsave x w2 sub y w2 add w3 sub m currentpoint t 4 {side} repeat cl fill gr} def
/m30 {mp gsave x w2 sub y w2 add w3 sub m currentpoint t 4 {side} repeat cl s gr} def
/m31 {mp x y w2 sub m 0 w d x w2 sub y m w 0 d x w2 sub y w2 add m w w neg d x w2 sub y w2 sub m w w d s} def
/m32 {mp x y w2 sub m w2 w d w neg 0 d cl s} def
/m33 {mp x y w2 add m w3 neg w2 neg d w3 w2 neg d w3 w2 d cl f} def
/m34 {mp x w2 sub y w2 sub w3 add m w3 0 d  0 w3 neg d w3 0 d 0 w3 d w3 0 d  0 w3 d w3 neg 0 d 0 w3 d w3 neg 0 d 0 w3 neg d w3 neg 0 d cl f } def
/m2 {mp x y w2 sub m 0 w d x w2 sub y m w 0 d s} def
/m5 {mp x w2 sub y w2 sub m w w d x w2 sub y w2 add m w w neg d s} def
%%IncludeResource: ProcSet (FontSetInit)
%%IncludeResource: font Times-Roman
%%IncludeResource: font Times-Italic
%%IncludeResource: font Times-Bold
%%IncludeResource: font Times-BoldItalic
%%IncludeResource: font Helvetica
%%IncludeResource: font Helvetica-Oblique
%%IncludeResource: font Helvetica-Bold
%%IncludeResource: font Helvetica-BoldOblique
%%IncludeResource: font Courier
%%IncludeResource: font Courier-Oblique
%%IncludeResource: font Courier-Bold
%%IncludeResource: font Courier-BoldOblique
%%IncludeResource: font Symbol
%%IncludeResource: font ZapfDingbats
/reEncode {exch findfont dup length dict begin {1 index /FID eq  {pop pop} {def} ifelse } forall /Encoding exch def currentdict end dup /FontName get exch definefont pop } def [/Times-Bold /Times-Italic /Times-BoldItalic /Helvetica /Helvetica-Oblique
 /Helvetica-Bold /Helvetica-BoldOblique /Courier /Courier-Oblique /Courier-Bold /Courier-BoldOblique /Times-Roman /AvantGarde-Book /AvantGarde-BookOblique /AvantGarde-Demi /AvantGarde-DemiOblique /Bookman-Demi /Bookman-DemiItalic /Bookman-Light
 /Bookman-LightItalic /Helvetica-Narrow /Helvetica-Narrow-Bold /Helvetica-Narrow-BoldOblique /Helvetica-Narrow-Oblique /NewCenturySchlbk-Roman /NewCenturySchlbk-Bold /NewCenturySchlbk-BoldItalic /NewCenturySchlbk-Italic /Palatino-Bold
 /Palatino-BoldItalic /Palatino-Italic /Palatino-Roman ] {ISOLatin1Encoding reEncode } forall
%%EndProlog
%%BeginSetup
%%EndSetup
newpath  gsave  .25 .25 scale  gsave  0 0 t black[  ] 0 sd 3 lw 1 1 1 c 2268 1538 0 0 bf black 1 1 1 c 1814 1230 227 154 bf black 1814 1230 227 154 bl 1 1 1 c 1814 1230 227 154 bf black 1814 1230 227 154 bl 227 154 m 1814 X s 309 191 m -37 Y s 358
 172 m -18 Y s 406 172 m -18 Y s 455 172 m -18 Y s 503 191 m -37 Y s 552 172 m -18 Y s 600 172 m -18 Y s 649 172 m -18 Y s 697 191 m -37 Y s 746 172 m -18 Y s 794 172 m -18 Y s 843 172 m -18 Y s 891 191 m -37 Y s 940 172 m -18 Y s 988 172 m -18 Y s
 1037 172 m -18 Y s 1085 191 m -37 Y s 1134 172 m -18 Y s 1182 172 m -18 Y s 1231 172 m -18 Y s 1279 191 m -37 Y s 1328 172 m -18 Y s 1376 172 m -18 Y s 1425 172 m -18 Y s 1473 191 m -37 Y s 1522 172 m -18 Y s 1570 172 m -18 Y s 1619 172 m -18 Y s
 1667 191 m -37 Y s 1716 172 m -18 Y s 1764 172 m -18 Y s 1813 172 m -18 Y s 1861 191 m -37 Y s 309 191 m -37 Y s 261 172 m -18 Y s 1861 191 m -37 Y s 1910 172 m -18 Y s 1958 172 m -18 Y s 2007 172 m -18 Y s
 gsave  2268 1538 0 0 C 289.981 97.7464 t 0 r /Helvetica-Bold findfont 58.6478 sf 0 0 m (0) show NC gr 
 gsave  2268 1538 0 0 C 485.474 97.7464 t 0 r /Helvetica-Bold findfont 58.6478 sf 0 0 m (2) show NC gr 
 gsave  2268 1538 0 0 C 680.967 97.7464 t 0 r /Helvetica-Bold findfont 58.6478 sf 0 0 m (4) show NC gr 
 gsave  2268 1538 0 0 C 873.201 97.7464 t 0 r /Helvetica-Bold findfont 58.6478 sf 0 0 m (6) show NC gr 
 gsave  2268 1538 0 0 C 1068.69 97.7464 t 0 r /Helvetica-Bold findfont 58.6478 sf 0 0 m (8) show NC gr 
 gsave  2268 1538 0 0 C 1244.64 97.7464 t 0 r /Helvetica-Bold findfont 58.6478 sf 0 0 m (10) show NC gr 
 gsave  2268 1538 0 0 C 1440.13 97.7464 t 0 r /Helvetica-Bold findfont 58.6478 sf 0 0 m (12) show NC gr 
 gsave  2268 1538 0 0 C 1632.36 97.7464 t 0 r /Helvetica-Bold findfont 58.6478 sf 0 0 m (14) show NC gr 
 gsave  2268 1538 0 0 C 1827.86 97.7464 t 0 r /Helvetica-Bold findfont 58.6478 sf 0 0 m (16) show NC gr  227 1384 m 1814 X s 309 1347 m 37 Y s 358 1366 m 18 Y s 406 1366 m 18 Y s 455 1366 m 18 Y s 503 1347 m 37 Y s 552 1366 m 18 Y s 600 1366 m 18 Y s
 649 1366 m 18 Y s 697 1347 m 37 Y s 746 1366 m 18 Y s 794 1366 m 18 Y s 843 1366 m 18 Y s 891 1347 m 37 Y s 940 1366 m 18 Y s 988 1366 m 18 Y s 1037 1366 m 18 Y s 1085 1347 m 37 Y s 1134 1366 m 18 Y s 1182 1366 m 18 Y s 1231 1366 m 18 Y s 1279 1347
 m 37 Y s 1328 1366 m 18 Y s 1376 1366 m 18 Y s 1425 1366 m 18 Y s 1473 1347 m 37 Y s 1522 1366 m 18 Y s 1570 1366 m 18 Y s 1619 1366 m 18 Y s 1667 1347 m 37 Y s 1716 1366 m 18 Y s 1764 1366 m 18 Y s 1813 1366 m 18 Y s 1861 1347 m 37 Y s 309 1347 m
 37 Y s 261 1366 m 18 Y s 1861 1347 m 37 Y s 1910 1366 m 18 Y s 1958 1366 m 18 Y s 2007 1366 m 18 Y s 227 154 m 1230 Y s 281 193 m -54 X s 254 219 m -27 X s 254 245 m -27 X s 254 270 m -27 X s 254 296 m -27 X s 281 322 m -54 X s 254 348 m -27 X s 254
 374 m -27 X s 254 400 m -27 X s 254 426 m -27 X s 281 452 m -54 X s 254 477 m -27 X s 254 503 m -27 X s 254 529 m -27 X s 254 555 m -27 X s 281 581 m -54 X s 254 607 m -27 X s 254 633 m -27 X s 254 659 m -27 X s 254 684 m -27 X s 281 710 m -54 X s
 254 736 m -27 X s 254 762 m -27 X s 254 788 m -27 X s 254 814 m -27 X s 281 840 m -54 X s 254 865 m -27 X s 254 891 m -27 X s 254 917 m -27 X s 254 943 m -27 X s 281 969 m -54 X s 254 995 m -27 X s 254 1021 m -27 X s 254 1047 m -27 X s 254 1072 m
 -27 X s 281 1098 m -54 X s 254 1124 m -27 X s 254 1150 m -27 X s 254 1176 m -27 X s 254 1202 m -27 X s 281 1228 m -54 X s 254 1254 m -27 X s 254 1279 m -27 X s 254 1305 m -27 X s 254 1331 m -27 X s 281 1357 m -54 X s 281 193 m -54 X s 254 167 m -27
 X s 281 1357 m -54 X s 254 1383 m -27 X s
 gsave  2268 1538 0 0 C 192.235 172.685 t 0 r /Helvetica-Bold findfont 58.6478 sf 0 0 m (1) show NC gr 
 gsave  2268 1538 0 0 C 133.587 299.756 t 0 r /Helvetica-Bold findfont 58.6478 sf 0 0 m (1.5) show NC gr 
 gsave  2268 1538 0 0 C 182.46 426.826 t 0 r /Helvetica-Bold findfont 58.6478 sf 0 0 m (2) show NC gr 
 gsave  2268 1538 0 0 C 133.587 560.413 t 0 r /Helvetica-Bold findfont 58.6478 sf 0 0 m (2.5) show NC gr 
 gsave  2268 1538 0 0 C 182.46 687.483 t 0 r /Helvetica-Bold findfont 58.6478 sf 0 0 m (3) show NC gr 
 gsave  2268 1538 0 0 C 133.587 817.812 t 0 r /Helvetica-Bold findfont 58.6478 sf 0 0 m (3.5) show NC gr 
 gsave  2268 1538 0 0 C 182.46 948.14 t 0 r /Helvetica-Bold findfont 58.6478 sf 0 0 m (4) show NC gr 
 gsave  2268 1538 0 0 C 133.587 1078.47 t 0 r /Helvetica-Bold findfont 58.6478 sf 0 0 m (4.5) show NC gr 
 gsave  2268 1538 0 0 C 182.46 1205.54 t 0 r /Helvetica-Bold findfont 58.6478 sf 0 0 m (5) show NC gr 
 gsave  2268 1538 0 0 C 133.587 1335.87 t 0 r /Helvetica-Bold findfont 58.6478 sf 0 0 m (5.5) show NC gr  2041 154 m 1230 Y s 1987 193 m 54 X s 2014 219 m 27 X s 2014 245 m 27 X s 2014 270 m 27 X s 2014 296 m 27 X s 1987 322 m 54 X s 2014 348 m 27 X
 s 2014 374 m 27 X s 2014 400 m 27 X s 2014 426 m 27 X s 1987 452 m 54 X s 2014 477 m 27 X s 2014 503 m 27 X s 2014 529 m 27 X s 2014 555 m 27 X s 1987 581 m 54 X s 2014 607 m 27 X s 2014 633 m 27 X s 2014 659 m 27 X s 2014 684 m 27 X s 1987 710 m 54
 X s 2014 736 m 27 X s 2014 762 m 27 X s 2014 788 m 27 X s 2014 814 m 27 X s 1987 840 m 54 X s 2014 865 m 27 X s 2014 891 m 27 X s 2014 917 m 27 X s 2014 943 m 27 X s 1987 969 m 54 X s 2014 995 m 27 X s 2014 1021 m 27 X s 2014 1047 m 27 X s 2014 1072
 m 27 X s 1987 1098 m 54 X s 2014 1124 m 27 X s 2014 1150 m 27 X s 2014 1176 m 27 X s 2014 1202 m 27 X s 1987 1228 m 54 X s 2014 1254 m 27 X s 2014 1279 m 27 X s 2014 1305 m 27 X s 2014 1331 m 27 X s 1987 1357 m 54 X s 1987 193 m 54 X s 2014 167 m 27
 X s 1987 1357 m 54 X s 2014 1383 m 27 X s 309 292 m 14 Y s 303 306 m 13 X s 309 266 m -14 Y s 303 252 m 13 X s 406 281 m 22 Y s 400 303 m 13 X s 406 254 m -22 Y s 400 232 m 13 X s 503 294 m 12 Y s 497 306 m 13 X s 503 268 m -12 Y s 497 256 m 13 X s
 600 309 m 20 Y s 594 329 m 13 X s 600 283 m -20 Y s 594 263 m 13 X s 697 295 m 20 Y s 691 315 m 13 X s 697 268 m -20 Y s 691 248 m 13 X s 794 272 m 4 Y s 788 276 m 13 X s 794 246 m -5 Y s 788 241 m 13 X s 891 251 m 5 Y s 885 256 m 13 X s 891 225 m
 -4 Y s 885 221 m 13 X s 988 348 m 35 Y s 982 383 m 13 X s 988 322 m -35 Y s 982 287 m 13 X s 1085 344 m 28 Y s 1079 372 m 13 X s 1085 318 m -28 Y s 1079 290 m 13 X s 1182 328 m 19 Y s 1176 347 m 13 X s 1182 302 m -19 Y s 1176 283 m 13 X s 1279 288 m
 19 Y s 1273 307 m 13 X s 1279 261 m -19 Y s 1273 242 m 13 X s 1376 378 m 26 Y s 1370 404 m 13 X s 1376 352 m -26 Y s 1370 326 m 13 X s 1473 368 m 78 Y s 1467 446 m 13 X s 1473 341 m -78 Y s 1467 263 m 13 X s 1570 373 m 41 Y s 1564 414 m 13 X s 1570
 347 m -41 Y s 1564 306 m 13 X s 1667 335 m 19 Y s 1661 354 m 13 X s 1667 309 m -18 Y s 1661 291 m 13 X s 1764 289 m 8 Y s 1758 297 m 13 X s 1764 263 m -9 Y s 1758 254 m 13 X s 1861 465 m 96 Y s 1855 561 m 13 X s 1861 438 m -96 Y s 1855 342 m 13 X s
 1958 364 m 24 Y s 1952 388 m 13 X s 1958 338 m -24 Y s 1952 314 m 13 X s 309 279 m 97 -11 d 97 13 d 97 15 d 97 -15 d 97 -22 d 97 -21 d 97 97 d 97 -4 d 97 -16 d 97 -41 d 97 91 d 97 -11 d 97 6 d 97 -38 d 97 -46 d 97 176 d 97 -101 d s /w 26 def /w2 {w
 2 div} def /w3 {w 3 div} def 309 279 406 268 503 281 600 296 697 281 794 259 891 238 988 335 1085 331 1182 315 1279 274 1376 365 1473 354 1570 360 1667 322 1764 276 1861 452 1958 351 18 { m20} R 1 0 0 c 309 378 m 20 Y s 303 398 m 13 X s 309 352 m
 -20 Y s 303 332 m 13 X s 406 288 m 10 Y s 400 298 m 13 X s 406 261 m -10 Y s 400 251 m 13 X s 503 263 m 2 Y s 497 265 m 13 X s 503 237 m -3 Y s 497 234 m 13 X s 600 292 m 8 Y s 594 300 m 13 X s 600 266 m -8 Y s 594 258 m 13 X s 697 338 m 17 Y s 691
 355 m 13 X s 697 312 m -17 Y s 691 295 m 13 X s 794 389 m 53 Y s 788 442 m 13 X s 794 363 m -53 Y s 788 310 m 13 X s 891 326 m 12 Y s 885 338 m 13 X s 891 300 m -12 Y s 885 288 m 13 X s 988 279 m 7 Y s 982 286 m 13 X s 988 253 m -8 Y s 982 245 m 13
 X s 1085 253 m 5 Y s 1079 258 m 13 X s 1085 227 m -5 Y s 1079 222 m 13 X s 1182 317 m 29 Y s 1176 346 m 13 X s 1182 291 m -30 Y s 1176 261 m 13 X s 1279 295 m 23 Y s 1273 318 m 13 X s 1279 269 m -23 Y s 1273 246 m 13 X s 1376 421 m 51 Y s 1370 472 m
 13 X s 1376 395 m -50 Y s 1370 345 m 13 X s 1473 285 m 11 Y s 1467 296 m 13 X s 1473 259 m -11 Y s 1467 248 m 13 X s 1570 326 m 44 Y s 1564 370 m 13 X s 1570 300 m -44 Y s 1564 256 m 13 X s 1667 396 m 18 Y s 1661 414 m 13 X s 1667 370 m -17 Y s 1661
 353 m 13 X s 1764 338 m 15 Y s 1758 353 m 13 X s 1764 312 m -15 Y s 1758 297 m 13 X s 1861 304 m 29 Y s 1855 333 m 13 X s 1861 278 m -28 Y s 1855 250 m 13 X s 1958 332 m 21 Y s 1952 353 m 13 X s 1958 306 m -21 Y s 1952 285 m 13 X s black 1 0 0 c 309
 365 m 97 -91 d 97 -24 d 97 29 d 97 46 d 97 51 d 97 -63 d 97 -47 d 97 -26 d 97 64 d 97 -22 d 97 126 d 97 -136 d 97 41 d 97 70 d 97 -58 d 97 -34 d 97 28 d s 309 365 406 274 503 250 600 279 697 325 794 376 891 313 988 266 1085 240 1182 304 1279 282
 1376 408 1473 272 1570 313 1667 383 1764 325 1861 291 1958 319 18 { m20} R 0 1 0 c 309 356 m 30 Y s 303 386 m 13 X s 309 330 m -31 Y s 303 299 m 13 X s 406 299 m 11 Y s 400 310 m 13 X s 406 273 m -11 Y s 400 262 m 13 X s 503 267 m 1 Y s 497 268 m 13
 X s 503 241 m -1 Y s 497 240 m 13 X s 600 310 m 13 Y s 594 323 m 13 X s 600 284 m -13 Y s 594 271 m 13 X s 697 249 m 6 Y s 691 255 m 13 X s 697 223 m -6 Y s 691 217 m 13 X s 794 321 m 33 Y s 788 354 m 13 X s 794 295 m -34 Y s 788 261 m 13 X s 891
 255 m 2 Y s 885 257 m 13 X s 891 229 m -2 Y s 885 227 m 13 X s 988 258 m 17 Y s 982 275 m 13 X s 988 231 m -17 Y s 982 214 m 13 X s 1085 296 m 17 Y s 1079 313 m 13 X s 1085 270 m -18 Y s 1079 252 m 13 X s 1182 286 m 11 Y s 1176 297 m 13 X s 1182 260
 m -11 Y s 1176 249 m 13 X s 1279 316 m 5 Y s 1273 321 m 13 X s 1279 290 m -6 Y s 1273 284 m 13 X s 1376 266 m 8 Y s 1370 274 m 13 X s 1376 239 m -8 Y s 1370 231 m 13 X s 1473 263 m 8 Y s 1467 271 m 13 X s 1473 237 m -8 Y s 1467 229 m 13 X s 1570 323
 m 37 Y s 1564 360 m 13 X s 1570 297 m -36 Y s 1564 261 m 13 X s 1667 316 m 11 Y s 1661 327 m 13 X s 1667 290 m -11 Y s 1661 279 m 13 X s 1764 316 m 8 Y s 1758 324 m 13 X s 1764 290 m -9 Y s 1758 281 m 13 X s 1861 335 m 17 Y s 1855 352 m 13 X s 1861
 309 m -16 Y s 1855 293 m 13 X s 1958 332 m 19 Y s 1952 351 m 13 X s 1958 306 m -18 Y s 1952 288 m 13 X s black 0 1 0 c 309 343 m 97 -57 d 97 -32 d 97 43 d 97 -61 d 97 72 d 97 -66 d 97 3 d 97 38 d 97 -10 d 97 30 d 97 -51 d 97 -2 d 97 60 d 97 -7 d 97
 X 97 19 d 97 -3 d s 309 343 406 286 503 254 600 297 697 236 794 308 891 242 988 245 1085 283 1182 273 1279 303 1376 252 1473 250 1570 310 1667 303 1764 303 1861 322 1958 319 18 { m20} R 0 0 1 c 309 275 m 21 Y s 303 296 m 13 X s 309 249 m -20 Y s 303
 229 m 13 X s 406 286 m 18 Y s 400 304 m 13 X s 406 260 m -17 Y s 400 243 m 13 X s 503 320 m 17 Y s 497 337 m 13 X s 503 294 m -17 Y s 497 277 m 13 X s 600 282 m 6 Y s 594 288 m 13 X s 600 256 m -6 Y s 594 250 m 13 X s 697 272 m 9 Y s 691 281 m 13 X
 s 697 246 m -9 Y s 691 237 m 13 X s 794 257 m 1 Y s 788 258 m 13 X s 794 230 m -1 Y s 788 229 m 13 X s 891 287 m 13 Y s 885 300 m 13 X s 891 261 m -12 Y s 885 249 m 13 X s 988 298 m 38 Y s 982 336 m 13 X s 988 272 m -39 Y s 982 233 m 13 X s 1085 253
 m 4 Y s 1079 257 m 13 X s 1085 227 m -3 Y s 1079 224 m 13 X s 1182 254 m 5 Y s 1176 259 m 13 X s 1182 228 m -5 Y s 1176 223 m 13 X s 1279 329 m 24 Y s 1273 353 m 13 X s 1279 303 m -24 Y s 1273 279 m 13 X s 1376 323 m 14 Y s 1370 337 m 13 X s 1376
 297 m -14 Y s 1370 283 m 13 X s 1473 295 m 10 Y s 1467 305 m 13 X s 1473 268 m -10 Y s 1467 258 m 13 X s 1570 275 m 7 Y s 1564 282 m 13 X s 1570 249 m -7 Y s 1564 242 m 13 X s 1667 279 m 15 Y s 1661 294 m 13 X s 1667 253 m -15 Y s 1661 238 m 13 X s
 1764 276 m 10 Y s 1758 286 m 13 X s 1764 250 m -9 Y s 1758 241 m 13 X s 1861 311 m 11 Y s 1855 322 m 13 X s 1861 285 m -10 Y s 1855 275 m 13 X s 1958 280 m 3 Y s 1952 283 m 13 X s 1958 254 m -2 Y s 1952 252 m 13 X s black 0 0 1 c 309 262 m 97 11 d
 97 34 d 97 -38 d 97 -10 d 97 -15 d 97 30 d 97 11 d 97 -45 d 97 1 d 97 75 d 97 -6 d 97 -29 d 97 -19 d 97 4 d 97 -3 d 97 35 d 97 -31 d s 309 262 406 273 503 307 600 269 697 259 794 244 891 274 988 285 1085 240 1182 241 1279 316 1376 310 1473 281 1570
 262 1667 266 1764 263 1861 298 1958 267 18 { m20} R 1 1 0 c 309 270 m 11 Y s 303 281 m 13 X s 309 244 m -10 Y s 303 234 m 13 X s 406 316 m 10 Y s 400 326 m 13 X s 406 290 m -10 Y s 400 280 m 13 X s 600 303 m 15 Y s 594 318 m 13 X s 600 277 m -16 Y s
 594 261 m 13 X s 697 236 m 3 Y s 691 239 m 13 X s 697 210 m -4 Y s 691 206 m 13 X s 794 256 m 3 Y s 788 259 m 13 X s 794 230 m -2 Y s 788 228 m 13 X s 891 285 m 14 Y s 885 299 m 13 X s 891 259 m -14 Y s 885 245 m 13 X s 1085 258 m 3 Y s 1079 261 m
 13 X s 1085 231 m -3 Y s 1079 228 m 13 X s 1182 256 m s 1176 256 m 13 X s 1182 230 m s 1176 230 m 13 X s 1279 267 m 8 Y s 1273 275 m 13 X s 1279 241 m -7 Y s 1273 234 m 13 X s 1376 261 m 3 Y s 1370 264 m 13 X s 1376 235 m -3 Y s 1370 232 m 13 X s
 1473 286 m 6 Y s 1467 292 m 13 X s 1473 260 m -6 Y s 1467 254 m 13 X s 1764 250 m 1 Y s 1758 251 m 13 X s 1764 224 m -2 Y s 1758 222 m 13 X s 1861 264 m 12 Y s 1855 276 m 13 X s 1861 238 m -12 Y s 1855 226 m 13 X s 1958 265 m 3 Y s 1952 268 m 13 X s
 1958 239 m -3 Y s 1952 236 m 13 X s black 1 1 0 c 309 257 m 97 46 d 97 -81 d 97 68 d 97 -67 d 97 20 d 97 29 d 97 -79 d 97 52 d 97 -2 d 97 11 d 97 -6 d 97 25 d 97 -34 d 97 X 97 -2 d 97 14 d 97 1 d s 309 257 406 303 503 222 600 290 697 223 794 243 891
 272 988 193 1085 245 1182 243 1279 254 1376 248 1473 273 1570 239 1667 239 1764 237 1861 251 1958 252 18 { m20} R 1 0 1 c 309 281 m 15 Y s 303 296 m 13 X s 309 255 m -15 Y s 303 240 m 13 X s 406 289 m 7 Y s 400 296 m 13 X s 406 263 m -7 Y s 400 256
 m 13 X s 503 265 m 4 Y s 497 269 m 13 X s 503 239 m -5 Y s 497 234 m 13 X s 600 308 m 19 Y s 594 327 m 13 X s 600 282 m -18 Y s 594 264 m 13 X s 794 288 m 11 Y s 788 299 m 13 X s 794 262 m -10 Y s 788 252 m 13 X s 891 227 m 2 Y s 885 229 m 13 X s
 891 201 m -2 Y s 885 199 m 13 X s 988 347 m 37 Y s 982 384 m 13 X s 988 321 m -37 Y s 982 284 m 13 X s 1085 278 m 6 Y s 1079 284 m 13 X s 1085 252 m -7 Y s 1079 245 m 13 X s 1182 277 m 16 Y s 1176 293 m 13 X s 1182 251 m -16 Y s 1176 235 m 13 X s
 1279 290 m 28 Y s 1273 318 m 13 X s 1279 264 m -28 Y s 1273 236 m 13 X s 1376 305 m 29 Y s 1370 334 m 13 X s 1376 279 m -29 Y s 1370 250 m 13 X s 1473 304 m 19 Y s 1467 323 m 13 X s 1473 278 m -18 Y s 1467 260 m 13 X s 1570 282 m 5 Y s 1564 287 m 13
 X s 1570 256 m -5 Y s 1564 251 m 13 X s 1667 274 m 1 Y s 1661 275 m 13 X s 1667 248 m -1 Y s 1661 247 m 13 X s 1764 254 m 2 Y s 1758 256 m 13 X s 1764 228 m -1 Y s 1758 227 m 13 X s 1861 270 m s 1855 270 m 13 X s 1861 244 m -1 Y s 1855 243 m 13 X s
 black 1 0 1 c 309 268 m 97 8 d 97 -24 d 97 43 d 97 -83 d 97 63 d 97 -61 d 97 120 d 97 -69 d 97 -1 d 97 13 d 97 15 d 97 -1 d 97 -22 d 97 -8 d 97 -20 d 97 16 d 97 -10 d s 309 268 406 276 503 252 600 295 697 212 794 275 891 214 988 334 1085 265 1182
 264 1279 277 1376 292 1473 291 1570 269 1667 261 1764 241 1861 257 1958 247 18 { m20} R black[ 12 12] 0 sd 309 333 m 16 Y s 303 349 m 13 X s 309 307 m -16 Y s 303 291 m 13 X s 406 303 m 8 Y s 400 311 m 13 X s 406 277 m -8 Y s 400 269 m 13 X s 503
 282 m 7 Y s 497 289 m 13 X s 503 256 m -7 Y s 497 249 m 13 X s 600 273 m 3 Y s 594 276 m 13 X s 600 247 m -4 Y s 594 243 m 13 X s 697 247 m 19 Y s 691 266 m 13 X s 697 221 m -19 Y s 691 202 m 13 X s 794 365 m 22 Y s 788 387 m 13 X s 794 339 m -22 Y
 s 788 317 m 13 X s 891 359 m 43 Y s 885 402 m 13 X s 891 333 m -42 Y s 885 291 m 13 X s 988 357 m 46 Y s 982 403 m 13 X s 988 331 m -47 Y s 982 284 m 13 X s 1085 337 m 26 Y s 1079 363 m 13 X s 1085 311 m -25 Y s 1079 286 m 13 X s 1182 260 m 19 Y s
 1176 279 m 13 X s 1182 234 m -19 Y s 1176 215 m 13 X s 1279 305 m 16 Y s 1273 321 m 13 X s 1279 279 m -16 Y s 1273 263 m 13 X s 1376 309 m 27 Y s 1370 336 m 13 X s 1376 283 m -26 Y s 1370 257 m 13 X s 1473 350 m 28 Y s 1467 378 m 13 X s 1473 323 m
 -28 Y s 1467 295 m 13 X s 1570 401 m 46 Y s 1564 447 m 13 X s 1570 375 m -45 Y s 1564 330 m 13 X s 1667 753 m 219 Y s 1661 972 m 13 X s 1667 727 m -220 Y s 1661 507 m 13 X s 1764 398 m 32 Y s 1758 430 m 13 X s 1764 372 m -31 Y s 1758 341 m 13 X s
 1861 267 m 11 Y s 1855 278 m 13 X s 1861 241 m -12 Y s 1855 229 m 13 X s 1958 335 m 12 Y s 1952 347 m 13 X s 1958 309 m -11 Y s 1952 298 m 13 X s 309 320 m 97 -30 d 97 -21 d 97 -9 d 97 -26 d 97 118 d 97 -6 d 97 -2 d 97 -20 d 97 -77 d 97 45 d 97 4 d
 97 41 d 97 51 d 97 352 d 97 -355 d 97 -131 d 97 68 d s[  ] 0 sd 309 320 406 290 503 269 600 260 697 234 794 352 891 346 988 344 1085 324 1182 247 1279 292 1376 296 1473 337 1570 388 1667 740 1764 385 1861 254 1958 322 18 { m21} R[ 12 12] 0 sd 1 0 0
 c 309 277 m 13 Y s 303 290 m 13 X s 309 251 m -13 Y s 303 238 m 13 X s 406 284 m 11 Y s 400 295 m 13 X s 406 258 m -11 Y s 400 247 m 13 X s 503 324 m 30 Y s 497 354 m 13 X s 503 298 m -30 Y s 497 268 m 13 X s 600 281 m 8 Y s 594 289 m 13 X s 600 255
 m -7 Y s 594 248 m 13 X s 697 372 m 20 Y s 691 392 m 13 X s 697 346 m -21 Y s 691 325 m 13 X s 794 272 m 11 Y s 788 283 m 13 X s 794 246 m -12 Y s 788 234 m 13 X s 891 292 m 10 Y s 885 302 m 13 X s 891 266 m -10 Y s 885 256 m 13 X s 988 348 m 31 Y s
 982 379 m 13 X s 988 322 m -31 Y s 982 291 m 13 X s 1085 289 m 14 Y s 1079 303 m 13 X s 1085 263 m -14 Y s 1079 249 m 13 X s 1182 305 m 18 Y s 1176 323 m 13 X s 1182 279 m -18 Y s 1176 261 m 13 X s 1279 340 m 37 Y s 1273 377 m 13 X s 1279 314 m -38
 Y s 1273 276 m 13 X s 1376 282 m 12 Y s 1370 294 m 13 X s 1376 256 m -11 Y s 1370 245 m 13 X s 1473 407 m 37 Y s 1467 444 m 13 X s 1473 381 m -37 Y s 1467 344 m 13 X s 1570 292 m 18 Y s 1564 310 m 13 X s 1570 266 m -18 Y s 1564 248 m 13 X s 1667 317
 m 25 Y s 1661 342 m 13 X s 1667 291 m -25 Y s 1661 266 m 13 X s 1764 341 m 16 Y s 1758 357 m 13 X s 1764 314 m -16 Y s 1758 298 m 13 X s 1861 361 m 48 Y s 1855 409 m 13 X s 1861 335 m -48 Y s 1855 287 m 13 X s 1958 305 m 8 Y s 1952 313 m 13 X s 1958
 279 m -7 Y s 1952 272 m 13 X s black 1 0 0 c 309 264 m 97 7 d 97 40 d 97 -43 d 97 91 d 97 -100 d 97 20 d 97 56 d 97 -59 d 97 16 d 97 35 d 97 -58 d 97 125 d 97 -115 d 97 25 d 97 24 d 97 20 d 97 -56 d s[  ] 0 sd 309 264 406 271 503 311 600 268 697 359
 794 259 891 279 988 335 1085 276 1182 292 1279 327 1376 269 1473 394 1570 279 1667 304 1764 328 1861 348 1958 292 18 { m21} R[ 12 12] 0 sd 0 1 0 c 309 294 m 9 Y s 303 303 m 13 X s 309 268 m -9 Y s 303 259 m 13 X s 406 319 m 11 Y s 400 330 m 13 X s
 406 293 m -11 Y s 400 282 m 13 X s 503 272 m 3 Y s 497 275 m 13 X s 503 246 m -4 Y s 497 242 m 13 X s 600 290 m 22 Y s 594 312 m 13 X s 600 264 m -21 Y s 594 243 m 13 X s 697 288 m 15 Y s 691 303 m 13 X s 697 261 m -15 Y s 691 246 m 13 X s 794 269 m
 5 Y s 788 274 m 13 X s 794 243 m -4 Y s 788 239 m 13 X s 891 285 m 13 Y s 885 298 m 13 X s 891 259 m -12 Y s 885 247 m 13 X s 988 307 m 23 Y s 982 330 m 13 X s 988 281 m -23 Y s 982 258 m 13 X s 1085 347 m 10 Y s 1079 357 m 13 X s 1085 321 m -10 Y s
 1079 311 m 13 X s 1182 292 m 11 Y s 1176 303 m 13 X s 1182 266 m -11 Y s 1176 255 m 13 X s 1279 256 m 6 Y s 1273 262 m 13 X s 1279 230 m -6 Y s 1273 224 m 13 X s 1376 327 m 21 Y s 1370 348 m 13 X s 1376 300 m -21 Y s 1370 279 m 13 X s 1473 246 m 5 Y
 s 1467 251 m 13 X s 1473 220 m -6 Y s 1467 214 m 13 X s 1570 345 m 17 Y s 1564 362 m 13 X s 1570 319 m -17 Y s 1564 302 m 13 X s 1667 321 m 20 Y s 1661 341 m 13 X s 1667 295 m -20 Y s 1661 275 m 13 X s 1764 302 m 13 Y s 1758 315 m 13 X s 1764 276 m
 -14 Y s 1758 262 m 13 X s 1861 235 m s 1855 235 m 13 X s 1861 208 m s 1855 208 m 13 X s 1958 381 m 59 Y s 1952 440 m 13 X s 1958 355 m -59 Y s 1952 296 m 13 X s black 0 1 0 c 309 281 m 97 25 d 97 -47 d 97 18 d 97 -3 d 97 -18 d 97 16 d 97 22 d 97 40
 d 97 -55 d 97 -36 d 97 71 d 97 -81 d 97 99 d 97 -24 d 97 -19 d 97 -67 d 97 146 d s[  ] 0 sd 309 281 406 306 503 259 600 277 697 274 794 256 891 272 988 294 1085 334 1182 279 1279 243 1376 314 1473 233 1570 332 1667 308 1764 289 1861 222 1958 368 18
 { m21} R[ 12 12] 0 sd 0 0 1 c 309 248 m 1 Y s 303 249 m 13 X s 309 222 m -1 Y s 303 221 m 13 X s 406 262 m 5 Y s 400 267 m 13 X s 406 236 m -5 Y s 400 231 m 13 X s 503 302 m 11 Y s 497 313 m 13 X s 503 276 m -11 Y s 497 265 m 13 X s 600 274 m s 594
 274 m 13 X s 600 248 m -1 Y s 594 247 m 13 X s 697 356 m 28 Y s 691 384 m 13 X s 697 330 m -29 Y s 691 301 m 13 X s 794 297 m 12 Y s 788 309 m 13 X s 794 271 m -12 Y s 788 259 m 13 X s 891 350 m 24 Y s 885 374 m 13 X s 891 324 m -23 Y s 885 301 m 13
 X s 988 300 m 30 Y s 982 330 m 13 X s 988 274 m -31 Y s 982 243 m 13 X s 1085 277 m 24 Y s 1079 301 m 13 X s 1085 251 m -24 Y s 1079 227 m 13 X s 1182 274 m 3 Y s 1176 277 m 13 X s 1182 248 m -3 Y s 1176 245 m 13 X s 1279 324 m 16 Y s 1273 340 m 13
 X s 1279 298 m -15 Y s 1273 283 m 13 X s 1376 416 m 85 Y s 1370 501 m 13 X s 1376 390 m -85 Y s 1370 305 m 13 X s 1473 260 m 9 Y s 1467 269 m 13 X s 1473 234 m -9 Y s 1467 225 m 13 X s 1570 259 m 4 Y s 1564 263 m 13 X s 1570 233 m -4 Y s 1564 229 m
 13 X s 1667 296 m 17 Y s 1661 313 m 13 X s 1667 270 m -18 Y s 1661 252 m 13 X s 1764 294 m 11 Y s 1758 305 m 13 X s 1764 268 m -11 Y s 1758 257 m 13 X s 1958 307 m 10 Y s 1952 317 m 13 X s 1958 281 m -10 Y s 1952 271 m 13 X s black 0 0 1 c 309 235 m
 97 14 d 97 40 d 97 -28 d 97 82 d 97 -59 d 97 53 d 97 -50 d 97 -23 d 97 -3 d 97 50 d 97 92 d 97 -156 d 97 -1 d 97 37 d 97 -2 d 97 -76 d 97 89 d s[  ] 0 sd 309 235 406 249 503 289 600 261 697 343 794 284 891 337 988 287 1085 264 1182 261 1279 311 1376
 403 1473 247 1570 246 1667 283 1764 281 1861 205 1958 294 18 { m21} R[ 12 12] 0 sd 1 1 0 c 309 318 m 12 Y s 303 330 m 13 X s 309 292 m -12 Y s 303 280 m 13 X s 406 272 m 3 Y s 400 275 m 13 X s 406 246 m -4 Y s 400 242 m 13 X s 503 255 m 3 Y s 497
 258 m 13 X s 503 229 m -3 Y s 497 226 m 13 X s 600 272 m 7 Y s 594 279 m 13 X s 600 245 m -7 Y s 594 238 m 13 X s 697 272 m 8 Y s 691 280 m 13 X s 697 246 m -8 Y s 691 238 m 13 X s 794 360 m 23 Y s 788 383 m 13 X s 794 334 m -24 Y s 788 310 m 13 X s
 891 292 m 19 Y s 885 311 m 13 X s 891 266 m -19 Y s 885 247 m 13 X s 988 258 m 14 Y s 982 272 m 13 X s 988 231 m -14 Y s 982 217 m 13 X s 1085 275 m 10 Y s 1079 285 m 13 X s 1085 249 m -10 Y s 1079 239 m 13 X s 1182 327 m 24 Y s 1176 351 m 13 X s
 1182 301 m -24 Y s 1176 277 m 13 X s 1279 253 m 2 Y s 1273 255 m 13 X s 1279 227 m -1 Y s 1273 226 m 13 X s 1376 282 m 13 Y s 1370 295 m 13 X s 1376 256 m -13 Y s 1370 243 m 13 X s 1473 244 m 1 Y s 1467 245 m 13 X s 1473 218 m -2 Y s 1467 216 m 13 X
 s 1570 303 m 16 Y s 1564 319 m 13 X s 1570 277 m -16 Y s 1564 261 m 13 X s 1667 260 m s 1661 260 m 13 X s 1667 234 m s 1661 234 m 13 X s 1764 310 m 16 Y s 1758 326 m 13 X s 1764 284 m -15 Y s 1758 269 m 13 X s 1861 297 m 12 Y s 1855 309 m 13 X s
 1861 271 m -12 Y s 1855 259 m 13 X s 1958 295 m 10 Y s 1952 305 m 13 X s 1958 269 m -9 Y s 1952 260 m 13 X s black 1 1 0 c 309 305 m 97 -46 d 97 -17 d 97 16 d 97 1 d 97 88 d 97 -68 d 97 -34 d 97 17 d 97 52 d 97 -74 d 97 29 d 97 -38 d 97 59 d 97 -43
 d 97 50 d 97 -13 d 97 -2 d s[  ] 0 sd 309 305 406 259 503 242 600 258 697 259 794 347 891 279 988 245 1085 262 1182 314 1279 240 1376 269 1473 231 1570 290 1667 247 1764 297 1861 284 1958 282 18 { m21} R[ 12 12] 0 sd 1 0 1 c 309 254 m 7 Y s 303 261
 m 13 X s 309 228 m -7 Y s 303 221 m 13 X s 406 263 m 9 Y s 400 272 m 13 X s 406 237 m -9 Y s 400 228 m 13 X s 697 284 m 15 Y s 691 299 m 13 X s 697 258 m -15 Y s 691 243 m 13 X s 794 270 m 2 Y s 788 272 m 13 X s 794 244 m -1 Y s 788 243 m 13 X s 891
 289 m 10 Y s 885 299 m 13 X s 891 263 m -10 Y s 885 253 m 13 X s 988 288 m 31 Y s 982 319 m 13 X s 988 261 m -31 Y s 982 230 m 13 X s 1085 250 m 1 Y s 1079 251 m 13 X s 1085 224 m -2 Y s 1079 222 m 13 X s 1182 296 m 7 Y s 1176 303 m 13 X s 1182 270
 m -6 Y s 1176 264 m 13 X s 1279 299 m 11 Y s 1273 310 m 13 X s 1279 273 m -12 Y s 1273 261 m 13 X s 1376 268 m 12 Y s 1370 280 m 13 X s 1376 242 m -12 Y s 1370 230 m 13 X s 1473 266 m 7 Y s 1467 273 m 13 X s 1473 240 m -7 Y s 1467 233 m 13 X s 1570
 244 m 2 Y s 1564 246 m 13 X s 1570 217 m -2 Y s 1564 215 m 13 X s 1667 287 m 5 Y s 1661 292 m 13 X s 1667 261 m -6 Y s 1661 255 m 13 X s 1861 285 m 8 Y s 1855 293 m 13 X s 1861 258 m -8 Y s 1855 250 m 13 X s 1958 288 m 9 Y s 1952 297 m 13 X s 1958
 262 m -9 Y s 1952 253 m 13 X s black 1 0 1 c 309 241 m 97 9 d 97 -30 d 97 5 d 97 46 d 97 -14 d 97 19 d 97 -2 d 97 -37 d 97 46 d 97 3 d 97 -31 d 97 -2 d 97 -22 d 97 43 d 97 -38 d 97 36 d 97 3 d s[  ] 0 sd 309 241 406 250 503 220 600 225 697 271 794
 257 891 276 988 274 1085 237 1182 283 1279 286 1376 255 1473 253 1570 231 1667 274 1764 236 1861 272 1958 275 18 { m21} R[ 12 12] 0 sd black
 gsave  2268 1538 0 0 C 1326.09 1361.93 t 0 r /Helvetica-Bold findfont 58.6478 sf 0 0 m (Disk 0) show NC gr [  ] 0 sd 1124 1368 m 167 X s 1208 1368 m20
 gsave  2268 1538 0 0 C 1326.09 1329.35 t 0 r /Helvetica-Bold findfont 58.6478 sf 0 0 m (Disk 1) show NC gr  1 0 0 c 1124 1336 m 167 X s 1208 1336 m20 black
 gsave  2268 1538 0 0 C 1326.09 1300.03 t 0 r /Helvetica-Bold findfont 58.6478 sf 0 0 m (Disk 2) show NC gr  0 1 0 c 1124 1304 m 167 X s 1208 1304 m20 black
 gsave  2268 1538 0 0 C 1326.09 1267.44 t 0 r /Helvetica-Bold findfont 58.6478 sf 0 0 m (Disk 3) show NC gr  0 0 1 c 1124 1272 m 167 X s 1208 1272 m20 black
 gsave  2268 1538 0 0 C 1326.09 1234.86 t 0 r /Helvetica-Bold findfont 58.6478 sf 0 0 m (Disk 4) show NC gr  1 1 0 c 1124 1240 m 167 X s 1208 1240 m20 black
 gsave  2268 1538 0 0 C 1326.09 1202.28 t 0 r /Helvetica-Bold findfont 58.6478 sf 0 0 m (Disk 5) show NC gr  1 0 1 c 1124 1208 m 167 X s 1208 1208 m20 black
 gsave  2268 1538 0 0 C 1326.09 1169.7 t 0 r /Helvetica-Bold findfont 58.6478 sf 0 0 m (Disk 0) show NC gr [ 12 12] 0 sd 1124 1176 m 167 X s[  ] 0 sd 1208 1176 m21[ 12 12] 0 sd
 gsave  2268 1538 0 0 C 1326.09 1137.12 t 0 r /Helvetica-Bold findfont 58.6478 sf 0 0 m (Disk 1) show NC gr  1 0 0 c 1124 1144 m 167 X s[  ] 0 sd 1208 1144 m21[ 12 12] 0 sd black
 gsave  2268 1538 0 0 C 1326.09 1107.79 t 0 r /Helvetica-Bold findfont 58.6478 sf 0 0 m (Disk 2) show NC gr  0 1 0 c 1124 1112 m 167 X s[  ] 0 sd 1208 1112 m21[ 12 12] 0 sd black
 gsave  2268 1538 0 0 C 1326.09 1075.21 t 0 r /Helvetica-Bold findfont 58.6478 sf 0 0 m (Disk 3) show NC gr  0 0 1 c 1124 1080 m 167 X s[  ] 0 sd 1208 1080 m21[ 12 12] 0 sd black
 gsave  2268 1538 0 0 C 1326.09 1042.63 t 0 r /Helvetica-Bold findfont 58.6478 sf 0 0 m (Disk 4) show NC gr  1 1 0 c 1124 1048 m 167 X s[  ] 0 sd 1208 1048 m21[ 12 12] 0 sd black
 gsave  2268 1538 0 0 C 1326.09 1010.05 t 0 r /Helvetica-Bold findfont 58.6478 sf 0 0 m (Disk 5) show NC gr  1 0 1 c 1124 1016 m 167 X s[  ] 0 sd 1208 1016 m21[ 12 12] 0 sd
 gr  gr showpage
end
%%EOF
