%!PS-Adobe-2.0 EPSF-2.0
%%BoundingBox:  0 0 567 384
%%Title: d3pdDirr/sct_occupancy/clus_sctlayer_mg.eps: c1_n23
%%Creator: ROOT Version 6.04/12
%%CreationDate: Tue Apr 26 00:12:43 2016
%%DocumentNeededResources: ProcSet (FontSetInit)
%%EndComments
%%BeginProlog
80 dict begin
/s {stroke} def /l {lineto} def /m {moveto} def /t {translate} def
/r {rotate} def /rl {roll}  def /R {repeat} def
/d {rlineto} def /rm {rmoveto} def /gr {grestore} def /f {eofill} def
/c {setrgbcolor} def /black {0 setgray} def /sd {setdash} def
/cl {closepath} def /sf {scalefont setfont} def /lw {setlinewidth} def
/box {m dup 0 exch d exch 0 d 0 exch neg d cl} def
/NC{systemdict begin initclip end}def/C{NC box clip newpath}def
/bl {box s} def /bf {gsave box gsave f grestore 1 lw [] 0 sd s grestore} def /Y { 0 exch d} def /X { 0 d} def 
/K {{pop pop 0 moveto} exch kshow} bind def
/ita {/ang 15 def gsave [1 0 ang dup sin exch cos div 1 0 0] concat} def 
/mp {newpath /y exch def /x exch def} def
/side {[w .77 mul w .23 mul] .385 w mul sd w 0 l currentpoint t -144 r} def
/mr {mp x y w2 0 360 arc} def /m24 {mr s} def /m20 {mr f} def
/mb {mp x y w2 add m w2 neg 0 d 0 w neg d w 0 d 0 w d cl} def
/mt {mp x y w2 add m w2 neg w neg d w 0 d cl} def
/m21 {mb f} def /m25 {mb s} def /m22 {mt f} def /m26{mt s} def
/m23 {mp x y w2 sub m w2 w d w neg 0 d cl f} def
/m27 {mp x y w2 add m w3 neg w2 neg d w3 w2 neg d w3 w2 d cl s} def
/m28 {mp x w2 sub y w2 sub w3 add m w3 0 d  0 w3 neg d w3 0 d 0 w3 d w3 0 d  0 w3 d w3 neg 0 d 0 w3 d w3 neg 0 d 0 w3 neg d w3 neg 0 d cl s } def
/m29 {mp gsave x w2 sub y w2 add w3 sub m currentpoint t 4 {side} repeat cl fill gr} def
/m30 {mp gsave x w2 sub y w2 add w3 sub m currentpoint t 4 {side} repeat cl s gr} def
/m31 {mp x y w2 sub m 0 w d x w2 sub y m w 0 d x w2 sub y w2 add m w w neg d x w2 sub y w2 sub m w w d s} def
/m32 {mp x y w2 sub m w2 w d w neg 0 d cl s} def
/m33 {mp x y w2 add m w3 neg w2 neg d w3 w2 neg d w3 w2 d cl f} def
/m34 {mp x w2 sub y w2 sub w3 add m w3 0 d  0 w3 neg d w3 0 d 0 w3 d w3 0 d  0 w3 d w3 neg 0 d 0 w3 d w3 neg 0 d 0 w3 neg d w3 neg 0 d cl f } def
/m2 {mp x y w2 sub m 0 w d x w2 sub y m w 0 d s} def
/m5 {mp x w2 sub y w2 sub m w w d x w2 sub y w2 add m w w neg d s} def
%%IncludeResource: ProcSet (FontSetInit)
%%IncludeResource: font Times-Roman
%%IncludeResource: font Times-Italic
%%IncludeResource: font Times-Bold
%%IncludeResource: font Times-BoldItalic
%%IncludeResource: font Helvetica
%%IncludeResource: font Helvetica-Oblique
%%IncludeResource: font Helvetica-Bold
%%IncludeResource: font Helvetica-BoldOblique
%%IncludeResource: font Courier
%%IncludeResource: font Courier-Oblique
%%IncludeResource: font Courier-Bold
%%IncludeResource: font Courier-BoldOblique
%%IncludeResource: font Symbol
%%IncludeResource: font ZapfDingbats
/reEncode {exch findfont dup length dict begin {1 index /FID eq  {pop pop} {def} ifelse } forall /Encoding exch def currentdict end dup /FontName get exch definefont pop } def [/Times-Bold /Times-Italic /Times-BoldItalic /Helvetica /Helvetica-Oblique
 /Helvetica-Bold /Helvetica-BoldOblique /Courier /Courier-Oblique /Courier-Bold /Courier-BoldOblique /Times-Roman /AvantGarde-Book /AvantGarde-BookOblique /AvantGarde-Demi /AvantGarde-DemiOblique /Bookman-Demi /Bookman-DemiItalic /Bookman-Light
 /Bookman-LightItalic /Helvetica-Narrow /Helvetica-Narrow-Bold /Helvetica-Narrow-BoldOblique /Helvetica-Narrow-Oblique /NewCenturySchlbk-Roman /NewCenturySchlbk-Bold /NewCenturySchlbk-BoldItalic /NewCenturySchlbk-Italic /Palatino-Bold
 /Palatino-BoldItalic /Palatino-Italic /Palatino-Roman ] {ISOLatin1Encoding reEncode } forall
%%EndProlog
%%BeginSetup
%%EndSetup
newpath  gsave  .25 .25 scale  gsave  0 0 t black[  ] 0 sd 3 lw 1 1 1 c 2268 1538 0 0 bf black 1 1 1 c 1814 1230 227 154 bf black 1814 1230 227 154 bl 1 1 1 c 1814 1230 227 154 bf black 1814 1230 227 154 bl 227 154 m 1814 X s
 gsave  2268 1538 0 0 C 1772.47 32.5821 t 0 r /Helvetica-Bold findfont 58.6478 sf 0 0 m (moduleID) show NC gr  250 191 m -37 Y s 309 172 m -18 Y s 368 172 m -18 Y s 427 172 m -18 Y s 486 172 m -18 Y s 545 191 m -37 Y s 604 172 m -18 Y s 663 172 m -18
 Y s 722 172 m -18 Y s 780 172 m -18 Y s 839 191 m -37 Y s 898 172 m -18 Y s 957 172 m -18 Y s 1016 172 m -18 Y s 1075 172 m -18 Y s 1134 191 m -37 Y s 1193 172 m -18 Y s 1252 172 m -18 Y s 1311 172 m -18 Y s 1369 172 m -18 Y s 1428 191 m -37 Y s
 1487 172 m -18 Y s 1546 172 m -18 Y s 1605 172 m -18 Y s 1664 172 m -18 Y s 1723 191 m -37 Y s 1782 172 m -18 Y s 1841 172 m -18 Y s 1900 172 m -18 Y s 1958 172 m -18 Y s 2017 191 m -37 Y s 250 191 m -37 Y s 2017 191 m -37 Y s
 gsave  2268 1538 0 0 C 228.075 97.7464 t 0 r /Helvetica-Bold findfont 58.6478 sf 0 0 m (30) show NC gr 
 gsave  2268 1538 0 0 C 198.751 97.7464 t 0 r /Symbol findfont 58.6478 sf 0 0 m (-) show NC gr 
 gsave  2268 1538 0 0 C 524.572 97.7464 t 0 r /Helvetica-Bold findfont 58.6478 sf 0 0 m (20) show NC gr 
 gsave  2268 1538 0 0 C 495.248 97.7464 t 0 r /Symbol findfont 58.6478 sf 0 0 m (-) show NC gr 
 gsave  2268 1538 0 0 C 817.812 97.7464 t 0 r /Helvetica-Bold findfont 58.6478 sf 0 0 m (10) show NC gr 
 gsave  2268 1538 0 0 C 788.488 97.7464 t 0 r /Symbol findfont 58.6478 sf 0 0 m (-) show NC gr 
 gsave  2268 1538 0 0 C 1117.57 97.7464 t 0 r /Helvetica-Bold findfont 58.6478 sf 0 0 m (0) show NC gr 
 gsave  2268 1538 0 0 C 1394.52 97.7464 t 0 r /Helvetica-Bold findfont 58.6478 sf 0 0 m (10) show NC gr 
 gsave  2268 1538 0 0 C 1687.75 97.7464 t 0 r /Helvetica-Bold findfont 58.6478 sf 0 0 m (20) show NC gr 
 gsave  2268 1538 0 0 C 1984.25 97.7464 t 0 r /Helvetica-Bold findfont 58.6478 sf 0 0 m (30) show NC gr  227 1384 m 1814 X s 250 1347 m 37 Y s 309 1366 m 18 Y s 368 1366 m 18 Y s 427 1366 m 18 Y s 486 1366 m 18 Y s 545 1347 m 37 Y s 604 1366 m 18 Y s
 663 1366 m 18 Y s 722 1366 m 18 Y s 780 1366 m 18 Y s 839 1347 m 37 Y s 898 1366 m 18 Y s 957 1366 m 18 Y s 1016 1366 m 18 Y s 1075 1366 m 18 Y s 1134 1347 m 37 Y s 1193 1366 m 18 Y s 1252 1366 m 18 Y s 1311 1366 m 18 Y s 1369 1366 m 18 Y s 1428
 1347 m 37 Y s 1487 1366 m 18 Y s 1546 1366 m 18 Y s 1605 1366 m 18 Y s 1664 1366 m 18 Y s 1723 1347 m 37 Y s 1782 1366 m 18 Y s 1841 1366 m 18 Y s 1900 1366 m 18 Y s 1958 1366 m 18 Y s 2017 1347 m 37 Y s 250 1347 m 37 Y s 2017 1347 m 37 Y s 227 154
 m 1230 Y s
 gsave  2268 1538 0 0 C 97.7464 710.291 t 90 r /Helvetica-Bold findfont 58.6478 sf 0 0 m (Cluster per etaModuleID) show NC gr  281 289 m -54 X s 254 328 m -27 X s 254 367 m -27 X s 254 406 m -27 X s 254 446 m -27 X s 281 485 m -54 X s 254 524 m -27 X
 s 254 563 m -27 X s 254 602 m -27 X s 254 641 m -27 X s 281 680 m -54 X s 254 719 m -27 X s 254 759 m -27 X s 254 798 m -27 X s 254 837 m -27 X s 281 876 m -54 X s 254 915 m -27 X s 254 954 m -27 X s 254 993 m -27 X s 254 1032 m -27 X s 281 1072 m
 -54 X s 254 1111 m -27 X s 254 1150 m -27 X s 254 1189 m -27 X s 254 1228 m -27 X s 281 1267 m -54 X s 281 289 m -54 X s 254 250 m -27 X s 254 211 m -27 X s 254 172 m -27 X s 281 1267 m -54 X s 254 1306 m -27 X s 254 1345 m -27 X s
 gsave  2268 1538 0 0 C 117.296 267.173 t 0 r /Helvetica-Bold findfont 58.6478 sf 0 0 m (150) show NC gr 
 gsave  2268 1538 0 0 C 117.296 462.666 t 0 r /Helvetica-Bold findfont 58.6478 sf 0 0 m (200) show NC gr 
 gsave  2268 1538 0 0 C 117.296 658.159 t 0 r /Helvetica-Bold findfont 58.6478 sf 0 0 m (250) show NC gr 
 gsave  2268 1538 0 0 C 117.296 853.652 t 0 r /Helvetica-Bold findfont 58.6478 sf 0 0 m (300) show NC gr 
 gsave  2268 1538 0 0 C 117.296 1049.14 t 0 r /Helvetica-Bold findfont 58.6478 sf 0 0 m (350) show NC gr 
 gsave  2268 1538 0 0 C 117.296 1244.64 t 0 r /Helvetica-Bold findfont 58.6478 sf 0 0 m (400) show NC gr  2041 154 m 1230 Y s 1987 289 m 54 X s 2014 328 m 27 X s 2014 367 m 27 X s 2014 406 m 27 X s 2014 446 m 27 X s 1987 485 m 54 X s 2014 524 m 27 X
 s 2014 563 m 27 X s 2014 602 m 27 X s 2014 641 m 27 X s 1987 680 m 54 X s 2014 719 m 27 X s 2014 759 m 27 X s 2014 798 m 27 X s 2014 837 m 27 X s 1987 876 m 54 X s 2014 915 m 27 X s 2014 954 m 27 X s 2014 993 m 27 X s 2014 1032 m 27 X s 1987 1072 m
 54 X s 2014 1111 m 27 X s 2014 1150 m 27 X s 2014 1189 m 27 X s 2014 1228 m 27 X s 1987 1267 m 54 X s 1987 289 m 54 X s 2014 250 m 27 X s 2014 211 m 27 X s 2014 172 m 27 X s 1987 1267 m 54 X s 2014 1306 m 27 X s 2014 1345 m 27 X s 309 596 m 24 Y s
 303 620 m 13 X s 309 570 m -24 Y s 303 546 m 13 X s 339 556 m 23 Y s 332 579 m 13 X s 339 530 m -24 Y s 332 506 m 13 X s 368 560 m 24 Y s 362 584 m 13 X s 368 534 m -23 Y s 362 511 m 13 X s 398 599 m 25 Y s 391 624 m 13 X s 398 573 m -24 Y s 391 549
 m 13 X s 427 612 m 24 Y s 421 636 m 13 X s 427 586 m -25 Y s 421 561 m 13 X s 456 510 m 22 Y s 450 532 m 13 X s 456 484 m -22 Y s 450 462 m 13 X s 486 538 m 23 Y s 479 561 m 13 X s 486 512 m -23 Y s 479 489 m 13 X s 515 548 m 23 Y s 509 571 m 13 X s
 515 522 m -23 Y s 509 499 m 13 X s 545 562 m 23 Y s 538 585 m 13 X s 545 536 m -24 Y s 538 512 m 13 X s 574 635 m 25 Y s 568 660 m 13 X s 574 609 m -25 Y s 568 584 m 13 X s 604 668 m 26 Y s 597 694 m 13 X s 604 642 m -25 Y s 597 617 m 13 X s 633 571
 m 24 Y s 627 595 m 13 X s 633 545 m -23 Y s 627 522 m 13 X s 663 596 m 24 Y s 656 620 m 13 X s 663 570 m -24 Y s 656 546 m 13 X s 692 584 m 24 Y s 686 608 m 13 X s 692 558 m -24 Y s 686 534 m 13 X s 722 562 m 23 Y s 715 585 m 13 X s 722 536 m -24 Y
 s 715 512 m 13 X s 751 637 m 25 Y s 744 662 m 14 X s 751 611 m -25 Y s 744 586 m 14 X s 780 695 m 26 Y s 774 721 m 13 X s 780 669 m -26 Y s 774 643 m 13 X s 810 567 m 23 Y s 803 590 m 13 X s 810 540 m -23 Y s 803 517 m 13 X s 839 510 m 22 Y s 833
 532 m 13 X s 839 484 m -22 Y s 833 462 m 13 X s 869 743 m 27 Y s 862 770 m 13 X s 869 717 m -27 Y s 862 690 m 13 X s 898 657 m 26 Y s 892 683 m 13 X s 898 631 m -25 Y s 892 606 m 13 X s 928 620 m 24 Y s 921 644 m 13 X s 928 594 m -25 Y s 921 569 m
 13 X s 957 657 m 26 Y s 951 683 m 13 X s 957 631 m -25 Y s 951 606 m 13 X s 987 626 m 25 Y s 980 651 m 13 X s 987 600 m -25 Y s 980 575 m 13 X s 1016 720 m 27 Y s 1010 747 m 13 X s 1016 694 m -27 Y s 1010 667 m 13 X s 1046 657 m 26 Y s 1039 683 m 13
 X s 1046 631 m -25 Y s 1039 606 m 13 X s 1075 574 m 24 Y s 1068 598 m 13 X s 1075 548 m -23 Y s 1068 525 m 13 X s 1104 628 m 24 Y s 1098 652 m 13 X s 1104 602 m -25 Y s 1098 577 m 13 X s 1163 593 m 24 Y s 1157 617 m 13 X s 1163 567 m -24 Y s 1157
 543 m 13 X s 1193 809 m 28 Y s 1186 837 m 13 X s 1193 783 m -28 Y s 1186 755 m 13 X s 1222 701 m 26 Y s 1216 727 m 13 X s 1222 675 m -26 Y s 1216 649 m 13 X s 1252 598 m 24 Y s 1245 622 m 13 X s 1252 572 m -24 Y s 1245 548 m 13 X s 1281 737 m 27 Y s
 1275 764 m 13 X s 1281 711 m -27 Y s 1275 684 m 13 X s 1311 784 m 28 Y s 1304 812 m 13 X s 1311 758 m -28 Y s 1304 730 m 13 X s 1340 757 m 28 Y s 1333 785 m 14 X s 1340 731 m -27 Y s 1333 704 m 14 X s 1369 590 m 24 Y s 1363 614 m 13 X s 1369 564 m
 -24 Y s 1363 540 m 13 X s 1399 773 m 28 Y s 1392 801 m 13 X s 1399 747 m -28 Y s 1392 719 m 13 X s 1428 646 m 26 Y s 1422 672 m 13 X s 1428 620 m -25 Y s 1422 595 m 13 X s 1458 662 m 25 Y s 1451 687 m 13 X s 1458 636 m -26 Y s 1451 610 m 13 X s 1487
 621 m 25 Y s 1481 646 m 13 X s 1487 595 m -24 Y s 1481 571 m 13 X s 1517 581 m 23 Y s 1510 604 m 13 X s 1517 555 m -24 Y s 1510 531 m 13 X s 1546 648 m 25 Y s 1540 673 m 13 X s 1546 622 m -25 Y s 1540 597 m 13 X s 1576 606 m 24 Y s 1569 630 m 13 X s
 1576 580 m -25 Y s 1569 555 m 13 X s 1605 772 m 27 Y s 1599 799 m 13 X s 1605 745 m -27 Y s 1599 718 m 13 X s 1635 640 m 25 Y s 1628 665 m 13 X s 1635 614 m -25 Y s 1628 589 m 13 X s 1664 665 m 26 Y s 1657 691 m 13 X s 1664 639 m -25 Y s 1657 614 m
 13 X s 1693 634 m 25 Y s 1687 659 m 13 X s 1693 608 m -25 Y s 1687 583 m 13 X s 1723 562 m 23 Y s 1716 585 m 13 X s 1723 536 m -24 Y s 1716 512 m 13 X s 1752 588 m 24 Y s 1746 612 m 13 X s 1752 562 m -24 Y s 1746 538 m 13 X s 1782 675 m 25 Y s 1775
 700 m 13 X s 1782 648 m -25 Y s 1775 623 m 13 X s 1811 656 m 25 Y s 1805 681 m 13 X s 1811 630 m -26 Y s 1805 604 m 13 X s 1841 598 m 24 Y s 1834 622 m 13 X s 1841 572 m -24 Y s 1834 548 m 13 X s 1870 484 m 21 Y s 1864 505 m 13 X s 1870 458 m -22 Y
 s 1864 436 m 13 X s 1900 649 m 26 Y s 1893 675 m 13 X s 1900 623 m -25 Y s 1893 598 m 13 X s 1929 512 m 22 Y s 1923 534 m 13 X s 1929 486 m -23 Y s 1923 463 m 13 X s 1958 542 m 22 Y s 1952 564 m 13 X s 1958 515 m -22 Y s 1952 493 m 13 X s 309 583 m
 30 -40 d 29 4 d 30 39 d 29 13 d 29 -102 d 30 28 d 29 10 d 30 14 d 29 73 d 30 33 d 29 -97 d 30 25 d 29 -12 d 30 -22 d 29 75 d 29 58 d 30 -128 d 29 -57 d 30 233 d 29 -86 d 30 -37 d 29 37 d 30 -31 d 29 94 d 30 -63 d 29 -83 d 29 54 d 59 -35 d 30 216 d
 29 -108 d 30 -103 d 29 139 d 30 47 d 29 -27 d 29 -167 d 30 183 d 29 -127 d 30 16 d 29 -41 d 30 -40 d 29 67 d 30 -42 d 29 166 d 30 -132 d 29 25 d 29 -31 d 30 -72 d 29 26 d 30 87 d 29 -19 d 30 -58 d 29 -114 d 30 165 d 29 -137 d 29 29 d s /w 26 def /w2
 {w 2 div} def /w3 {w 3 div} def 309 583 339 543 368 547 398 586 427 599 456 497 486 525 515 535 545 549 574 622 604 655 633 558 663 583 692 571 722 549 751 624 780 682 810 554 839 497 869 730 898 644 928 607 957 644 987 613 1016 707 1046 644 1075
 561 1104 615 1163 580 1193 796 1222 688 1252 585 1281 724 1311 771 1340 744 1369 577 1399 760 1428 633 1458 649 1487 608 1517 568 1546 635 1576 593 1605 759 1635 627 1664 652 1693 621 1723 549 1752 575 1782 662 1811 643 1841 585 1870 471 1900 636
 1929 499 1958 528 56 { m20} R 1 0 0 c 309 396 m 20 Y s 303 416 m 13 X s 309 370 m -20 Y s 303 350 m 13 X s 339 409 m 19 Y s 332 428 m 13 X s 339 382 m -19 Y s 332 363 m 13 X s 368 424 m 20 Y s 362 444 m 13 X s 368 398 m -20 Y s 362 378 m 13 X s 398
 448 m 20 Y s 391 468 m 13 X s 398 422 m -21 Y s 391 401 m 13 X s 427 373 m 19 Y s 421 392 m 13 X s 427 346 m -19 Y s 421 327 m 13 X s 456 419 m 21 Y s 450 440 m 13 X s 456 393 m -20 Y s 450 373 m 13 X s 486 419 m 21 Y s 479 440 m 13 X s 486 393 m
 -20 Y s 479 373 m 13 X s 515 545 m 23 Y s 509 568 m 13 X s 515 519 m -23 Y s 509 496 m 13 X s 545 480 m 22 Y s 538 502 m 13 X s 545 454 m -21 Y s 538 433 m 13 X s 574 457 m 21 Y s 568 478 m 13 X s 574 431 m -21 Y s 568 410 m 13 X s 604 463 m 21 Y s
 597 484 m 13 X s 604 437 m -21 Y s 597 416 m 13 X s 633 441 m 21 Y s 627 462 m 13 X s 633 415 m -20 Y s 627 395 m 13 X s 663 490 m 22 Y s 656 512 m 13 X s 663 464 m -22 Y s 656 442 m 13 X s 692 576 m 24 Y s 686 600 m 13 X s 692 550 m -24 Y s 686 526
 m 13 X s 722 513 m 23 Y s 715 536 m 13 X s 722 487 m -22 Y s 715 465 m 13 X s 751 488 m 22 Y s 744 510 m 14 X s 751 462 m -22 Y s 744 440 m 14 X s 780 474 m 22 Y s 774 496 m 13 X s 780 448 m -21 Y s 774 427 m 13 X s 810 574 m 24 Y s 803 598 m 13 X s
 810 548 m -23 Y s 803 525 m 13 X s 839 491 m 22 Y s 833 513 m 13 X s 839 465 m -21 Y s 833 444 m 13 X s 869 540 m 23 Y s 862 563 m 13 X s 869 514 m -23 Y s 862 491 m 13 X s 898 468 m 21 Y s 892 489 m 13 X s 898 442 m -21 Y s 892 421 m 13 X s 928 523
 m 22 Y s 921 545 m 13 X s 928 497 m -23 Y s 921 474 m 13 X s 957 360 m 19 Y s 951 379 m 13 X s 957 334 m -19 Y s 951 315 m 13 X s 987 448 m 20 Y s 980 468 m 13 X s 987 422 m -21 Y s 980 401 m 13 X s 1016 463 m 21 Y s 1010 484 m 13 X s 1016 437 m -21
 Y s 1010 416 m 13 X s 1046 521 m 23 Y s 1039 544 m 13 X s 1046 495 m -22 Y s 1039 473 m 13 X s 1075 424 m 20 Y s 1068 444 m 13 X s 1075 398 m -20 Y s 1068 378 m 13 X s 1104 476 m 21 Y s 1098 497 m 13 X s 1104 450 m -22 Y s 1098 428 m 13 X s 1163 463
 m 21 Y s 1157 484 m 13 X s 1163 437 m -21 Y s 1157 416 m 13 X s 1193 559 m 23 Y s 1186 582 m 13 X s 1193 533 m -24 Y s 1186 509 m 13 X s 1222 507 m 22 Y s 1216 529 m 13 X s 1222 481 m -22 Y s 1216 459 m 13 X s 1252 490 m 22 Y s 1245 512 m 13 X s
 1252 464 m -22 Y s 1245 442 m 13 X s 1281 534 m 22 Y s 1275 556 m 13 X s 1281 508 m -23 Y s 1275 485 m 13 X s 1311 491 m 22 Y s 1304 513 m 13 X s 1311 465 m -21 Y s 1304 444 m 13 X s 1340 471 m 21 Y s 1333 492 m 14 X s 1340 445 m -21 Y s 1333 424 m
 14 X s 1369 609 m 24 Y s 1363 633 m 13 X s 1369 583 m -25 Y s 1363 558 m 13 X s 1399 484 m 21 Y s 1392 505 m 13 X s 1399 458 m -22 Y s 1392 436 m 13 X s 1428 446 m 21 Y s 1422 467 m 13 X s 1428 420 m -21 Y s 1422 399 m 13 X s 1458 510 m 22 Y s 1451
 532 m 13 X s 1458 484 m -22 Y s 1451 462 m 13 X s 1487 402 m 20 Y s 1481 422 m 13 X s 1487 376 m -20 Y s 1481 356 m 13 X s 1517 545 m 23 Y s 1510 568 m 13 X s 1517 519 m -23 Y s 1510 496 m 13 X s 1546 482 m 22 Y s 1540 504 m 13 X s 1546 456 m -22 Y
 s 1540 434 m 13 X s 1576 390 m 19 Y s 1569 409 m 13 X s 1576 364 m -20 Y s 1569 344 m 13 X s 1605 351 m 18 Y s 1599 369 m 13 X s 1605 325 m -19 Y s 1599 306 m 13 X s 1635 390 m 19 Y s 1628 409 m 13 X s 1635 364 m -20 Y s 1628 344 m 13 X s 1664 485 m
 22 Y s 1657 507 m 13 X s 1664 459 m -22 Y s 1657 437 m 13 X s 1693 446 m 21 Y s 1687 467 m 13 X s 1693 420 m -21 Y s 1687 399 m 13 X s 1723 465 m 21 Y s 1716 486 m 13 X s 1723 439 m -21 Y s 1716 418 m 13 X s 1752 485 m 22 Y s 1746 507 m 13 X s 1752
 459 m -22 Y s 1746 437 m 13 X s 1782 573 m 23 Y s 1775 596 m 13 X s 1782 547 m -24 Y s 1775 523 m 13 X s 1811 620 m 24 Y s 1805 644 m 13 X s 1811 594 m -25 Y s 1805 569 m 13 X s 1841 493 m 22 Y s 1834 515 m 13 X s 1841 467 m -22 Y s 1834 445 m 13 X
 s 1870 413 m 20 Y s 1864 433 m 13 X s 1870 387 m -20 Y s 1864 367 m 13 X s 1900 383 m 20 Y s 1893 403 m 13 X s 1900 357 m -19 Y s 1893 338 m 13 X s 1929 391 m 20 Y s 1923 411 m 13 X s 1929 365 m -19 Y s 1923 346 m 13 X s 1958 451 m 21 Y s 1952 472 m
 13 X s 1958 425 m -21 Y s 1952 404 m 13 X s black 1 0 0 c 309 383 m 30 12 d 29 16 d 30 24 d 29 -76 d 29 47 d 30 X 29 126 d 30 -65 d 29 -23 d 30 6 d 29 -22 d 30 49 d 29 86 d 30 -63 d 29 -25 d 29 -14 d 30 100 d 29 -83 d 30 49 d 29 -72 d 30 55 d 29
 -163 d 30 88 d 29 15 d 30 58 d 29 -97 d 29 52 d 59 -13 d 30 96 d 29 -52 d 30 -17 d 29 44 d 30 -43 d 29 -20 d 29 138 d 30 -125 d 29 -38 d 30 64 d 29 -108 d 30 143 d 29 -63 d 30 -92 d 29 -39 d 30 39 d 29 95 d 29 -39 d 30 19 d 29 20 d 30 88 d 29 47 d
 30 -127 d 29 -80 d 30 -30 d 29 8 d 29 60 d s 309 383 339 395 368 411 398 435 427 359 456 406 486 406 515 532 545 467 574 444 604 450 633 428 663 477 692 563 722 500 751 475 780 461 810 561 839 478 869 527 898 455 928 510 957 347 987 435 1016 450
 1046 508 1075 411 1104 463 1163 450 1193 546 1222 494 1252 477 1281 521 1311 478 1340 458 1369 596 1399 471 1428 433 1458 497 1487 389 1517 532 1546 469 1576 377 1605 338 1635 377 1664 472 1693 433 1723 452 1752 472 1782 560 1811 607 1841 480 1870
 400 1900 370 1929 378 1958 438 56 { m20} R 0 1 0 c 722 446 m 21 Y s 715 467 m 13 X s 722 420 m -21 Y s 715 399 m 13 X s 751 413 m 20 Y s 744 433 m 14 X s 751 387 m -20 Y s 744 367 m 14 X s 780 274 m 16 Y s 774 290 m 13 X s 780 248 m -17 Y s 774 231
 m 13 X s 810 266 m 16 Y s 803 282 m 13 X s 810 240 m -16 Y s 803 224 m 13 X s 839 369 m 19 Y s 833 388 m 13 X s 839 343 m -19 Y s 833 324 m 13 X s 869 402 m 20 Y s 862 422 m 13 X s 869 376 m -20 Y s 862 356 m 13 X s 898 301 m 17 Y s 892 318 m 13 X s
 898 274 m -17 Y s 892 257 m 13 X s 928 275 m 17 Y s 921 292 m 13 X s 928 249 m -16 Y s 921 233 m 13 X s 957 285 m 17 Y s 951 302 m 13 X s 957 259 m -17 Y s 951 242 m 13 X s 987 391 m 20 Y s 980 411 m 13 X s 987 365 m -19 Y s 980 346 m 13 X s 1016
 233 m 16 Y s 1010 249 m 13 X s 1016 207 m -15 Y s 1010 192 m 13 X s 1046 288 m 17 Y s 1039 305 m 13 X s 1046 262 m -17 Y s 1039 245 m 13 X s 1075 326 m 17 Y s 1068 343 m 13 X s 1075 299 m -17 Y s 1068 282 m 13 X s 1104 311 m 18 Y s 1098 329 m 13 X s
 1104 285 m -17 Y s 1098 268 m 13 X s 1163 365 m 19 Y s 1157 384 m 13 X s 1163 339 m -19 Y s 1157 320 m 13 X s 1193 313 m 18 Y s 1186 331 m 13 X s 1193 287 m -18 Y s 1186 269 m 13 X s 1222 316 m 18 Y s 1216 334 m 13 X s 1222 290 m -18 Y s 1216 272 m
 13 X s 1252 360 m 19 Y s 1245 379 m 13 X s 1252 334 m -19 Y s 1245 315 m 13 X s 1281 474 m 22 Y s 1275 496 m 13 X s 1281 448 m -21 Y s 1275 427 m 13 X s 1311 291 m 17 Y s 1304 308 m 13 X s 1311 265 m -17 Y s 1304 248 m 13 X s 1340 310 m 17 Y s 1333
 327 m 14 X s 1340 284 m -18 Y s 1333 266 m 14 X s 1369 430 m 21 Y s 1363 451 m 13 X s 1369 404 m -20 Y s 1363 384 m 13 X s 1399 379 m 19 Y s 1392 398 m 13 X s 1399 353 m -19 Y s 1392 334 m 13 X s 1428 391 m 20 Y s 1422 411 m 13 X s 1428 365 m -19 Y
 s 1422 346 m 13 X s 1458 393 m 19 Y s 1451 412 m 13 X s 1458 367 m -20 Y s 1451 347 m 13 X s 1487 354 m 18 Y s 1481 372 m 13 X s 1487 328 m -19 Y s 1481 309 m 13 X s 1517 421 m 20 Y s 1510 441 m 13 X s 1517 395 m -20 Y s 1510 375 m 13 X s 1546 396 m
 20 Y s 1540 416 m 13 X s 1546 370 m -20 Y s 1540 350 m 13 X s black 0 1 0 c 722 433 m 29 -33 d 29 -139 d 30 -8 d 29 103 d 30 33 d 29 -102 d 30 -25 d 29 10 d 30 106 d 29 -158 d 30 55 d 29 38 d 29 -15 d 59 54 d 30 -52 d 29 3 d 30 44 d 29 114 d 30 -183
 d 29 19 d 29 120 d 30 -51 d 29 12 d 30 2 d 29 -39 d 30 67 d 29 -25 d s 722 433 751 400 780 261 810 253 839 356 869 389 898 287 928 262 957 272 987 378 1016 220 1046 275 1075 313 1104 298 1163 352 1193 300 1222 303 1252 347 1281 461 1311 278 1340 297
 1369 417 1399 366 1428 378 1458 380 1487 341 1517 408 1546 383 28 { m20} R 0 0 1 c 722 659 m 25 Y s 715 684 m 13 X s 722 633 m -26 Y s 715 607 m 13 X s 751 775 m 27 Y s 744 802 m 14 X s 751 749 m -28 Y s 744 721 m 14 X s 780 684 m 26 Y s 774 710 m
 13 X s 780 658 m -26 Y s 774 632 m 13 X s 810 736 m 26 Y s 803 762 m 13 X s 810 710 m -27 Y s 803 683 m 13 X s 839 690 m 26 Y s 833 716 m 13 X s 839 664 m -26 Y s 833 638 m 13 X s 869 778 m 28 Y s 862 806 m 13 X s 869 752 m -28 Y s 862 724 m 13 X s
 898 767 m 27 Y s 892 794 m 13 X s 898 741 m -28 Y s 892 713 m 13 X s 928 687 m 26 Y s 921 713 m 13 X s 928 661 m -26 Y s 921 635 m 13 X s 957 737 m 27 Y s 951 764 m 13 X s 957 711 m -27 Y s 951 684 m 13 X s 987 854 m 30 Y s 980 884 m 13 X s 987 828
 m -29 Y s 980 799 m 13 X s 1016 546 m 23 Y s 1010 569 m 13 X s 1016 520 m -23 Y s 1010 497 m 13 X s 1046 711 m 26 Y s 1039 737 m 13 X s 1046 684 m -26 Y s 1039 658 m 13 X s 1075 668 m 26 Y s 1068 694 m 13 X s 1075 642 m -25 Y s 1068 617 m 13 X s
 1104 684 m 26 Y s 1098 710 m 13 X s 1104 658 m -26 Y s 1098 632 m 13 X s 1163 851 m 30 Y s 1157 881 m 13 X s 1163 825 m -29 Y s 1157 796 m 13 X s 1193 851 m 30 Y s 1186 881 m 13 X s 1193 825 m -29 Y s 1186 796 m 13 X s 1222 844 m 29 Y s 1216 873 m
 13 X s 1222 817 m -29 Y s 1216 788 m 13 X s 1252 764 m 27 Y s 1245 791 m 13 X s 1252 738 m -28 Y s 1245 710 m 13 X s 1281 726 m 27 Y s 1275 753 m 13 X s 1281 700 m -27 Y s 1275 673 m 13 X s 1311 737 m 27 Y s 1304 764 m 13 X s 1311 711 m -27 Y s 1304
 684 m 13 X s 1340 747 m 27 Y s 1333 774 m 14 X s 1340 720 m -27 Y s 1333 693 m 14 X s 1369 920 m 31 Y s 1363 951 m 13 X s 1369 894 m -30 Y s 1363 864 m 13 X s 1399 742 m 27 Y s 1392 769 m 13 X s 1399 716 m -27 Y s 1392 689 m 13 X s 1428 798 m 28 Y s
 1422 826 m 13 X s 1428 772 m -28 Y s 1422 744 m 13 X s 1458 742 m 27 Y s 1451 769 m 13 X s 1458 716 m -27 Y s 1451 689 m 13 X s 1487 628 m 24 Y s 1481 652 m 13 X s 1487 602 m -25 Y s 1481 577 m 13 X s 1517 675 m 25 Y s 1510 700 m 13 X s 1517 648 m
 -25 Y s 1510 623 m 13 X s 1546 831 m 29 Y s 1540 860 m 13 X s 1546 805 m -29 Y s 1540 776 m 13 X s black 0 0 1 c 722 646 m 29 116 d 29 -91 d 30 52 d 29 -46 d 30 88 d 29 -11 d 30 -80 d 29 50 d 30 117 d 29 -308 d 30 164 d 29 -42 d 29 16 d 59 167 d 30
 X 29 -7 d 30 -80 d 29 -38 d 30 11 d 29 9 d 29 174 d 30 -178 d 29 56 d 30 -56 d 29 -114 d 30 47 d 29 156 d s 722 646 751 762 780 671 810 723 839 677 869 765 898 754 928 674 957 724 987 841 1016 533 1046 697 1075 655 1104 671 1163 838 1193 838 1222
 831 1252 751 1281 713 1311 724 1340 733 1369 907 1399 729 1428 785 1458 729 1487 615 1517 662 1546 818 28 { m20} R black
 gsave  2268 1538 0 0 C 1645.4 1283.74 t 0 r /Helvetica-Bold findfont 58.6478 sf 0 0 m (SCT Barrel) show NC gr 
 gsave  2268 1538 0 0 C 1762.69 1205.54 t 0 r /Helvetica-Bold findfont 58.6478 sf 0 0 m (Layer 0) show NC gr  1652 1223 m 92 X s 1698 1223 m20
 gsave  2268 1538 0 0 C 1762.69 1130.6 t 0 r /Helvetica-Bold findfont 58.6478 sf 0 0 m (Layer 1) show NC gr  1 0 0 c 1652 1146 m 92 X s 1698 1146 m20 black
 gsave  2268 1538 0 0 C 1762.69 1052.4 t 0 r /Helvetica-Bold findfont 58.6478 sf 0 0 m (Layer 2) show NC gr  0 1 0 c 1652 1069 m 92 X s 1698 1069 m20 black
 gsave  2268 1538 0 0 C 1762.69 977.464 t 0 r /Helvetica-Bold findfont 58.6478 sf 0 0 m (Layer 3) show NC gr  0 0 1 c 1652 992 m 92 X s 1698 992 m20
 gr  gr showpage
end
%%EOF
