%!PS-Adobe-2.0 EPSF-2.0
%%BoundingBox:  0 0 567 384
%%Title: d3pdDirr/sct_occupancy/clus_sctlayer_mgz.eps: c1_n24
%%Creator: ROOT Version 6.04/12
%%CreationDate: Tue Apr 26 00:12:44 2016
%%DocumentNeededResources: ProcSet (FontSetInit)
%%EndComments
%%BeginProlog
80 dict begin
/s {stroke} def /l {lineto} def /m {moveto} def /t {translate} def
/r {rotate} def /rl {roll}  def /R {repeat} def
/d {rlineto} def /rm {rmoveto} def /gr {grestore} def /f {eofill} def
/c {setrgbcolor} def /black {0 setgray} def /sd {setdash} def
/cl {closepath} def /sf {scalefont setfont} def /lw {setlinewidth} def
/box {m dup 0 exch d exch 0 d 0 exch neg d cl} def
/NC{systemdict begin initclip end}def/C{NC box clip newpath}def
/bl {box s} def /bf {gsave box gsave f grestore 1 lw [] 0 sd s grestore} def /Y { 0 exch d} def /X { 0 d} def 
/K {{pop pop 0 moveto} exch kshow} bind def
/ita {/ang 15 def gsave [1 0 ang dup sin exch cos div 1 0 0] concat} def 
/mp {newpath /y exch def /x exch def} def
/side {[w .77 mul w .23 mul] .385 w mul sd w 0 l currentpoint t -144 r} def
/mr {mp x y w2 0 360 arc} def /m24 {mr s} def /m20 {mr f} def
/mb {mp x y w2 add m w2 neg 0 d 0 w neg d w 0 d 0 w d cl} def
/mt {mp x y w2 add m w2 neg w neg d w 0 d cl} def
/m21 {mb f} def /m25 {mb s} def /m22 {mt f} def /m26{mt s} def
/m23 {mp x y w2 sub m w2 w d w neg 0 d cl f} def
/m27 {mp x y w2 add m w3 neg w2 neg d w3 w2 neg d w3 w2 d cl s} def
/m28 {mp x w2 sub y w2 sub w3 add m w3 0 d  0 w3 neg d w3 0 d 0 w3 d w3 0 d  0 w3 d w3 neg 0 d 0 w3 d w3 neg 0 d 0 w3 neg d w3 neg 0 d cl s } def
/m29 {mp gsave x w2 sub y w2 add w3 sub m currentpoint t 4 {side} repeat cl fill gr} def
/m30 {mp gsave x w2 sub y w2 add w3 sub m currentpoint t 4 {side} repeat cl s gr} def
/m31 {mp x y w2 sub m 0 w d x w2 sub y m w 0 d x w2 sub y w2 add m w w neg d x w2 sub y w2 sub m w w d s} def
/m32 {mp x y w2 sub m w2 w d w neg 0 d cl s} def
/m33 {mp x y w2 add m w3 neg w2 neg d w3 w2 neg d w3 w2 d cl f} def
/m34 {mp x w2 sub y w2 sub w3 add m w3 0 d  0 w3 neg d w3 0 d 0 w3 d w3 0 d  0 w3 d w3 neg 0 d 0 w3 d w3 neg 0 d 0 w3 neg d w3 neg 0 d cl f } def
/m2 {mp x y w2 sub m 0 w d x w2 sub y m w 0 d s} def
/m5 {mp x w2 sub y w2 sub m w w d x w2 sub y w2 add m w w neg d s} def
%%IncludeResource: ProcSet (FontSetInit)
%%IncludeResource: font Times-Roman
%%IncludeResource: font Times-Italic
%%IncludeResource: font Times-Bold
%%IncludeResource: font Times-BoldItalic
%%IncludeResource: font Helvetica
%%IncludeResource: font Helvetica-Oblique
%%IncludeResource: font Helvetica-Bold
%%IncludeResource: font Helvetica-BoldOblique
%%IncludeResource: font Courier
%%IncludeResource: font Courier-Oblique
%%IncludeResource: font Courier-Bold
%%IncludeResource: font Courier-BoldOblique
%%IncludeResource: font Symbol
%%IncludeResource: font ZapfDingbats
/reEncode {exch findfont dup length dict begin {1 index /FID eq  {pop pop} {def} ifelse } forall /Encoding exch def currentdict end dup /FontName get exch definefont pop } def [/Times-Bold /Times-Italic /Times-BoldItalic /Helvetica /Helvetica-Oblique
 /Helvetica-Bold /Helvetica-BoldOblique /Courier /Courier-Oblique /Courier-Bold /Courier-BoldOblique /Times-Roman /AvantGarde-Book /AvantGarde-BookOblique /AvantGarde-Demi /AvantGarde-DemiOblique /Bookman-Demi /Bookman-DemiItalic /Bookman-Light
 /Bookman-LightItalic /Helvetica-Narrow /Helvetica-Narrow-Bold /Helvetica-Narrow-BoldOblique /Helvetica-Narrow-Oblique /NewCenturySchlbk-Roman /NewCenturySchlbk-Bold /NewCenturySchlbk-BoldItalic /NewCenturySchlbk-Italic /Palatino-Bold
 /Palatino-BoldItalic /Palatino-Italic /Palatino-Roman ] {ISOLatin1Encoding reEncode } forall
%%EndProlog
%%BeginSetup
%%EndSetup
newpath  gsave  .25 .25 scale  gsave  0 0 t black[  ] 0 sd 3 lw 1 1 1 c 2268 1538 0 0 bf black 1 1 1 c 1814 1230 227 154 bf black 1814 1230 227 154 bl 1 1 1 c 1814 1230 227 154 bf black 1814 1230 227 154 bl 227 154 m 1814 X s
 gsave  2268 1538 0 0 C 1853.92 35.8403 t 0 r /Helvetica-Bold findfont 58.6478 sf 0 0 m (z [mm]) show NC gr  399 191 m -37 Y s 460 172 m -18 Y s 521 172 m -18 Y s 583 172 m -18 Y s 644 191 m -37 Y s 705 172 m -18 Y s 766 172 m -18 Y s 828 172 m -18 Y
 s 889 191 m -37 Y s 950 172 m -18 Y s 1011 172 m -18 Y s 1073 172 m -18 Y s 1134 191 m -37 Y s 1195 172 m -18 Y s 1256 172 m -18 Y s 1318 172 m -18 Y s 1379 191 m -37 Y s 1440 172 m -18 Y s 1501 172 m -18 Y s 1563 172 m -18 Y s 1624 191 m -37 Y s
 1685 172 m -18 Y s 1746 172 m -18 Y s 1808 172 m -18 Y s 1869 191 m -37 Y s 399 191 m -37 Y s 338 172 m -18 Y s 276 172 m -18 Y s 1869 191 m -37 Y s 1930 172 m -18 Y s 1991 172 m -18 Y s
 gsave  2268 1538 0 0 C 361.662 97.7464 t 0 r /Helvetica-Bold findfont 58.6478 sf 0 0 m (600) show NC gr 
 gsave  2268 1538 0 0 C 332.338 97.7464 t 0 r /Symbol findfont 58.6478 sf 0 0 m (-) show NC gr 
 gsave  2268 1538 0 0 C 606.028 97.7464 t 0 r /Helvetica-Bold findfont 58.6478 sf 0 0 m (400) show NC gr 
 gsave  2268 1538 0 0 C 576.704 97.7464 t 0 r /Symbol findfont 58.6478 sf 0 0 m (-) show NC gr 
 gsave  2268 1538 0 0 C 850.394 97.7464 t 0 r /Helvetica-Bold findfont 58.6478 sf 0 0 m (200) show NC gr 
 gsave  2268 1538 0 0 C 821.07 97.7464 t 0 r /Symbol findfont 58.6478 sf 0 0 m (-) show NC gr 
 gsave  2268 1538 0 0 C 1114.31 97.7464 t 0 r /Helvetica-Bold findfont 58.6478 sf 0 0 m (0) show NC gr 
 gsave  2268 1538 0 0 C 1329.35 97.7464 t 0 r /Helvetica-Bold findfont 58.6478 sf 0 0 m (200) show NC gr 
 gsave  2268 1538 0 0 C 1573.72 97.7464 t 0 r /Helvetica-Bold findfont 58.6478 sf 0 0 m (400) show NC gr 
 gsave  2268 1538 0 0 C 1818.08 97.7464 t 0 r /Helvetica-Bold findfont 58.6478 sf 0 0 m (600) show NC gr  227 1384 m 1814 X s 399 1347 m 37 Y s 460 1366 m 18 Y s 521 1366 m 18 Y s 583 1366 m 18 Y s 644 1347 m 37 Y s 705 1366 m 18 Y s 766 1366 m 18 Y
 s 828 1366 m 18 Y s 889 1347 m 37 Y s 950 1366 m 18 Y s 1011 1366 m 18 Y s 1073 1366 m 18 Y s 1134 1347 m 37 Y s 1195 1366 m 18 Y s 1256 1366 m 18 Y s 1318 1366 m 18 Y s 1379 1347 m 37 Y s 1440 1366 m 18 Y s 1501 1366 m 18 Y s 1563 1366 m 18 Y s
 1624 1347 m 37 Y s 1685 1366 m 18 Y s 1746 1366 m 18 Y s 1808 1366 m 18 Y s 1869 1347 m 37 Y s 399 1347 m 37 Y s 338 1366 m 18 Y s 276 1366 m 18 Y s 1869 1347 m 37 Y s 1930 1366 m 18 Y s 1991 1366 m 18 Y s 227 154 m 1230 Y s
 gsave  2268 1538 0 0 C 97.7464 710.291 t 90 r /Helvetica-Bold findfont 58.6478 sf 0 0 m (Cluster per etaModuleID) show NC gr  281 289 m -54 X s 254 328 m -27 X s 254 367 m -27 X s 254 406 m -27 X s 254 446 m -27 X s 281 485 m -54 X s 254 524 m -27 X
 s 254 563 m -27 X s 254 602 m -27 X s 254 641 m -27 X s 281 680 m -54 X s 254 719 m -27 X s 254 759 m -27 X s 254 798 m -27 X s 254 837 m -27 X s 281 876 m -54 X s 254 915 m -27 X s 254 954 m -27 X s 254 993 m -27 X s 254 1032 m -27 X s 281 1072 m
 -54 X s 254 1111 m -27 X s 254 1150 m -27 X s 254 1189 m -27 X s 254 1228 m -27 X s 281 1267 m -54 X s 281 289 m -54 X s 254 250 m -27 X s 254 211 m -27 X s 254 172 m -27 X s 281 1267 m -54 X s 254 1306 m -27 X s 254 1345 m -27 X s
 gsave  2268 1538 0 0 C 117.296 267.173 t 0 r /Helvetica-Bold findfont 58.6478 sf 0 0 m (150) show NC gr 
 gsave  2268 1538 0 0 C 117.296 462.666 t 0 r /Helvetica-Bold findfont 58.6478 sf 0 0 m (200) show NC gr 
 gsave  2268 1538 0 0 C 117.296 658.159 t 0 r /Helvetica-Bold findfont 58.6478 sf 0 0 m (250) show NC gr 
 gsave  2268 1538 0 0 C 117.296 853.652 t 0 r /Helvetica-Bold findfont 58.6478 sf 0 0 m (300) show NC gr 
 gsave  2268 1538 0 0 C 117.296 1049.14 t 0 r /Helvetica-Bold findfont 58.6478 sf 0 0 m (350) show NC gr 
 gsave  2268 1538 0 0 C 117.296 1244.64 t 0 r /Helvetica-Bold findfont 58.6478 sf 0 0 m (400) show NC gr  2041 154 m 1230 Y s 1987 289 m 54 X s 2014 328 m 27 X s 2014 367 m 27 X s 2014 406 m 27 X s 2014 446 m 27 X s 1987 485 m 54 X s 2014 524 m 27 X
 s 2014 563 m 27 X s 2014 602 m 27 X s 2014 641 m 27 X s 1987 680 m 54 X s 2014 719 m 27 X s 2014 759 m 27 X s 2014 798 m 27 X s 2014 837 m 27 X s 1987 876 m 54 X s 2014 915 m 27 X s 2014 954 m 27 X s 2014 993 m 27 X s 2014 1032 m 27 X s 1987 1072 m
 54 X s 2014 1111 m 27 X s 2014 1150 m 27 X s 2014 1189 m 27 X s 2014 1228 m 27 X s 1987 1267 m 54 X s 1987 289 m 54 X s 2014 250 m 27 X s 2014 211 m 27 X s 2014 172 m 27 X s 1987 1267 m 54 X s 2014 1306 m 27 X s 2014 1345 m 27 X s 309 596 m 24 Y s
 303 620 m 13 X s 309 570 m -24 Y s 303 546 m 13 X s 339 556 m 23 Y s 332 579 m 13 X s 339 530 m -24 Y s 332 506 m 13 X s 368 560 m 24 Y s 361 584 m 13 X s 368 534 m -23 Y s 361 511 m 13 X s 397 599 m 25 Y s 391 624 m 13 X s 397 573 m -24 Y s 391 549
 m 13 X s 429 612 m 24 Y s 423 636 m 13 X s 429 586 m -25 Y s 423 561 m 13 X s 459 510 m 22 Y s 452 532 m 13 X s 459 484 m -22 Y s 452 462 m 13 X s 488 538 m 23 Y s 481 561 m 13 X s 488 512 m -23 Y s 481 489 m 13 X s 517 548 m 23 Y s 511 571 m 13 X s
 517 522 m -23 Y s 511 499 m 13 X s 549 562 m 23 Y s 543 585 m 13 X s 549 536 m -24 Y s 543 512 m 13 X s 579 635 m 25 Y s 572 660 m 13 X s 579 609 m -25 Y s 572 584 m 13 X s 608 668 m 26 Y s 602 694 m 13 X s 608 642 m -25 Y s 602 617 m 13 X s 637 571
 m 24 Y s 631 595 m 13 X s 637 545 m -23 Y s 631 522 m 13 X s 670 596 m 24 Y s 663 620 m 13 X s 670 570 m -24 Y s 663 546 m 13 X s 699 584 m 24 Y s 692 608 m 13 X s 699 558 m -24 Y s 692 534 m 13 X s 728 562 m 23 Y s 722 585 m 13 X s 728 536 m -24 Y
 s 722 512 m 13 X s 757 637 m 25 Y s 751 662 m 13 X s 757 611 m -25 Y s 751 586 m 13 X s 790 695 m 26 Y s 783 721 m 13 X s 790 669 m -26 Y s 783 643 m 13 X s 819 567 m 23 Y s 812 590 m 13 X s 819 540 m -23 Y s 812 517 m 13 X s 848 510 m 22 Y s 842
 532 m 13 X s 848 484 m -22 Y s 842 462 m 13 X s 877 743 m 27 Y s 871 770 m 13 X s 877 717 m -27 Y s 871 690 m 13 X s 910 657 m 26 Y s 903 683 m 13 X s 910 631 m -25 Y s 903 606 m 13 X s 939 620 m 24 Y s 933 644 m 13 X s 939 594 m -25 Y s 933 569 m
 13 X s 968 657 m 26 Y s 962 683 m 13 X s 968 631 m -25 Y s 962 606 m 13 X s 998 626 m 25 Y s 991 651 m 13 X s 998 600 m -25 Y s 991 575 m 13 X s 1030 720 m 27 Y s 1023 747 m 13 X s 1030 694 m -27 Y s 1023 667 m 13 X s 1059 657 m 26 Y s 1053 683 m 13
 X s 1059 631 m -25 Y s 1053 606 m 13 X s 1088 574 m 24 Y s 1082 598 m 13 X s 1088 548 m -23 Y s 1082 525 m 13 X s 1118 628 m 24 Y s 1111 652 m 13 X s 1118 602 m -25 Y s 1111 577 m 13 X s 1150 593 m 24 Y s 1143 617 m 13 X s 1150 567 m -24 Y s 1143
 543 m 13 X s 1179 809 m 28 Y s 1173 837 m 13 X s 1179 783 m -28 Y s 1173 755 m 13 X s 1209 701 m 26 Y s 1202 727 m 13 X s 1209 675 m -26 Y s 1202 649 m 13 X s 1238 598 m 24 Y s 1231 622 m 13 X s 1238 572 m -24 Y s 1231 548 m 13 X s 1270 737 m 27 Y s
 1264 764 m 13 X s 1270 711 m -27 Y s 1264 684 m 13 X s 1299 784 m 28 Y s 1293 812 m 13 X s 1299 758 m -28 Y s 1293 730 m 13 X s 1329 757 m 28 Y s 1322 785 m 13 X s 1329 731 m -27 Y s 1322 704 m 13 X s 1358 590 m 24 Y s 1351 614 m 13 X s 1358 564 m
 -24 Y s 1351 540 m 13 X s 1390 773 m 28 Y s 1384 801 m 13 X s 1390 747 m -28 Y s 1384 719 m 13 X s 1419 646 m 26 Y s 1413 672 m 13 X s 1419 620 m -25 Y s 1413 595 m 13 X s 1449 662 m 25 Y s 1442 687 m 13 X s 1449 636 m -26 Y s 1442 610 m 13 X s 1478
 621 m 25 Y s 1471 646 m 14 X s 1478 595 m -24 Y s 1471 571 m 14 X s 1510 581 m 23 Y s 1504 604 m 13 X s 1510 555 m -24 Y s 1504 531 m 13 X s 1539 648 m 25 Y s 1533 673 m 13 X s 1539 622 m -25 Y s 1533 597 m 13 X s 1569 606 m 24 Y s 1562 630 m 13 X s
 1569 580 m -25 Y s 1562 555 m 13 X s 1598 772 m 27 Y s 1592 799 m 13 X s 1598 745 m -27 Y s 1592 718 m 13 X s 1630 640 m 25 Y s 1624 665 m 13 X s 1630 614 m -25 Y s 1624 589 m 13 X s 1660 665 m 26 Y s 1653 691 m 13 X s 1660 639 m -25 Y s 1653 614 m
 13 X s 1689 634 m 25 Y s 1682 659 m 13 X s 1689 608 m -25 Y s 1682 583 m 13 X s 1718 562 m 23 Y s 1712 585 m 13 X s 1718 536 m -24 Y s 1712 512 m 13 X s 1751 588 m 24 Y s 1744 612 m 13 X s 1751 562 m -24 Y s 1744 538 m 13 X s 1780 675 m 25 Y s 1773
 700 m 13 X s 1780 648 m -25 Y s 1773 623 m 13 X s 1809 656 m 25 Y s 1803 681 m 13 X s 1809 630 m -26 Y s 1803 604 m 13 X s 1838 598 m 24 Y s 1832 622 m 13 X s 1838 572 m -24 Y s 1832 548 m 13 X s 1871 484 m 21 Y s 1864 505 m 13 X s 1871 458 m -22 Y
 s 1864 436 m 13 X s 1900 649 m 26 Y s 1893 675 m 13 X s 1900 623 m -25 Y s 1893 598 m 13 X s 1929 512 m 22 Y s 1923 534 m 13 X s 1929 486 m -23 Y s 1923 463 m 13 X s 1958 542 m 22 Y s 1952 564 m 13 X s 1958 515 m -22 Y s 1952 493 m 13 X s 309 583 m
 30 -40 d 29 4 d 29 39 d 32 13 d 30 -102 d 29 28 d 29 10 d 32 14 d 30 73 d 29 33 d 29 -97 d 33 25 d 29 -12 d 29 -22 d 29 75 d 33 58 d 29 -128 d 29 -57 d 29 233 d 33 -86 d 29 -37 d 29 37 d 30 -31 d 32 94 d 29 -63 d 29 -83 d 30 54 d 32 -35 d 29 216 d
 30 -108 d 29 -103 d 32 139 d 29 47 d 30 -27 d 29 -167 d 32 183 d 29 -127 d 30 16 d 29 -41 d 32 -40 d 29 67 d 30 -42 d 29 166 d 32 -132 d 30 25 d 29 -31 d 29 -72 d 33 26 d 29 87 d 29 -19 d 29 -58 d 33 -114 d 29 165 d 29 -137 d 29 29 d s /w 26 def /w2
 {w 2 div} def /w3 {w 3 div} def 309 583 339 543 368 547 397 586 429 599 459 497 488 525 517 535 549 549 579 622 608 655 637 558 670 583 699 571 728 549 757 624 790 682 819 554 848 497 877 730 910 644 939 607 968 644 998 613 1030 707 1059 644 1088
 561 1118 615 1150 580 1179 796 1209 688 1238 585 1270 724 1299 771 1329 744 1358 577 1390 760 1419 633 1449 649 1478 608 1510 568 1539 635 1569 593 1598 759 1630 627 1660 652 1689 621 1718 549 1751 575 1780 662 1809 643 1838 585 1871 471 1900 636
 1929 499 1958 528 56 { m20} R 1 0 0 c 309 396 m 20 Y s 303 416 m 13 X s 309 370 m -20 Y s 303 350 m 13 X s 339 409 m 19 Y s 332 428 m 13 X s 339 382 m -19 Y s 332 363 m 13 X s 368 424 m 20 Y s 361 444 m 13 X s 368 398 m -20 Y s 361 378 m 13 X s 397
 448 m 20 Y s 391 468 m 13 X s 397 422 m -21 Y s 391 401 m 13 X s 429 373 m 19 Y s 423 392 m 13 X s 429 346 m -19 Y s 423 327 m 13 X s 459 419 m 21 Y s 452 440 m 13 X s 459 393 m -20 Y s 452 373 m 13 X s 488 419 m 21 Y s 481 440 m 13 X s 488 393 m
 -20 Y s 481 373 m 13 X s 517 545 m 23 Y s 511 568 m 13 X s 517 519 m -23 Y s 511 496 m 13 X s 549 480 m 22 Y s 543 502 m 13 X s 549 454 m -21 Y s 543 433 m 13 X s 579 457 m 21 Y s 572 478 m 13 X s 579 431 m -21 Y s 572 410 m 13 X s 608 463 m 21 Y s
 602 484 m 13 X s 608 437 m -21 Y s 602 416 m 13 X s 637 441 m 21 Y s 631 462 m 13 X s 637 415 m -20 Y s 631 395 m 13 X s 670 490 m 22 Y s 663 512 m 13 X s 670 464 m -22 Y s 663 442 m 13 X s 699 576 m 24 Y s 692 600 m 13 X s 699 550 m -24 Y s 692 526
 m 13 X s 728 513 m 23 Y s 722 536 m 13 X s 728 487 m -22 Y s 722 465 m 13 X s 757 488 m 22 Y s 751 510 m 13 X s 757 462 m -22 Y s 751 440 m 13 X s 790 474 m 22 Y s 783 496 m 13 X s 790 448 m -21 Y s 783 427 m 13 X s 819 574 m 24 Y s 812 598 m 13 X s
 819 548 m -23 Y s 812 525 m 13 X s 848 491 m 22 Y s 842 513 m 13 X s 848 465 m -21 Y s 842 444 m 13 X s 878 540 m 23 Y s 871 563 m 13 X s 878 514 m -23 Y s 871 491 m 13 X s 910 468 m 21 Y s 903 489 m 13 X s 910 442 m -21 Y s 903 421 m 13 X s 939 523
 m 22 Y s 932 545 m 13 X s 939 497 m -23 Y s 932 474 m 13 X s 968 360 m 19 Y s 962 379 m 13 X s 968 334 m -19 Y s 962 315 m 13 X s 998 448 m 20 Y s 991 468 m 13 X s 998 422 m -21 Y s 991 401 m 13 X s 1030 463 m 21 Y s 1023 484 m 13 X s 1030 437 m -21
 Y s 1023 416 m 13 X s 1059 521 m 23 Y s 1053 544 m 13 X s 1059 495 m -22 Y s 1053 473 m 13 X s 1088 424 m 20 Y s 1082 444 m 13 X s 1088 398 m -20 Y s 1082 378 m 13 X s 1118 476 m 21 Y s 1111 497 m 13 X s 1118 450 m -22 Y s 1111 428 m 13 X s 1150 463
 m 21 Y s 1143 484 m 13 X s 1150 437 m -21 Y s 1143 416 m 13 X s 1179 559 m 23 Y s 1173 582 m 13 X s 1179 533 m -24 Y s 1173 509 m 13 X s 1209 507 m 22 Y s 1202 529 m 13 X s 1209 481 m -22 Y s 1202 459 m 13 X s 1238 490 m 22 Y s 1231 512 m 13 X s
 1238 464 m -22 Y s 1231 442 m 13 X s 1270 534 m 22 Y s 1263 556 m 13 X s 1270 508 m -23 Y s 1263 485 m 13 X s 1299 491 m 22 Y s 1293 513 m 13 X s 1299 465 m -21 Y s 1293 444 m 13 X s 1329 471 m 21 Y s 1322 492 m 13 X s 1329 445 m -21 Y s 1322 424 m
 13 X s 1358 609 m 24 Y s 1351 633 m 13 X s 1358 583 m -25 Y s 1351 558 m 13 X s 1390 484 m 21 Y s 1384 505 m 13 X s 1390 458 m -22 Y s 1384 436 m 13 X s 1419 446 m 21 Y s 1413 467 m 13 X s 1419 420 m -21 Y s 1413 399 m 13 X s 1449 510 m 22 Y s 1442
 532 m 13 X s 1449 484 m -22 Y s 1442 462 m 13 X s 1478 402 m 20 Y s 1471 422 m 14 X s 1478 376 m -20 Y s 1471 356 m 14 X s 1510 545 m 23 Y s 1504 568 m 13 X s 1510 519 m -23 Y s 1504 496 m 13 X s 1539 482 m 22 Y s 1533 504 m 13 X s 1539 456 m -22 Y
 s 1533 434 m 13 X s 1569 390 m 19 Y s 1562 409 m 13 X s 1569 364 m -20 Y s 1562 344 m 13 X s 1598 351 m 18 Y s 1592 369 m 13 X s 1598 325 m -19 Y s 1592 306 m 13 X s 1630 390 m 19 Y s 1624 409 m 13 X s 1630 364 m -20 Y s 1624 344 m 13 X s 1660 485 m
 22 Y s 1653 507 m 13 X s 1660 459 m -22 Y s 1653 437 m 13 X s 1689 446 m 21 Y s 1682 467 m 13 X s 1689 420 m -21 Y s 1682 399 m 13 X s 1718 465 m 21 Y s 1712 486 m 13 X s 1718 439 m -21 Y s 1712 418 m 13 X s 1750 485 m 22 Y s 1744 507 m 13 X s 1750
 459 m -22 Y s 1744 437 m 13 X s 1780 573 m 23 Y s 1773 596 m 13 X s 1780 547 m -24 Y s 1773 523 m 13 X s 1809 620 m 24 Y s 1802 644 m 14 X s 1809 594 m -25 Y s 1802 569 m 14 X s 1838 493 m 22 Y s 1832 515 m 13 X s 1838 467 m -22 Y s 1832 445 m 13 X
 s 1870 413 m 20 Y s 1864 433 m 13 X s 1870 387 m -20 Y s 1864 367 m 13 X s 1900 383 m 20 Y s 1893 403 m 13 X s 1900 357 m -19 Y s 1893 338 m 13 X s 1929 391 m 20 Y s 1923 411 m 13 X s 1929 365 m -19 Y s 1923 346 m 13 X s 1958 451 m 21 Y s 1952 472 m
 13 X s 1958 425 m -21 Y s 1952 404 m 13 X s black 1 0 0 c 309 383 m 30 12 d 29 16 d 29 24 d 32 -76 d 30 47 d 29 X 29 126 d 32 -65 d 30 -23 d 29 6 d 29 -22 d 33 49 d 29 86 d 29 -63 d 29 -25 d 33 -14 d 29 100 d 29 -83 d 30 49 d 32 -72 d 29 55 d 29
 -163 d 30 88 d 32 15 d 29 58 d 29 -97 d 30 52 d 32 -13 d 29 96 d 30 -52 d 29 -17 d 32 44 d 29 -43 d 30 -20 d 29 138 d 32 -125 d 29 -38 d 30 64 d 29 -108 d 32 143 d 29 -63 d 30 -92 d 29 -39 d 32 39 d 30 95 d 29 -39 d 29 19 d 32 20 d 30 88 d 29 47 d
 29 -127 d 32 -80 d 30 -30 d 29 8 d 29 60 d s 309 383 339 395 368 411 397 435 429 359 459 406 488 406 517 532 549 467 579 444 608 450 637 428 670 477 699 563 728 500 757 475 790 461 819 561 848 478 878 527 910 455 939 510 968 347 998 435 1030 450
 1059 508 1088 411 1118 463 1150 450 1179 546 1209 494 1238 477 1270 521 1299 478 1329 458 1358 596 1390 471 1419 433 1449 497 1478 389 1510 532 1539 469 1569 377 1598 338 1630 377 1660 472 1689 433 1718 452 1750 472 1780 560 1809 607 1838 480 1870
 400 1900 370 1929 378 1958 438 56 { m20} R 0 1 0 c 728 446 m 21 Y s 722 467 m 13 X s 728 420 m -21 Y s 722 399 m 13 X s 757 413 m 20 Y s 751 433 m 13 X s 757 387 m -20 Y s 751 367 m 13 X s 790 274 m 16 Y s 783 290 m 13 X s 790 248 m -17 Y s 783 231
 m 13 X s 819 266 m 16 Y s 812 282 m 13 X s 819 240 m -16 Y s 812 224 m 13 X s 848 369 m 19 Y s 842 388 m 13 X s 848 343 m -19 Y s 842 324 m 13 X s 877 402 m 20 Y s 871 422 m 13 X s 877 376 m -20 Y s 871 356 m 13 X s 910 301 m 17 Y s 903 318 m 13 X s
 910 274 m -17 Y s 903 257 m 13 X s 939 275 m 17 Y s 933 292 m 13 X s 939 249 m -16 Y s 933 233 m 13 X s 968 285 m 17 Y s 962 302 m 13 X s 968 259 m -17 Y s 962 242 m 13 X s 998 391 m 20 Y s 991 411 m 13 X s 998 365 m -19 Y s 991 346 m 13 X s 1030
 233 m 16 Y s 1023 249 m 13 X s 1030 207 m -15 Y s 1023 192 m 13 X s 1059 288 m 17 Y s 1053 305 m 13 X s 1059 262 m -17 Y s 1053 245 m 13 X s 1088 326 m 17 Y s 1082 343 m 13 X s 1088 299 m -17 Y s 1082 282 m 13 X s 1118 311 m 18 Y s 1111 329 m 13 X s
 1118 285 m -17 Y s 1111 268 m 13 X s 1150 365 m 19 Y s 1143 384 m 14 X s 1150 339 m -19 Y s 1143 320 m 14 X s 1179 313 m 18 Y s 1173 331 m 13 X s 1179 287 m -18 Y s 1173 269 m 13 X s 1208 316 m 18 Y s 1202 334 m 13 X s 1208 290 m -18 Y s 1202 272 m
 13 X s 1238 360 m 19 Y s 1231 379 m 13 X s 1238 334 m -19 Y s 1231 315 m 13 X s 1270 474 m 22 Y s 1264 496 m 13 X s 1270 448 m -21 Y s 1264 427 m 13 X s 1299 291 m 17 Y s 1293 308 m 13 X s 1299 265 m -17 Y s 1293 248 m 13 X s 1329 310 m 17 Y s 1322
 327 m 13 X s 1329 284 m -18 Y s 1322 266 m 13 X s 1358 430 m 21 Y s 1351 451 m 13 X s 1358 404 m -20 Y s 1351 384 m 13 X s 1390 379 m 19 Y s 1384 398 m 13 X s 1390 353 m -19 Y s 1384 334 m 13 X s 1420 391 m 20 Y s 1413 411 m 13 X s 1420 365 m -19 Y
 s 1413 346 m 13 X s 1449 393 m 19 Y s 1442 412 m 13 X s 1449 367 m -20 Y s 1442 347 m 13 X s 1478 354 m 18 Y s 1471 372 m 14 X s 1478 328 m -19 Y s 1471 309 m 14 X s 1510 421 m 20 Y s 1504 441 m 13 X s 1510 395 m -20 Y s 1504 375 m 13 X s 1540 396 m
 20 Y s 1533 416 m 13 X s 1540 370 m -20 Y s 1533 350 m 13 X s black 0 1 0 c 728 433 m 29 -33 d 33 -139 d 29 -8 d 29 103 d 29 33 d 33 -102 d 29 -25 d 29 10 d 30 106 d 32 -158 d 29 55 d 29 38 d 30 -15 d 32 54 d 29 -52 d 29 3 d 30 44 d 32 114 d 29 -183
 d 30 19 d 29 120 d 32 -51 d 30 12 d 29 2 d 29 -39 d 32 67 d 30 -25 d s 728 433 757 400 790 261 819 253 848 356 877 389 910 287 939 262 968 272 998 378 1030 220 1059 275 1088 313 1118 298 1150 352 1179 300 1208 303 1238 347 1270 461 1299 278 1329 297
 1358 417 1390 366 1420 378 1449 380 1478 341 1510 408 1540 383 28 { m20} R 0 0 1 c 324 659 m 25 Y s 317 684 m 13 X s 324 633 m -26 Y s 317 607 m 13 X s 382 775 m 27 Y s 376 802 m 13 X s 382 749 m -28 Y s 376 721 m 13 X s 444 684 m 26 Y s 438 710 m
 13 X s 444 658 m -26 Y s 438 632 m 13 X s 503 736 m 26 Y s 496 762 m 13 X s 503 710 m -27 Y s 496 683 m 13 X s 564 690 m 26 Y s 558 716 m 13 X s 564 664 m -26 Y s 558 638 m 13 X s 623 778 m 28 Y s 616 806 m 13 X s 623 752 m -28 Y s 616 724 m 13 X s
 684 767 m 27 Y s 678 794 m 13 X s 684 741 m -28 Y s 678 713 m 13 X s 743 687 m 26 Y s 736 713 m 13 X s 743 661 m -26 Y s 736 635 m 13 X s 804 737 m 27 Y s 798 764 m 13 X s 804 711 m -27 Y s 798 684 m 13 X s 863 854 m 30 Y s 856 884 m 13 X s 863 828
 m -29 Y s 856 799 m 13 X s 925 546 m 23 Y s 918 569 m 13 X s 925 520 m -23 Y s 918 497 m 13 X s 983 711 m 26 Y s 976 737 m 13 X s 983 684 m -26 Y s 976 658 m 13 X s 1045 668 m 26 Y s 1038 694 m 13 X s 1045 642 m -25 Y s 1038 617 m 13 X s 1103 684 m
 26 Y s 1096 710 m 14 X s 1103 658 m -26 Y s 1096 632 m 14 X s 1165 851 m 30 Y s 1158 881 m 13 X s 1165 825 m -29 Y s 1158 796 m 13 X s 1223 851 m 30 Y s 1217 881 m 13 X s 1223 825 m -29 Y s 1217 796 m 13 X s 1285 844 m 29 Y s 1278 873 m 13 X s 1285
 817 m -29 Y s 1278 788 m 13 X s 1343 764 m 27 Y s 1337 791 m 13 X s 1343 738 m -28 Y s 1337 710 m 13 X s 1405 726 m 27 Y s 1398 753 m 13 X s 1405 700 m -27 Y s 1398 673 m 13 X s 1463 737 m 27 Y s 1457 764 m 13 X s 1463 711 m -27 Y s 1457 684 m 13 X
 s 1525 747 m 27 Y s 1518 774 m 13 X s 1525 720 m -27 Y s 1518 693 m 13 X s 1583 920 m 31 Y s 1577 951 m 13 X s 1583 894 m -30 Y s 1577 864 m 13 X s 1645 742 m 27 Y s 1639 769 m 13 X s 1645 716 m -27 Y s 1639 689 m 13 X s 1703 798 m 28 Y s 1697 826 m
 13 X s 1703 772 m -28 Y s 1697 744 m 13 X s 1765 742 m 27 Y s 1759 769 m 13 X s 1765 716 m -27 Y s 1759 689 m 13 X s 1824 628 m 24 Y s 1817 652 m 13 X s 1824 602 m -25 Y s 1817 577 m 13 X s 1885 675 m 25 Y s 1879 700 m 13 X s 1885 648 m -25 Y s 1879
 623 m 13 X s 1944 831 m 29 Y s 1937 860 m 13 X s 1944 805 m -29 Y s 1937 776 m 13 X s black 0 0 1 c 324 646 m 58 116 d 62 -91 d 59 52 d 61 -46 d 59 88 d 61 -11 d 59 -80 d 61 50 d 59 117 d 62 -308 d 58 164 d 62 -42 d 58 16 d 62 167 d 58 X 62 -7 d 58
 -80 d 62 -38 d 58 11 d 62 9 d 58 174 d 62 -178 d 58 56 d 62 -56 d 59 -114 d 61 47 d 59 156 d s 324 646 382 762 444 671 503 723 564 677 623 765 684 754 743 674 804 724 863 841 925 533 983 697 1045 655 1103 671 1165 838 1223 838 1285 831 1343 751 1405
 713 1463 724 1525 733 1583 907 1645 729 1703 785 1765 729 1824 615 1885 662 1944 818 28 { m20} R black
 gsave  2268 1538 0 0 C 1645.4 1283.74 t 0 r /Helvetica-Bold findfont 58.6478 sf 0 0 m (SCT Barrel) show NC gr 
 gsave  2268 1538 0 0 C 1762.69 1205.54 t 0 r /Helvetica-Bold findfont 58.6478 sf 0 0 m (Layer 0) show NC gr  1652 1223 m 92 X s 1698 1223 m20
 gsave  2268 1538 0 0 C 1762.69 1130.6 t 0 r /Helvetica-Bold findfont 58.6478 sf 0 0 m (Layer 1) show NC gr  1 0 0 c 1652 1146 m 92 X s 1698 1146 m20 black
 gsave  2268 1538 0 0 C 1762.69 1052.4 t 0 r /Helvetica-Bold findfont 58.6478 sf 0 0 m (Layer 2) show NC gr  0 1 0 c 1652 1069 m 92 X s 1698 1069 m20 black
 gsave  2268 1538 0 0 C 1762.69 977.464 t 0 r /Helvetica-Bold findfont 58.6478 sf 0 0 m (Layer 3) show NC gr  0 0 1 c 1652 992 m 92 X s 1698 992 m20
 gr  gr showpage
end
%%EOF
