%!PS-Adobe-2.0 EPSF-2.0
%%BoundingBox:  0 0 567 384
%%Title: d3pdDirr/sct_occupancy/occ_sctdisk_mgr.eps: c1_n32
%%Creator: ROOT Version 6.04/12
%%CreationDate: Tue Apr 26 00:12:45 2016
%%DocumentNeededResources: ProcSet (FontSetInit)
%%EndComments
%%BeginProlog
80 dict begin
/s {stroke} def /l {lineto} def /m {moveto} def /t {translate} def
/r {rotate} def /rl {roll}  def /R {repeat} def
/d {rlineto} def /rm {rmoveto} def /gr {grestore} def /f {eofill} def
/c {setrgbcolor} def /black {0 setgray} def /sd {setdash} def
/cl {closepath} def /sf {scalefont setfont} def /lw {setlinewidth} def
/box {m dup 0 exch d exch 0 d 0 exch neg d cl} def
/NC{systemdict begin initclip end}def/C{NC box clip newpath}def
/bl {box s} def /bf {gsave box gsave f grestore 1 lw [] 0 sd s grestore} def /Y { 0 exch d} def /X { 0 d} def 
/K {{pop pop 0 moveto} exch kshow} bind def
/ita {/ang 15 def gsave [1 0 ang dup sin exch cos div 1 0 0] concat} def 
/mp {newpath /y exch def /x exch def} def
/side {[w .77 mul w .23 mul] .385 w mul sd w 0 l currentpoint t -144 r} def
/mr {mp x y w2 0 360 arc} def /m24 {mr s} def /m20 {mr f} def
/mb {mp x y w2 add m w2 neg 0 d 0 w neg d w 0 d 0 w d cl} def
/mt {mp x y w2 add m w2 neg w neg d w 0 d cl} def
/m21 {mb f} def /m25 {mb s} def /m22 {mt f} def /m26{mt s} def
/m23 {mp x y w2 sub m w2 w d w neg 0 d cl f} def
/m27 {mp x y w2 add m w3 neg w2 neg d w3 w2 neg d w3 w2 d cl s} def
/m28 {mp x w2 sub y w2 sub w3 add m w3 0 d  0 w3 neg d w3 0 d 0 w3 d w3 0 d  0 w3 d w3 neg 0 d 0 w3 d w3 neg 0 d 0 w3 neg d w3 neg 0 d cl s } def
/m29 {mp gsave x w2 sub y w2 add w3 sub m currentpoint t 4 {side} repeat cl fill gr} def
/m30 {mp gsave x w2 sub y w2 add w3 sub m currentpoint t 4 {side} repeat cl s gr} def
/m31 {mp x y w2 sub m 0 w d x w2 sub y m w 0 d x w2 sub y w2 add m w w neg d x w2 sub y w2 sub m w w d s} def
/m32 {mp x y w2 sub m w2 w d w neg 0 d cl s} def
/m33 {mp x y w2 add m w3 neg w2 neg d w3 w2 neg d w3 w2 d cl f} def
/m34 {mp x w2 sub y w2 sub w3 add m w3 0 d  0 w3 neg d w3 0 d 0 w3 d w3 0 d  0 w3 d w3 neg 0 d 0 w3 d w3 neg 0 d 0 w3 neg d w3 neg 0 d cl f } def
/m2 {mp x y w2 sub m 0 w d x w2 sub y m w 0 d s} def
/m5 {mp x w2 sub y w2 sub m w w d x w2 sub y w2 add m w w neg d s} def
%%IncludeResource: ProcSet (FontSetInit)
%%IncludeResource: font Times-Roman
%%IncludeResource: font Times-Italic
%%IncludeResource: font Times-Bold
%%IncludeResource: font Times-BoldItalic
%%IncludeResource: font Helvetica
%%IncludeResource: font Helvetica-Oblique
%%IncludeResource: font Helvetica-Bold
%%IncludeResource: font Helvetica-BoldOblique
%%IncludeResource: font Courier
%%IncludeResource: font Courier-Oblique
%%IncludeResource: font Courier-Bold
%%IncludeResource: font Courier-BoldOblique
%%IncludeResource: font Symbol
%%IncludeResource: font ZapfDingbats
/reEncode {exch findfont dup length dict begin {1 index /FID eq  {pop pop} {def} ifelse } forall /Encoding exch def currentdict end dup /FontName get exch definefont pop } def [/Times-Bold /Times-Italic /Times-BoldItalic /Helvetica /Helvetica-Oblique
 /Helvetica-Bold /Helvetica-BoldOblique /Courier /Courier-Oblique /Courier-Bold /Courier-BoldOblique /Times-Roman /AvantGarde-Book /AvantGarde-BookOblique /AvantGarde-Demi /AvantGarde-DemiOblique /Bookman-Demi /Bookman-DemiItalic /Bookman-Light
 /Bookman-LightItalic /Helvetica-Narrow /Helvetica-Narrow-Bold /Helvetica-Narrow-BoldOblique /Helvetica-Narrow-Oblique /NewCenturySchlbk-Roman /NewCenturySchlbk-Bold /NewCenturySchlbk-BoldItalic /NewCenturySchlbk-Italic /Palatino-Bold
 /Palatino-BoldItalic /Palatino-Italic /Palatino-Roman ] {ISOLatin1Encoding reEncode } forall
%%EndProlog
%%BeginSetup
%%EndSetup
newpath  gsave  .25 .25 scale  gsave  0 0 t black[  ] 0 sd 3 lw 1 1 1 c 2268 1538 0 0 bf black 1 1 1 c 1814 1230 227 154 bf black 1814 1230 227 154 bl 1 1 1 c 1814 1230 227 154 bf black 1814 1230 227 154 bl 227 154 m 1814 X s
 gsave  2268 1538 0 0 C 1860.44 35.8403 t 0 r /Helvetica-Bold findfont 58.6478 sf 0 0 m (r [mm]) show NC gr  347 191 m -37 Y s 384 172 m -18 Y s 420 172 m -18 Y s 456 172 m -18 Y s 493 172 m -18 Y s 529 191 m -37 Y s 566 172 m -18 Y s 602 172 m -18 Y
 s 639 172 m -18 Y s 675 172 m -18 Y s 712 191 m -37 Y s 748 172 m -18 Y s 785 172 m -18 Y s 821 172 m -18 Y s 858 172 m -18 Y s 894 191 m -37 Y s 930 172 m -18 Y s 967 172 m -18 Y s 1003 172 m -18 Y s 1040 172 m -18 Y s 1076 191 m -37 Y s 1113 172 m
 -18 Y s 1149 172 m -18 Y s 1186 172 m -18 Y s 1222 172 m -18 Y s 1259 191 m -37 Y s 1295 172 m -18 Y s 1332 172 m -18 Y s 1368 172 m -18 Y s 1404 172 m -18 Y s 1441 191 m -37 Y s 1477 172 m -18 Y s 1514 172 m -18 Y s 1550 172 m -18 Y s 1587 172 m
 -18 Y s 1623 191 m -37 Y s 1660 172 m -18 Y s 1696 172 m -18 Y s 1733 172 m -18 Y s 1769 172 m -18 Y s 1805 191 m -37 Y s 1842 172 m -18 Y s 1878 172 m -18 Y s 1915 172 m -18 Y s 1951 172 m -18 Y s 1988 191 m -37 Y s 347 191 m -37 Y s 311 172 m -18
 Y s 274 172 m -18 Y s 238 172 m -18 Y s 1988 191 m -37 Y s 2024 172 m -18 Y s
 gsave  2268 1538 0 0 C 296.497 97.7464 t 0 r /Helvetica-Bold findfont 58.6478 sf 0 0 m (400) show NC gr 
 gsave  2268 1538 0 0 C 478.957 97.7464 t 0 r /Helvetica-Bold findfont 58.6478 sf 0 0 m (450) show NC gr 
 gsave  2268 1538 0 0 C 661.417 97.7464 t 0 r /Helvetica-Bold findfont 58.6478 sf 0 0 m (500) show NC gr 
 gsave  2268 1538 0 0 C 843.877 97.7464 t 0 r /Helvetica-Bold findfont 58.6478 sf 0 0 m (550) show NC gr 
 gsave  2268 1538 0 0 C 1026.34 97.7464 t 0 r /Helvetica-Bold findfont 58.6478 sf 0 0 m (600) show NC gr 
 gsave  2268 1538 0 0 C 1208.8 97.7464 t 0 r /Helvetica-Bold findfont 58.6478 sf 0 0 m (650) show NC gr 
 gsave  2268 1538 0 0 C 1391.26 97.7464 t 0 r /Helvetica-Bold findfont 58.6478 sf 0 0 m (700) show NC gr 
 gsave  2268 1538 0 0 C 1573.72 97.7464 t 0 r /Helvetica-Bold findfont 58.6478 sf 0 0 m (750) show NC gr 
 gsave  2268 1538 0 0 C 1756.18 97.7464 t 0 r /Helvetica-Bold findfont 58.6478 sf 0 0 m (800) show NC gr 
 gsave  2268 1538 0 0 C 1938.64 97.7464 t 0 r /Helvetica-Bold findfont 58.6478 sf 0 0 m (850) show NC gr  227 1384 m 1814 X s 347 1347 m 37 Y s 384 1366 m 18 Y s 420 1366 m 18 Y s 456 1366 m 18 Y s 493 1366 m 18 Y s 529 1347 m 37 Y s 566 1366 m 18 Y
 s 602 1366 m 18 Y s 639 1366 m 18 Y s 675 1366 m 18 Y s 712 1347 m 37 Y s 748 1366 m 18 Y s 785 1366 m 18 Y s 821 1366 m 18 Y s 858 1366 m 18 Y s 894 1347 m 37 Y s 930 1366 m 18 Y s 967 1366 m 18 Y s 1003 1366 m 18 Y s 1040 1366 m 18 Y s 1076 1347 m
 37 Y s 1113 1366 m 18 Y s 1149 1366 m 18 Y s 1186 1366 m 18 Y s 1222 1366 m 18 Y s 1259 1347 m 37 Y s 1295 1366 m 18 Y s 1332 1366 m 18 Y s 1368 1366 m 18 Y s 1404 1366 m 18 Y s 1441 1347 m 37 Y s 1477 1366 m 18 Y s 1514 1366 m 18 Y s 1550 1366 m 18
 Y s 1587 1366 m 18 Y s 1623 1347 m 37 Y s 1660 1366 m 18 Y s 1696 1366 m 18 Y s 1733 1366 m 18 Y s 1769 1366 m 18 Y s 1805 1347 m 37 Y s 1842 1366 m 18 Y s 1878 1366 m 18 Y s 1915 1366 m 18 Y s 1951 1366 m 18 Y s 1988 1347 m 37 Y s 347 1347 m 37 Y s
 311 1366 m 18 Y s 274 1366 m 18 Y s 238 1366 m 18 Y s 1988 1347 m 37 Y s 2024 1366 m 18 Y s 227 154 m 1230 Y s
 gsave  2268 1538 0 0 C 97.7464 772.197 t 90 r /Helvetica-Bold findfont 58.6478 sf 0 0 m (Occupancy in percent) show NC gr  281 195 m -54 X s 254 226 m -27 X s 254 257 m -27 X s 254 288 m -27 X s 254 320 m -27 X s 281 351 m -54 X s 254 382 m -27 X s
 254 413 m -27 X s 254 444 m -27 X s 254 475 m -27 X s 281 507 m -54 X s 254 538 m -27 X s 254 569 m -27 X s 254 600 m -27 X s 254 631 m -27 X s 281 662 m -54 X s 254 694 m -27 X s 254 725 m -27 X s 254 756 m -27 X s 254 787 m -27 X s 281 818 m -54 X
 s 254 849 m -27 X s 254 881 m -27 X s 254 912 m -27 X s 254 943 m -27 X s 281 974 m -54 X s 254 1005 m -27 X s 254 1036 m -27 X s 254 1068 m -27 X s 254 1099 m -27 X s 281 1130 m -54 X s 254 1161 m -27 X s 254 1192 m -27 X s 254 1224 m -27 X s 254
 1255 m -27 X s 281 1286 m -54 X s 281 195 m -54 X s 254 164 m -27 X s 281 1286 m -54 X s 254 1317 m -27 X s 254 1348 m -27 X s 254 1379 m -27 X s
 gsave  2268 1538 0 0 C 133.587 172.685 t 0 r /Helvetica-Bold findfont 58.6478 sf 0 0 m (0.5) show NC gr 
 gsave  2268 1538 0 0 C 192.235 329.08 t 0 r /Helvetica-Bold findfont 58.6478 sf 0 0 m (1) show NC gr 
 gsave  2268 1538 0 0 C 133.587 485.474 t 0 r /Helvetica-Bold findfont 58.6478 sf 0 0 m (1.5) show NC gr 
 gsave  2268 1538 0 0 C 182.46 638.61 t 0 r /Helvetica-Bold findfont 58.6478 sf 0 0 m (2) show NC gr 
 gsave  2268 1538 0 0 C 133.587 798.262 t 0 r /Helvetica-Bold findfont 58.6478 sf 0 0 m (2.5) show NC gr 
 gsave  2268 1538 0 0 C 182.46 951.398 t 0 r /Helvetica-Bold findfont 58.6478 sf 0 0 m (3) show NC gr 
 gsave  2268 1538 0 0 C 133.587 1107.79 t 0 r /Helvetica-Bold findfont 58.6478 sf 0 0 m (3.5) show NC gr 
 gsave  2268 1538 0 0 C 182.46 1264.19 t 0 r /Helvetica-Bold findfont 58.6478 sf 0 0 m (4) show NC gr  2041 154 m 1230 Y s 1987 195 m 54 X s 2014 226 m 27 X s 2014 257 m 27 X s 2014 288 m 27 X s 2014 320 m 27 X s 1987 351 m 54 X s 2014 382 m 27 X s
 2014 413 m 27 X s 2014 444 m 27 X s 2014 475 m 27 X s 1987 507 m 54 X s 2014 538 m 27 X s 2014 569 m 27 X s 2014 600 m 27 X s 2014 631 m 27 X s 1987 662 m 54 X s 2014 694 m 27 X s 2014 725 m 27 X s 2014 756 m 27 X s 2014 787 m 27 X s 1987 818 m 54 X
 s 2014 849 m 27 X s 2014 881 m 27 X s 2014 912 m 27 X s 2014 943 m 27 X s 1987 974 m 54 X s 2014 1005 m 27 X s 2014 1036 m 27 X s 2014 1068 m 27 X s 2014 1099 m 27 X s 1987 1130 m 54 X s 2014 1161 m 27 X s 2014 1192 m 27 X s 2014 1224 m 27 X s 2014
 1255 m 27 X s 1987 1286 m 54 X s 1987 195 m 54 X s 2014 164 m 27 X s 1987 1286 m 54 X s 2014 1317 m 27 X s 2014 1348 m 27 X s 2014 1379 m 27 X s 310 217 m 40 136 d 51 8 d 48 -82 d 44 -31 d 46 31 d 48 -19 d 57 76 d 82 164 d 78 -160 d 72 -133 d 78 12
 d 102 40 d 114 17 d 166 146 d 213 -29 d 211 -54 d 198 -43 d s /w 26 def /w2 {w 2 div} def /w3 {w 3 div} def 310 217 350 353 401 361 449 279 493 248 539 279 587 260 644 336 726 500 804 340 876 207 954 219 1056 259 1170 276 1336 422 1549 393 1760 339
 1958 296 18 { m20} R 1 0 0 c black 1 0 0 c 310 240 m 40 101 d 51 28 d 48 -67 d 44 -48 d 46 85 d 48 -30 d 57 54 d 83 82 d 77 -67 d 73 -157 d 77 -20 d 102 78 d 114 10 d 166 168 d 213 -95 d 211 6 d 198 -36 d s 310 240 350 341 401 369 449 302 493 254
 539 339 587 309 644 363 727 445 804 378 877 221 954 201 1056 279 1170 289 1336 457 1549 362 1760 368 1958 332 18 { m20} R 0 1 0 c black 0 1 0 c 309 217 m 41 131 d 51 -18 d 48 -5 d 44 14 d 46 -35 d 48 -19 d 57 110 d 82 84 d 78 -87 d 73 -177 d 78 -20
 d 101 58 d 114 14 d 166 206 d 213 -59 d 211 -53 d 198 14 d s 309 217 350 348 401 330 449 325 493 339 539 304 587 285 644 395 726 479 804 392 877 215 955 195 1056 253 1170 267 1336 473 1549 414 1760 361 1958 375 18 { m20} R 0 0 1 c black 0 0 1 c 309
 253 m 41 105 d 51 6 d 48 -77 d 44 16 d 46 5 d 48 13 d 57 62 d 82 129 d 78 -166 d 73 -110 d 78 -23 d 101 84 d 114 -38 d 166 202 d 213 -52 d 211 -51 d 198 -21 d s 309 253 350 358 401 364 449 287 493 303 539 308 587 321 644 383 726 512 804 346 877 236
 955 213 1056 297 1170 259 1336 461 1549 409 1760 358 1958 337 18 { m20} R 1 1 0 c black 1 1 0 c 310 260 m 40 128 d 51 15 d 48 -92 d 44 -7 d 46 31 d 48 -28 d 56 122 d 83 98 d 78 -185 d 72 -137 d 78 -8 d 102 111 d 114 -16 d 166 165 d 213 6 d 211 -92 d
 198 -14 d s 310 260 350 388 401 403 449 311 493 304 539 335 587 307 643 429 726 527 804 342 876 205 954 197 1056 308 1170 292 1336 457 1549 463 1760 371 1958 357 18 { m20} R 1 0 1 c black 1 0 1 c 310 254 m 40 181 d 51 -23 d 48 -71 d 44 -19 d 46 26 d
 48 -10 d 56 85 d 83 122 d 78 -146 d 73 -152 d 78 -22 d 101 59 d 114 X 166 195 d 213 -13 d 211 -96 d 198 -19 d s 310 254 350 435 401 412 449 341 493 322 539 348 587 338 643 423 726 545 804 399 877 247 955 225 1056 284 1170 284 1336 479 1549 466 1760
 370 1958 351 18 { m20} R black[ 12 12] 0 sd 309 489 m 41 245 d 51 20 d 48 -207 d 44 127 d 46 -98 d 48 3 d 57 234 d 83 198 d 77 -293 d 73 -308 d 77 -29 d 102 125 d 114 33 d 166 365 d 213 -116 d 211 -58 d 198 -99 d s[  ] 0 sd 309 489 350 734 401 754
 449 547 493 674 539 576 587 579 644 813 727 1011 804 718 877 410 954 381 1056 506 1170 539 1336 904 1549 788 1760 730 1958 631 18 { m21} R[ 12 12] 0 sd 1 0 0 c black 1 0 0 c 309 195 m 41 208 d 51 -42 d 48 -63 d 44 36 d 46 -51 d 48 48 d 57 54 d 82
 110 d 78 -117 d 72 -182 d 78 17 d 102 32 d 114 7 d 166 178 d 213 -17 d 211 -61 d 198 -21 d s[  ] 0 sd 309 195 350 403 401 361 449 298 493 334 539 283 587 331 644 385 726 495 804 378 876 196 954 213 1056 245 1170 252 1336 430 1549 413 1760 352 1958
 331 18 { m21} R[ 12 12] 0 sd 0 1 0 c black 0 1 0 c 309 201 m 41 117 d 51 26 d 48 -60 d 44 7 d 46 3 d 47 6 d 58 78 d 82 67 d 79 -123 d 71 -107 d 78 -19 d 102 85 d 114 -34 d 166 182 d 213 -46 d 211 -41 d 198 -2 d s[  ] 0 sd 309 201 350 318 401 344 449
 284 493 291 539 294 586 300 644 378 726 445 805 322 876 215 954 196 1056 281 1170 247 1336 429 1549 383 1760 342 1958 340 18 { m21} R[ 12 12] 0 sd 0 0 1 c black 0 0 1 c 310 227 m 40 127 d 51 -17 d 48 -26 d 44 -21 d 46 9 d 48 10 d 57 47 d 82 102 d 78
 -111 d 72 -128 d 78 7 d 102 72 d 114 -23 d 166 164 d 213 -30 d 211 -36 d 198 -53 d s[  ] 0 sd 310 227 350 354 401 337 449 311 493 290 539 299 587 309 644 356 726 458 804 347 876 219 954 226 1056 298 1170 275 1336 439 1549 409 1760 373 1958 320 18 {
 m21} R[ 12 12] 0 sd 1 1 0 c black 1 1 0 c 310 241 m 40 152 d 51 13 d 48 -90 d 44 23 d 46 -18 d 48 2 d 57 83 d 83 144 d 77 -168 d 72 -165 d 78 12 d 102 60 d 114 -15 d 166 183 d 213 -40 d 211 -25 d 198 -51 d s[  ] 0 sd 310 241 350 393 401 406 449 316
 493 339 539 321 587 323 644 406 727 550 804 382 876 217 954 229 1056 289 1170 274 1336 457 1549 417 1760 392 1958 341 18 { m21} R[ 12 12] 0 sd 1 0 1 c black 1 0 1 c 309 249 m 41 136 d 51 -21 d 48 -29 d 44 10 d 46 -7 d 48 7 d 56 67 d 84 103 d 77 -95
 d 72 -193 d 78 4 d 102 58 d 114 -12 d 166 143 d 213 -28 d 211 6 d 198 -35 d s[  ] 0 sd 309 249 350 385 401 364 449 335 493 345 539 338 587 345 643 412 727 515 804 420 876 227 954 231 1056 289 1170 277 1336 420 1549 392 1760 398 1958 363 18 { m21} R[
 12 12] 0 sd black
 gsave  2268 1538 0 0 C 325.821 1300.03 t 0 r /Helvetica-Bold findfont 58.6478 sf 0 0 m (Sct Disk \(left\)) show NC gr 
 gsave  2268 1538 0 0 C 430.084 1244.64 t 0 r /Helvetica-Bold findfont 58.6478 sf 0 0 m (Disk 0) show NC gr [  ] 0 sd 334 1256 m 80 X s 374 1256 m20
 gsave  2268 1538 0 0 C 430.084 1189.25 t 0 r /Helvetica-Bold findfont 58.6478 sf 0 0 m (Disk 1) show NC gr  1 0 0 c 334 1201 m 80 X s 374 1201 m20 black
 gsave  2268 1538 0 0 C 430.084 1133.86 t 0 r /Helvetica-Bold findfont 58.6478 sf 0 0 m (Disk 2) show NC gr  0 1 0 c 334 1146 m 80 X s 374 1146 m20 black
 gsave  2268 1538 0 0 C 430.084 1078.47 t 0 r /Helvetica-Bold findfont 58.6478 sf 0 0 m (Disk 3) show NC gr  0 0 1 c 334 1091 m 80 X s 374 1091 m20 black
 gsave  2268 1538 0 0 C 430.084 1026.34 t 0 r /Helvetica-Bold findfont 58.6478 sf 0 0 m (Disk 4) show NC gr  1 1 0 c 334 1036 m 80 X s 374 1036 m20 black
 gsave  2268 1538 0 0 C 430.084 970.948 t 0 r /Helvetica-Bold findfont 58.6478 sf 0 0 m (Disk 5) show NC gr  1 0 1 c 334 981 m 80 X s 374 981 m20 black
 gsave  2268 1538 0 0 C 622.319 1300.03 t 0 r /Helvetica-Bold findfont 58.6478 sf 0 0 m (  \(right\)) show NC gr 
 gsave  2268 1538 0 0 C 723.323 1244.64 t 0 r /Helvetica-Bold findfont 58.6478 sf 0 0 m (Disk 0) show NC gr [ 12 12] 0 sd 629 1256 m 80 X s[  ] 0 sd 669 1256 m21[ 12 12] 0 sd
 gsave  2268 1538 0 0 C 723.323 1189.25 t 0 r /Helvetica-Bold findfont 58.6478 sf 0 0 m (Disk 1) show NC gr  1 0 0 c 629 1201 m 80 X s[  ] 0 sd 669 1201 m21[ 12 12] 0 sd black
 gsave  2268 1538 0 0 C 723.323 1133.86 t 0 r /Helvetica-Bold findfont 58.6478 sf 0 0 m (Disk 2) show NC gr  0 1 0 c 629 1146 m 80 X s[  ] 0 sd 669 1146 m21[ 12 12] 0 sd black
 gsave  2268 1538 0 0 C 723.323 1078.47 t 0 r /Helvetica-Bold findfont 58.6478 sf 0 0 m (Disk 3) show NC gr  0 0 1 c 629 1091 m 80 X s[  ] 0 sd 669 1091 m21[ 12 12] 0 sd black
 gsave  2268 1538 0 0 C 723.323 1026.34 t 0 r /Helvetica-Bold findfont 58.6478 sf 0 0 m (Disk 4) show NC gr  1 1 0 c 629 1036 m 80 X s[  ] 0 sd 669 1036 m21[ 12 12] 0 sd black
 gsave  2268 1538 0 0 C 723.323 970.948 t 0 r /Helvetica-Bold findfont 58.6478 sf 0 0 m (Disk 5) show NC gr  1 0 1 c 629 981 m 80 X s[  ] 0 sd 669 981 m21[ 12 12] 0 sd
 gr  gr showpage
end
%%EOF
