%!PS-Adobe-2.0 EPSF-2.0
%%BoundingBox:  0 0 567 384
%%Title: d3pdDirr/sct_occupancy/occ_sctlayer_mg.eps: c1_n21
%%Creator: ROOT Version 6.04/12
%%CreationDate: Tue Apr 26 00:12:43 2016
%%DocumentNeededResources: ProcSet (FontSetInit)
%%EndComments
%%BeginProlog
80 dict begin
/s {stroke} def /l {lineto} def /m {moveto} def /t {translate} def
/r {rotate} def /rl {roll}  def /R {repeat} def
/d {rlineto} def /rm {rmoveto} def /gr {grestore} def /f {eofill} def
/c {setrgbcolor} def /black {0 setgray} def /sd {setdash} def
/cl {closepath} def /sf {scalefont setfont} def /lw {setlinewidth} def
/box {m dup 0 exch d exch 0 d 0 exch neg d cl} def
/NC{systemdict begin initclip end}def/C{NC box clip newpath}def
/bl {box s} def /bf {gsave box gsave f grestore 1 lw [] 0 sd s grestore} def /Y { 0 exch d} def /X { 0 d} def 
/K {{pop pop 0 moveto} exch kshow} bind def
/ita {/ang 15 def gsave [1 0 ang dup sin exch cos div 1 0 0] concat} def 
/mp {newpath /y exch def /x exch def} def
/side {[w .77 mul w .23 mul] .385 w mul sd w 0 l currentpoint t -144 r} def
/mr {mp x y w2 0 360 arc} def /m24 {mr s} def /m20 {mr f} def
/mb {mp x y w2 add m w2 neg 0 d 0 w neg d w 0 d 0 w d cl} def
/mt {mp x y w2 add m w2 neg w neg d w 0 d cl} def
/m21 {mb f} def /m25 {mb s} def /m22 {mt f} def /m26{mt s} def
/m23 {mp x y w2 sub m w2 w d w neg 0 d cl f} def
/m27 {mp x y w2 add m w3 neg w2 neg d w3 w2 neg d w3 w2 d cl s} def
/m28 {mp x w2 sub y w2 sub w3 add m w3 0 d  0 w3 neg d w3 0 d 0 w3 d w3 0 d  0 w3 d w3 neg 0 d 0 w3 d w3 neg 0 d 0 w3 neg d w3 neg 0 d cl s } def
/m29 {mp gsave x w2 sub y w2 add w3 sub m currentpoint t 4 {side} repeat cl fill gr} def
/m30 {mp gsave x w2 sub y w2 add w3 sub m currentpoint t 4 {side} repeat cl s gr} def
/m31 {mp x y w2 sub m 0 w d x w2 sub y m w 0 d x w2 sub y w2 add m w w neg d x w2 sub y w2 sub m w w d s} def
/m32 {mp x y w2 sub m w2 w d w neg 0 d cl s} def
/m33 {mp x y w2 add m w3 neg w2 neg d w3 w2 neg d w3 w2 d cl f} def
/m34 {mp x w2 sub y w2 sub w3 add m w3 0 d  0 w3 neg d w3 0 d 0 w3 d w3 0 d  0 w3 d w3 neg 0 d 0 w3 d w3 neg 0 d 0 w3 neg d w3 neg 0 d cl f } def
/m2 {mp x y w2 sub m 0 w d x w2 sub y m w 0 d s} def
/m5 {mp x w2 sub y w2 sub m w w d x w2 sub y w2 add m w w neg d s} def
%%IncludeResource: ProcSet (FontSetInit)
%%IncludeResource: font Times-Roman
%%IncludeResource: font Times-Italic
%%IncludeResource: font Times-Bold
%%IncludeResource: font Times-BoldItalic
%%IncludeResource: font Helvetica
%%IncludeResource: font Helvetica-Oblique
%%IncludeResource: font Helvetica-Bold
%%IncludeResource: font Helvetica-BoldOblique
%%IncludeResource: font Courier
%%IncludeResource: font Courier-Oblique
%%IncludeResource: font Courier-Bold
%%IncludeResource: font Courier-BoldOblique
%%IncludeResource: font Symbol
%%IncludeResource: font ZapfDingbats
/reEncode {exch findfont dup length dict begin {1 index /FID eq  {pop pop} {def} ifelse } forall /Encoding exch def currentdict end dup /FontName get exch definefont pop } def [/Times-Bold /Times-Italic /Times-BoldItalic /Helvetica /Helvetica-Oblique
 /Helvetica-Bold /Helvetica-BoldOblique /Courier /Courier-Oblique /Courier-Bold /Courier-BoldOblique /Times-Roman /AvantGarde-Book /AvantGarde-BookOblique /AvantGarde-Demi /AvantGarde-DemiOblique /Bookman-Demi /Bookman-DemiItalic /Bookman-Light
 /Bookman-LightItalic /Helvetica-Narrow /Helvetica-Narrow-Bold /Helvetica-Narrow-BoldOblique /Helvetica-Narrow-Oblique /NewCenturySchlbk-Roman /NewCenturySchlbk-Bold /NewCenturySchlbk-BoldItalic /NewCenturySchlbk-Italic /Palatino-Bold
 /Palatino-BoldItalic /Palatino-Italic /Palatino-Roman ] {ISOLatin1Encoding reEncode } forall
%%EndProlog
%%BeginSetup
%%EndSetup
newpath  gsave  .25 .25 scale  gsave  0 0 t black[  ] 0 sd 3 lw 1 1 1 c 2268 1538 0 0 bf black 1 1 1 c 1814 1230 227 154 bf black 1814 1230 227 154 bl 1 1 1 c 1814 1230 227 154 bf black 1814 1230 227 154 bl 227 154 m 1814 X s
 gsave  2268 1538 0 0 C 1772.47 32.5821 t 0 r /Helvetica-Bold findfont 58.6478 sf 0 0 m (moduleID) show NC gr  250 191 m -37 Y s 309 172 m -18 Y s 368 172 m -18 Y s 427 172 m -18 Y s 486 172 m -18 Y s 545 191 m -37 Y s 604 172 m -18 Y s 663 172 m -18
 Y s 722 172 m -18 Y s 780 172 m -18 Y s 839 191 m -37 Y s 898 172 m -18 Y s 957 172 m -18 Y s 1016 172 m -18 Y s 1075 172 m -18 Y s 1134 191 m -37 Y s 1193 172 m -18 Y s 1252 172 m -18 Y s 1311 172 m -18 Y s 1369 172 m -18 Y s 1428 191 m -37 Y s
 1487 172 m -18 Y s 1546 172 m -18 Y s 1605 172 m -18 Y s 1664 172 m -18 Y s 1723 191 m -37 Y s 1782 172 m -18 Y s 1841 172 m -18 Y s 1900 172 m -18 Y s 1958 172 m -18 Y s 2017 191 m -37 Y s 250 191 m -37 Y s 2017 191 m -37 Y s
 gsave  2268 1538 0 0 C 228.075 97.7464 t 0 r /Helvetica-Bold findfont 58.6478 sf 0 0 m (30) show NC gr 
 gsave  2268 1538 0 0 C 198.751 97.7464 t 0 r /Symbol findfont 58.6478 sf 0 0 m (-) show NC gr 
 gsave  2268 1538 0 0 C 524.572 97.7464 t 0 r /Helvetica-Bold findfont 58.6478 sf 0 0 m (20) show NC gr 
 gsave  2268 1538 0 0 C 495.248 97.7464 t 0 r /Symbol findfont 58.6478 sf 0 0 m (-) show NC gr 
 gsave  2268 1538 0 0 C 817.812 97.7464 t 0 r /Helvetica-Bold findfont 58.6478 sf 0 0 m (10) show NC gr 
 gsave  2268 1538 0 0 C 788.488 97.7464 t 0 r /Symbol findfont 58.6478 sf 0 0 m (-) show NC gr 
 gsave  2268 1538 0 0 C 1117.57 97.7464 t 0 r /Helvetica-Bold findfont 58.6478 sf 0 0 m (0) show NC gr 
 gsave  2268 1538 0 0 C 1394.52 97.7464 t 0 r /Helvetica-Bold findfont 58.6478 sf 0 0 m (10) show NC gr 
 gsave  2268 1538 0 0 C 1687.75 97.7464 t 0 r /Helvetica-Bold findfont 58.6478 sf 0 0 m (20) show NC gr 
 gsave  2268 1538 0 0 C 1984.25 97.7464 t 0 r /Helvetica-Bold findfont 58.6478 sf 0 0 m (30) show NC gr  227 1384 m 1814 X s 250 1347 m 37 Y s 309 1366 m 18 Y s 368 1366 m 18 Y s 427 1366 m 18 Y s 486 1366 m 18 Y s 545 1347 m 37 Y s 604 1366 m 18 Y s
 663 1366 m 18 Y s 722 1366 m 18 Y s 780 1366 m 18 Y s 839 1347 m 37 Y s 898 1366 m 18 Y s 957 1366 m 18 Y s 1016 1366 m 18 Y s 1075 1366 m 18 Y s 1134 1347 m 37 Y s 1193 1366 m 18 Y s 1252 1366 m 18 Y s 1311 1366 m 18 Y s 1369 1366 m 18 Y s 1428
 1347 m 37 Y s 1487 1366 m 18 Y s 1546 1366 m 18 Y s 1605 1366 m 18 Y s 1664 1366 m 18 Y s 1723 1347 m 37 Y s 1782 1366 m 18 Y s 1841 1366 m 18 Y s 1900 1366 m 18 Y s 1958 1366 m 18 Y s 2017 1347 m 37 Y s 250 1347 m 37 Y s 2017 1347 m 37 Y s 227 154
 m 1230 Y s
 gsave  2268 1538 0 0 C 97.7464 772.197 t 90 r /Helvetica-Bold findfont 58.6478 sf 0 0 m (Occupancy in percent) show NC gr  281 154 m -54 X s 254 198 m -27 X s 254 243 m -27 X s 254 288 m -27 X s 254 332 m -27 X s 281 377 m -54 X s 254 422 m -27 X s
 254 466 m -27 X s 254 511 m -27 X s 254 556 m -27 X s 281 600 m -54 X s 254 645 m -27 X s 254 689 m -27 X s 254 734 m -27 X s 254 779 m -27 X s 281 823 m -54 X s 254 868 m -27 X s 254 913 m -27 X s 254 957 m -27 X s 254 1002 m -27 X s 281 1047 m -54
 X s 254 1091 m -27 X s 254 1136 m -27 X s 254 1180 m -27 X s 254 1225 m -27 X s 281 1270 m -54 X s 281 1270 m -54 X s 254 1314 m -27 X s 254 1359 m -27 X s
 gsave  2268 1538 0 0 C 182.46 133.587 t 0 r /Helvetica-Bold findfont 58.6478 sf 0 0 m (0) show NC gr 
 gsave  2268 1538 0 0 C 133.587 355.145 t 0 r /Helvetica-Bold findfont 58.6478 sf 0 0 m (0.5) show NC gr 
 gsave  2268 1538 0 0 C 192.235 579.962 t 0 r /Helvetica-Bold findfont 58.6478 sf 0 0 m (1) show NC gr 
 gsave  2268 1538 0 0 C 133.587 801.521 t 0 r /Helvetica-Bold findfont 58.6478 sf 0 0 m (1.5) show NC gr 
 gsave  2268 1538 0 0 C 182.46 1023.08 t 0 r /Helvetica-Bold findfont 58.6478 sf 0 0 m (2) show NC gr 
 gsave  2268 1538 0 0 C 133.587 1247.9 t 0 r /Helvetica-Bold findfont 58.6478 sf 0 0 m (2.5) show NC gr  2041 154 m 1230 Y s 1987 154 m 54 X s 2014 198 m 27 X s 2014 243 m 27 X s 2014 288 m 27 X s 2014 332 m 27 X s 1987 377 m 54 X s 2014 422 m 27 X s
 2014 466 m 27 X s 2014 511 m 27 X s 2014 556 m 27 X s 1987 600 m 54 X s 2014 645 m 27 X s 2014 689 m 27 X s 2014 734 m 27 X s 2014 779 m 27 X s 1987 823 m 54 X s 2014 868 m 27 X s 2014 913 m 27 X s 2014 957 m 27 X s 2014 1002 m 27 X s 1987 1047 m 54
 X s 2014 1091 m 27 X s 2014 1136 m 27 X s 2014 1180 m 27 X s 2014 1225 m 27 X s 1987 1270 m 54 X s 1987 1270 m 54 X s 2014 1314 m 27 X s 2014 1359 m 27 X s 309 904 m 30 -59 d 29 56 d 30 44 d 29 -77 d 29 -20 d 30 27 d 29 -97 d 30 31 d 29 118 d 30 18
 d 29 -32 d 30 -39 d 29 19 d 30 5 d 29 11 d 29 -5 d 30 -98 d 29 -19 d 30 178 d 29 -68 d 30 15 d 29 34 d 30 -62 d 29 21 d 30 -129 d 29 -56 d 29 63 d 59 71 d 30 53 d 29 -19 d 30 -146 d 29 241 d 30 -57 d 29 5 d 29 -133 d 30 227 d 29 -138 d 30 -2 d 29
 -33 d 30 32 d 29 -21 d 30 108 d 29 36 d 30 -124 d 29 -33 d 29 2 d 30 -74 d 29 106 d 30 181 d 29 -191 d 30 -30 d 29 -63 d 30 142 d 29 -107 d 29 X s /w 26 def /w2 {w 2 div} def /w3 {w 3 div} def 309 904 339 845 368 901 398 945 427 868 456 848 486 875
 515 778 545 809 574 927 604 945 633 913 663 874 692 893 722 898 751 909 780 904 810 806 839 787 869 965 898 897 928 912 957 946 987 884 1016 905 1046 776 1075 720 1104 783 1163 854 1193 907 1222 888 1252 742 1281 983 1311 926 1340 931 1369 798 1399
 1025 1428 887 1458 885 1487 852 1517 884 1546 863 1576 971 1605 1007 1635 883 1664 850 1693 852 1723 778 1752 884 1782 1065 1811 874 1841 844 1870 781 1900 923 1929 816 1958 816 56 { m20} R 1 0 0 c black 1 0 0 c 309 495 m 30 87 d 29 -27 d 30 29 d 29
 -98 d 29 52 d 30 -23 d 29 68 d 30 X 29 -32 d 30 3 d 29 32 d 30 -5 d 29 75 d 30 -64 d 29 -34 d 29 -30 d 30 116 d 29 -66 d 30 -3 d 29 -59 d 30 59 d 29 -123 d 30 51 d 29 33 d 30 193 d 29 -139 d 29 -46 d 59 -18 d 30 128 d 29 -69 d 30 -43 d 29 50 d 30 1
 d 29 -69 d 29 127 d 30 -70 d 29 -7 d 30 -18 d 29 -52 d 30 77 d 29 -29 d 30 -29 d 29 43 d 30 59 d 29 -30 d 29 -20 d 30 8 d 29 36 d 30 13 d 29 90 d 30 -96 d 29 -30 d 30 -70 d 29 38 d 29 37 d s 309 495 339 582 368 555 398 584 427 486 456 538 486 515
 515 583 545 583 574 551 604 554 633 586 663 581 692 656 722 592 751 558 780 528 810 644 839 578 869 575 898 516 928 575 957 452 987 503 1016 536 1046 729 1075 590 1104 544 1163 526 1193 654 1222 585 1252 542 1281 592 1311 593 1340 524 1369 651 1399
 581 1428 574 1458 556 1487 504 1517 581 1546 552 1576 523 1605 566 1635 625 1664 595 1693 575 1723 583 1752 619 1782 632 1811 722 1841 626 1870 596 1900 526 1929 564 1958 601 56 { m20} R 0 1 0 c black 0 1 0 c 722 432 m 29 -5 d 29 -68 d 30 15 d 29 45
 d 30 -12 d 29 -26 d 30 -11 d 29 -18 d 30 46 d 29 -69 d 30 62 d 29 -20 d 29 9 d 59 3 d 30 -2 d 29 -5 d 30 15 d 29 44 d 30 -33 d 29 -20 d 29 54 d 30 -48 d 29 40 d 30 -28 d 29 -5 d 30 24 d 29 -10 d s 722 432 751 427 780 359 810 374 839 419 869 407 898
 381 928 370 957 352 987 398 1016 329 1046 391 1075 371 1104 380 1163 383 1193 381 1222 376 1252 391 1281 435 1311 402 1340 382 1369 436 1399 388 1428 428 1458 400 1487 395 1517 419 1546 409 28 { m20} R 0 0 1 c black 0 0 1 c 722 472 m 29 7 d 29 -19 d
 30 -5 d 29 2 d 30 34 d 29 -10 d 30 -43 d 29 23 d 30 11 d 29 -66 d 30 25 d 29 -14 d 29 10 d 59 36 d 30 16 d 29 -19 d 30 22 d 29 -45 d 30 -3 d 29 14 d 29 88 d 30 -80 d 29 27 d 30 -11 d 29 -47 d 30 27 d 29 37 d s 722 472 751 479 780 460 810 455 839 457
 869 491 898 481 928 438 957 461 987 472 1016 406 1046 431 1075 417 1104 427 1163 463 1193 479 1222 460 1252 482 1281 437 1311 434 1340 448 1369 536 1399 456 1428 483 1458 472 1487 425 1517 452 1546 489 28 { m20} R black
 gsave  2268 1538 0 0 C 1645.4 514.798 t 0 r /Helvetica-Bold findfont 58.6478 sf 0 0 m (SCT Barrel) show NC gr 
 gsave  2268 1538 0 0 C 1762.69 436.601 t 0 r /Helvetica-Bold findfont 58.6478 sf 0 0 m (Layer 0) show NC gr  1652 454 m 92 X s 1698 454 m20
 gsave  2268 1538 0 0 C 1762.69 361.662 t 0 r /Helvetica-Bold findfont 58.6478 sf 0 0 m (Layer 1) show NC gr  1 0 0 c 1652 377 m 92 X s 1698 377 m20 black
 gsave  2268 1538 0 0 C 1762.69 283.465 t 0 r /Helvetica-Bold findfont 58.6478 sf 0 0 m (Layer 2) show NC gr  0 1 0 c 1652 300 m 92 X s 1698 300 m20 black
 gsave  2268 1538 0 0 C 1762.69 208.526 t 0 r /Helvetica-Bold findfont 58.6478 sf 0 0 m (Layer 3) show NC gr  0 0 1 c 1652 223 m 92 X s 1698 223 m20
 gr  gr showpage
end
%%EOF
