%!PS-Adobe-2.0 EPSF-2.0
%%BoundingBox:  0 0 567 384
%%Title: d3pdDirr/sct_occupancy/occ_sctlayer_mgz.eps: c1_n22
%%Creator: ROOT Version 6.04/12
%%CreationDate: Tue Apr 26 00:12:43 2016
%%DocumentNeededResources: ProcSet (FontSetInit)
%%EndComments
%%BeginProlog
80 dict begin
/s {stroke} def /l {lineto} def /m {moveto} def /t {translate} def
/r {rotate} def /rl {roll}  def /R {repeat} def
/d {rlineto} def /rm {rmoveto} def /gr {grestore} def /f {eofill} def
/c {setrgbcolor} def /black {0 setgray} def /sd {setdash} def
/cl {closepath} def /sf {scalefont setfont} def /lw {setlinewidth} def
/box {m dup 0 exch d exch 0 d 0 exch neg d cl} def
/NC{systemdict begin initclip end}def/C{NC box clip newpath}def
/bl {box s} def /bf {gsave box gsave f grestore 1 lw [] 0 sd s grestore} def /Y { 0 exch d} def /X { 0 d} def 
/K {{pop pop 0 moveto} exch kshow} bind def
/ita {/ang 15 def gsave [1 0 ang dup sin exch cos div 1 0 0] concat} def 
/mp {newpath /y exch def /x exch def} def
/side {[w .77 mul w .23 mul] .385 w mul sd w 0 l currentpoint t -144 r} def
/mr {mp x y w2 0 360 arc} def /m24 {mr s} def /m20 {mr f} def
/mb {mp x y w2 add m w2 neg 0 d 0 w neg d w 0 d 0 w d cl} def
/mt {mp x y w2 add m w2 neg w neg d w 0 d cl} def
/m21 {mb f} def /m25 {mb s} def /m22 {mt f} def /m26{mt s} def
/m23 {mp x y w2 sub m w2 w d w neg 0 d cl f} def
/m27 {mp x y w2 add m w3 neg w2 neg d w3 w2 neg d w3 w2 d cl s} def
/m28 {mp x w2 sub y w2 sub w3 add m w3 0 d  0 w3 neg d w3 0 d 0 w3 d w3 0 d  0 w3 d w3 neg 0 d 0 w3 d w3 neg 0 d 0 w3 neg d w3 neg 0 d cl s } def
/m29 {mp gsave x w2 sub y w2 add w3 sub m currentpoint t 4 {side} repeat cl fill gr} def
/m30 {mp gsave x w2 sub y w2 add w3 sub m currentpoint t 4 {side} repeat cl s gr} def
/m31 {mp x y w2 sub m 0 w d x w2 sub y m w 0 d x w2 sub y w2 add m w w neg d x w2 sub y w2 sub m w w d s} def
/m32 {mp x y w2 sub m w2 w d w neg 0 d cl s} def
/m33 {mp x y w2 add m w3 neg w2 neg d w3 w2 neg d w3 w2 d cl f} def
/m34 {mp x w2 sub y w2 sub w3 add m w3 0 d  0 w3 neg d w3 0 d 0 w3 d w3 0 d  0 w3 d w3 neg 0 d 0 w3 d w3 neg 0 d 0 w3 neg d w3 neg 0 d cl f } def
/m2 {mp x y w2 sub m 0 w d x w2 sub y m w 0 d s} def
/m5 {mp x w2 sub y w2 sub m w w d x w2 sub y w2 add m w w neg d s} def
%%IncludeResource: ProcSet (FontSetInit)
%%IncludeResource: font Times-Roman
%%IncludeResource: font Times-Italic
%%IncludeResource: font Times-Bold
%%IncludeResource: font Times-BoldItalic
%%IncludeResource: font Helvetica
%%IncludeResource: font Helvetica-Oblique
%%IncludeResource: font Helvetica-Bold
%%IncludeResource: font Helvetica-BoldOblique
%%IncludeResource: font Courier
%%IncludeResource: font Courier-Oblique
%%IncludeResource: font Courier-Bold
%%IncludeResource: font Courier-BoldOblique
%%IncludeResource: font Symbol
%%IncludeResource: font ZapfDingbats
/reEncode {exch findfont dup length dict begin {1 index /FID eq  {pop pop} {def} ifelse } forall /Encoding exch def currentdict end dup /FontName get exch definefont pop } def [/Times-Bold /Times-Italic /Times-BoldItalic /Helvetica /Helvetica-Oblique
 /Helvetica-Bold /Helvetica-BoldOblique /Courier /Courier-Oblique /Courier-Bold /Courier-BoldOblique /Times-Roman /AvantGarde-Book /AvantGarde-BookOblique /AvantGarde-Demi /AvantGarde-DemiOblique /Bookman-Demi /Bookman-DemiItalic /Bookman-Light
 /Bookman-LightItalic /Helvetica-Narrow /Helvetica-Narrow-Bold /Helvetica-Narrow-BoldOblique /Helvetica-Narrow-Oblique /NewCenturySchlbk-Roman /NewCenturySchlbk-Bold /NewCenturySchlbk-BoldItalic /NewCenturySchlbk-Italic /Palatino-Bold
 /Palatino-BoldItalic /Palatino-Italic /Palatino-Roman ] {ISOLatin1Encoding reEncode } forall
%%EndProlog
%%BeginSetup
%%EndSetup
newpath  gsave  .25 .25 scale  gsave  0 0 t black[  ] 0 sd 3 lw 1 1 1 c 2268 1538 0 0 bf black 1 1 1 c 1814 1230 227 154 bf black 1814 1230 227 154 bl 1 1 1 c 1814 1230 227 154 bf black 1814 1230 227 154 bl 227 154 m 1814 X s
 gsave  2268 1538 0 0 C 1853.92 35.8403 t 0 r /Helvetica-Bold findfont 58.6478 sf 0 0 m (z [mm]) show NC gr  399 191 m -37 Y s 460 172 m -18 Y s 521 172 m -18 Y s 583 172 m -18 Y s 644 191 m -37 Y s 705 172 m -18 Y s 766 172 m -18 Y s 828 172 m -18 Y
 s 889 191 m -37 Y s 950 172 m -18 Y s 1011 172 m -18 Y s 1073 172 m -18 Y s 1134 191 m -37 Y s 1195 172 m -18 Y s 1256 172 m -18 Y s 1318 172 m -18 Y s 1379 191 m -37 Y s 1440 172 m -18 Y s 1501 172 m -18 Y s 1563 172 m -18 Y s 1624 191 m -37 Y s
 1685 172 m -18 Y s 1746 172 m -18 Y s 1808 172 m -18 Y s 1869 191 m -37 Y s 399 191 m -37 Y s 338 172 m -18 Y s 276 172 m -18 Y s 1869 191 m -37 Y s 1930 172 m -18 Y s 1991 172 m -18 Y s
 gsave  2268 1538 0 0 C 361.662 97.7464 t 0 r /Helvetica-Bold findfont 58.6478 sf 0 0 m (600) show NC gr 
 gsave  2268 1538 0 0 C 332.338 97.7464 t 0 r /Symbol findfont 58.6478 sf 0 0 m (-) show NC gr 
 gsave  2268 1538 0 0 C 606.028 97.7464 t 0 r /Helvetica-Bold findfont 58.6478 sf 0 0 m (400) show NC gr 
 gsave  2268 1538 0 0 C 576.704 97.7464 t 0 r /Symbol findfont 58.6478 sf 0 0 m (-) show NC gr 
 gsave  2268 1538 0 0 C 850.394 97.7464 t 0 r /Helvetica-Bold findfont 58.6478 sf 0 0 m (200) show NC gr 
 gsave  2268 1538 0 0 C 821.07 97.7464 t 0 r /Symbol findfont 58.6478 sf 0 0 m (-) show NC gr 
 gsave  2268 1538 0 0 C 1114.31 97.7464 t 0 r /Helvetica-Bold findfont 58.6478 sf 0 0 m (0) show NC gr 
 gsave  2268 1538 0 0 C 1329.35 97.7464 t 0 r /Helvetica-Bold findfont 58.6478 sf 0 0 m (200) show NC gr 
 gsave  2268 1538 0 0 C 1573.72 97.7464 t 0 r /Helvetica-Bold findfont 58.6478 sf 0 0 m (400) show NC gr 
 gsave  2268 1538 0 0 C 1818.08 97.7464 t 0 r /Helvetica-Bold findfont 58.6478 sf 0 0 m (600) show NC gr  227 1384 m 1814 X s 399 1347 m 37 Y s 460 1366 m 18 Y s 521 1366 m 18 Y s 583 1366 m 18 Y s 644 1347 m 37 Y s 705 1366 m 18 Y s 766 1366 m 18 Y
 s 828 1366 m 18 Y s 889 1347 m 37 Y s 950 1366 m 18 Y s 1011 1366 m 18 Y s 1073 1366 m 18 Y s 1134 1347 m 37 Y s 1195 1366 m 18 Y s 1256 1366 m 18 Y s 1318 1366 m 18 Y s 1379 1347 m 37 Y s 1440 1366 m 18 Y s 1501 1366 m 18 Y s 1563 1366 m 18 Y s
 1624 1347 m 37 Y s 1685 1366 m 18 Y s 1746 1366 m 18 Y s 1808 1366 m 18 Y s 1869 1347 m 37 Y s 399 1347 m 37 Y s 338 1366 m 18 Y s 276 1366 m 18 Y s 1869 1347 m 37 Y s 1930 1366 m 18 Y s 1991 1366 m 18 Y s 227 154 m 1230 Y s
 gsave  2268 1538 0 0 C 97.7464 772.197 t 90 r /Helvetica-Bold findfont 58.6478 sf 0 0 m (Occupancy in percent) show NC gr  281 154 m -54 X s 254 198 m -27 X s 254 243 m -27 X s 254 288 m -27 X s 254 332 m -27 X s 281 377 m -54 X s 254 422 m -27 X s
 254 466 m -27 X s 254 511 m -27 X s 254 556 m -27 X s 281 600 m -54 X s 254 645 m -27 X s 254 689 m -27 X s 254 734 m -27 X s 254 779 m -27 X s 281 823 m -54 X s 254 868 m -27 X s 254 913 m -27 X s 254 957 m -27 X s 254 1002 m -27 X s 281 1047 m -54
 X s 254 1091 m -27 X s 254 1136 m -27 X s 254 1180 m -27 X s 254 1225 m -27 X s 281 1270 m -54 X s 281 1270 m -54 X s 254 1314 m -27 X s 254 1359 m -27 X s
 gsave  2268 1538 0 0 C 182.46 133.587 t 0 r /Helvetica-Bold findfont 58.6478 sf 0 0 m (0) show NC gr 
 gsave  2268 1538 0 0 C 133.587 355.145 t 0 r /Helvetica-Bold findfont 58.6478 sf 0 0 m (0.5) show NC gr 
 gsave  2268 1538 0 0 C 192.235 579.962 t 0 r /Helvetica-Bold findfont 58.6478 sf 0 0 m (1) show NC gr 
 gsave  2268 1538 0 0 C 133.587 801.521 t 0 r /Helvetica-Bold findfont 58.6478 sf 0 0 m (1.5) show NC gr 
 gsave  2268 1538 0 0 C 182.46 1023.08 t 0 r /Helvetica-Bold findfont 58.6478 sf 0 0 m (2) show NC gr 
 gsave  2268 1538 0 0 C 133.587 1247.9 t 0 r /Helvetica-Bold findfont 58.6478 sf 0 0 m (2.5) show NC gr  2041 154 m 1230 Y s 1987 154 m 54 X s 2014 198 m 27 X s 2014 243 m 27 X s 2014 288 m 27 X s 2014 332 m 27 X s 1987 377 m 54 X s 2014 422 m 27 X s
 2014 466 m 27 X s 2014 511 m 27 X s 2014 556 m 27 X s 1987 600 m 54 X s 2014 645 m 27 X s 2014 689 m 27 X s 2014 734 m 27 X s 2014 779 m 27 X s 1987 823 m 54 X s 2014 868 m 27 X s 2014 913 m 27 X s 2014 957 m 27 X s 2014 1002 m 27 X s 1987 1047 m 54
 X s 2014 1091 m 27 X s 2014 1136 m 27 X s 2014 1180 m 27 X s 2014 1225 m 27 X s 1987 1270 m 54 X s 1987 1270 m 54 X s 2014 1314 m 27 X s 2014 1359 m 27 X s 309 904 m 30 -59 d 29 56 d 29 44 d 32 -77 d 30 -20 d 29 27 d 29 -97 d 32 31 d 30 118 d 29 18
 d 29 -32 d 33 -39 d 29 19 d 29 5 d 29 11 d 33 -5 d 29 -98 d 29 -19 d 29 178 d 33 -68 d 29 15 d 29 34 d 30 -62 d 32 21 d 29 -129 d 29 -56 d 30 63 d 32 71 d 29 53 d 30 -19 d 29 -146 d 32 241 d 29 -57 d 30 5 d 29 -133 d 32 227 d 29 -138 d 30 -2 d 29
 -33 d 32 32 d 29 -21 d 30 108 d 29 36 d 32 -124 d 30 -33 d 29 2 d 29 -74 d 33 106 d 29 181 d 29 -191 d 29 -30 d 33 -63 d 29 142 d 29 -107 d 29 X s /w 26 def /w2 {w 2 div} def /w3 {w 3 div} def 309 904 339 845 368 901 397 945 429 868 459 848 488 875
 517 778 549 809 579 927 608 945 637 913 670 874 699 893 728 898 757 909 790 904 819 806 848 787 877 965 910 897 939 912 968 946 998 884 1030 905 1059 776 1088 720 1118 783 1150 854 1179 907 1209 888 1238 742 1270 983 1299 926 1329 931 1358 798 1390
 1025 1419 887 1449 885 1478 852 1510 884 1539 863 1569 971 1598 1007 1630 883 1660 850 1689 852 1718 778 1751 884 1780 1065 1809 874 1838 844 1871 781 1900 923 1929 816 1958 816 56 { m20} R 1 0 0 c black 1 0 0 c 309 495 m 30 87 d 29 -27 d 29 29 d 32
 -98 d 30 52 d 29 -23 d 29 68 d 32 X 30 -32 d 29 3 d 29 32 d 33 -5 d 29 75 d 29 -64 d 29 -34 d 33 -30 d 29 116 d 29 -66 d 30 -3 d 32 -59 d 29 59 d 29 -123 d 30 51 d 32 33 d 29 193 d 29 -139 d 30 -46 d 32 -18 d 29 128 d 30 -69 d 29 -43 d 32 50 d 29 1
 d 30 -69 d 29 127 d 32 -70 d 29 -7 d 30 -18 d 29 -52 d 32 77 d 29 -29 d 30 -29 d 29 43 d 32 59 d 30 -30 d 29 -20 d 29 8 d 32 36 d 30 13 d 29 90 d 29 -96 d 32 -30 d 30 -70 d 29 38 d 29 37 d s 309 495 339 582 368 555 397 584 429 486 459 538 488 515
 517 583 549 583 579 551 608 554 637 586 670 581 699 656 728 592 757 558 790 528 819 644 848 578 878 575 910 516 939 575 968 452 998 503 1030 536 1059 729 1088 590 1118 544 1150 526 1179 654 1209 585 1238 542 1270 592 1299 593 1329 524 1358 651 1390
 581 1419 574 1449 556 1478 504 1510 581 1539 552 1569 523 1598 566 1630 625 1660 595 1689 575 1718 583 1750 619 1780 632 1809 722 1838 626 1870 596 1900 526 1929 564 1958 601 56 { m20} R 0 1 0 c black 0 1 0 c 728 432 m 29 -5 d 33 -68 d 29 15 d 29 45
 d 29 -12 d 33 -26 d 29 -11 d 29 -18 d 30 46 d 32 -69 d 29 62 d 29 -20 d 30 9 d 32 3 d 29 -2 d 29 -5 d 30 15 d 32 44 d 29 -33 d 30 -20 d 29 54 d 32 -48 d 30 40 d 29 -28 d 29 -5 d 32 24 d 30 -10 d s 728 432 757 427 790 359 819 374 848 419 877 407 910
 381 939 370 968 352 998 398 1030 329 1059 391 1088 371 1118 380 1150 383 1179 381 1208 376 1238 391 1270 435 1299 402 1329 382 1358 436 1390 388 1420 428 1449 400 1478 395 1510 419 1540 409 28 { m20} R 0 0 1 c black 0 0 1 c 324 472 m 58 7 d 62 -19 d
 59 -5 d 61 2 d 59 34 d 61 -10 d 59 -43 d 61 23 d 59 11 d 62 -66 d 58 25 d 62 -14 d 58 10 d 62 36 d 58 16 d 62 -19 d 58 22 d 62 -45 d 58 -3 d 62 14 d 58 88 d 62 -80 d 58 27 d 62 -11 d 59 -47 d 61 27 d 59 37 d s 324 472 382 479 444 460 503 455 564 457
 623 491 684 481 743 438 804 461 863 472 925 406 983 431 1045 417 1103 427 1165 463 1223 479 1285 460 1343 482 1405 437 1463 434 1525 448 1583 536 1645 456 1703 483 1765 472 1824 425 1885 452 1944 489 28 { m20} R black
 gsave  2268 1538 0 0 C 1645.4 514.798 t 0 r /Helvetica-Bold findfont 58.6478 sf 0 0 m (SCT Barrel) show NC gr 
 gsave  2268 1538 0 0 C 1762.69 436.601 t 0 r /Helvetica-Bold findfont 58.6478 sf 0 0 m (Layer 0) show NC gr  1652 454 m 92 X s 1698 454 m20
 gsave  2268 1538 0 0 C 1762.69 361.662 t 0 r /Helvetica-Bold findfont 58.6478 sf 0 0 m (Layer 1) show NC gr  1 0 0 c 1652 377 m 92 X s 1698 377 m20 black
 gsave  2268 1538 0 0 C 1762.69 283.465 t 0 r /Helvetica-Bold findfont 58.6478 sf 0 0 m (Layer 2) show NC gr  0 1 0 c 1652 300 m 92 X s 1698 300 m20 black
 gsave  2268 1538 0 0 C 1762.69 208.526 t 0 r /Helvetica-Bold findfont 58.6478 sf 0 0 m (Layer 3) show NC gr  0 0 1 c 1652 223 m 92 X s 1698 223 m20
 gr  gr showpage
end
%%EOF
