%!PS-Adobe-2.0 EPSF-2.0
%%BoundingBox:  0 0 567 384
%%Title: d3pdDirr/sct_occupancy/occ_sctdisk_mg.eps: c1_n31
%%Creator: ROOT Version 6.04/12
%%CreationDate: Tue Apr 26 00:12:45 2016
%%DocumentNeededResources: ProcSet (FontSetInit)
%%EndComments
%%BeginProlog
80 dict begin
/s {stroke} def /l {lineto} def /m {moveto} def /t {translate} def
/r {rotate} def /rl {roll}  def /R {repeat} def
/d {rlineto} def /rm {rmoveto} def /gr {grestore} def /f {eofill} def
/c {setrgbcolor} def /black {0 setgray} def /sd {setdash} def
/cl {closepath} def /sf {scalefont setfont} def /lw {setlinewidth} def
/box {m dup 0 exch d exch 0 d 0 exch neg d cl} def
/NC{systemdict begin initclip end}def/C{NC box clip newpath}def
/bl {box s} def /bf {gsave box gsave f grestore 1 lw [] 0 sd s grestore} def /Y { 0 exch d} def /X { 0 d} def 
/K {{pop pop 0 moveto} exch kshow} bind def
/ita {/ang 15 def gsave [1 0 ang dup sin exch cos div 1 0 0] concat} def 
/mp {newpath /y exch def /x exch def} def
/side {[w .77 mul w .23 mul] .385 w mul sd w 0 l currentpoint t -144 r} def
/mr {mp x y w2 0 360 arc} def /m24 {mr s} def /m20 {mr f} def
/mb {mp x y w2 add m w2 neg 0 d 0 w neg d w 0 d 0 w d cl} def
/mt {mp x y w2 add m w2 neg w neg d w 0 d cl} def
/m21 {mb f} def /m25 {mb s} def /m22 {mt f} def /m26{mt s} def
/m23 {mp x y w2 sub m w2 w d w neg 0 d cl f} def
/m27 {mp x y w2 add m w3 neg w2 neg d w3 w2 neg d w3 w2 d cl s} def
/m28 {mp x w2 sub y w2 sub w3 add m w3 0 d  0 w3 neg d w3 0 d 0 w3 d w3 0 d  0 w3 d w3 neg 0 d 0 w3 d w3 neg 0 d 0 w3 neg d w3 neg 0 d cl s } def
/m29 {mp gsave x w2 sub y w2 add w3 sub m currentpoint t 4 {side} repeat cl fill gr} def
/m30 {mp gsave x w2 sub y w2 add w3 sub m currentpoint t 4 {side} repeat cl s gr} def
/m31 {mp x y w2 sub m 0 w d x w2 sub y m w 0 d x w2 sub y w2 add m w w neg d x w2 sub y w2 sub m w w d s} def
/m32 {mp x y w2 sub m w2 w d w neg 0 d cl s} def
/m33 {mp x y w2 add m w3 neg w2 neg d w3 w2 neg d w3 w2 d cl f} def
/m34 {mp x w2 sub y w2 sub w3 add m w3 0 d  0 w3 neg d w3 0 d 0 w3 d w3 0 d  0 w3 d w3 neg 0 d 0 w3 d w3 neg 0 d 0 w3 neg d w3 neg 0 d cl f } def
/m2 {mp x y w2 sub m 0 w d x w2 sub y m w 0 d s} def
/m5 {mp x w2 sub y w2 sub m w w d x w2 sub y w2 add m w w neg d s} def
%%IncludeResource: ProcSet (FontSetInit)
%%IncludeResource: font Times-Roman
%%IncludeResource: font Times-Italic
%%IncludeResource: font Times-Bold
%%IncludeResource: font Times-BoldItalic
%%IncludeResource: font Helvetica
%%IncludeResource: font Helvetica-Oblique
%%IncludeResource: font Helvetica-Bold
%%IncludeResource: font Helvetica-BoldOblique
%%IncludeResource: font Courier
%%IncludeResource: font Courier-Oblique
%%IncludeResource: font Courier-Bold
%%IncludeResource: font Courier-BoldOblique
%%IncludeResource: font Symbol
%%IncludeResource: font ZapfDingbats
/reEncode {exch findfont dup length dict begin {1 index /FID eq  {pop pop} {def} ifelse } forall /Encoding exch def currentdict end dup /FontName get exch definefont pop } def [/Times-Bold /Times-Italic /Times-BoldItalic /Helvetica /Helvetica-Oblique
 /Helvetica-Bold /Helvetica-BoldOblique /Courier /Courier-Oblique /Courier-Bold /Courier-BoldOblique /Times-Roman /AvantGarde-Book /AvantGarde-BookOblique /AvantGarde-Demi /AvantGarde-DemiOblique /Bookman-Demi /Bookman-DemiItalic /Bookman-Light
 /Bookman-LightItalic /Helvetica-Narrow /Helvetica-Narrow-Bold /Helvetica-Narrow-BoldOblique /Helvetica-Narrow-Oblique /NewCenturySchlbk-Roman /NewCenturySchlbk-Bold /NewCenturySchlbk-BoldItalic /NewCenturySchlbk-Italic /Palatino-Bold
 /Palatino-BoldItalic /Palatino-Italic /Palatino-Roman ] {ISOLatin1Encoding reEncode } forall
%%EndProlog
%%BeginSetup
%%EndSetup
newpath  gsave  .25 .25 scale  gsave  0 0 t black[  ] 0 sd 3 lw 1 1 1 c 2268 1538 0 0 bf black 1 1 1 c 1814 1230 227 154 bf black 1814 1230 227 154 bl 1 1 1 c 1814 1230 227 154 bf black 1814 1230 227 154 bl 227 154 m 1814 X s
 gsave  2268 1538 0 0 C 1772.47 32.5821 t 0 r /Helvetica-Bold findfont 58.6478 sf 0 0 m (moduleID) show NC gr  309 191 m -37 Y s 358 172 m -18 Y s 406 172 m -18 Y s 455 172 m -18 Y s 503 191 m -37 Y s 552 172 m -18 Y s 600 172 m -18 Y s 649 172 m -18
 Y s 697 191 m -37 Y s 746 172 m -18 Y s 794 172 m -18 Y s 843 172 m -18 Y s 891 191 m -37 Y s 940 172 m -18 Y s 988 172 m -18 Y s 1037 172 m -18 Y s 1085 191 m -37 Y s 1134 172 m -18 Y s 1182 172 m -18 Y s 1231 172 m -18 Y s 1279 191 m -37 Y s 1328
 172 m -18 Y s 1376 172 m -18 Y s 1425 172 m -18 Y s 1473 191 m -37 Y s 1522 172 m -18 Y s 1570 172 m -18 Y s 1619 172 m -18 Y s 1667 191 m -37 Y s 1716 172 m -18 Y s 1764 172 m -18 Y s 1813 172 m -18 Y s 1861 191 m -37 Y s 309 191 m -37 Y s 261 172
 m -18 Y s 1861 191 m -37 Y s 1910 172 m -18 Y s 1958 172 m -18 Y s 2007 172 m -18 Y s
 gsave  2268 1538 0 0 C 289.981 97.7464 t 0 r /Helvetica-Bold findfont 58.6478 sf 0 0 m (0) show NC gr 
 gsave  2268 1538 0 0 C 485.474 97.7464 t 0 r /Helvetica-Bold findfont 58.6478 sf 0 0 m (2) show NC gr 
 gsave  2268 1538 0 0 C 680.967 97.7464 t 0 r /Helvetica-Bold findfont 58.6478 sf 0 0 m (4) show NC gr 
 gsave  2268 1538 0 0 C 873.201 97.7464 t 0 r /Helvetica-Bold findfont 58.6478 sf 0 0 m (6) show NC gr 
 gsave  2268 1538 0 0 C 1068.69 97.7464 t 0 r /Helvetica-Bold findfont 58.6478 sf 0 0 m (8) show NC gr 
 gsave  2268 1538 0 0 C 1244.64 97.7464 t 0 r /Helvetica-Bold findfont 58.6478 sf 0 0 m (10) show NC gr 
 gsave  2268 1538 0 0 C 1440.13 97.7464 t 0 r /Helvetica-Bold findfont 58.6478 sf 0 0 m (12) show NC gr 
 gsave  2268 1538 0 0 C 1632.36 97.7464 t 0 r /Helvetica-Bold findfont 58.6478 sf 0 0 m (14) show NC gr 
 gsave  2268 1538 0 0 C 1827.86 97.7464 t 0 r /Helvetica-Bold findfont 58.6478 sf 0 0 m (16) show NC gr  227 1384 m 1814 X s 309 1347 m 37 Y s 358 1366 m 18 Y s 406 1366 m 18 Y s 455 1366 m 18 Y s 503 1347 m 37 Y s 552 1366 m 18 Y s 600 1366 m 18 Y s
 649 1366 m 18 Y s 697 1347 m 37 Y s 746 1366 m 18 Y s 794 1366 m 18 Y s 843 1366 m 18 Y s 891 1347 m 37 Y s 940 1366 m 18 Y s 988 1366 m 18 Y s 1037 1366 m 18 Y s 1085 1347 m 37 Y s 1134 1366 m 18 Y s 1182 1366 m 18 Y s 1231 1366 m 18 Y s 1279 1347
 m 37 Y s 1328 1366 m 18 Y s 1376 1366 m 18 Y s 1425 1366 m 18 Y s 1473 1347 m 37 Y s 1522 1366 m 18 Y s 1570 1366 m 18 Y s 1619 1366 m 18 Y s 1667 1347 m 37 Y s 1716 1366 m 18 Y s 1764 1366 m 18 Y s 1813 1366 m 18 Y s 1861 1347 m 37 Y s 309 1347 m
 37 Y s 261 1366 m 18 Y s 1861 1347 m 37 Y s 1910 1366 m 18 Y s 1958 1366 m 18 Y s 2007 1366 m 18 Y s 227 154 m 1230 Y s
 gsave  2268 1538 0 0 C 97.7464 772.197 t 90 r /Helvetica-Bold findfont 58.6478 sf 0 0 m (Occupancy in percent) show NC gr  281 195 m -54 X s 254 226 m -27 X s 254 257 m -27 X s 254 288 m -27 X s 254 320 m -27 X s 281 351 m -54 X s 254 382 m -27 X s
 254 413 m -27 X s 254 444 m -27 X s 254 475 m -27 X s 281 507 m -54 X s 254 538 m -27 X s 254 569 m -27 X s 254 600 m -27 X s 254 631 m -27 X s 281 662 m -54 X s 254 694 m -27 X s 254 725 m -27 X s 254 756 m -27 X s 254 787 m -27 X s 281 818 m -54 X
 s 254 849 m -27 X s 254 881 m -27 X s 254 912 m -27 X s 254 943 m -27 X s 281 974 m -54 X s 254 1005 m -27 X s 254 1036 m -27 X s 254 1068 m -27 X s 254 1099 m -27 X s 281 1130 m -54 X s 254 1161 m -27 X s 254 1192 m -27 X s 254 1224 m -27 X s 254
 1255 m -27 X s 281 1286 m -54 X s 281 195 m -54 X s 254 164 m -27 X s 281 1286 m -54 X s 254 1317 m -27 X s 254 1348 m -27 X s 254 1379 m -27 X s
 gsave  2268 1538 0 0 C 133.587 172.685 t 0 r /Helvetica-Bold findfont 58.6478 sf 0 0 m (0.5) show NC gr 
 gsave  2268 1538 0 0 C 192.235 329.08 t 0 r /Helvetica-Bold findfont 58.6478 sf 0 0 m (1) show NC gr 
 gsave  2268 1538 0 0 C 133.587 485.474 t 0 r /Helvetica-Bold findfont 58.6478 sf 0 0 m (1.5) show NC gr 
 gsave  2268 1538 0 0 C 182.46 638.61 t 0 r /Helvetica-Bold findfont 58.6478 sf 0 0 m (2) show NC gr 
 gsave  2268 1538 0 0 C 133.587 798.262 t 0 r /Helvetica-Bold findfont 58.6478 sf 0 0 m (2.5) show NC gr 
 gsave  2268 1538 0 0 C 182.46 951.398 t 0 r /Helvetica-Bold findfont 58.6478 sf 0 0 m (3) show NC gr 
 gsave  2268 1538 0 0 C 133.587 1107.79 t 0 r /Helvetica-Bold findfont 58.6478 sf 0 0 m (3.5) show NC gr 
 gsave  2268 1538 0 0 C 182.46 1264.19 t 0 r /Helvetica-Bold findfont 58.6478 sf 0 0 m (4) show NC gr  2041 154 m 1230 Y s 1987 195 m 54 X s 2014 226 m 27 X s 2014 257 m 27 X s 2014 288 m 27 X s 2014 320 m 27 X s 1987 351 m 54 X s 2014 382 m 27 X s
 2014 413 m 27 X s 2014 444 m 27 X s 2014 475 m 27 X s 1987 507 m 54 X s 2014 538 m 27 X s 2014 569 m 27 X s 2014 600 m 27 X s 2014 631 m 27 X s 1987 662 m 54 X s 2014 694 m 27 X s 2014 725 m 27 X s 2014 756 m 27 X s 2014 787 m 27 X s 1987 818 m 54 X
 s 2014 849 m 27 X s 2014 881 m 27 X s 2014 912 m 27 X s 2014 943 m 27 X s 1987 974 m 54 X s 2014 1005 m 27 X s 2014 1036 m 27 X s 2014 1068 m 27 X s 2014 1099 m 27 X s 1987 1130 m 54 X s 2014 1161 m 27 X s 2014 1192 m 27 X s 2014 1224 m 27 X s 2014
 1255 m 27 X s 1987 1286 m 54 X s 1987 195 m 54 X s 2014 164 m 27 X s 1987 1286 m 54 X s 2014 1317 m 27 X s 2014 1348 m 27 X s 2014 1379 m 27 X s 309 217 m 97 136 d 97 8 d 97 -82 d 97 -31 d 97 31 d 97 -19 d 97 76 d 97 164 d 97 -160 d 97 -133 d 97 12
 d 97 40 d 97 17 d 97 146 d 97 -29 d 97 -54 d 97 -43 d s /w 26 def /w2 {w 2 div} def /w3 {w 3 div} def 309 217 406 353 503 361 600 279 697 248 794 279 891 260 988 336 1085 500 1182 340 1279 207 1376 219 1473 259 1570 276 1667 422 1764 393 1861 339
 1958 296 18 { m20} R 1 0 0 c black 1 0 0 c 309 240 m 97 101 d 97 28 d 97 -67 d 97 -48 d 97 85 d 97 -30 d 97 54 d 97 82 d 97 -67 d 97 -157 d 97 -20 d 97 78 d 97 10 d 97 168 d 97 -95 d 97 6 d 97 -36 d s 309 240 406 341 503 369 600 302 697 254 794 339
 891 309 988 363 1085 445 1182 378 1279 221 1376 201 1473 279 1570 289 1667 457 1764 362 1861 368 1958 332 18 { m20} R 0 1 0 c black 0 1 0 c 309 217 m 97 131 d 97 -18 d 97 -5 d 97 14 d 97 -35 d 97 -19 d 97 110 d 97 84 d 97 -87 d 97 -177 d 97 -20 d 97
 58 d 97 14 d 97 206 d 97 -59 d 97 -53 d 97 14 d s 309 217 406 348 503 330 600 325 697 339 794 304 891 285 988 395 1085 479 1182 392 1279 215 1376 195 1473 253 1570 267 1667 473 1764 414 1861 361 1958 375 18 { m20} R 0 0 1 c black 0 0 1 c 309 253 m
 97 105 d 97 6 d 97 -77 d 97 16 d 97 5 d 97 13 d 97 62 d 97 129 d 97 -166 d 97 -110 d 97 -23 d 97 84 d 97 -38 d 97 202 d 97 -52 d 97 -51 d 97 -21 d s 309 253 406 358 503 364 600 287 697 303 794 308 891 321 988 383 1085 512 1182 346 1279 236 1376 213
 1473 297 1570 259 1667 461 1764 409 1861 358 1958 337 18 { m20} R 1 1 0 c black 1 1 0 c 309 260 m 97 128 d 97 15 d 97 -92 d 97 -7 d 97 31 d 97 -28 d 97 122 d 97 98 d 97 -185 d 97 -137 d 97 -8 d 97 111 d 97 -16 d 97 165 d 97 6 d 97 -92 d 97 -14 d s
 309 260 406 388 503 403 600 311 697 304 794 335 891 307 988 429 1085 527 1182 342 1279 205 1376 197 1473 308 1570 292 1667 457 1764 463 1861 371 1958 357 18 { m20} R 1 0 1 c black 1 0 1 c 309 254 m 97 181 d 97 -23 d 97 -71 d 97 -19 d 97 26 d 97 -10
 d 97 85 d 97 122 d 97 -146 d 97 -152 d 97 -22 d 97 59 d 97 X 97 195 d 97 -13 d 97 -96 d 97 -19 d s 309 254 406 435 503 412 600 341 697 322 794 348 891 338 988 423 1085 545 1182 399 1279 247 1376 225 1473 284 1570 284 1667 479 1764 466 1861 370 1958
 351 18 { m20} R black[ 12 12] 0 sd 309 489 m 97 245 d 97 20 d 97 -207 d 97 127 d 97 -98 d 97 3 d 97 234 d 97 198 d 97 -293 d 97 -308 d 97 -29 d 97 125 d 97 33 d 97 365 d 97 -116 d 97 -58 d 97 -99 d s[  ] 0 sd 309 489 406 734 503 754 600 547 697 674
 794 576 891 579 988 813 1085 1011 1182 718 1279 410 1376 381 1473 506 1570 539 1667 904 1764 788 1861 730 1958 631 18 { m21} R[ 12 12] 0 sd 1 0 0 c black 1 0 0 c 309 195 m 97 208 d 97 -42 d 97 -63 d 97 36 d 97 -51 d 97 48 d 97 54 d 97 110 d 97 -117
 d 97 -182 d 97 17 d 97 32 d 97 7 d 97 178 d 97 -17 d 97 -61 d 97 -21 d s[  ] 0 sd 309 195 406 403 503 361 600 298 697 334 794 283 891 331 988 385 1085 495 1182 378 1279 196 1376 213 1473 245 1570 252 1667 430 1764 413 1861 352 1958 331 18 { m21} R[
 12 12] 0 sd 0 1 0 c black 0 1 0 c 309 201 m 97 117 d 97 26 d 97 -60 d 97 7 d 97 3 d 97 6 d 97 78 d 97 67 d 97 -123 d 97 -107 d 97 -19 d 97 85 d 97 -34 d 97 182 d 97 -46 d 97 -41 d 97 -2 d s[  ] 0 sd 309 201 406 318 503 344 600 284 697 291 794 294
 891 300 988 378 1085 445 1182 322 1279 215 1376 196 1473 281 1570 247 1667 429 1764 383 1861 342 1958 340 18 { m21} R[ 12 12] 0 sd 0 0 1 c black 0 0 1 c 309 227 m 97 127 d 97 -17 d 97 -26 d 97 -21 d 97 9 d 97 10 d 97 47 d 97 102 d 97 -111 d 97 -128
 d 97 7 d 97 72 d 97 -23 d 97 164 d 97 -30 d 97 -36 d 97 -53 d s[  ] 0 sd 309 227 406 354 503 337 600 311 697 290 794 299 891 309 988 356 1085 458 1182 347 1279 219 1376 226 1473 298 1570 275 1667 439 1764 409 1861 373 1958 320 18 { m21} R[ 12 12] 0
 sd 1 1 0 c black 1 1 0 c 309 241 m 97 152 d 97 13 d 97 -90 d 97 23 d 97 -18 d 97 2 d 97 83 d 97 144 d 97 -168 d 97 -165 d 97 12 d 97 60 d 97 -15 d 97 183 d 97 -40 d 97 -25 d 97 -51 d s[  ] 0 sd 309 241 406 393 503 406 600 316 697 339 794 321 891 323
 988 406 1085 550 1182 382 1279 217 1376 229 1473 289 1570 274 1667 457 1764 417 1861 392 1958 341 18 { m21} R[ 12 12] 0 sd 1 0 1 c black 1 0 1 c 309 249 m 97 136 d 97 -21 d 97 -29 d 97 10 d 97 -7 d 97 7 d 97 67 d 97 103 d 97 -95 d 97 -193 d 97 4 d
 97 58 d 97 -12 d 97 143 d 97 -28 d 97 6 d 97 -35 d s[  ] 0 sd 309 249 406 385 503 364 600 335 697 345 794 338 891 345 988 412 1085 515 1182 420 1279 227 1376 231 1473 289 1570 277 1667 420 1764 392 1861 398 1958 363 18 { m21} R[ 12 12] 0 sd black
 gsave  2268 1538 0 0 C 325.821 1300.03 t 0 r /Helvetica-Bold findfont 58.6478 sf 0 0 m (Sct Disk \(left\)) show NC gr 
 gsave  2268 1538 0 0 C 430.084 1244.64 t 0 r /Helvetica-Bold findfont 58.6478 sf 0 0 m (Disk 0) show NC gr [  ] 0 sd 334 1256 m 80 X s 374 1256 m20
 gsave  2268 1538 0 0 C 430.084 1189.25 t 0 r /Helvetica-Bold findfont 58.6478 sf 0 0 m (Disk 1) show NC gr  1 0 0 c 334 1201 m 80 X s 374 1201 m20 black
 gsave  2268 1538 0 0 C 430.084 1133.86 t 0 r /Helvetica-Bold findfont 58.6478 sf 0 0 m (Disk 2) show NC gr  0 1 0 c 334 1146 m 80 X s 374 1146 m20 black
 gsave  2268 1538 0 0 C 430.084 1078.47 t 0 r /Helvetica-Bold findfont 58.6478 sf 0 0 m (Disk 3) show NC gr  0 0 1 c 334 1091 m 80 X s 374 1091 m20 black
 gsave  2268 1538 0 0 C 430.084 1026.34 t 0 r /Helvetica-Bold findfont 58.6478 sf 0 0 m (Disk 4) show NC gr  1 1 0 c 334 1036 m 80 X s 374 1036 m20 black
 gsave  2268 1538 0 0 C 430.084 970.948 t 0 r /Helvetica-Bold findfont 58.6478 sf 0 0 m (Disk 5) show NC gr  1 0 1 c 334 981 m 80 X s 374 981 m20 black
 gsave  2268 1538 0 0 C 622.319 1300.03 t 0 r /Helvetica-Bold findfont 58.6478 sf 0 0 m (  \(right\)) show NC gr 
 gsave  2268 1538 0 0 C 723.323 1244.64 t 0 r /Helvetica-Bold findfont 58.6478 sf 0 0 m (Disk 0) show NC gr [ 12 12] 0 sd 629 1256 m 80 X s[  ] 0 sd 669 1256 m21[ 12 12] 0 sd
 gsave  2268 1538 0 0 C 723.323 1189.25 t 0 r /Helvetica-Bold findfont 58.6478 sf 0 0 m (Disk 1) show NC gr  1 0 0 c 629 1201 m 80 X s[  ] 0 sd 669 1201 m21[ 12 12] 0 sd black
 gsave  2268 1538 0 0 C 723.323 1133.86 t 0 r /Helvetica-Bold findfont 58.6478 sf 0 0 m (Disk 2) show NC gr  0 1 0 c 629 1146 m 80 X s[  ] 0 sd 669 1146 m21[ 12 12] 0 sd black
 gsave  2268 1538 0 0 C 723.323 1078.47 t 0 r /Helvetica-Bold findfont 58.6478 sf 0 0 m (Disk 3) show NC gr  0 0 1 c 629 1091 m 80 X s[  ] 0 sd 669 1091 m21[ 12 12] 0 sd black
 gsave  2268 1538 0 0 C 723.323 1026.34 t 0 r /Helvetica-Bold findfont 58.6478 sf 0 0 m (Disk 4) show NC gr  1 1 0 c 629 1036 m 80 X s[  ] 0 sd 669 1036 m21[ 12 12] 0 sd black
 gsave  2268 1538 0 0 C 723.323 970.948 t 0 r /Helvetica-Bold findfont 58.6478 sf 0 0 m (Disk 5) show NC gr  1 0 1 c 629 981 m 80 X s[  ] 0 sd 669 981 m21[ 12 12] 0 sd
 gr  gr showpage
end
%%EOF
