%!PS-Adobe-2.0 EPSF-2.0
%%BoundingBox:  0 0 567 384
%%Title: d3pdDirr/sct_occupancy/size_sctdisk_mgr.eps: c1_n39
%%Creator: ROOT Version 6.04/12
%%CreationDate: Tue Apr 26 00:12:46 2016
%%DocumentNeededResources: ProcSet (FontSetInit)
%%EndComments
%%BeginProlog
80 dict begin
/s {stroke} def /l {lineto} def /m {moveto} def /t {translate} def
/r {rotate} def /rl {roll}  def /R {repeat} def
/d {rlineto} def /rm {rmoveto} def /gr {grestore} def /f {eofill} def
/c {setrgbcolor} def /black {0 setgray} def /sd {setdash} def
/cl {closepath} def /sf {scalefont setfont} def /lw {setlinewidth} def
/box {m dup 0 exch d exch 0 d 0 exch neg d cl} def
/NC{systemdict begin initclip end}def/C{NC box clip newpath}def
/bl {box s} def /bf {gsave box gsave f grestore 1 lw [] 0 sd s grestore} def /Y { 0 exch d} def /X { 0 d} def 
/K {{pop pop 0 moveto} exch kshow} bind def
/ita {/ang 15 def gsave [1 0 ang dup sin exch cos div 1 0 0] concat} def 
/mp {newpath /y exch def /x exch def} def
/side {[w .77 mul w .23 mul] .385 w mul sd w 0 l currentpoint t -144 r} def
/mr {mp x y w2 0 360 arc} def /m24 {mr s} def /m20 {mr f} def
/mb {mp x y w2 add m w2 neg 0 d 0 w neg d w 0 d 0 w d cl} def
/mt {mp x y w2 add m w2 neg w neg d w 0 d cl} def
/m21 {mb f} def /m25 {mb s} def /m22 {mt f} def /m26{mt s} def
/m23 {mp x y w2 sub m w2 w d w neg 0 d cl f} def
/m27 {mp x y w2 add m w3 neg w2 neg d w3 w2 neg d w3 w2 d cl s} def
/m28 {mp x w2 sub y w2 sub w3 add m w3 0 d  0 w3 neg d w3 0 d 0 w3 d w3 0 d  0 w3 d w3 neg 0 d 0 w3 d w3 neg 0 d 0 w3 neg d w3 neg 0 d cl s } def
/m29 {mp gsave x w2 sub y w2 add w3 sub m currentpoint t 4 {side} repeat cl fill gr} def
/m30 {mp gsave x w2 sub y w2 add w3 sub m currentpoint t 4 {side} repeat cl s gr} def
/m31 {mp x y w2 sub m 0 w d x w2 sub y m w 0 d x w2 sub y w2 add m w w neg d x w2 sub y w2 sub m w w d s} def
/m32 {mp x y w2 sub m w2 w d w neg 0 d cl s} def
/m33 {mp x y w2 add m w3 neg w2 neg d w3 w2 neg d w3 w2 d cl f} def
/m34 {mp x w2 sub y w2 sub w3 add m w3 0 d  0 w3 neg d w3 0 d 0 w3 d w3 0 d  0 w3 d w3 neg 0 d 0 w3 d w3 neg 0 d 0 w3 neg d w3 neg 0 d cl f } def
/m2 {mp x y w2 sub m 0 w d x w2 sub y m w 0 d s} def
/m5 {mp x w2 sub y w2 sub m w w d x w2 sub y w2 add m w w neg d s} def
%%IncludeResource: ProcSet (FontSetInit)
%%IncludeResource: font Times-Roman
%%IncludeResource: font Times-Italic
%%IncludeResource: font Times-Bold
%%IncludeResource: font Times-BoldItalic
%%IncludeResource: font Helvetica
%%IncludeResource: font Helvetica-Oblique
%%IncludeResource: font Helvetica-Bold
%%IncludeResource: font Helvetica-BoldOblique
%%IncludeResource: font Courier
%%IncludeResource: font Courier-Oblique
%%IncludeResource: font Courier-Bold
%%IncludeResource: font Courier-BoldOblique
%%IncludeResource: font Symbol
%%IncludeResource: font ZapfDingbats
/reEncode {exch findfont dup length dict begin {1 index /FID eq  {pop pop} {def} ifelse } forall /Encoding exch def currentdict end dup /FontName get exch definefont pop } def [/Times-Bold /Times-Italic /Times-BoldItalic /Helvetica /Helvetica-Oblique
 /Helvetica-Bold /Helvetica-BoldOblique /Courier /Courier-Oblique /Courier-Bold /Courier-BoldOblique /Times-Roman /AvantGarde-Book /AvantGarde-BookOblique /AvantGarde-Demi /AvantGarde-DemiOblique /Bookman-Demi /Bookman-DemiItalic /Bookman-Light
 /Bookman-LightItalic /Helvetica-Narrow /Helvetica-Narrow-Bold /Helvetica-Narrow-BoldOblique /Helvetica-Narrow-Oblique /NewCenturySchlbk-Roman /NewCenturySchlbk-Bold /NewCenturySchlbk-BoldItalic /NewCenturySchlbk-Italic /Palatino-Bold
 /Palatino-BoldItalic /Palatino-Italic /Palatino-Roman ] {ISOLatin1Encoding reEncode } forall
%%EndProlog
%%BeginSetup
%%EndSetup
newpath  gsave  .25 .25 scale  gsave  0 0 t black[  ] 0 sd 3 lw 1 1 1 c 2268 1538 0 0 bf black 1 1 1 c 1814 1230 227 154 bf black 1814 1230 227 154 bl 1 1 1 c 1814 1230 227 154 bf black 1814 1230 227 154 bl 227 154 m 1814 X s
 gsave  2268 1538 0 0 C 1860.44 35.8403 t 0 r /Helvetica-Bold findfont 58.6478 sf 0 0 m (r [mm]) show NC gr  347 191 m -37 Y s 384 172 m -18 Y s 420 172 m -18 Y s 456 172 m -18 Y s 493 172 m -18 Y s 529 191 m -37 Y s 566 172 m -18 Y s 602 172 m -18 Y
 s 639 172 m -18 Y s 675 172 m -18 Y s 712 191 m -37 Y s 748 172 m -18 Y s 785 172 m -18 Y s 821 172 m -18 Y s 858 172 m -18 Y s 894 191 m -37 Y s 930 172 m -18 Y s 967 172 m -18 Y s 1003 172 m -18 Y s 1040 172 m -18 Y s 1076 191 m -37 Y s 1113 172 m
 -18 Y s 1149 172 m -18 Y s 1186 172 m -18 Y s 1222 172 m -18 Y s 1259 191 m -37 Y s 1295 172 m -18 Y s 1332 172 m -18 Y s 1368 172 m -18 Y s 1404 172 m -18 Y s 1441 191 m -37 Y s 1477 172 m -18 Y s 1514 172 m -18 Y s 1550 172 m -18 Y s 1587 172 m
 -18 Y s 1623 191 m -37 Y s 1660 172 m -18 Y s 1696 172 m -18 Y s 1733 172 m -18 Y s 1769 172 m -18 Y s 1805 191 m -37 Y s 1842 172 m -18 Y s 1878 172 m -18 Y s 1915 172 m -18 Y s 1951 172 m -18 Y s 1988 191 m -37 Y s 347 191 m -37 Y s 311 172 m -18
 Y s 274 172 m -18 Y s 238 172 m -18 Y s 1988 191 m -37 Y s 2024 172 m -18 Y s
 gsave  2268 1538 0 0 C 296.497 97.7464 t 0 r /Helvetica-Bold findfont 58.6478 sf 0 0 m (400) show NC gr 
 gsave  2268 1538 0 0 C 478.957 97.7464 t 0 r /Helvetica-Bold findfont 58.6478 sf 0 0 m (450) show NC gr 
 gsave  2268 1538 0 0 C 661.417 97.7464 t 0 r /Helvetica-Bold findfont 58.6478 sf 0 0 m (500) show NC gr 
 gsave  2268 1538 0 0 C 843.877 97.7464 t 0 r /Helvetica-Bold findfont 58.6478 sf 0 0 m (550) show NC gr 
 gsave  2268 1538 0 0 C 1026.34 97.7464 t 0 r /Helvetica-Bold findfont 58.6478 sf 0 0 m (600) show NC gr 
 gsave  2268 1538 0 0 C 1208.8 97.7464 t 0 r /Helvetica-Bold findfont 58.6478 sf 0 0 m (650) show NC gr 
 gsave  2268 1538 0 0 C 1391.26 97.7464 t 0 r /Helvetica-Bold findfont 58.6478 sf 0 0 m (700) show NC gr 
 gsave  2268 1538 0 0 C 1573.72 97.7464 t 0 r /Helvetica-Bold findfont 58.6478 sf 0 0 m (750) show NC gr 
 gsave  2268 1538 0 0 C 1756.18 97.7464 t 0 r /Helvetica-Bold findfont 58.6478 sf 0 0 m (800) show NC gr 
 gsave  2268 1538 0 0 C 1938.64 97.7464 t 0 r /Helvetica-Bold findfont 58.6478 sf 0 0 m (850) show NC gr  227 1384 m 1814 X s 347 1347 m 37 Y s 384 1366 m 18 Y s 420 1366 m 18 Y s 456 1366 m 18 Y s 493 1366 m 18 Y s 529 1347 m 37 Y s 566 1366 m 18 Y
 s 602 1366 m 18 Y s 639 1366 m 18 Y s 675 1366 m 18 Y s 712 1347 m 37 Y s 748 1366 m 18 Y s 785 1366 m 18 Y s 821 1366 m 18 Y s 858 1366 m 18 Y s 894 1347 m 37 Y s 930 1366 m 18 Y s 967 1366 m 18 Y s 1003 1366 m 18 Y s 1040 1366 m 18 Y s 1076 1347 m
 37 Y s 1113 1366 m 18 Y s 1149 1366 m 18 Y s 1186 1366 m 18 Y s 1222 1366 m 18 Y s 1259 1347 m 37 Y s 1295 1366 m 18 Y s 1332 1366 m 18 Y s 1368 1366 m 18 Y s 1404 1366 m 18 Y s 1441 1347 m 37 Y s 1477 1366 m 18 Y s 1514 1366 m 18 Y s 1550 1366 m 18
 Y s 1587 1366 m 18 Y s 1623 1347 m 37 Y s 1660 1366 m 18 Y s 1696 1366 m 18 Y s 1733 1366 m 18 Y s 1769 1366 m 18 Y s 1805 1347 m 37 Y s 1842 1366 m 18 Y s 1878 1366 m 18 Y s 1915 1366 m 18 Y s 1951 1366 m 18 Y s 1988 1347 m 37 Y s 347 1347 m 37 Y s
 311 1366 m 18 Y s 274 1366 m 18 Y s 238 1366 m 18 Y s 1988 1347 m 37 Y s 2024 1366 m 18 Y s 227 154 m 1230 Y s
 gsave  2268 1538 0 0 C 104.263 1055.66 t 90 r /Helvetica-Bold findfont 58.6478 sf 0 0 m (Cluster size) show NC gr  281 225 m -54 X s 254 258 m -27 X s 254 290 m -27 X s 254 323 m -27 X s 281 356 m -54 X s 254 388 m -27 X s 254 421 m -27 X s 254 453
 m -27 X s 281 486 m -54 X s 254 518 m -27 X s 254 551 m -27 X s 254 583 m -27 X s 281 616 m -54 X s 254 649 m -27 X s 254 681 m -27 X s 254 714 m -27 X s 281 746 m -54 X s 254 779 m -27 X s 254 811 m -27 X s 254 844 m -27 X s 281 876 m -54 X s 254
 909 m -27 X s 254 942 m -27 X s 254 974 m -27 X s 281 1007 m -54 X s 254 1039 m -27 X s 254 1072 m -27 X s 254 1104 m -27 X s 281 1137 m -54 X s 254 1169 m -27 X s 254 1202 m -27 X s 254 1234 m -27 X s 281 1267 m -54 X s 281 225 m -54 X s 254 193 m
 -27 X s 254 160 m -27 X s 281 1267 m -54 X s 254 1300 m -27 X s 254 1332 m -27 X s 254 1365 m -27 X s
 gsave  2268 1538 0 0 C 133.587 205.267 t 0 r /Helvetica-Bold findfont 58.6478 sf 0 0 m (1.4) show NC gr 
 gsave  2268 1538 0 0 C 133.587 335.596 t 0 r /Helvetica-Bold findfont 58.6478 sf 0 0 m (1.6) show NC gr 
 gsave  2268 1538 0 0 C 133.587 465.924 t 0 r /Helvetica-Bold findfont 58.6478 sf 0 0 m (1.8) show NC gr 
 gsave  2268 1538 0 0 C 182.46 592.995 t 0 r /Helvetica-Bold findfont 58.6478 sf 0 0 m (2) show NC gr 
 gsave  2268 1538 0 0 C 133.587 723.323 t 0 r /Helvetica-Bold findfont 58.6478 sf 0 0 m (2.2) show NC gr 
 gsave  2268 1538 0 0 C 133.587 850.394 t 0 r /Helvetica-Bold findfont 58.6478 sf 0 0 m (2.4) show NC gr 
 gsave  2268 1538 0 0 C 133.587 983.98 t 0 r /Helvetica-Bold findfont 58.6478 sf 0 0 m (2.6) show NC gr 
 gsave  2268 1538 0 0 C 133.587 1114.31 t 0 r /Helvetica-Bold findfont 58.6478 sf 0 0 m (2.8) show NC gr 
 gsave  2268 1538 0 0 C 182.46 1244.64 t 0 r /Helvetica-Bold findfont 58.6478 sf 0 0 m (3) show NC gr  2041 154 m 1230 Y s 1987 225 m 54 X s 2014 258 m 27 X s 2014 290 m 27 X s 2014 323 m 27 X s 1987 356 m 54 X s 2014 388 m 27 X s 2014 421 m 27 X s
 2014 453 m 27 X s 1987 486 m 54 X s 2014 518 m 27 X s 2014 551 m 27 X s 2014 583 m 27 X s 1987 616 m 54 X s 2014 649 m 27 X s 2014 681 m 27 X s 2014 714 m 27 X s 1987 746 m 54 X s 2014 779 m 27 X s 2014 811 m 27 X s 2014 844 m 27 X s 1987 876 m 54 X
 s 2014 909 m 27 X s 2014 942 m 27 X s 2014 974 m 27 X s 1987 1007 m 54 X s 2014 1039 m 27 X s 2014 1072 m 27 X s 2014 1104 m 27 X s 1987 1137 m 54 X s 2014 1169 m 27 X s 2014 1202 m 27 X s 2014 1234 m 27 X s 1987 1267 m 54 X s 1987 225 m 54 X s 2014
 193 m 27 X s 2014 160 m 27 X s 1987 1267 m 54 X s 2014 1300 m 27 X s 2014 1332 m 27 X s 2014 1365 m 27 X s 310 517 m 41 Y s 303 558 m 13 X s 310 491 m -41 Y s 303 450 m 13 X s 350 403 m 20 Y s 343 423 m 13 X s 350 377 m -19 Y s 343 358 m 13 X s 401
 469 m 40 Y s 394 509 m 13 X s 401 443 m -40 Y s 394 403 m 13 X s 449 468 m 27 Y s 443 495 m 13 X s 449 442 m -27 Y s 443 415 m 13 X s 493 361 m 14 Y s 487 375 m 13 X s 493 335 m -14 Y s 487 321 m 13 X s 539 429 m 35 Y s 532 464 m 13 X s 539 403 m
 -34 Y s 532 369 m 13 X s 587 516 m 26 Y s 580 542 m 13 X s 587 490 m -26 Y s 580 464 m 13 X s 644 478 m 26 Y s 637 504 m 13 X s 644 452 m -25 Y s 637 427 m 13 X s 726 606 m 72 Y s 720 678 m 13 X s 726 580 m -71 Y s 720 509 m 13 X s 804 463 m 14 Y s
 798 477 m 13 X s 804 436 m -14 Y s 798 422 m 13 X s 876 496 m 17 Y s 870 513 m 13 X s 876 470 m -17 Y s 870 453 m 13 X s 954 602 m 41 Y s 948 643 m 13 X s 954 576 m -41 Y s 948 535 m 13 X s 1056 534 m 12 Y s 1049 546 m 13 X s 1056 508 m -11 Y s 1049
 497 m 13 X s 1170 571 m 28 Y s 1164 599 m 13 X s 1170 545 m -28 Y s 1164 517 m 13 X s 1336 647 m 14 Y s 1330 661 m 13 X s 1336 621 m -15 Y s 1330 606 m 13 X s 1549 698 m 26 Y s 1542 724 m 13 X s 1549 672 m -26 Y s 1542 646 m 13 X s 1760 700 m 21 Y s
 1753 721 m 13 X s 1760 674 m -21 Y s 1753 653 m 13 X s 1958 780 m 38 Y s 1952 818 m 13 X s 1958 754 m -37 Y s 1952 717 m 13 X s 310 504 m 40 -114 d 51 66 d 48 -1 d 44 -107 d 46 68 d 48 87 d 57 -38 d 82 128 d 78 -143 d 72 33 d 78 106 d 102 -68 d 114
 37 d 166 76 d 213 51 d 211 2 d 198 80 d s /w 26 def /w2 {w 2 div} def /w3 {w 3 div} def 310 504 350 390 401 456 449 455 493 348 539 416 587 503 644 465 726 593 804 450 876 483 954 589 1056 521 1170 558 1336 634 1549 685 1760 687 1958 767 18 { m20} R
 1 0 0 c 310 353 m 16 Y s 303 369 m 13 X s 310 327 m -15 Y s 303 312 m 13 X s 350 373 m 16 Y s 343 389 m 13 X s 350 347 m -16 Y s 343 331 m 13 X s 401 514 m 38 Y s 395 552 m 13 X s 401 488 m -38 Y s 395 450 m 13 X s 449 366 m 21 Y s 442 387 m 13 X s
 449 340 m -21 Y s 442 319 m 13 X s 493 344 m 17 Y s 486 361 m 14 X s 493 318 m -17 Y s 486 301 m 14 X s 539 505 m 31 Y s 533 536 m 13 X s 539 479 m -31 Y s 533 448 m 13 X s 587 526 m 35 Y s 580 561 m 13 X s 587 500 m -35 Y s 580 465 m 13 X s 644 464
 m 20 Y s 637 484 m 13 X s 644 438 m -20 Y s 637 418 m 13 X s 727 430 m 12 Y s 720 442 m 13 X s 727 404 m -12 Y s 720 392 m 13 X s 804 549 m 26 Y s 798 575 m 13 X s 804 523 m -27 Y s 798 496 m 13 X s 877 533 m 26 Y s 870 559 m 13 X s 877 507 m -25 Y
 s 870 482 m 13 X s 954 513 m 19 Y s 948 532 m 13 X s 954 487 m -19 Y s 948 468 m 13 X s 1056 544 m 36 Y s 1050 580 m 13 X s 1056 518 m -37 Y s 1050 481 m 13 X s 1170 524 m 15 Y s 1164 539 m 13 X s 1170 498 m -15 Y s 1164 483 m 13 X s 1336 637 m 30 Y
 s 1330 667 m 13 X s 1336 611 m -29 Y s 1330 582 m 13 X s 1549 571 m 13 Y s 1542 584 m 13 X s 1549 545 m -13 Y s 1542 532 m 13 X s 1760 722 m 22 Y s 1753 744 m 13 X s 1760 696 m -22 Y s 1753 674 m 13 X s 1958 644 m 18 Y s 1952 662 m 13 X s 1958 618 m
 -17 Y s 1952 601 m 13 X s black 1 0 0 c 310 340 m 40 20 d 51 141 d 48 -148 d 44 -22 d 46 161 d 48 21 d 57 -62 d 83 -34 d 77 119 d 73 -16 d 77 -20 d 102 31 d 114 -20 d 166 113 d 213 -66 d 211 151 d 198 -78 d s 310 340 350 360 401 501 449 353 493 331
 539 492 587 513 644 451 727 417 804 536 877 520 954 500 1056 531 1170 511 1336 624 1549 558 1760 709 1958 631 18 { m20} R 0 1 0 c 309 315 m 37 Y s 303 352 m 13 X s 309 289 m -37 Y s 303 252 m 13 X s 350 357 m 27 Y s 343 384 m 13 X s 350 331 m -27 Y
 s 343 304 m 13 X s 401 384 m 20 Y s 395 404 m 13 X s 401 358 m -21 Y s 395 337 m 13 X s 449 436 m 34 Y s 442 470 m 14 X s 449 410 m -34 Y s 442 376 m 14 X s 493 398 m 42 Y s 487 440 m 13 X s 493 372 m -42 Y s 487 330 m 13 X s 539 413 m 20 Y s 532
 433 m 13 X s 539 387 m -19 Y s 532 368 m 13 X s 587 407 m 23 Y s 580 430 m 13 X s 587 381 m -23 Y s 580 358 m 13 X s 644 406 m 22 Y s 637 428 m 13 X s 644 380 m -23 Y s 637 357 m 13 X s 726 391 m 9 Y s 720 400 m 13 X s 726 365 m -10 Y s 720 355 m 13
 X s 804 421 m 18 Y s 798 439 m 13 X s 804 395 m -17 Y s 798 378 m 13 X s 877 415 m 12 Y s 870 427 m 13 X s 877 389 m -12 Y s 870 377 m 13 X s 955 373 m 13 Y s 948 386 m 13 X s 955 347 m -13 Y s 948 334 m 13 X s 1056 465 m 14 Y s 1049 479 m 13 X s
 1056 439 m -13 Y s 1049 426 m 13 X s 1170 469 m 10 Y s 1164 479 m 13 X s 1170 443 m -10 Y s 1164 433 m 13 X s 1336 487 m 5 Y s 1330 492 m 13 X s 1336 461 m -5 Y s 1330 456 m 13 X s 1549 611 m 35 Y s 1543 646 m 13 X s 1549 585 m -34 Y s 1543 551 m 13
 X s 1760 561 m 11 Y s 1754 572 m 13 X s 1760 535 m -10 Y s 1754 525 m 13 X s 1958 707 m 32 Y s 1952 739 m 13 X s 1958 680 m -32 Y s 1952 648 m 13 X s black 0 1 0 c 309 302 m 41 42 d 51 27 d 48 52 d 44 -38 d 46 15 d 48 -6 d 57 -1 d 82 -15 d 78 30 d
 73 -6 d 78 -42 d 101 92 d 114 4 d 166 18 d 213 124 d 211 -50 d 198 145 d s 309 302 350 344 401 371 449 423 493 385 539 400 587 394 644 393 726 378 804 408 877 402 955 360 1056 452 1170 456 1336 474 1549 598 1760 548 1958 693 18 { m20} R 0 0 1 c 309
 289 m 23 Y s 303 312 m 13 X s 309 263 m -23 Y s 303 240 m 13 X s 350 314 m 8 Y s 343 322 m 13 X s 350 288 m -9 Y s 343 279 m 13 X s 401 357 m 13 Y s 395 370 m 13 X s 401 331 m -14 Y s 395 317 m 13 X s 449 282 m 9 Y s 442 291 m 13 X s 449 256 m -10 Y
 s 442 246 m 13 X s 493 361 m 22 Y s 487 383 m 13 X s 493 335 m -22 Y s 487 313 m 13 X s 539 349 m 20 Y s 532 369 m 13 X s 539 322 m -20 Y s 532 302 m 13 X s 587 366 m 26 Y s 580 392 m 13 X s 587 340 m -26 Y s 580 314 m 13 X s 644 370 m 24 Y s 637
 394 m 13 X s 644 344 m -25 Y s 637 319 m 13 X s 726 446 m 46 Y s 720 492 m 13 X s 726 420 m -47 Y s 720 373 m 13 X s 804 371 m 8 Y s 798 379 m 13 X s 804 345 m -9 Y s 798 336 m 13 X s 877 362 m 9 Y s 870 371 m 13 X s 877 336 m -8 Y s 870 328 m 13 X
 s 955 316 m 5 Y s 948 321 m 13 X s 955 290 m -4 Y s 948 286 m 13 X s 1056 407 m 8 Y s 1050 415 m 13 X s 1056 381 m -8 Y s 1050 373 m 13 X s 1170 375 m 8 Y s 1164 383 m 13 X s 1170 349 m -8 Y s 1164 341 m 13 X s 1336 483 m 7 Y s 1330 490 m 13 X s
 1336 457 m -7 Y s 1330 450 m 13 X s 1549 462 m 6 Y s 1542 468 m 13 X s 1549 436 m -6 Y s 1542 430 m 13 X s 1760 511 m 9 Y s 1753 520 m 13 X s 1760 485 m -10 Y s 1753 475 m 13 X s 1958 517 m 11 Y s 1952 528 m 13 X s 1958 491 m -11 Y s 1952 480 m 13 X
 s black 0 0 1 c 309 276 m 41 25 d 51 43 d 48 -75 d 44 79 d 46 -13 d 48 18 d 57 4 d 82 76 d 78 -75 d 73 -9 d 78 -46 d 101 91 d 114 -32 d 166 108 d 213 -21 d 211 49 d 198 6 d s 309 276 350 301 401 344 449 269 493 348 539 335 587 353 644 357 726 433
 804 358 877 349 955 303 1056 394 1170 362 1336 470 1549 449 1760 498 1958 504 18 { m20} R 1 1 0 c 310 288 m 24 Y s 303 312 m 13 X s 310 262 m -24 Y s 303 238 m 13 X s 350 247 m 13 Y s 343 260 m 13 X s 350 221 m -13 Y s 343 208 m 13 X s 401 250 m 12
 Y s 394 262 m 13 X s 401 224 m -12 Y s 394 212 m 13 X s 449 393 m 35 Y s 442 428 m 13 X s 449 367 m -35 Y s 442 332 m 13 X s 493 242 m 7 Y s 487 249 m 13 X s 493 216 m -7 Y s 487 209 m 13 X s 539 350 m 30 Y s 532 380 m 13 X s 539 324 m -29 Y s 532
 295 m 13 X s 587 278 m 6 Y s 580 284 m 13 X s 587 252 m -6 Y s 580 246 m 13 X s 643 291 m 7 Y s 637 298 m 13 X s 643 265 m -7 Y s 637 258 m 13 X s 726 350 m 7 Y s 720 357 m 13 X s 726 324 m -8 Y s 720 316 m 13 X s 804 306 m 8 Y s 798 314 m 13 X s
 804 280 m -8 Y s 798 272 m 13 X s 876 288 m 11 Y s 870 299 m 13 X s 876 262 m -11 Y s 870 251 m 13 X s 954 247 m 6 Y s 948 253 m 13 X s 954 221 m -7 Y s 948 214 m 13 X s 1056 432 m 45 Y s 1049 477 m 13 X s 1056 406 m -44 Y s 1049 362 m 13 X s 1170
 330 m 6 Y s 1164 336 m 13 X s 1170 304 m -6 Y s 1164 298 m 13 X s 1336 400 m 11 Y s 1330 411 m 13 X s 1336 374 m -11 Y s 1330 363 m 13 X s 1549 464 m 21 Y s 1542 485 m 13 X s 1549 438 m -20 Y s 1542 418 m 13 X s 1760 485 m 12 Y s 1754 497 m 13 X s
 1760 459 m -12 Y s 1754 447 m 13 X s 1958 450 m 6 Y s 1952 456 m 13 X s 1958 424 m -7 Y s 1952 417 m 13 X s black 1 1 0 c 310 275 m 40 -41 d 51 3 d 48 143 d 44 -151 d 46 108 d 48 -72 d 56 13 d 83 59 d 78 -44 d 72 -18 d 78 -41 d 102 185 d 114 -102 d
 166 70 d 213 64 d 211 21 d 198 -35 d s 310 275 350 234 401 237 449 380 493 229 539 337 587 265 643 278 726 337 804 293 876 275 954 234 1056 419 1170 317 1336 387 1549 451 1760 472 1958 437 18 { m20} R 1 0 1 c 310 225 m 12 Y s 303 237 m 13 X s 310
 199 m -12 Y s 303 187 m 13 X s 350 253 m 8 Y s 343 261 m 13 X s 350 227 m -7 Y s 343 220 m 13 X s 401 235 m 7 Y s 395 242 m 13 X s 401 209 m -6 Y s 395 203 m 13 X s 449 231 m 6 Y s 443 237 m 13 X s 449 205 m -7 Y s 443 198 m 13 X s 493 250 m 32 Y s
 487 282 m 13 X s 493 224 m -31 Y s 487 193 m 13 X s 539 252 m 14 Y s 532 266 m 13 X s 539 226 m -14 Y s 532 212 m 13 X s 587 250 m 8 Y s 580 258 m 13 X s 587 224 m -8 Y s 580 216 m 13 X s 643 315 m 14 Y s 637 329 m 13 X s 643 289 m -13 Y s 637 276 m
 13 X s 726 313 m 11 Y s 720 324 m 13 X s 726 287 m -11 Y s 720 276 m 13 X s 804 318 m 16 Y s 798 334 m 13 X s 804 292 m -17 Y s 798 275 m 13 X s 877 335 m 27 Y s 870 362 m 13 X s 877 309 m -28 Y s 870 281 m 13 X s 955 289 m 7 Y s 948 296 m 13 X s
 955 263 m -7 Y s 948 256 m 13 X s 1056 309 m 9 Y s 1049 318 m 13 X s 1056 283 m -8 Y s 1049 275 m 13 X s 1170 325 m 11 Y s 1164 336 m 13 X s 1170 299 m -11 Y s 1164 288 m 13 X s 1336 335 m 6 Y s 1330 341 m 13 X s 1336 309 m -6 Y s 1330 303 m 13 X s
 1549 391 m 8 Y s 1542 399 m 13 X s 1549 365 m -8 Y s 1542 357 m 13 X s 1760 366 m 10 Y s 1753 376 m 13 X s 1760 340 m -10 Y s 1753 330 m 13 X s 1958 390 m 12 Y s 1952 402 m 13 X s 1958 364 m -12 Y s 1952 352 m 13 X s black 1 0 1 c 310 212 m 40 28 d
 51 -18 d 48 -4 d 44 19 d 46 2 d 48 -2 d 56 65 d 83 -2 d 78 5 d 73 17 d 78 -46 d 101 20 d 114 16 d 166 10 d 213 56 d 211 -25 d 198 24 d s 310 212 350 240 401 222 449 218 493 237 539 239 587 237 643 302 726 300 804 305 877 322 955 276 1056 296 1170
 312 1336 322 1549 378 1760 353 1958 377 18 { m20} R black[ 12 12] 0 sd 309 335 m 34 Y s 303 369 m 13 X s 309 308 m -34 Y s 303 274 m 13 X s 350 318 m 12 Y s 343 330 m 13 X s 350 292 m -12 Y s 343 280 m 13 X s 401 359 m 12 Y s 394 371 m 14 X s 401
 333 m -12 Y s 394 321 m 14 X s 449 295 m 5 Y s 442 300 m 13 X s 449 269 m -5 Y s 442 264 m 13 X s 493 393 m 47 Y s 486 440 m 14 X s 493 367 m -47 Y s 486 320 m 14 X s 539 293 m 8 Y s 532 301 m 13 X s 539 267 m -8 Y s 532 259 m 13 X s 587 342 m 10 Y
 s 580 352 m 13 X s 587 316 m -10 Y s 580 306 m 13 X s 644 367 m 16 Y s 637 383 m 13 X s 644 341 m -16 Y s 637 325 m 13 X s 727 353 m 2 Y s 720 355 m 13 X s 727 327 m -3 Y s 720 324 m 13 X s 804 366 m 11 Y s 798 377 m 13 X s 804 340 m -10 Y s 798 330
 m 13 X s 877 350 m 8 Y s 870 358 m 13 X s 877 324 m -8 Y s 870 316 m 13 X s 954 334 m 6 Y s 948 340 m 13 X s 954 308 m -5 Y s 948 303 m 13 X s 1056 362 m 7 Y s 1049 369 m 13 X s 1056 336 m -7 Y s 1049 329 m 13 X s 1170 429 m 8 Y s 1164 437 m 13 X s
 1170 403 m -8 Y s 1164 395 m 13 X s 1336 450 m 5 Y s 1330 455 m 13 X s 1336 424 m -5 Y s 1330 419 m 13 X s 1549 452 m 6 Y s 1542 458 m 13 X s 1549 426 m -6 Y s 1542 420 m 13 X s 1760 505 m 11 Y s 1753 516 m 14 X s 1760 479 m -11 Y s 1753 468 m 14 X
 s 1958 459 m 9 Y s 1952 468 m 13 X s 1958 433 m -9 Y s 1952 424 m 13 X s 309 321 m 41 -16 d 51 41 d 48 -64 d 44 98 d 46 -100 d 48 49 d 57 25 d 83 -14 d 77 13 d 73 -16 d 77 -16 d 102 28 d 114 67 d 166 21 d 213 2 d 211 53 d 198 -46 d s[  ] 0 sd 309
 321 350 305 401 346 449 282 493 380 539 280 587 329 644 354 727 340 804 353 877 337 954 321 1056 349 1170 416 1336 437 1549 439 1760 492 1958 446 18 { m21} R[ 12 12] 0 sd 1 0 0 c 309 286 m 17 Y s 303 303 m 13 X s 309 260 m -18 Y s 303 242 m 13 X s
 350 440 m 65 Y s 343 505 m 13 X s 350 414 m -65 Y s 343 349 m 13 X s 401 374 m 12 Y s 395 386 m 13 X s 401 348 m -11 Y s 395 337 m 13 X s 449 442 m 28 Y s 442 470 m 13 X s 449 416 m -29 Y s 442 387 m 13 X s 493 684 m 162 Y s 487 846 m 13 X s 493 658
 m -163 Y s 487 495 m 13 X s 539 388 m 18 Y s 532 406 m 13 X s 539 362 m -18 Y s 532 344 m 13 X s 587 613 m 99 Y s 580 712 m 13 X s 587 587 m -99 Y s 580 488 m 13 X s 644 433 m 19 Y s 637 452 m 13 X s 644 407 m -18 Y s 637 389 m 13 X s 726 600 m 108
 Y s 720 708 m 13 X s 726 574 m -108 Y s 720 466 m 13 X s 804 527 m 31 Y s 798 558 m 13 X s 804 501 m -32 Y s 798 469 m 13 X s 876 465 m 16 Y s 870 481 m 13 X s 876 439 m -15 Y s 870 424 m 13 X s 954 622 m 46 Y s 948 668 m 13 X s 954 596 m -45 Y s
 948 551 m 13 X s 1056 481 m 13 Y s 1049 494 m 13 X s 1056 455 m -13 Y s 1049 442 m 13 X s 1170 504 m 12 Y s 1164 516 m 13 X s 1170 477 m -12 Y s 1164 465 m 13 X s 1336 559 m 8 Y s 1330 567 m 13 X s 1336 533 m -9 Y s 1330 524 m 13 X s 1549 707 m 32 Y
 s 1543 739 m 13 X s 1549 681 m -33 Y s 1543 648 m 13 X s 1760 707 m 29 Y s 1753 736 m 13 X s 1760 681 m -28 Y s 1753 653 m 13 X s 1958 696 m 38 Y s 1952 734 m 13 X s 1958 670 m -38 Y s 1952 632 m 13 X s black 1 0 0 c 309 273 m 41 154 d 51 -66 d 48
 68 d 44 242 d 46 -296 d 48 225 d 57 -180 d 82 167 d 78 -73 d 72 -62 d 78 157 d 102 -141 d 114 23 d 166 55 d 213 148 d 211 X 198 -11 d s[  ] 0 sd 309 273 350 427 401 361 449 429 493 671 539 375 587 600 644 420 726 587 804 514 876 452 954 609 1056 468
 1170 491 1336 546 1549 694 1760 694 1958 683 18 { m21} R[ 12 12] 0 sd 0 1 0 c 309 308 m 18 Y s 303 326 m 13 X s 309 282 m -18 Y s 303 264 m 13 X s 350 327 m 17 Y s 343 344 m 14 X s 350 301 m -17 Y s 343 284 m 14 X s 401 301 m 8 Y s 395 309 m 13 X s
 401 275 m -8 Y s 395 267 m 13 X s 449 297 m 11 Y s 443 308 m 13 X s 449 271 m -11 Y s 443 260 m 13 X s 493 311 m 15 Y s 487 326 m 13 X s 493 285 m -16 Y s 487 269 m 13 X s 539 401 m 20 Y s 533 421 m 13 X s 539 375 m -20 Y s 533 355 m 13 X s 586 423
 m 19 Y s 580 442 m 13 X s 586 397 m -19 Y s 580 378 m 13 X s 644 423 m 19 Y s 637 442 m 13 X s 644 397 m -19 Y s 637 378 m 13 X s 726 419 m 15 Y s 720 434 m 13 X s 726 393 m -16 Y s 720 377 m 13 X s 805 344 m 9 Y s 798 353 m 13 X s 805 318 m -9 Y s
 798 309 m 13 X s 876 458 m 29 Y s 870 487 m 13 X s 876 432 m -30 Y s 870 402 m 13 X s 954 392 m 27 Y s 948 419 m 13 X s 954 366 m -26 Y s 948 340 m 13 X s 1056 475 m 8 Y s 1049 483 m 13 X s 1056 449 m -9 Y s 1049 440 m 13 X s 1170 450 m 17 Y s 1164
 467 m 13 X s 1170 424 m -16 Y s 1164 408 m 13 X s 1336 489 m 10 Y s 1330 499 m 13 X s 1336 463 m -10 Y s 1330 453 m 13 X s 1549 532 m 11 Y s 1542 543 m 13 X s 1549 506 m -10 Y s 1542 496 m 13 X s 1760 591 m 20 Y s 1753 611 m 14 X s 1760 565 m -20 Y
 s 1753 545 m 14 X s 1958 657 m 28 Y s 1952 685 m 13 X s 1958 631 m -29 Y s 1952 602 m 13 X s black 0 1 0 c 309 295 m 41 19 d 51 -26 d 48 -4 d 44 14 d 46 90 d 47 22 d 58 X 82 -4 d 79 -75 d 71 114 d 78 -66 d 102 83 d 114 -25 d 166 39 d 213 43 d 211 59
 d 198 66 d s[  ] 0 sd 309 295 350 314 401 288 449 284 493 298 539 388 586 410 644 410 726 406 805 331 876 445 954 379 1056 462 1170 437 1336 476 1549 519 1760 578 1958 644 18 { m21} R[ 12 12] 0 sd 0 0 1 c 310 303 m 17 Y s 303 320 m 13 X s 310 277 m
 -17 Y s 303 260 m 13 X s 350 304 m 11 Y s 343 315 m 13 X s 350 278 m -11 Y s 343 267 m 13 X s 401 294 m 11 Y s 395 305 m 13 X s 401 268 m -11 Y s 395 257 m 13 X s 449 315 m 15 Y s 443 330 m 13 X s 449 288 m -15 Y s 443 273 m 13 X s 493 325 m 17 Y s
 487 342 m 13 X s 493 299 m -17 Y s 487 282 m 13 X s 539 327 m 19 Y s 532 346 m 13 X s 539 301 m -20 Y s 532 281 m 13 X s 587 405 m 29 Y s 580 434 m 13 X s 587 379 m -29 Y s 580 350 m 13 X s 644 276 m 6 Y s 637 282 m 13 X s 644 250 m -6 Y s 637 244 m
 13 X s 726 347 m 9 Y s 720 356 m 13 X s 726 321 m -10 Y s 720 311 m 13 X s 804 422 m 20 Y s 797 442 m 13 X s 804 396 m -20 Y s 797 376 m 13 X s 876 491 m 33 Y s 870 524 m 13 X s 876 465 m -32 Y s 870 433 m 13 X s 954 453 m 37 Y s 948 490 m 13 X s
 954 427 m -37 Y s 948 390 m 13 X s 1056 441 m 21 Y s 1049 462 m 13 X s 1056 415 m -21 Y s 1049 394 m 13 X s 1170 427 m 26 Y s 1164 453 m 13 X s 1170 401 m -25 Y s 1164 376 m 13 X s 1336 454 m 6 Y s 1330 460 m 13 X s 1336 428 m -7 Y s 1330 421 m 13 X
 s 1549 497 m 16 Y s 1542 513 m 13 X s 1549 471 m -16 Y s 1542 455 m 13 X s 1760 569 m 24 Y s 1753 593 m 13 X s 1760 543 m -23 Y s 1753 520 m 13 X s 1958 486 m 12 Y s 1952 498 m 13 X s 1958 460 m -11 Y s 1952 449 m 13 X s black 0 0 1 c 310 290 m 40 1
 d 51 -10 d 48 21 d 44 10 d 46 2 d 48 78 d 57 -129 d 82 71 d 78 75 d 72 69 d 78 -38 d 102 -12 d 114 -14 d 166 27 d 213 43 d 211 72 d 198 -83 d s[  ] 0 sd 310 290 350 291 401 281 449 302 493 312 539 314 587 392 644 263 726 334 804 409 876 478 954 440
 1056 428 1170 414 1336 441 1549 484 1760 556 1958 473 18 { m21} R[ 12 12] 0 sd 1 1 0 c 310 291 m 16 Y s 303 307 m 13 X s 310 265 m -15 Y s 303 250 m 13 X s 350 309 m 18 Y s 343 327 m 13 X s 350 283 m -17 Y s 343 266 m 13 X s 401 335 m 22 Y s 395 357
 m 13 X s 401 309 m -22 Y s 395 287 m 13 X s 449 281 m 18 Y s 442 299 m 13 X s 449 255 m -18 Y s 442 237 m 13 X s 493 290 m 13 Y s 486 303 m 13 X s 493 264 m -12 Y s 486 252 m 13 X s 539 332 m 17 Y s 532 349 m 13 X s 539 306 m -16 Y s 532 290 m 13 X
 s 587 351 m 18 Y s 580 369 m 13 X s 587 325 m -19 Y s 580 306 m 13 X s 644 362 m 27 Y s 637 389 m 13 X s 644 336 m -26 Y s 637 310 m 13 X s 727 348 m 7 Y s 720 355 m 13 X s 727 322 m -8 Y s 720 314 m 13 X s 804 415 m 94 Y s 798 509 m 13 X s 804 389
 m -93 Y s 798 296 m 13 X s 876 300 m 6 Y s 870 306 m 13 X s 876 274 m -6 Y s 870 268 m 13 X s 954 401 m 35 Y s 948 436 m 13 X s 954 374 m -35 Y s 948 339 m 13 X s 1056 376 m 8 Y s 1049 384 m 14 X s 1056 350 m -9 Y s 1049 341 m 14 X s 1170 384 m 10 Y
 s 1164 394 m 13 X s 1170 358 m -10 Y s 1164 348 m 13 X s 1336 404 m 24 Y s 1330 428 m 13 X s 1336 378 m -24 Y s 1330 354 m 13 X s 1549 407 m 13 Y s 1542 420 m 13 X s 1549 381 m -13 Y s 1542 368 m 13 X s 1760 527 m 16 Y s 1753 543 m 13 X s 1760 501 m
 -16 Y s 1753 485 m 13 X s 1958 475 m 11 Y s 1952 486 m 13 X s 1958 449 m -11 Y s 1952 438 m 13 X s black 1 1 0 c 310 278 m 40 18 d 51 26 d 48 -54 d 44 9 d 46 42 d 48 19 d 57 11 d 83 -14 d 77 67 d 72 -115 d 78 100 d 102 -24 d 114 8 d 166 20 d 213 3 d
 211 120 d 198 -52 d s[  ] 0 sd 310 278 350 296 401 322 449 268 493 277 539 319 587 338 644 349 727 335 804 402 876 287 954 387 1056 363 1170 371 1336 391 1549 394 1760 514 1958 462 18 { m21} R[ 12 12] 0 sd 1 0 1 c 309 267 m 14 Y s 303 281 m 13 X s
 309 241 m -13 Y s 303 228 m 13 X s 350 224 m 7 Y s 343 231 m 13 X s 350 198 m -7 Y s 343 191 m 13 X s 401 228 m 7 Y s 395 235 m 13 X s 401 202 m -8 Y s 395 194 m 13 X s 449 236 m 16 Y s 442 252 m 13 X s 449 210 m -16 Y s 442 194 m 13 X s 493 257 m
 13 Y s 487 270 m 13 X s 493 231 m -14 Y s 487 217 m 13 X s 539 256 m 6 Y s 533 262 m 13 X s 539 230 m -6 Y s 533 224 m 13 X s 587 252 m 11 Y s 580 263 m 13 X s 587 226 m -10 Y s 580 216 m 13 X s 643 269 m 10 Y s 637 279 m 13 X s 643 243 m -10 Y s
 637 233 m 13 X s 727 305 m 18 Y s 720 323 m 13 X s 727 279 m -18 Y s 720 261 m 13 X s 804 327 m 10 Y s 798 337 m 13 X s 804 301 m -10 Y s 798 291 m 13 X s 876 256 m 5 Y s 870 261 m 13 X s 876 230 m -5 Y s 870 225 m 13 X s 954 322 m 17 Y s 948 339 m
 13 X s 954 296 m -16 Y s 948 280 m 13 X s 1056 315 m 16 Y s 1049 331 m 13 X s 1056 289 m -16 Y s 1049 273 m 13 X s 1170 303 m 5 Y s 1164 308 m 13 X s 1170 277 m -5 Y s 1164 272 m 13 X s 1336 298 m 2 Y s 1330 300 m 13 X s 1336 272 m -1 Y s 1330 271 m
 13 X s 1549 284 m 2 Y s 1542 286 m 13 X s 1549 258 m -1 Y s 1542 257 m 13 X s 1760 418 m 12 Y s 1753 430 m 13 X s 1760 392 m -13 Y s 1753 379 m 13 X s 1958 378 m 14 Y s 1952 392 m 13 X s 1958 352 m -14 Y s 1952 338 m 13 X s black 1 0 1 c 309 254 m
 41 -43 d 51 4 d 48 8 d 44 21 d 46 -1 d 48 -4 d 56 17 d 84 36 d 77 22 d 72 -71 d 78 66 d 102 -7 d 114 -12 d 166 -5 d 213 -14 d 211 134 d 198 -40 d s[  ] 0 sd 309 254 350 211 401 215 449 223 493 244 539 243 587 239 643 256 727 292 804 314 876 243 954
 309 1056 302 1170 290 1336 285 1549 271 1760 405 1958 365 18 { m21} R[ 12 12] 0 sd black
 gsave  2268 1538 0 0 C 325.821 1300.03 t 0 r /Helvetica-Bold findfont 58.6478 sf 0 0 m (Sct Disk \(left\)) show NC gr 
 gsave  2268 1538 0 0 C 430.084 1244.64 t 0 r /Helvetica-Bold findfont 58.6478 sf 0 0 m (Disk 0) show NC gr [  ] 0 sd 334 1256 m 80 X s 374 1256 m20
 gsave  2268 1538 0 0 C 430.084 1189.25 t 0 r /Helvetica-Bold findfont 58.6478 sf 0 0 m (Disk 1) show NC gr  1 0 0 c 334 1201 m 80 X s 374 1201 m20 black
 gsave  2268 1538 0 0 C 430.084 1133.86 t 0 r /Helvetica-Bold findfont 58.6478 sf 0 0 m (Disk 2) show NC gr  0 1 0 c 334 1146 m 80 X s 374 1146 m20 black
 gsave  2268 1538 0 0 C 430.084 1078.47 t 0 r /Helvetica-Bold findfont 58.6478 sf 0 0 m (Disk 3) show NC gr  0 0 1 c 334 1091 m 80 X s 374 1091 m20 black
 gsave  2268 1538 0 0 C 430.084 1026.34 t 0 r /Helvetica-Bold findfont 58.6478 sf 0 0 m (Disk 4) show NC gr  1 1 0 c 334 1036 m 80 X s 374 1036 m20 black
 gsave  2268 1538 0 0 C 430.084 970.948 t 0 r /Helvetica-Bold findfont 58.6478 sf 0 0 m (Disk 5) show NC gr  1 0 1 c 334 981 m 80 X s 374 981 m20 black
 gsave  2268 1538 0 0 C 915.558 1300.03 t 0 r /Helvetica-Bold findfont 58.6478 sf 0 0 m (  \(right\)) show NC gr 
 gsave  2268 1538 0 0 C 1019.82 1244.64 t 0 r /Helvetica-Bold findfont 58.6478 sf 0 0 m (Disk 0) show NC gr [ 12 12] 0 sd 924 1256 m 79 X s[  ] 0 sd 964 1256 m21[ 12 12] 0 sd
 gsave  2268 1538 0 0 C 1019.82 1189.25 t 0 r /Helvetica-Bold findfont 58.6478 sf 0 0 m (Disk 1) show NC gr  1 0 0 c 924 1201 m 79 X s[  ] 0 sd 964 1201 m21[ 12 12] 0 sd black
 gsave  2268 1538 0 0 C 1019.82 1133.86 t 0 r /Helvetica-Bold findfont 58.6478 sf 0 0 m (Disk 2) show NC gr  0 1 0 c 924 1146 m 79 X s[  ] 0 sd 964 1146 m21[ 12 12] 0 sd black
 gsave  2268 1538 0 0 C 1019.82 1078.47 t 0 r /Helvetica-Bold findfont 58.6478 sf 0 0 m (Disk 3) show NC gr  0 0 1 c 924 1091 m 79 X s[  ] 0 sd 964 1091 m21[ 12 12] 0 sd black
 gsave  2268 1538 0 0 C 1019.82 1026.34 t 0 r /Helvetica-Bold findfont 58.6478 sf 0 0 m (Disk 4) show NC gr  1 1 0 c 924 1036 m 79 X s[  ] 0 sd 964 1036 m21[ 12 12] 0 sd black
 gsave  2268 1538 0 0 C 1019.82 970.948 t 0 r /Helvetica-Bold findfont 58.6478 sf 0 0 m (Disk 5) show NC gr  1 0 1 c 924 981 m 79 X s[  ] 0 sd 964 981 m21[ 12 12] 0 sd
 gr  gr showpage
end
%%EOF
