%!PS-Adobe-2.0 EPSF-2.0
%%BoundingBox:  0 0 567 384
%%Title: d3pdDirr/sct_occupancy/size_sctlayer_mg.eps: c1_n29
%%Creator: ROOT Version 6.04/12
%%CreationDate: Tue Apr 26 00:12:44 2016
%%DocumentNeededResources: ProcSet (FontSetInit)
%%EndComments
%%BeginProlog
80 dict begin
/s {stroke} def /l {lineto} def /m {moveto} def /t {translate} def
/r {rotate} def /rl {roll}  def /R {repeat} def
/d {rlineto} def /rm {rmoveto} def /gr {grestore} def /f {eofill} def
/c {setrgbcolor} def /black {0 setgray} def /sd {setdash} def
/cl {closepath} def /sf {scalefont setfont} def /lw {setlinewidth} def
/box {m dup 0 exch d exch 0 d 0 exch neg d cl} def
/NC{systemdict begin initclip end}def/C{NC box clip newpath}def
/bl {box s} def /bf {gsave box gsave f grestore 1 lw [] 0 sd s grestore} def /Y { 0 exch d} def /X { 0 d} def 
/K {{pop pop 0 moveto} exch kshow} bind def
/ita {/ang 15 def gsave [1 0 ang dup sin exch cos div 1 0 0] concat} def 
/mp {newpath /y exch def /x exch def} def
/side {[w .77 mul w .23 mul] .385 w mul sd w 0 l currentpoint t -144 r} def
/mr {mp x y w2 0 360 arc} def /m24 {mr s} def /m20 {mr f} def
/mb {mp x y w2 add m w2 neg 0 d 0 w neg d w 0 d 0 w d cl} def
/mt {mp x y w2 add m w2 neg w neg d w 0 d cl} def
/m21 {mb f} def /m25 {mb s} def /m22 {mt f} def /m26{mt s} def
/m23 {mp x y w2 sub m w2 w d w neg 0 d cl f} def
/m27 {mp x y w2 add m w3 neg w2 neg d w3 w2 neg d w3 w2 d cl s} def
/m28 {mp x w2 sub y w2 sub w3 add m w3 0 d  0 w3 neg d w3 0 d 0 w3 d w3 0 d  0 w3 d w3 neg 0 d 0 w3 d w3 neg 0 d 0 w3 neg d w3 neg 0 d cl s } def
/m29 {mp gsave x w2 sub y w2 add w3 sub m currentpoint t 4 {side} repeat cl fill gr} def
/m30 {mp gsave x w2 sub y w2 add w3 sub m currentpoint t 4 {side} repeat cl s gr} def
/m31 {mp x y w2 sub m 0 w d x w2 sub y m w 0 d x w2 sub y w2 add m w w neg d x w2 sub y w2 sub m w w d s} def
/m32 {mp x y w2 sub m w2 w d w neg 0 d cl s} def
/m33 {mp x y w2 add m w3 neg w2 neg d w3 w2 neg d w3 w2 d cl f} def
/m34 {mp x w2 sub y w2 sub w3 add m w3 0 d  0 w3 neg d w3 0 d 0 w3 d w3 0 d  0 w3 d w3 neg 0 d 0 w3 d w3 neg 0 d 0 w3 neg d w3 neg 0 d cl f } def
/m2 {mp x y w2 sub m 0 w d x w2 sub y m w 0 d s} def
/m5 {mp x w2 sub y w2 sub m w w d x w2 sub y w2 add m w w neg d s} def
%%IncludeResource: ProcSet (FontSetInit)
%%IncludeResource: font Times-Roman
%%IncludeResource: font Times-Italic
%%IncludeResource: font Times-Bold
%%IncludeResource: font Times-BoldItalic
%%IncludeResource: font Helvetica
%%IncludeResource: font Helvetica-Oblique
%%IncludeResource: font Helvetica-Bold
%%IncludeResource: font Helvetica-BoldOblique
%%IncludeResource: font Courier
%%IncludeResource: font Courier-Oblique
%%IncludeResource: font Courier-Bold
%%IncludeResource: font Courier-BoldOblique
%%IncludeResource: font Symbol
%%IncludeResource: font ZapfDingbats
/reEncode {exch findfont dup length dict begin {1 index /FID eq  {pop pop} {def} ifelse } forall /Encoding exch def currentdict end dup /FontName get exch definefont pop } def [/Times-Bold /Times-Italic /Times-BoldItalic /Helvetica /Helvetica-Oblique
 /Helvetica-Bold /Helvetica-BoldOblique /Courier /Courier-Oblique /Courier-Bold /Courier-BoldOblique /Times-Roman /AvantGarde-Book /AvantGarde-BookOblique /AvantGarde-Demi /AvantGarde-DemiOblique /Bookman-Demi /Bookman-DemiItalic /Bookman-Light
 /Bookman-LightItalic /Helvetica-Narrow /Helvetica-Narrow-Bold /Helvetica-Narrow-BoldOblique /Helvetica-Narrow-Oblique /NewCenturySchlbk-Roman /NewCenturySchlbk-Bold /NewCenturySchlbk-BoldItalic /NewCenturySchlbk-Italic /Palatino-Bold
 /Palatino-BoldItalic /Palatino-Italic /Palatino-Roman ] {ISOLatin1Encoding reEncode } forall
%%EndProlog
%%BeginSetup
%%EndSetup
newpath  gsave  .25 .25 scale  gsave  0 0 t black[  ] 0 sd 3 lw 1 1 1 c 2268 1538 0 0 bf black 1 1 1 c 1814 1230 227 154 bf black 1814 1230 227 154 bl 1 1 1 c 1814 1230 227 154 bf black 1814 1230 227 154 bl 227 154 m 1814 X s
 gsave  2268 1538 0 0 C 1772.47 32.5821 t 0 r /Helvetica-Bold findfont 58.6478 sf 0 0 m (moduleID) show NC gr  250 191 m -37 Y s 309 172 m -18 Y s 368 172 m -18 Y s 427 172 m -18 Y s 486 172 m -18 Y s 545 191 m -37 Y s 604 172 m -18 Y s 663 172 m -18
 Y s 722 172 m -18 Y s 780 172 m -18 Y s 839 191 m -37 Y s 898 172 m -18 Y s 957 172 m -18 Y s 1016 172 m -18 Y s 1075 172 m -18 Y s 1134 191 m -37 Y s 1193 172 m -18 Y s 1252 172 m -18 Y s 1311 172 m -18 Y s 1369 172 m -18 Y s 1428 191 m -37 Y s
 1487 172 m -18 Y s 1546 172 m -18 Y s 1605 172 m -18 Y s 1664 172 m -18 Y s 1723 191 m -37 Y s 1782 172 m -18 Y s 1841 172 m -18 Y s 1900 172 m -18 Y s 1958 172 m -18 Y s 2017 191 m -37 Y s 250 191 m -37 Y s 2017 191 m -37 Y s
 gsave  2268 1538 0 0 C 228.075 97.7464 t 0 r /Helvetica-Bold findfont 58.6478 sf 0 0 m (30) show NC gr 
 gsave  2268 1538 0 0 C 198.751 97.7464 t 0 r /Symbol findfont 58.6478 sf 0 0 m (-) show NC gr 
 gsave  2268 1538 0 0 C 524.572 97.7464 t 0 r /Helvetica-Bold findfont 58.6478 sf 0 0 m (20) show NC gr 
 gsave  2268 1538 0 0 C 495.248 97.7464 t 0 r /Symbol findfont 58.6478 sf 0 0 m (-) show NC gr 
 gsave  2268 1538 0 0 C 817.812 97.7464 t 0 r /Helvetica-Bold findfont 58.6478 sf 0 0 m (10) show NC gr 
 gsave  2268 1538 0 0 C 788.488 97.7464 t 0 r /Symbol findfont 58.6478 sf 0 0 m (-) show NC gr 
 gsave  2268 1538 0 0 C 1117.57 97.7464 t 0 r /Helvetica-Bold findfont 58.6478 sf 0 0 m (0) show NC gr 
 gsave  2268 1538 0 0 C 1394.52 97.7464 t 0 r /Helvetica-Bold findfont 58.6478 sf 0 0 m (10) show NC gr 
 gsave  2268 1538 0 0 C 1687.75 97.7464 t 0 r /Helvetica-Bold findfont 58.6478 sf 0 0 m (20) show NC gr 
 gsave  2268 1538 0 0 C 1984.25 97.7464 t 0 r /Helvetica-Bold findfont 58.6478 sf 0 0 m (30) show NC gr  227 1384 m 1814 X s 250 1347 m 37 Y s 309 1366 m 18 Y s 368 1366 m 18 Y s 427 1366 m 18 Y s 486 1366 m 18 Y s 545 1347 m 37 Y s 604 1366 m 18 Y s
 663 1366 m 18 Y s 722 1366 m 18 Y s 780 1366 m 18 Y s 839 1347 m 37 Y s 898 1366 m 18 Y s 957 1366 m 18 Y s 1016 1366 m 18 Y s 1075 1366 m 18 Y s 1134 1347 m 37 Y s 1193 1366 m 18 Y s 1252 1366 m 18 Y s 1311 1366 m 18 Y s 1369 1366 m 18 Y s 1428
 1347 m 37 Y s 1487 1366 m 18 Y s 1546 1366 m 18 Y s 1605 1366 m 18 Y s 1664 1366 m 18 Y s 1723 1347 m 37 Y s 1782 1366 m 18 Y s 1841 1366 m 18 Y s 1900 1366 m 18 Y s 1958 1366 m 18 Y s 2017 1347 m 37 Y s 250 1347 m 37 Y s 2017 1347 m 37 Y s 227 154
 m 1230 Y s
 gsave  2268 1538 0 0 C 104.263 1055.66 t 90 r /Helvetica-Bold findfont 58.6478 sf 0 0 m (Cluster size) show NC gr  281 192 m -54 X s 254 226 m -27 X s 254 261 m -27 X s 254 295 m -27 X s 254 330 m -27 X s 281 364 m -54 X s 254 399 m -27 X s 254 433
 m -27 X s 254 468 m -27 X s 254 502 m -27 X s 281 537 m -54 X s 254 572 m -27 X s 254 606 m -27 X s 254 641 m -27 X s 254 675 m -27 X s 281 710 m -54 X s 254 744 m -27 X s 254 779 m -27 X s 254 813 m -27 X s 254 848 m -27 X s 281 882 m -54 X s 254
 917 m -27 X s 254 951 m -27 X s 254 986 m -27 X s 254 1020 m -27 X s 281 1055 m -54 X s 254 1090 m -27 X s 254 1124 m -27 X s 254 1159 m -27 X s 254 1193 m -27 X s 281 1228 m -54 X s 281 192 m -54 X s 254 157 m -27 X s 281 1228 m -54 X s 254 1262 m
 -27 X s 254 1297 m -27 X s 254 1331 m -27 X s 254 1366 m -27 X s
 gsave  2268 1538 0 0 C 182.46 166.169 t 0 r /Helvetica-Bold findfont 58.6478 sf 0 0 m (2) show NC gr 
 gsave  2268 1538 0 0 C 133.587 342.112 t 0 r /Helvetica-Bold findfont 58.6478 sf 0 0 m (2.5) show NC gr 
 gsave  2268 1538 0 0 C 182.46 514.798 t 0 r /Helvetica-Bold findfont 58.6478 sf 0 0 m (3) show NC gr 
 gsave  2268 1538 0 0 C 133.587 687.483 t 0 r /Helvetica-Bold findfont 58.6478 sf 0 0 m (3.5) show NC gr 
 gsave  2268 1538 0 0 C 182.46 860.168 t 0 r /Helvetica-Bold findfont 58.6478 sf 0 0 m (4) show NC gr 
 gsave  2268 1538 0 0 C 133.587 1032.85 t 0 r /Helvetica-Bold findfont 58.6478 sf 0 0 m (4.5) show NC gr 
 gsave  2268 1538 0 0 C 182.46 1205.54 t 0 r /Helvetica-Bold findfont 58.6478 sf 0 0 m (5) show NC gr  2041 154 m 1230 Y s 1987 192 m 54 X s 2014 226 m 27 X s 2014 261 m 27 X s 2014 295 m 27 X s 2014 330 m 27 X s 1987 364 m 54 X s 2014 399 m 27 X s
 2014 433 m 27 X s 2014 468 m 27 X s 2014 502 m 27 X s 1987 537 m 54 X s 2014 572 m 27 X s 2014 606 m 27 X s 2014 641 m 27 X s 2014 675 m 27 X s 1987 710 m 54 X s 2014 744 m 27 X s 2014 779 m 27 X s 2014 813 m 27 X s 2014 848 m 27 X s 1987 882 m 54 X
 s 2014 917 m 27 X s 2014 951 m 27 X s 2014 986 m 27 X s 2014 1020 m 27 X s 1987 1055 m 54 X s 2014 1090 m 27 X s 2014 1124 m 27 X s 2014 1159 m 27 X s 2014 1193 m 27 X s 1987 1228 m 54 X s 1987 192 m 54 X s 2014 157 m 27 X s 1987 1228 m 54 X s 2014
 1262 m 27 X s 2014 1297 m 27 X s 2014 1331 m 27 X s 2014 1366 m 27 X s 309 437 m 37 Y s 303 474 m 13 X s 309 411 m -37 Y s 303 374 m 13 X s 339 407 m 43 Y s 332 450 m 13 X s 339 381 m -43 Y s 332 338 m 13 X s 368 473 m 71 Y s 362 544 m 13 X s 368
 447 m -71 Y s 362 376 m 13 X s 398 485 m 24 Y s 391 509 m 13 X s 398 459 m -25 Y s 391 434 m 13 X s 427 378 m 20 Y s 421 398 m 13 X s 427 352 m -20 Y s 421 332 m 13 X s 456 461 m 75 Y s 450 536 m 13 X s 456 435 m -75 Y s 450 360 m 13 X s 486 464 m
 54 Y s 479 518 m 13 X s 486 438 m -54 Y s 479 384 m 13 X s 515 327 m 19 Y s 509 346 m 13 X s 515 301 m -18 Y s 509 283 m 13 X s 545 354 m 41 Y s 538 395 m 13 X s 545 328 m -41 Y s 538 287 m 13 X s 574 425 m 52 Y s 568 477 m 13 X s 574 399 m -51 Y s
 568 348 m 13 X s 604 414 m 40 Y s 597 454 m 13 X s 604 388 m -39 Y s 597 349 m 13 X s 633 476 m 90 Y s 627 566 m 13 X s 633 450 m -89 Y s 627 361 m 13 X s 663 400 m 24 Y s 656 424 m 13 X s 663 374 m -23 Y s 656 351 m 13 X s 692 437 m 38 Y s 686 475
 m 13 X s 692 411 m -39 Y s 686 372 m 13 X s 722 467 m 40 Y s 715 507 m 13 X s 722 441 m -40 Y s 715 401 m 13 X s 751 403 m 27 Y s 744 430 m 14 X s 751 377 m -28 Y s 744 349 m 14 X s 780 345 m 17 Y s 774 362 m 13 X s 780 319 m -18 Y s 774 301 m 13 X
 s 810 345 m 25 Y s 803 370 m 13 X s 810 319 m -25 Y s 803 294 m 13 X s 839 378 m 68 Y s 833 446 m 13 X s 839 352 m -68 Y s 833 284 m 13 X s 869 370 m 19 Y s 862 389 m 13 X s 869 344 m -20 Y s 862 324 m 13 X s 898 369 m 35 Y s 892 404 m 13 X s 898
 343 m -35 Y s 892 308 m 13 X s 928 423 m 43 Y s 921 466 m 13 X s 928 397 m -44 Y s 921 353 m 13 X s 957 426 m 42 Y s 951 468 m 13 X s 957 400 m -42 Y s 951 358 m 13 X s 987 383 m 53 Y s 980 436 m 13 X s 987 357 m -53 Y s 980 304 m 13 X s 1016 325 m
 25 Y s 1010 350 m 13 X s 1016 299 m -26 Y s 1010 273 m 13 X s 1046 230 m 14 Y s 1039 244 m 13 X s 1046 204 m -13 Y s 1039 191 m 13 X s 1075 229 m 13 Y s 1068 242 m 13 X s 1075 203 m -12 Y s 1068 191 m 13 X s 1104 262 m 24 Y s 1098 286 m 13 X s 1104
 235 m -24 Y s 1098 211 m 13 X s 1163 379 m 35 Y s 1157 414 m 13 X s 1163 353 m -35 Y s 1157 318 m 13 X s 1193 260 m 15 Y s 1186 275 m 13 X s 1193 234 m -15 Y s 1186 219 m 13 X s 1222 321 m 24 Y s 1216 345 m 13 X s 1222 295 m -23 Y s 1216 272 m 13 X
 s 1252 237 m 10 Y s 1245 247 m 13 X s 1252 211 m -10 Y s 1245 201 m 13 X s 1281 394 m 85 Y s 1275 479 m 13 X s 1281 368 m -85 Y s 1275 283 m 13 X s 1311 298 m 15 Y s 1304 313 m 13 X s 1311 272 m -15 Y s 1304 257 m 13 X s 1340 323 m 71 Y s 1333 394 m
 14 X s 1340 297 m -70 Y s 1333 227 m 14 X s 1369 313 m 25 Y s 1363 338 m 13 X s 1369 287 m -26 Y s 1363 261 m 13 X s 1399 407 m 71 Y s 1392 478 m 13 X s 1399 381 m -70 Y s 1392 311 m 13 X s 1428 368 m 85 Y s 1422 453 m 13 X s 1428 342 m -84 Y s 1422
 258 m 13 X s 1458 351 m 26 Y s 1451 377 m 13 X s 1458 325 m -26 Y s 1451 299 m 13 X s 1487 350 m 31 Y s 1481 381 m 13 X s 1487 324 m -31 Y s 1481 293 m 13 X s 1517 429 m 38 Y s 1510 467 m 13 X s 1517 403 m -38 Y s 1510 365 m 13 X s 1546 339 m 15 Y s
 1540 354 m 13 X s 1546 312 m -15 Y s 1540 297 m 13 X s 1576 510 m 79 Y s 1569 589 m 13 X s 1576 484 m -79 Y s 1569 405 m 13 X s 1605 390 m 32 Y s 1599 422 m 13 X s 1605 364 m -32 Y s 1599 332 m 13 X s 1635 369 m 22 Y s 1628 391 m 13 X s 1635 343 m
 -22 Y s 1628 321 m 13 X s 1664 309 m 19 Y s 1657 328 m 13 X s 1664 283 m -19 Y s 1657 264 m 13 X s 1693 339 m 14 Y s 1687 353 m 13 X s 1693 313 m -15 Y s 1687 298 m 13 X s 1723 313 m 14 Y s 1716 327 m 13 X s 1723 287 m -14 Y s 1716 273 m 13 X s 1752
 421 m 36 Y s 1746 457 m 13 X s 1752 395 m -36 Y s 1746 359 m 13 X s 1782 545 m 86 Y s 1775 631 m 13 X s 1782 519 m -86 Y s 1775 433 m 13 X s 1811 344 m 20 Y s 1805 364 m 13 X s 1811 318 m -19 Y s 1805 299 m 13 X s 1841 362 m 18 Y s 1834 380 m 13 X s
 1841 336 m -18 Y s 1834 318 m 13 X s 1870 399 m 26 Y s 1864 425 m 13 X s 1870 373 m -27 Y s 1864 346 m 13 X s 1900 407 m 32 Y s 1893 439 m 13 X s 1900 381 m -32 Y s 1893 349 m 13 X s 1929 416 m 27 Y s 1923 443 m 13 X s 1929 390 m -28 Y s 1923 362 m
 13 X s 1958 384 m 17 Y s 1952 401 m 13 X s 1958 358 m -18 Y s 1952 340 m 13 X s 309 424 m 30 -30 d 29 66 d 30 12 d 29 -107 d 29 83 d 30 3 d 29 -137 d 30 27 d 29 71 d 30 -11 d 29 62 d 30 -76 d 29 37 d 30 30 d 29 -64 d 29 -58 d 30 X 29 33 d 30 -8 d 29
 -1 d 30 54 d 29 3 d 30 -43 d 29 -58 d 30 -95 d 29 -1 d 29 32 d 59 118 d 30 -119 d 29 61 d 30 -84 d 29 157 d 30 -96 d 29 25 d 29 -10 d 30 94 d 29 -39 d 30 -17 d 29 -1 d 30 79 d 29 -91 d 30 172 d 29 -120 d 30 -21 d 29 -60 d 29 30 d 30 -26 d 29 108 d
 30 124 d 29 -201 d 30 18 d 29 37 d 30 8 d 29 9 d 29 -32 d s /w 26 def /w2 {w 2 div} def /w3 {w 3 div} def 309 424 339 394 368 460 398 472 427 365 456 448 486 451 515 314 545 341 574 412 604 401 633 463 663 387 692 424 722 454 751 390 780 332 810 332
 839 365 869 357 898 356 928 410 957 413 987 370 1016 312 1046 217 1075 216 1104 248 1163 366 1193 247 1222 308 1252 224 1281 381 1311 285 1340 310 1369 300 1399 394 1428 355 1458 338 1487 337 1517 416 1546 325 1576 497 1605 377 1635 356 1664 296
 1693 326 1723 300 1752 408 1782 532 1811 331 1841 349 1870 386 1900 394 1929 403 1958 371 56 { m20} R 1 0 0 c 309 290 m 15 Y s 303 305 m 13 X s 309 264 m -15 Y s 303 249 m 13 X s 339 472 m 36 Y s 332 508 m 13 X s 339 446 m -36 Y s 332 410 m 13 X s
 368 391 m 25 Y s 362 416 m 13 X s 368 365 m -25 Y s 362 340 m 13 X s 398 425 m 35 Y s 391 460 m 13 X s 398 398 m -34 Y s 391 364 m 13 X s 427 298 m 17 Y s 421 315 m 13 X s 427 272 m -16 Y s 421 256 m 13 X s 456 360 m 23 Y s 450 383 m 13 X s 456 334
 m -23 Y s 450 311 m 13 X s 486 310 m 21 Y s 479 331 m 13 X s 486 284 m -22 Y s 479 262 m 13 X s 515 315 m 24 Y s 509 339 m 13 X s 515 289 m -23 Y s 509 266 m 13 X s 545 383 m 24 Y s 538 407 m 13 X s 545 357 m -23 Y s 538 334 m 13 X s 574 345 m 17 Y
 s 568 362 m 13 X s 574 318 m -17 Y s 568 301 m 13 X s 604 344 m 24 Y s 597 368 m 13 X s 604 318 m -24 Y s 597 294 m 13 X s 633 436 m 46 Y s 627 482 m 13 X s 633 410 m -46 Y s 627 364 m 13 X s 663 369 m 25 Y s 656 394 m 13 X s 663 343 m -25 Y s 656
 318 m 13 X s 692 418 m 68 Y s 686 486 m 13 X s 692 391 m -68 Y s 686 323 m 13 X s 722 365 m 29 Y s 715 394 m 13 X s 722 339 m -28 Y s 715 311 m 13 X s 751 324 m 21 Y s 744 345 m 14 X s 751 298 m -20 Y s 744 278 m 14 X s 780 278 m 20 Y s 774 298 m 13
 X s 780 252 m -20 Y s 774 232 m 13 X s 810 398 m 81 Y s 803 479 m 13 X s 810 372 m -82 Y s 803 290 m 13 X s 839 361 m 25 Y s 833 386 m 13 X s 839 335 m -25 Y s 833 310 m 13 X s 869 306 m 25 Y s 862 331 m 13 X s 869 280 m -26 Y s 862 254 m 13 X s 898
 259 m 16 Y s 892 275 m 13 X s 898 233 m -16 Y s 892 217 m 13 X s 928 322 m 25 Y s 921 347 m 13 X s 928 296 m -26 Y s 921 270 m 13 X s 957 231 m 16 Y s 951 247 m 13 X s 957 205 m -17 Y s 951 188 m 13 X s 987 253 m 12 Y s 980 265 m 13 X s 987 227 m
 -12 Y s 980 215 m 13 X s 1016 306 m 26 Y s 1010 332 m 13 X s 1016 280 m -26 Y s 1010 254 m 13 X s 1046 620 m 260 Y s 1039 880 m 13 X s 1046 594 m -260 Y s 1039 334 m 13 X s 1075 468 m 61 Y s 1068 529 m 13 X s 1075 442 m -60 Y s 1068 382 m 13 X s
 1104 308 m 19 Y s 1098 327 m 13 X s 1104 282 m -18 Y s 1098 264 m 13 X s 1163 286 m 16 Y s 1157 302 m 13 X s 1163 260 m -17 Y s 1157 243 m 13 X s 1193 432 m 89 Y s 1186 521 m 13 X s 1193 406 m -89 Y s 1186 317 m 13 X s 1222 358 m 36 Y s 1216 394 m
 13 X s 1222 331 m -36 Y s 1216 295 m 13 X s 1252 291 m 15 Y s 1245 306 m 13 X s 1252 265 m -14 Y s 1245 251 m 13 X s 1281 344 m 26 Y s 1275 370 m 13 X s 1281 318 m -26 Y s 1275 292 m 13 X s 1311 391 m 45 Y s 1304 436 m 13 X s 1311 365 m -44 Y s 1304
 321 m 13 X s 1340 274 m 16 Y s 1333 290 m 14 X s 1340 248 m -16 Y s 1333 232 m 14 X s 1369 376 m 31 Y s 1363 407 m 13 X s 1369 350 m -30 Y s 1363 320 m 13 X s 1399 376 m 27 Y s 1392 403 m 13 X s 1399 350 m -28 Y s 1392 322 m 13 X s 1428 405 m 34 Y s
 1422 439 m 13 X s 1428 379 m -34 Y s 1422 345 m 13 X s 1458 298 m 16 Y s 1451 314 m 13 X s 1458 272 m -15 Y s 1451 257 m 13 X s 1487 303 m 15 Y s 1481 318 m 13 X s 1487 277 m -15 Y s 1481 262 m 13 X s 1517 312 m 38 Y s 1510 350 m 13 X s 1517 286 m
 -38 Y s 1510 248 m 13 X s 1546 318 m 19 Y s 1540 337 m 13 X s 1546 292 m -18 Y s 1540 274 m 13 X s 1576 362 m 20 Y s 1569 382 m 13 X s 1576 336 m -21 Y s 1569 315 m 13 X s 1605 519 m 88 Y s 1599 607 m 13 X s 1605 492 m -88 Y s 1599 404 m 13 X s 1635
 597 m 174 Y s 1628 771 m 13 X s 1635 571 m -174 Y s 1628 397 m 13 X s 1664 403 m 41 Y s 1657 444 m 13 X s 1664 377 m -41 Y s 1657 336 m 13 X s 1693 408 m 23 Y s 1687 431 m 13 X s 1693 382 m -23 Y s 1687 359 m 13 X s 1723 402 m 36 Y s 1716 438 m 13 X
 s 1723 376 m -36 Y s 1716 340 m 13 X s 1752 450 m 44 Y s 1746 494 m 13 X s 1752 424 m -45 Y s 1746 379 m 13 X s 1782 379 m 20 Y s 1775 399 m 13 X s 1782 353 m -21 Y s 1775 332 m 13 X s 1811 488 m 39 Y s 1805 527 m 13 X s 1811 462 m -39 Y s 1805 423
 m 13 X s 1841 455 m 31 Y s 1834 486 m 13 X s 1841 429 m -32 Y s 1834 397 m 13 X s 1870 496 m 52 Y s 1864 548 m 13 X s 1870 470 m -53 Y s 1864 417 m 13 X s 1900 378 m 26 Y s 1893 404 m 13 X s 1900 352 m -26 Y s 1893 326 m 13 X s 1929 453 m 41 Y s
 1923 494 m 13 X s 1929 427 m -41 Y s 1923 386 m 13 X s 1958 455 m 45 Y s 1952 500 m 13 X s 1958 429 m -44 Y s 1952 385 m 13 X s black 1 0 0 c 309 277 m 30 182 d 29 -81 d 30 34 d 29 -127 d 29 62 d 30 -50 d 29 5 d 30 68 d 29 -38 d 30 -1 d 29 92 d 30
 -67 d 29 48 d 30 -52 d 29 -41 d 29 -46 d 30 120 d 29 -37 d 30 -55 d 29 -47 d 30 63 d 29 -91 d 30 22 d 29 53 d 30 314 d 29 -152 d 29 -160 d 59 -22 d 30 146 d 29 -74 d 30 -67 d 29 53 d 30 47 d 29 -117 d 29 102 d 30 X 29 29 d 30 -107 d 29 5 d 30 9 d 29
 6 d 30 44 d 29 157 d 30 78 d 29 -194 d 29 5 d 30 -6 d 29 48 d 30 -71 d 29 109 d 30 -33 d 29 41 d 30 -118 d 29 75 d 29 2 d s 309 277 339 459 368 378 398 412 427 285 456 347 486 297 515 302 545 370 574 332 604 331 633 423 663 356 692 404 722 352 751
 311 780 265 810 385 839 348 869 293 898 246 928 309 957 218 987 240 1016 293 1046 607 1075 455 1104 295 1163 273 1193 419 1222 345 1252 278 1281 331 1311 378 1340 261 1369 363 1399 363 1428 392 1458 285 1487 290 1517 299 1546 305 1576 349 1605 506
 1635 584 1664 390 1693 395 1723 389 1752 437 1782 366 1811 475 1841 442 1870 483 1900 365 1929 440 1958 442 56 { m20} R 0 1 0 c 722 339 m 17 Y s 715 356 m 13 X s 722 313 m -17 Y s 715 296 m 13 X s 751 363 m 21 Y s 744 384 m 14 X s 751 337 m -20 Y s
 744 317 m 14 X s 780 311 m 17 Y s 774 328 m 13 X s 780 285 m -17 Y s 774 268 m 13 X s 810 381 m 27 Y s 803 408 m 13 X s 810 355 m -26 Y s 803 329 m 13 X s 839 392 m 40 Y s 833 432 m 13 X s 839 366 m -39 Y s 833 327 m 13 X s 869 313 m 19 Y s 862 332
 m 13 X s 869 287 m -19 Y s 862 268 m 13 X s 898 355 m 34 Y s 892 389 m 13 X s 898 329 m -34 Y s 892 295 m 13 X s 928 350 m 35 Y s 921 385 m 13 X s 928 324 m -34 Y s 921 290 m 13 X s 957 269 m 20 Y s 951 289 m 13 X s 957 243 m -19 Y s 951 224 m 13 X
 s 987 299 m 19 Y s 980 318 m 13 X s 987 273 m -19 Y s 980 254 m 13 X s 1016 250 m 22 Y s 1010 272 m 13 X s 1016 223 m -22 Y s 1010 201 m 13 X s 1046 411 m 34 Y s 1039 445 m 13 X s 1046 385 m -34 Y s 1039 351 m 13 X s 1075 287 m 20 Y s 1068 307 m 13
 X s 1075 261 m -20 Y s 1068 241 m 13 X s 1104 336 m 24 Y s 1098 360 m 13 X s 1104 310 m -24 Y s 1098 286 m 13 X s 1163 280 m 26 Y s 1157 306 m 13 X s 1163 254 m -26 Y s 1157 228 m 13 X s 1193 340 m 27 Y s 1186 367 m 13 X s 1193 314 m -26 Y s 1186
 288 m 13 X s 1222 317 m 28 Y s 1216 345 m 13 X s 1222 291 m -28 Y s 1216 263 m 13 X s 1252 312 m 17 Y s 1245 329 m 13 X s 1252 286 m -17 Y s 1245 269 m 13 X s 1281 316 m 20 Y s 1275 336 m 13 X s 1281 290 m -19 Y s 1275 271 m 13 X s 1311 449 m 47 Y s
 1304 496 m 13 X s 1311 423 m -47 Y s 1304 376 m 13 X s 1340 348 m 44 Y s 1333 392 m 14 X s 1340 322 m -43 Y s 1333 279 m 14 X s 1369 370 m 31 Y s 1363 401 m 13 X s 1369 344 m -31 Y s 1363 313 m 13 X s 1399 280 m 15 Y s 1392 295 m 13 X s 1399 254 m
 -16 Y s 1392 238 m 13 X s 1428 395 m 28 Y s 1422 423 m 13 X s 1428 369 m -29 Y s 1422 340 m 13 X s 1458 303 m 23 Y s 1451 326 m 13 X s 1458 277 m -24 Y s 1451 253 m 13 X s 1487 333 m 25 Y s 1481 358 m 13 X s 1487 307 m -24 Y s 1481 283 m 13 X s 1517
 329 m 25 Y s 1510 354 m 13 X s 1517 303 m -25 Y s 1510 278 m 13 X s 1546 329 m 25 Y s 1540 354 m 13 X s 1546 302 m -25 Y s 1540 277 m 13 X s black 0 1 0 c 722 326 m 29 24 d 29 -52 d 30 70 d 29 11 d 30 -79 d 29 42 d 30 -5 d 29 -81 d 30 30 d 29 -50 d
 30 162 d 29 -124 d 29 49 d 59 -56 d 30 60 d 29 -23 d 30 -5 d 29 4 d 30 133 d 29 -101 d 29 22 d 30 -90 d 29 115 d 30 -92 d 29 30 d 30 -4 d 29 -1 d s 722 326 751 350 780 298 810 368 839 379 869 300 898 342 928 337 957 256 987 286 1016 236 1046 398
 1075 274 1104 323 1163 267 1193 327 1222 304 1252 299 1281 303 1311 436 1340 335 1369 357 1399 267 1428 382 1458 290 1487 320 1517 316 1546 315 28 { m20} R 0 0 1 c 722 454 m 29 Y s 715 483 m 13 X s 722 428 m -29 Y s 715 399 m 13 X s 751 371 m 12 Y s
 744 383 m 14 X s 751 345 m -13 Y s 744 332 m 14 X s 780 395 m 18 Y s 774 413 m 13 X s 780 369 m -18 Y s 774 351 m 13 X s 810 337 m 13 Y s 803 350 m 13 X s 810 311 m -13 Y s 803 298 m 13 X s 839 380 m 21 Y s 833 401 m 13 X s 839 354 m -21 Y s 833 333
 m 13 X s 869 400 m 26 Y s 862 426 m 13 X s 869 374 m -26 Y s 862 348 m 13 X s 898 383 m 17 Y s 892 400 m 13 X s 898 357 m -17 Y s 892 340 m 13 X s 928 330 m 15 Y s 921 345 m 13 X s 928 304 m -14 Y s 921 290 m 13 X s 957 353 m 13 Y s 951 366 m 13 X s
 957 327 m -13 Y s 951 314 m 13 X s 987 294 m 17 Y s 980 311 m 13 X s 987 268 m -17 Y s 980 251 m 13 X s 1016 362 m 19 Y s 1010 381 m 13 X s 1016 336 m -19 Y s 1010 317 m 13 X s 1046 292 m 10 Y s 1039 302 m 13 X s 1046 266 m -10 Y s 1039 256 m 13 X s
 1075 286 m 30 Y s 1068 316 m 13 X s 1075 260 m -31 Y s 1068 229 m 13 X s 1104 301 m 21 Y s 1098 322 m 13 X s 1104 275 m -22 Y s 1098 253 m 13 X s 1163 273 m 10 Y s 1157 283 m 13 X s 1163 247 m -10 Y s 1157 237 m 13 X s 1193 312 m 21 Y s 1186 333 m
 13 X s 1193 286 m -21 Y s 1186 265 m 13 X s 1222 272 m 11 Y s 1216 283 m 13 X s 1222 246 m -11 Y s 1216 235 m 13 X s 1252 388 m 23 Y s 1245 411 m 13 X s 1252 362 m -23 Y s 1245 339 m 13 X s 1281 297 m 8 Y s 1275 305 m 13 X s 1281 271 m -9 Y s 1275
 262 m 13 X s 1311 279 m 9 Y s 1304 288 m 13 X s 1311 253 m -9 Y s 1304 244 m 13 X s 1340 310 m 12 Y s 1333 322 m 14 X s 1340 284 m -12 Y s 1333 272 m 14 X s 1369 400 m 22 Y s 1363 422 m 13 X s 1369 374 m -23 Y s 1363 351 m 13 X s 1399 335 m 14 Y s
 1392 349 m 13 X s 1399 309 m -15 Y s 1392 294 m 13 X s 1428 362 m 11 Y s 1422 373 m 13 X s 1428 336 m -10 Y s 1422 326 m 13 X s 1458 379 m 18 Y s 1451 397 m 13 X s 1458 353 m -17 Y s 1451 336 m 13 X s 1487 343 m 21 Y s 1481 364 m 13 X s 1487 317 m
 -22 Y s 1481 295 m 13 X s 1517 380 m 14 Y s 1510 394 m 13 X s 1517 354 m -15 Y s 1510 339 m 13 X s 1546 351 m 12 Y s 1540 363 m 13 X s 1546 325 m -11 Y s 1540 314 m 13 X s black 0 0 1 c 722 441 m 29 -83 d 29 24 d 30 -58 d 29 43 d 30 20 d 29 -17 d 30
 -53 d 29 23 d 30 -59 d 29 68 d 30 -70 d 29 -6 d 29 15 d 59 -28 d 30 39 d 29 -40 d 30 116 d 29 -91 d 30 -18 d 29 31 d 29 90 d 30 -65 d 29 27 d 30 17 d 29 -36 d 30 37 d 29 -29 d s 722 441 751 358 780 382 810 324 839 367 869 387 898 370 928 317 957 340
 987 281 1016 349 1046 279 1075 273 1104 288 1163 260 1193 299 1222 259 1252 375 1281 284 1311 266 1340 297 1369 387 1399 322 1428 349 1458 366 1487 330 1517 367 1546 338 28 { m20} R black
 gsave  2268 1538 0 0 C 1531.36 1329.35 t 0 r /Helvetica-Bold findfont 58.6478 sf 0 0 m (SCT Barrel) show NC gr 
 gsave  2268 1538 0 0 C 1648.66 1254.41 t 0 r /Helvetica-Bold findfont 58.6478 sf 0 0 m (Layer 0) show NC gr  1539 1269 m 91 X s 1585 1269 m20
 gsave  2268 1538 0 0 C 1648.66 1176.21 t 0 r /Helvetica-Bold findfont 58.6478 sf 0 0 m (Layer 1) show NC gr  1 0 0 c 1539 1192 m 91 X s 1585 1192 m20 black
 gsave  2268 1538 0 0 C 1648.66 1098.02 t 0 r /Helvetica-Bold findfont 58.6478 sf 0 0 m (Layer 2) show NC gr  0 1 0 c 1539 1115 m 91 X s 1585 1115 m20 black
 gsave  2268 1538 0 0 C 1648.66 1023.08 t 0 r /Helvetica-Bold findfont 58.6478 sf 0 0 m (Layer 3) show NC gr  0 0 1 c 1539 1038 m 91 X s 1585 1038 m20
 gr  gr showpage
end
%%EOF
