%!PS-Adobe-2.0 EPSF-2.0
%%BoundingBox:  0 0 567 384
%%Title: d3pdDirr/sct_occupancy/size_sctdisk_mg.eps: c1_n47
%%Creator: ROOT Version 6.04/12
%%CreationDate: Tue Apr 26 00:12:47 2016
%%DocumentNeededResources: ProcSet (FontSetInit)
%%EndComments
%%BeginProlog
80 dict begin
/s {stroke} def /l {lineto} def /m {moveto} def /t {translate} def
/r {rotate} def /rl {roll}  def /R {repeat} def
/d {rlineto} def /rm {rmoveto} def /gr {grestore} def /f {eofill} def
/c {setrgbcolor} def /black {0 setgray} def /sd {setdash} def
/cl {closepath} def /sf {scalefont setfont} def /lw {setlinewidth} def
/box {m dup 0 exch d exch 0 d 0 exch neg d cl} def
/NC{systemdict begin initclip end}def/C{NC box clip newpath}def
/bl {box s} def /bf {gsave box gsave f grestore 1 lw [] 0 sd s grestore} def /Y { 0 exch d} def /X { 0 d} def 
/K {{pop pop 0 moveto} exch kshow} bind def
/ita {/ang 15 def gsave [1 0 ang dup sin exch cos div 1 0 0] concat} def 
/mp {newpath /y exch def /x exch def} def
/side {[w .77 mul w .23 mul] .385 w mul sd w 0 l currentpoint t -144 r} def
/mr {mp x y w2 0 360 arc} def /m24 {mr s} def /m20 {mr f} def
/mb {mp x y w2 add m w2 neg 0 d 0 w neg d w 0 d 0 w d cl} def
/mt {mp x y w2 add m w2 neg w neg d w 0 d cl} def
/m21 {mb f} def /m25 {mb s} def /m22 {mt f} def /m26{mt s} def
/m23 {mp x y w2 sub m w2 w d w neg 0 d cl f} def
/m27 {mp x y w2 add m w3 neg w2 neg d w3 w2 neg d w3 w2 d cl s} def
/m28 {mp x w2 sub y w2 sub w3 add m w3 0 d  0 w3 neg d w3 0 d 0 w3 d w3 0 d  0 w3 d w3 neg 0 d 0 w3 d w3 neg 0 d 0 w3 neg d w3 neg 0 d cl s } def
/m29 {mp gsave x w2 sub y w2 add w3 sub m currentpoint t 4 {side} repeat cl fill gr} def
/m30 {mp gsave x w2 sub y w2 add w3 sub m currentpoint t 4 {side} repeat cl s gr} def
/m31 {mp x y w2 sub m 0 w d x w2 sub y m w 0 d x w2 sub y w2 add m w w neg d x w2 sub y w2 sub m w w d s} def
/m32 {mp x y w2 sub m w2 w d w neg 0 d cl s} def
/m33 {mp x y w2 add m w3 neg w2 neg d w3 w2 neg d w3 w2 d cl f} def
/m34 {mp x w2 sub y w2 sub w3 add m w3 0 d  0 w3 neg d w3 0 d 0 w3 d w3 0 d  0 w3 d w3 neg 0 d 0 w3 d w3 neg 0 d 0 w3 neg d w3 neg 0 d cl f } def
/m2 {mp x y w2 sub m 0 w d x w2 sub y m w 0 d s} def
/m5 {mp x w2 sub y w2 sub m w w d x w2 sub y w2 add m w w neg d s} def
%%IncludeResource: ProcSet (FontSetInit)
%%IncludeResource: font Times-Roman
%%IncludeResource: font Times-Italic
%%IncludeResource: font Times-Bold
%%IncludeResource: font Times-BoldItalic
%%IncludeResource: font Helvetica
%%IncludeResource: font Helvetica-Oblique
%%IncludeResource: font Helvetica-Bold
%%IncludeResource: font Helvetica-BoldOblique
%%IncludeResource: font Courier
%%IncludeResource: font Courier-Oblique
%%IncludeResource: font Courier-Bold
%%IncludeResource: font Courier-BoldOblique
%%IncludeResource: font Symbol
%%IncludeResource: font ZapfDingbats
/reEncode {exch findfont dup length dict begin {1 index /FID eq  {pop pop} {def} ifelse } forall /Encoding exch def currentdict end dup /FontName get exch definefont pop } def [/Times-Bold /Times-Italic /Times-BoldItalic /Helvetica /Helvetica-Oblique
 /Helvetica-Bold /Helvetica-BoldOblique /Courier /Courier-Oblique /Courier-Bold /Courier-BoldOblique /Times-Roman /AvantGarde-Book /AvantGarde-BookOblique /AvantGarde-Demi /AvantGarde-DemiOblique /Bookman-Demi /Bookman-DemiItalic /Bookman-Light
 /Bookman-LightItalic /Helvetica-Narrow /Helvetica-Narrow-Bold /Helvetica-Narrow-BoldOblique /Helvetica-Narrow-Oblique /NewCenturySchlbk-Roman /NewCenturySchlbk-Bold /NewCenturySchlbk-BoldItalic /NewCenturySchlbk-Italic /Palatino-Bold
 /Palatino-BoldItalic /Palatino-Italic /Palatino-Roman ] {ISOLatin1Encoding reEncode } forall
%%EndProlog
%%BeginSetup
%%EndSetup
newpath  gsave  .25 .25 scale  gsave  0 0 t black[  ] 0 sd 3 lw 1 1 1 c 2268 1538 0 0 bf black 1 1 1 c 1814 1230 227 154 bf black 1814 1230 227 154 bl 1 1 1 c 1814 1230 227 154 bf black 1814 1230 227 154 bl 227 154 m 1814 X s 309 191 m -37 Y s 358
 172 m -18 Y s 406 172 m -18 Y s 455 172 m -18 Y s 503 191 m -37 Y s 552 172 m -18 Y s 600 172 m -18 Y s 649 172 m -18 Y s 697 191 m -37 Y s 746 172 m -18 Y s 794 172 m -18 Y s 843 172 m -18 Y s 891 191 m -37 Y s 940 172 m -18 Y s 988 172 m -18 Y s
 1037 172 m -18 Y s 1085 191 m -37 Y s 1134 172 m -18 Y s 1182 172 m -18 Y s 1231 172 m -18 Y s 1279 191 m -37 Y s 1328 172 m -18 Y s 1376 172 m -18 Y s 1425 172 m -18 Y s 1473 191 m -37 Y s 1522 172 m -18 Y s 1570 172 m -18 Y s 1619 172 m -18 Y s
 1667 191 m -37 Y s 1716 172 m -18 Y s 1764 172 m -18 Y s 1813 172 m -18 Y s 1861 191 m -37 Y s 309 191 m -37 Y s 261 172 m -18 Y s 1861 191 m -37 Y s 1910 172 m -18 Y s 1958 172 m -18 Y s 2007 172 m -18 Y s
 gsave  2268 1538 0 0 C 289.981 97.7464 t 0 r /Helvetica-Bold findfont 58.6478 sf 0 0 m (0) show NC gr 
 gsave  2268 1538 0 0 C 485.474 97.7464 t 0 r /Helvetica-Bold findfont 58.6478 sf 0 0 m (2) show NC gr 
 gsave  2268 1538 0 0 C 680.967 97.7464 t 0 r /Helvetica-Bold findfont 58.6478 sf 0 0 m (4) show NC gr 
 gsave  2268 1538 0 0 C 873.201 97.7464 t 0 r /Helvetica-Bold findfont 58.6478 sf 0 0 m (6) show NC gr 
 gsave  2268 1538 0 0 C 1068.69 97.7464 t 0 r /Helvetica-Bold findfont 58.6478 sf 0 0 m (8) show NC gr 
 gsave  2268 1538 0 0 C 1244.64 97.7464 t 0 r /Helvetica-Bold findfont 58.6478 sf 0 0 m (10) show NC gr 
 gsave  2268 1538 0 0 C 1440.13 97.7464 t 0 r /Helvetica-Bold findfont 58.6478 sf 0 0 m (12) show NC gr 
 gsave  2268 1538 0 0 C 1632.36 97.7464 t 0 r /Helvetica-Bold findfont 58.6478 sf 0 0 m (14) show NC gr 
 gsave  2268 1538 0 0 C 1827.86 97.7464 t 0 r /Helvetica-Bold findfont 58.6478 sf 0 0 m (16) show NC gr  227 1384 m 1814 X s 309 1347 m 37 Y s 358 1366 m 18 Y s 406 1366 m 18 Y s 455 1366 m 18 Y s 503 1347 m 37 Y s 552 1366 m 18 Y s 600 1366 m 18 Y s
 649 1366 m 18 Y s 697 1347 m 37 Y s 746 1366 m 18 Y s 794 1366 m 18 Y s 843 1366 m 18 Y s 891 1347 m 37 Y s 940 1366 m 18 Y s 988 1366 m 18 Y s 1037 1366 m 18 Y s 1085 1347 m 37 Y s 1134 1366 m 18 Y s 1182 1366 m 18 Y s 1231 1366 m 18 Y s 1279 1347
 m 37 Y s 1328 1366 m 18 Y s 1376 1366 m 18 Y s 1425 1366 m 18 Y s 1473 1347 m 37 Y s 1522 1366 m 18 Y s 1570 1366 m 18 Y s 1619 1366 m 18 Y s 1667 1347 m 37 Y s 1716 1366 m 18 Y s 1764 1366 m 18 Y s 1813 1366 m 18 Y s 1861 1347 m 37 Y s 309 1347 m
 37 Y s 261 1366 m 18 Y s 1861 1347 m 37 Y s 1910 1366 m 18 Y s 1958 1366 m 18 Y s 2007 1366 m 18 Y s 227 154 m 1230 Y s 281 225 m -54 X s 254 258 m -27 X s 254 290 m -27 X s 254 323 m -27 X s 281 356 m -54 X s 254 388 m -27 X s 254 421 m -27 X s 254
 453 m -27 X s 281 486 m -54 X s 254 518 m -27 X s 254 551 m -27 X s 254 583 m -27 X s 281 616 m -54 X s 254 649 m -27 X s 254 681 m -27 X s 254 714 m -27 X s 281 746 m -54 X s 254 779 m -27 X s 254 811 m -27 X s 254 844 m -27 X s 281 876 m -54 X s
 254 909 m -27 X s 254 942 m -27 X s 254 974 m -27 X s 281 1007 m -54 X s 254 1039 m -27 X s 254 1072 m -27 X s 254 1104 m -27 X s 281 1137 m -54 X s 254 1169 m -27 X s 254 1202 m -27 X s 254 1234 m -27 X s 281 1267 m -54 X s 281 225 m -54 X s 254
 193 m -27 X s 254 160 m -27 X s 281 1267 m -54 X s 254 1300 m -27 X s 254 1332 m -27 X s 254 1365 m -27 X s
 gsave  2268 1538 0 0 C 133.587 205.267 t 0 r /Helvetica-Bold findfont 58.6478 sf 0 0 m (1.4) show NC gr 
 gsave  2268 1538 0 0 C 133.587 335.596 t 0 r /Helvetica-Bold findfont 58.6478 sf 0 0 m (1.6) show NC gr 
 gsave  2268 1538 0 0 C 133.587 465.924 t 0 r /Helvetica-Bold findfont 58.6478 sf 0 0 m (1.8) show NC gr 
 gsave  2268 1538 0 0 C 182.46 592.995 t 0 r /Helvetica-Bold findfont 58.6478 sf 0 0 m (2) show NC gr 
 gsave  2268 1538 0 0 C 133.587 723.323 t 0 r /Helvetica-Bold findfont 58.6478 sf 0 0 m (2.2) show NC gr 
 gsave  2268 1538 0 0 C 133.587 850.394 t 0 r /Helvetica-Bold findfont 58.6478 sf 0 0 m (2.4) show NC gr 
 gsave  2268 1538 0 0 C 133.587 983.98 t 0 r /Helvetica-Bold findfont 58.6478 sf 0 0 m (2.6) show NC gr 
 gsave  2268 1538 0 0 C 133.587 1114.31 t 0 r /Helvetica-Bold findfont 58.6478 sf 0 0 m (2.8) show NC gr 
 gsave  2268 1538 0 0 C 182.46 1244.64 t 0 r /Helvetica-Bold findfont 58.6478 sf 0 0 m (3) show NC gr  2041 154 m 1230 Y s 1987 225 m 54 X s 2014 258 m 27 X s 2014 290 m 27 X s 2014 323 m 27 X s 1987 356 m 54 X s 2014 388 m 27 X s 2014 421 m 27 X s
 2014 453 m 27 X s 1987 486 m 54 X s 2014 518 m 27 X s 2014 551 m 27 X s 2014 583 m 27 X s 1987 616 m 54 X s 2014 649 m 27 X s 2014 681 m 27 X s 2014 714 m 27 X s 1987 746 m 54 X s 2014 779 m 27 X s 2014 811 m 27 X s 2014 844 m 27 X s 1987 876 m 54 X
 s 2014 909 m 27 X s 2014 942 m 27 X s 2014 974 m 27 X s 1987 1007 m 54 X s 2014 1039 m 27 X s 2014 1072 m 27 X s 2014 1104 m 27 X s 1987 1137 m 54 X s 2014 1169 m 27 X s 2014 1202 m 27 X s 2014 1234 m 27 X s 1987 1267 m 54 X s 1987 225 m 54 X s 2014
 193 m 27 X s 2014 160 m 27 X s 1987 1267 m 54 X s 2014 1300 m 27 X s 2014 1332 m 27 X s 2014 1365 m 27 X s 309 517 m 41 Y s 303 558 m 13 X s 309 491 m -41 Y s 303 450 m 13 X s 406 403 m 20 Y s 400 423 m 13 X s 406 377 m -19 Y s 400 358 m 13 X s 503
 469 m 40 Y s 497 509 m 13 X s 503 443 m -40 Y s 497 403 m 13 X s 600 468 m 27 Y s 594 495 m 13 X s 600 442 m -27 Y s 594 415 m 13 X s 697 361 m 14 Y s 691 375 m 13 X s 697 335 m -14 Y s 691 321 m 13 X s 794 429 m 35 Y s 788 464 m 13 X s 794 403 m
 -34 Y s 788 369 m 13 X s 891 516 m 26 Y s 885 542 m 13 X s 891 490 m -26 Y s 885 464 m 13 X s 988 478 m 26 Y s 982 504 m 13 X s 988 452 m -25 Y s 982 427 m 13 X s 1085 606 m 72 Y s 1079 678 m 13 X s 1085 580 m -71 Y s 1079 509 m 13 X s 1182 463 m 14
 Y s 1176 477 m 13 X s 1182 436 m -14 Y s 1176 422 m 13 X s 1279 496 m 17 Y s 1273 513 m 13 X s 1279 470 m -17 Y s 1273 453 m 13 X s 1376 602 m 41 Y s 1370 643 m 13 X s 1376 576 m -41 Y s 1370 535 m 13 X s 1473 534 m 12 Y s 1467 546 m 13 X s 1473 508
 m -11 Y s 1467 497 m 13 X s 1570 571 m 28 Y s 1564 599 m 13 X s 1570 545 m -28 Y s 1564 517 m 13 X s 1667 647 m 14 Y s 1661 661 m 13 X s 1667 621 m -15 Y s 1661 606 m 13 X s 1764 698 m 26 Y s 1758 724 m 13 X s 1764 672 m -26 Y s 1758 646 m 13 X s
 1861 700 m 21 Y s 1855 721 m 13 X s 1861 674 m -21 Y s 1855 653 m 13 X s 1958 780 m 38 Y s 1952 818 m 13 X s 1958 754 m -37 Y s 1952 717 m 13 X s 309 504 m 97 -114 d 97 66 d 97 -1 d 97 -107 d 97 68 d 97 87 d 97 -38 d 97 128 d 97 -143 d 97 33 d 97
 106 d 97 -68 d 97 37 d 97 76 d 97 51 d 97 2 d 97 80 d s /w 26 def /w2 {w 2 div} def /w3 {w 3 div} def 309 504 406 390 503 456 600 455 697 348 794 416 891 503 988 465 1085 593 1182 450 1279 483 1376 589 1473 521 1570 558 1667 634 1764 685 1861 687
 1958 767 18 { m20} R 1 0 0 c 309 353 m 16 Y s 303 369 m 13 X s 309 327 m -15 Y s 303 312 m 13 X s 406 373 m 16 Y s 400 389 m 13 X s 406 347 m -16 Y s 400 331 m 13 X s 503 514 m 38 Y s 497 552 m 13 X s 503 488 m -38 Y s 497 450 m 13 X s 600 366 m 21
 Y s 594 387 m 13 X s 600 340 m -21 Y s 594 319 m 13 X s 697 344 m 17 Y s 691 361 m 13 X s 697 318 m -17 Y s 691 301 m 13 X s 794 505 m 31 Y s 788 536 m 13 X s 794 479 m -31 Y s 788 448 m 13 X s 891 526 m 35 Y s 885 561 m 13 X s 891 500 m -35 Y s 885
 465 m 13 X s 988 464 m 20 Y s 982 484 m 13 X s 988 438 m -20 Y s 982 418 m 13 X s 1085 430 m 12 Y s 1079 442 m 13 X s 1085 404 m -12 Y s 1079 392 m 13 X s 1182 549 m 26 Y s 1176 575 m 13 X s 1182 523 m -27 Y s 1176 496 m 13 X s 1279 533 m 26 Y s
 1273 559 m 13 X s 1279 507 m -25 Y s 1273 482 m 13 X s 1376 513 m 19 Y s 1370 532 m 13 X s 1376 487 m -19 Y s 1370 468 m 13 X s 1473 544 m 36 Y s 1467 580 m 13 X s 1473 518 m -37 Y s 1467 481 m 13 X s 1570 524 m 15 Y s 1564 539 m 13 X s 1570 498 m
 -15 Y s 1564 483 m 13 X s 1667 637 m 30 Y s 1661 667 m 13 X s 1667 611 m -29 Y s 1661 582 m 13 X s 1764 571 m 13 Y s 1758 584 m 13 X s 1764 545 m -13 Y s 1758 532 m 13 X s 1861 722 m 22 Y s 1855 744 m 13 X s 1861 696 m -22 Y s 1855 674 m 13 X s 1958
 644 m 18 Y s 1952 662 m 13 X s 1958 618 m -17 Y s 1952 601 m 13 X s black 1 0 0 c 309 340 m 97 20 d 97 141 d 97 -148 d 97 -22 d 97 161 d 97 21 d 97 -62 d 97 -34 d 97 119 d 97 -16 d 97 -20 d 97 31 d 97 -20 d 97 113 d 97 -66 d 97 151 d 97 -78 d s 309
 340 406 360 503 501 600 353 697 331 794 492 891 513 988 451 1085 417 1182 536 1279 520 1376 500 1473 531 1570 511 1667 624 1764 558 1861 709 1958 631 18 { m20} R 0 1 0 c 309 315 m 37 Y s 303 352 m 13 X s 309 289 m -37 Y s 303 252 m 13 X s 406 357 m
 27 Y s 400 384 m 13 X s 406 331 m -27 Y s 400 304 m 13 X s 503 384 m 20 Y s 497 404 m 13 X s 503 358 m -21 Y s 497 337 m 13 X s 600 436 m 34 Y s 594 470 m 13 X s 600 410 m -34 Y s 594 376 m 13 X s 697 398 m 42 Y s 691 440 m 13 X s 697 372 m -42 Y s
 691 330 m 13 X s 794 413 m 20 Y s 788 433 m 13 X s 794 387 m -19 Y s 788 368 m 13 X s 891 407 m 23 Y s 885 430 m 13 X s 891 381 m -23 Y s 885 358 m 13 X s 988 406 m 22 Y s 982 428 m 13 X s 988 380 m -23 Y s 982 357 m 13 X s 1085 391 m 9 Y s 1079 400
 m 13 X s 1085 365 m -10 Y s 1079 355 m 13 X s 1182 421 m 18 Y s 1176 439 m 13 X s 1182 395 m -17 Y s 1176 378 m 13 X s 1279 415 m 12 Y s 1273 427 m 13 X s 1279 389 m -12 Y s 1273 377 m 13 X s 1376 373 m 13 Y s 1370 386 m 13 X s 1376 347 m -13 Y s
 1370 334 m 13 X s 1473 465 m 14 Y s 1467 479 m 13 X s 1473 439 m -13 Y s 1467 426 m 13 X s 1570 469 m 10 Y s 1564 479 m 13 X s 1570 443 m -10 Y s 1564 433 m 13 X s 1667 487 m 5 Y s 1661 492 m 13 X s 1667 461 m -5 Y s 1661 456 m 13 X s 1764 611 m 35
 Y s 1758 646 m 13 X s 1764 585 m -34 Y s 1758 551 m 13 X s 1861 561 m 11 Y s 1855 572 m 13 X s 1861 535 m -10 Y s 1855 525 m 13 X s 1958 707 m 32 Y s 1952 739 m 13 X s 1958 680 m -32 Y s 1952 648 m 13 X s black 0 1 0 c 309 302 m 97 42 d 97 27 d 97
 52 d 97 -38 d 97 15 d 97 -6 d 97 -1 d 97 -15 d 97 30 d 97 -6 d 97 -42 d 97 92 d 97 4 d 97 18 d 97 124 d 97 -50 d 97 145 d s 309 302 406 344 503 371 600 423 697 385 794 400 891 394 988 393 1085 378 1182 408 1279 402 1376 360 1473 452 1570 456 1667
 474 1764 598 1861 548 1958 693 18 { m20} R 0 0 1 c 309 289 m 23 Y s 303 312 m 13 X s 309 263 m -23 Y s 303 240 m 13 X s 406 314 m 8 Y s 400 322 m 13 X s 406 288 m -9 Y s 400 279 m 13 X s 503 357 m 13 Y s 497 370 m 13 X s 503 331 m -14 Y s 497 317 m
 13 X s 600 282 m 9 Y s 594 291 m 13 X s 600 256 m -10 Y s 594 246 m 13 X s 697 361 m 22 Y s 691 383 m 13 X s 697 335 m -22 Y s 691 313 m 13 X s 794 349 m 20 Y s 788 369 m 13 X s 794 322 m -20 Y s 788 302 m 13 X s 891 366 m 26 Y s 885 392 m 13 X s
 891 340 m -26 Y s 885 314 m 13 X s 988 370 m 24 Y s 982 394 m 13 X s 988 344 m -25 Y s 982 319 m 13 X s 1085 446 m 46 Y s 1079 492 m 13 X s 1085 420 m -47 Y s 1079 373 m 13 X s 1182 371 m 8 Y s 1176 379 m 13 X s 1182 345 m -9 Y s 1176 336 m 13 X s
 1279 362 m 9 Y s 1273 371 m 13 X s 1279 336 m -8 Y s 1273 328 m 13 X s 1376 316 m 5 Y s 1370 321 m 13 X s 1376 290 m -4 Y s 1370 286 m 13 X s 1473 407 m 8 Y s 1467 415 m 13 X s 1473 381 m -8 Y s 1467 373 m 13 X s 1570 375 m 8 Y s 1564 383 m 13 X s
 1570 349 m -8 Y s 1564 341 m 13 X s 1667 483 m 7 Y s 1661 490 m 13 X s 1667 457 m -7 Y s 1661 450 m 13 X s 1764 462 m 6 Y s 1758 468 m 13 X s 1764 436 m -6 Y s 1758 430 m 13 X s 1861 511 m 9 Y s 1855 520 m 13 X s 1861 485 m -10 Y s 1855 475 m 13 X s
 1958 517 m 11 Y s 1952 528 m 13 X s 1958 491 m -11 Y s 1952 480 m 13 X s black 0 0 1 c 309 276 m 97 25 d 97 43 d 97 -75 d 97 79 d 97 -13 d 97 18 d 97 4 d 97 76 d 97 -75 d 97 -9 d 97 -46 d 97 91 d 97 -32 d 97 108 d 97 -21 d 97 49 d 97 6 d s 309 276
 406 301 503 344 600 269 697 348 794 335 891 353 988 357 1085 433 1182 358 1279 349 1376 303 1473 394 1570 362 1667 470 1764 449 1861 498 1958 504 18 { m20} R 1 1 0 c 309 288 m 24 Y s 303 312 m 13 X s 309 262 m -24 Y s 303 238 m 13 X s 406 247 m 13 Y
 s 400 260 m 13 X s 406 221 m -13 Y s 400 208 m 13 X s 503 250 m 12 Y s 497 262 m 13 X s 503 224 m -12 Y s 497 212 m 13 X s 600 393 m 35 Y s 594 428 m 13 X s 600 367 m -35 Y s 594 332 m 13 X s 697 242 m 7 Y s 691 249 m 13 X s 697 216 m -7 Y s 691 209
 m 13 X s 794 350 m 30 Y s 788 380 m 13 X s 794 324 m -29 Y s 788 295 m 13 X s 891 278 m 6 Y s 885 284 m 13 X s 891 252 m -6 Y s 885 246 m 13 X s 988 291 m 7 Y s 982 298 m 13 X s 988 265 m -7 Y s 982 258 m 13 X s 1085 350 m 7 Y s 1079 357 m 13 X s
 1085 324 m -8 Y s 1079 316 m 13 X s 1182 306 m 8 Y s 1176 314 m 13 X s 1182 280 m -8 Y s 1176 272 m 13 X s 1279 288 m 11 Y s 1273 299 m 13 X s 1279 262 m -11 Y s 1273 251 m 13 X s 1376 247 m 6 Y s 1370 253 m 13 X s 1376 221 m -7 Y s 1370 214 m 13 X
 s 1473 432 m 45 Y s 1467 477 m 13 X s 1473 406 m -44 Y s 1467 362 m 13 X s 1570 330 m 6 Y s 1564 336 m 13 X s 1570 304 m -6 Y s 1564 298 m 13 X s 1667 400 m 11 Y s 1661 411 m 13 X s 1667 374 m -11 Y s 1661 363 m 13 X s 1764 464 m 21 Y s 1758 485 m
 13 X s 1764 438 m -20 Y s 1758 418 m 13 X s 1861 485 m 12 Y s 1855 497 m 13 X s 1861 459 m -12 Y s 1855 447 m 13 X s 1958 450 m 6 Y s 1952 456 m 13 X s 1958 424 m -7 Y s 1952 417 m 13 X s black 1 1 0 c 309 275 m 97 -41 d 97 3 d 97 143 d 97 -151 d 97
 108 d 97 -72 d 97 13 d 97 59 d 97 -44 d 97 -18 d 97 -41 d 97 185 d 97 -102 d 97 70 d 97 64 d 97 21 d 97 -35 d s 309 275 406 234 503 237 600 380 697 229 794 337 891 265 988 278 1085 337 1182 293 1279 275 1376 234 1473 419 1570 317 1667 387 1764 451
 1861 472 1958 437 18 { m20} R 1 0 1 c 309 225 m 12 Y s 303 237 m 13 X s 309 199 m -12 Y s 303 187 m 13 X s 406 253 m 8 Y s 400 261 m 13 X s 406 227 m -7 Y s 400 220 m 13 X s 503 235 m 7 Y s 497 242 m 13 X s 503 209 m -6 Y s 497 203 m 13 X s 600 231
 m 6 Y s 594 237 m 13 X s 600 205 m -7 Y s 594 198 m 13 X s 697 250 m 32 Y s 691 282 m 13 X s 697 224 m -31 Y s 691 193 m 13 X s 794 252 m 14 Y s 788 266 m 13 X s 794 226 m -14 Y s 788 212 m 13 X s 891 250 m 8 Y s 885 258 m 13 X s 891 224 m -8 Y s
 885 216 m 13 X s 988 315 m 14 Y s 982 329 m 13 X s 988 289 m -13 Y s 982 276 m 13 X s 1085 313 m 11 Y s 1079 324 m 13 X s 1085 287 m -11 Y s 1079 276 m 13 X s 1182 318 m 16 Y s 1176 334 m 13 X s 1182 292 m -17 Y s 1176 275 m 13 X s 1279 335 m 27 Y s
 1273 362 m 13 X s 1279 309 m -28 Y s 1273 281 m 13 X s 1376 289 m 7 Y s 1370 296 m 13 X s 1376 263 m -7 Y s 1370 256 m 13 X s 1473 309 m 9 Y s 1467 318 m 13 X s 1473 283 m -8 Y s 1467 275 m 13 X s 1570 325 m 11 Y s 1564 336 m 13 X s 1570 299 m -11 Y
 s 1564 288 m 13 X s 1667 335 m 6 Y s 1661 341 m 13 X s 1667 309 m -6 Y s 1661 303 m 13 X s 1764 391 m 8 Y s 1758 399 m 13 X s 1764 365 m -8 Y s 1758 357 m 13 X s 1861 366 m 10 Y s 1855 376 m 13 X s 1861 340 m -10 Y s 1855 330 m 13 X s 1958 390 m 12
 Y s 1952 402 m 13 X s 1958 364 m -12 Y s 1952 352 m 13 X s black 1 0 1 c 309 212 m 97 28 d 97 -18 d 97 -4 d 97 19 d 97 2 d 97 -2 d 97 65 d 97 -2 d 97 5 d 97 17 d 97 -46 d 97 20 d 97 16 d 97 10 d 97 56 d 97 -25 d 97 24 d s 309 212 406 240 503 222 600
 218 697 237 794 239 891 237 988 302 1085 300 1182 305 1279 322 1376 276 1473 296 1570 312 1667 322 1764 378 1861 353 1958 377 18 { m20} R black[ 12 12] 0 sd 309 335 m 34 Y s 303 369 m 13 X s 309 308 m -34 Y s 303 274 m 13 X s 406 318 m 12 Y s 400
 330 m 13 X s 406 292 m -12 Y s 400 280 m 13 X s 503 359 m 12 Y s 497 371 m 13 X s 503 333 m -12 Y s 497 321 m 13 X s 600 295 m 5 Y s 594 300 m 13 X s 600 269 m -5 Y s 594 264 m 13 X s 697 393 m 47 Y s 691 440 m 13 X s 697 367 m -47 Y s 691 320 m 13
 X s 794 293 m 8 Y s 788 301 m 13 X s 794 267 m -8 Y s 788 259 m 13 X s 891 342 m 10 Y s 885 352 m 13 X s 891 316 m -10 Y s 885 306 m 13 X s 988 367 m 16 Y s 982 383 m 13 X s 988 341 m -16 Y s 982 325 m 13 X s 1085 353 m 2 Y s 1079 355 m 13 X s 1085
 327 m -3 Y s 1079 324 m 13 X s 1182 366 m 11 Y s 1176 377 m 13 X s 1182 340 m -10 Y s 1176 330 m 13 X s 1279 350 m 8 Y s 1273 358 m 13 X s 1279 324 m -8 Y s 1273 316 m 13 X s 1376 334 m 6 Y s 1370 340 m 13 X s 1376 308 m -5 Y s 1370 303 m 13 X s
 1473 362 m 7 Y s 1467 369 m 13 X s 1473 336 m -7 Y s 1467 329 m 13 X s 1570 429 m 8 Y s 1564 437 m 13 X s 1570 403 m -8 Y s 1564 395 m 13 X s 1667 450 m 5 Y s 1661 455 m 13 X s 1667 424 m -5 Y s 1661 419 m 13 X s 1764 452 m 6 Y s 1758 458 m 13 X s
 1764 426 m -6 Y s 1758 420 m 13 X s 1861 505 m 11 Y s 1855 516 m 13 X s 1861 479 m -11 Y s 1855 468 m 13 X s 1958 459 m 9 Y s 1952 468 m 13 X s 1958 433 m -9 Y s 1952 424 m 13 X s 309 321 m 97 -16 d 97 41 d 97 -64 d 97 98 d 97 -100 d 97 49 d 97 25 d
 97 -14 d 97 13 d 97 -16 d 97 -16 d 97 28 d 97 67 d 97 21 d 97 2 d 97 53 d 97 -46 d s[  ] 0 sd 309 321 406 305 503 346 600 282 697 380 794 280 891 329 988 354 1085 340 1182 353 1279 337 1376 321 1473 349 1570 416 1667 437 1764 439 1861 492 1958 446
 18 { m21} R[ 12 12] 0 sd 1 0 0 c 309 286 m 17 Y s 303 303 m 13 X s 309 260 m -18 Y s 303 242 m 13 X s 406 440 m 65 Y s 400 505 m 13 X s 406 414 m -65 Y s 400 349 m 13 X s 503 374 m 12 Y s 497 386 m 13 X s 503 348 m -11 Y s 497 337 m 13 X s 600 442 m
 28 Y s 594 470 m 13 X s 600 416 m -29 Y s 594 387 m 13 X s 697 684 m 162 Y s 691 846 m 13 X s 697 658 m -163 Y s 691 495 m 13 X s 794 388 m 18 Y s 788 406 m 13 X s 794 362 m -18 Y s 788 344 m 13 X s 891 613 m 99 Y s 885 712 m 13 X s 891 587 m -99 Y
 s 885 488 m 13 X s 988 433 m 19 Y s 982 452 m 13 X s 988 407 m -18 Y s 982 389 m 13 X s 1085 600 m 108 Y s 1079 708 m 13 X s 1085 574 m -108 Y s 1079 466 m 13 X s 1182 527 m 31 Y s 1176 558 m 13 X s 1182 501 m -32 Y s 1176 469 m 13 X s 1279 465 m 16
 Y s 1273 481 m 13 X s 1279 439 m -15 Y s 1273 424 m 13 X s 1376 622 m 46 Y s 1370 668 m 13 X s 1376 596 m -45 Y s 1370 551 m 13 X s 1473 481 m 13 Y s 1467 494 m 13 X s 1473 455 m -13 Y s 1467 442 m 13 X s 1570 504 m 12 Y s 1564 516 m 13 X s 1570 477
 m -12 Y s 1564 465 m 13 X s 1667 559 m 8 Y s 1661 567 m 13 X s 1667 533 m -9 Y s 1661 524 m 13 X s 1764 707 m 32 Y s 1758 739 m 13 X s 1764 681 m -33 Y s 1758 648 m 13 X s 1861 707 m 29 Y s 1855 736 m 13 X s 1861 681 m -28 Y s 1855 653 m 13 X s 1958
 696 m 38 Y s 1952 734 m 13 X s 1958 670 m -38 Y s 1952 632 m 13 X s black 1 0 0 c 309 273 m 97 154 d 97 -66 d 97 68 d 97 242 d 97 -296 d 97 225 d 97 -180 d 97 167 d 97 -73 d 97 -62 d 97 157 d 97 -141 d 97 23 d 97 55 d 97 148 d 97 X 97 -11 d s[  ] 0
 sd 309 273 406 427 503 361 600 429 697 671 794 375 891 600 988 420 1085 587 1182 514 1279 452 1376 609 1473 468 1570 491 1667 546 1764 694 1861 694 1958 683 18 { m21} R[ 12 12] 0 sd 0 1 0 c 309 308 m 18 Y s 303 326 m 13 X s 309 282 m -18 Y s 303 264
 m 13 X s 406 327 m 17 Y s 400 344 m 13 X s 406 301 m -17 Y s 400 284 m 13 X s 503 301 m 8 Y s 497 309 m 13 X s 503 275 m -8 Y s 497 267 m 13 X s 600 297 m 11 Y s 594 308 m 13 X s 600 271 m -11 Y s 594 260 m 13 X s 697 311 m 15 Y s 691 326 m 13 X s
 697 285 m -16 Y s 691 269 m 13 X s 794 401 m 20 Y s 788 421 m 13 X s 794 375 m -20 Y s 788 355 m 13 X s 891 423 m 19 Y s 885 442 m 13 X s 891 397 m -19 Y s 885 378 m 13 X s 988 423 m 19 Y s 982 442 m 13 X s 988 397 m -19 Y s 982 378 m 13 X s 1085
 419 m 15 Y s 1079 434 m 13 X s 1085 393 m -16 Y s 1079 377 m 13 X s 1182 344 m 9 Y s 1176 353 m 13 X s 1182 318 m -9 Y s 1176 309 m 13 X s 1279 458 m 29 Y s 1273 487 m 13 X s 1279 432 m -30 Y s 1273 402 m 13 X s 1376 392 m 27 Y s 1370 419 m 13 X s
 1376 366 m -26 Y s 1370 340 m 13 X s 1473 475 m 8 Y s 1467 483 m 13 X s 1473 449 m -9 Y s 1467 440 m 13 X s 1570 450 m 17 Y s 1564 467 m 13 X s 1570 424 m -16 Y s 1564 408 m 13 X s 1667 489 m 10 Y s 1661 499 m 13 X s 1667 463 m -10 Y s 1661 453 m 13
 X s 1764 532 m 11 Y s 1758 543 m 13 X s 1764 506 m -10 Y s 1758 496 m 13 X s 1861 591 m 20 Y s 1855 611 m 13 X s 1861 565 m -20 Y s 1855 545 m 13 X s 1958 657 m 28 Y s 1952 685 m 13 X s 1958 631 m -29 Y s 1952 602 m 13 X s black 0 1 0 c 309 295 m 97
 19 d 97 -26 d 97 -4 d 97 14 d 97 90 d 97 22 d 97 X 97 -4 d 97 -75 d 97 114 d 97 -66 d 97 83 d 97 -25 d 97 39 d 97 43 d 97 59 d 97 66 d s[  ] 0 sd 309 295 406 314 503 288 600 284 697 298 794 388 891 410 988 410 1085 406 1182 331 1279 445 1376 379
 1473 462 1570 437 1667 476 1764 519 1861 578 1958 644 18 { m21} R[ 12 12] 0 sd 0 0 1 c 309 303 m 17 Y s 303 320 m 13 X s 309 277 m -17 Y s 303 260 m 13 X s 406 304 m 11 Y s 400 315 m 13 X s 406 278 m -11 Y s 400 267 m 13 X s 503 294 m 11 Y s 497 305
 m 13 X s 503 268 m -11 Y s 497 257 m 13 X s 600 315 m 15 Y s 594 330 m 13 X s 600 288 m -15 Y s 594 273 m 13 X s 697 325 m 17 Y s 691 342 m 13 X s 697 299 m -17 Y s 691 282 m 13 X s 794 327 m 19 Y s 788 346 m 13 X s 794 301 m -20 Y s 788 281 m 13 X
 s 891 405 m 29 Y s 885 434 m 13 X s 891 379 m -29 Y s 885 350 m 13 X s 988 276 m 6 Y s 982 282 m 13 X s 988 250 m -6 Y s 982 244 m 13 X s 1085 347 m 9 Y s 1079 356 m 13 X s 1085 321 m -10 Y s 1079 311 m 13 X s 1182 422 m 20 Y s 1176 442 m 13 X s
 1182 396 m -20 Y s 1176 376 m 13 X s 1279 491 m 33 Y s 1273 524 m 13 X s 1279 465 m -32 Y s 1273 433 m 13 X s 1376 453 m 37 Y s 1370 490 m 13 X s 1376 427 m -37 Y s 1370 390 m 13 X s 1473 441 m 21 Y s 1467 462 m 13 X s 1473 415 m -21 Y s 1467 394 m
 13 X s 1570 427 m 26 Y s 1564 453 m 13 X s 1570 401 m -25 Y s 1564 376 m 13 X s 1667 454 m 6 Y s 1661 460 m 13 X s 1667 428 m -7 Y s 1661 421 m 13 X s 1764 497 m 16 Y s 1758 513 m 13 X s 1764 471 m -16 Y s 1758 455 m 13 X s 1861 569 m 24 Y s 1855
 593 m 13 X s 1861 543 m -23 Y s 1855 520 m 13 X s 1958 486 m 12 Y s 1952 498 m 13 X s 1958 460 m -11 Y s 1952 449 m 13 X s black 0 0 1 c 309 290 m 97 1 d 97 -10 d 97 21 d 97 10 d 97 2 d 97 78 d 97 -129 d 97 71 d 97 75 d 97 69 d 97 -38 d 97 -12 d 97
 -14 d 97 27 d 97 43 d 97 72 d 97 -83 d s[  ] 0 sd 309 290 406 291 503 281 600 302 697 312 794 314 891 392 988 263 1085 334 1182 409 1279 478 1376 440 1473 428 1570 414 1667 441 1764 484 1861 556 1958 473 18 { m21} R[ 12 12] 0 sd 1 1 0 c 309 291 m 16
 Y s 303 307 m 13 X s 309 265 m -15 Y s 303 250 m 13 X s 406 309 m 18 Y s 400 327 m 13 X s 406 283 m -17 Y s 400 266 m 13 X s 503 335 m 22 Y s 497 357 m 13 X s 503 309 m -22 Y s 497 287 m 13 X s 600 281 m 18 Y s 594 299 m 13 X s 600 255 m -18 Y s 594
 237 m 13 X s 697 290 m 13 Y s 691 303 m 13 X s 697 264 m -12 Y s 691 252 m 13 X s 794 332 m 17 Y s 788 349 m 13 X s 794 306 m -16 Y s 788 290 m 13 X s 891 351 m 18 Y s 885 369 m 13 X s 891 325 m -19 Y s 885 306 m 13 X s 988 362 m 27 Y s 982 389 m 13
 X s 988 336 m -26 Y s 982 310 m 13 X s 1085 348 m 7 Y s 1079 355 m 13 X s 1085 322 m -8 Y s 1079 314 m 13 X s 1182 415 m 94 Y s 1176 509 m 13 X s 1182 389 m -93 Y s 1176 296 m 13 X s 1279 300 m 6 Y s 1273 306 m 13 X s 1279 274 m -6 Y s 1273 268 m 13
 X s 1376 401 m 35 Y s 1370 436 m 13 X s 1376 374 m -35 Y s 1370 339 m 13 X s 1473 376 m 8 Y s 1467 384 m 13 X s 1473 350 m -9 Y s 1467 341 m 13 X s 1570 384 m 10 Y s 1564 394 m 13 X s 1570 358 m -10 Y s 1564 348 m 13 X s 1667 404 m 24 Y s 1661 428 m
 13 X s 1667 378 m -24 Y s 1661 354 m 13 X s 1764 407 m 13 Y s 1758 420 m 13 X s 1764 381 m -13 Y s 1758 368 m 13 X s 1861 527 m 16 Y s 1855 543 m 13 X s 1861 501 m -16 Y s 1855 485 m 13 X s 1958 475 m 11 Y s 1952 486 m 13 X s 1958 449 m -11 Y s 1952
 438 m 13 X s black 1 1 0 c 309 278 m 97 18 d 97 26 d 97 -54 d 97 9 d 97 42 d 97 19 d 97 11 d 97 -14 d 97 67 d 97 -115 d 97 100 d 97 -24 d 97 8 d 97 20 d 97 3 d 97 120 d 97 -52 d s[  ] 0 sd 309 278 406 296 503 322 600 268 697 277 794 319 891 338 988
 349 1085 335 1182 402 1279 287 1376 387 1473 363 1570 371 1667 391 1764 394 1861 514 1958 462 18 { m21} R[ 12 12] 0 sd 1 0 1 c 309 267 m 14 Y s 303 281 m 13 X s 309 241 m -13 Y s 303 228 m 13 X s 406 224 m 7 Y s 400 231 m 13 X s 406 198 m -7 Y s 400
 191 m 13 X s 503 228 m 7 Y s 497 235 m 13 X s 503 202 m -8 Y s 497 194 m 13 X s 600 236 m 16 Y s 594 252 m 13 X s 600 210 m -16 Y s 594 194 m 13 X s 697 257 m 13 Y s 691 270 m 13 X s 697 231 m -14 Y s 691 217 m 13 X s 794 256 m 6 Y s 788 262 m 13 X
 s 794 230 m -6 Y s 788 224 m 13 X s 891 252 m 11 Y s 885 263 m 13 X s 891 226 m -10 Y s 885 216 m 13 X s 988 269 m 10 Y s 982 279 m 13 X s 988 243 m -10 Y s 982 233 m 13 X s 1085 305 m 18 Y s 1079 323 m 13 X s 1085 279 m -18 Y s 1079 261 m 13 X s
 1182 327 m 10 Y s 1176 337 m 13 X s 1182 301 m -10 Y s 1176 291 m 13 X s 1279 256 m 5 Y s 1273 261 m 13 X s 1279 230 m -5 Y s 1273 225 m 13 X s 1376 322 m 17 Y s 1370 339 m 13 X s 1376 296 m -16 Y s 1370 280 m 13 X s 1473 315 m 16 Y s 1467 331 m 13
 X s 1473 289 m -16 Y s 1467 273 m 13 X s 1570 303 m 5 Y s 1564 308 m 13 X s 1570 277 m -5 Y s 1564 272 m 13 X s 1667 298 m 2 Y s 1661 300 m 13 X s 1667 272 m -1 Y s 1661 271 m 13 X s 1764 284 m 2 Y s 1758 286 m 13 X s 1764 258 m -1 Y s 1758 257 m 13
 X s 1861 418 m 12 Y s 1855 430 m 13 X s 1861 392 m -13 Y s 1855 379 m 13 X s 1958 378 m 14 Y s 1952 392 m 13 X s 1958 352 m -14 Y s 1952 338 m 13 X s black 1 0 1 c 309 254 m 97 -43 d 97 4 d 97 8 d 97 21 d 97 -1 d 97 -4 d 97 17 d 97 36 d 97 22 d 97
 -71 d 97 66 d 97 -7 d 97 -12 d 97 -5 d 97 -14 d 97 134 d 97 -40 d s[  ] 0 sd 309 254 406 211 503 215 600 223 697 244 794 243 891 239 988 256 1085 292 1182 314 1279 243 1376 309 1473 302 1570 290 1667 285 1764 271 1861 405 1958 365 18 { m21} R[ 12
 12] 0 sd black
 gsave  2268 1538 0 0 C 1326.09 1361.93 t 0 r /Helvetica-Bold findfont 58.6478 sf 0 0 m (Disk 0) show NC gr [  ] 0 sd 1124 1368 m 167 X s 1208 1368 m20
 gsave  2268 1538 0 0 C 1326.09 1329.35 t 0 r /Helvetica-Bold findfont 58.6478 sf 0 0 m (Disk 1) show NC gr  1 0 0 c 1124 1336 m 167 X s 1208 1336 m20 black
 gsave  2268 1538 0 0 C 1326.09 1300.03 t 0 r /Helvetica-Bold findfont 58.6478 sf 0 0 m (Disk 2) show NC gr  0 1 0 c 1124 1304 m 167 X s 1208 1304 m20 black
 gsave  2268 1538 0 0 C 1326.09 1267.44 t 0 r /Helvetica-Bold findfont 58.6478 sf 0 0 m (Disk 3) show NC gr  0 0 1 c 1124 1272 m 167 X s 1208 1272 m20 black
 gsave  2268 1538 0 0 C 1326.09 1234.86 t 0 r /Helvetica-Bold findfont 58.6478 sf 0 0 m (Disk 4) show NC gr  1 1 0 c 1124 1240 m 167 X s 1208 1240 m20 black
 gsave  2268 1538 0 0 C 1326.09 1202.28 t 0 r /Helvetica-Bold findfont 58.6478 sf 0 0 m (Disk 5) show NC gr  1 0 1 c 1124 1208 m 167 X s 1208 1208 m20 black
 gsave  2268 1538 0 0 C 1326.09 1169.7 t 0 r /Helvetica-Bold findfont 58.6478 sf 0 0 m (Disk 0) show NC gr [ 12 12] 0 sd 1124 1176 m 167 X s[  ] 0 sd 1208 1176 m21[ 12 12] 0 sd
 gsave  2268 1538 0 0 C 1326.09 1137.12 t 0 r /Helvetica-Bold findfont 58.6478 sf 0 0 m (Disk 1) show NC gr  1 0 0 c 1124 1144 m 167 X s[  ] 0 sd 1208 1144 m21[ 12 12] 0 sd black
 gsave  2268 1538 0 0 C 1326.09 1107.79 t 0 r /Helvetica-Bold findfont 58.6478 sf 0 0 m (Disk 2) show NC gr  0 1 0 c 1124 1112 m 167 X s[  ] 0 sd 1208 1112 m21[ 12 12] 0 sd black
 gsave  2268 1538 0 0 C 1326.09 1075.21 t 0 r /Helvetica-Bold findfont 58.6478 sf 0 0 m (Disk 3) show NC gr  0 0 1 c 1124 1080 m 167 X s[  ] 0 sd 1208 1080 m21[ 12 12] 0 sd black
 gsave  2268 1538 0 0 C 1326.09 1042.63 t 0 r /Helvetica-Bold findfont 58.6478 sf 0 0 m (Disk 4) show NC gr  1 1 0 c 1124 1048 m 167 X s[  ] 0 sd 1208 1048 m21[ 12 12] 0 sd black
 gsave  2268 1538 0 0 C 1326.09 1010.05 t 0 r /Helvetica-Bold findfont 58.6478 sf 0 0 m (Disk 5) show NC gr  1 0 1 c 1124 1016 m 167 X s[  ] 0 sd 1208 1016 m21[ 12 12] 0 sd
 gr  gr showpage
end
%%EOF
