%!PS-Adobe-2.0 EPSF-2.0
%%BoundingBox:  0 0 567 384
%%Title: d3pdDirr/sct_occupancy/size_sctlayer_mgz.eps: c1_n30
%%Creator: ROOT Version 6.04/12
%%CreationDate: Tue Apr 26 00:12:45 2016
%%DocumentNeededResources: ProcSet (FontSetInit)
%%EndComments
%%BeginProlog
80 dict begin
/s {stroke} def /l {lineto} def /m {moveto} def /t {translate} def
/r {rotate} def /rl {roll}  def /R {repeat} def
/d {rlineto} def /rm {rmoveto} def /gr {grestore} def /f {eofill} def
/c {setrgbcolor} def /black {0 setgray} def /sd {setdash} def
/cl {closepath} def /sf {scalefont setfont} def /lw {setlinewidth} def
/box {m dup 0 exch d exch 0 d 0 exch neg d cl} def
/NC{systemdict begin initclip end}def/C{NC box clip newpath}def
/bl {box s} def /bf {gsave box gsave f grestore 1 lw [] 0 sd s grestore} def /Y { 0 exch d} def /X { 0 d} def 
/K {{pop pop 0 moveto} exch kshow} bind def
/ita {/ang 15 def gsave [1 0 ang dup sin exch cos div 1 0 0] concat} def 
/mp {newpath /y exch def /x exch def} def
/side {[w .77 mul w .23 mul] .385 w mul sd w 0 l currentpoint t -144 r} def
/mr {mp x y w2 0 360 arc} def /m24 {mr s} def /m20 {mr f} def
/mb {mp x y w2 add m w2 neg 0 d 0 w neg d w 0 d 0 w d cl} def
/mt {mp x y w2 add m w2 neg w neg d w 0 d cl} def
/m21 {mb f} def /m25 {mb s} def /m22 {mt f} def /m26{mt s} def
/m23 {mp x y w2 sub m w2 w d w neg 0 d cl f} def
/m27 {mp x y w2 add m w3 neg w2 neg d w3 w2 neg d w3 w2 d cl s} def
/m28 {mp x w2 sub y w2 sub w3 add m w3 0 d  0 w3 neg d w3 0 d 0 w3 d w3 0 d  0 w3 d w3 neg 0 d 0 w3 d w3 neg 0 d 0 w3 neg d w3 neg 0 d cl s } def
/m29 {mp gsave x w2 sub y w2 add w3 sub m currentpoint t 4 {side} repeat cl fill gr} def
/m30 {mp gsave x w2 sub y w2 add w3 sub m currentpoint t 4 {side} repeat cl s gr} def
/m31 {mp x y w2 sub m 0 w d x w2 sub y m w 0 d x w2 sub y w2 add m w w neg d x w2 sub y w2 sub m w w d s} def
/m32 {mp x y w2 sub m w2 w d w neg 0 d cl s} def
/m33 {mp x y w2 add m w3 neg w2 neg d w3 w2 neg d w3 w2 d cl f} def
/m34 {mp x w2 sub y w2 sub w3 add m w3 0 d  0 w3 neg d w3 0 d 0 w3 d w3 0 d  0 w3 d w3 neg 0 d 0 w3 d w3 neg 0 d 0 w3 neg d w3 neg 0 d cl f } def
/m2 {mp x y w2 sub m 0 w d x w2 sub y m w 0 d s} def
/m5 {mp x w2 sub y w2 sub m w w d x w2 sub y w2 add m w w neg d s} def
%%IncludeResource: ProcSet (FontSetInit)
%%IncludeResource: font Times-Roman
%%IncludeResource: font Times-Italic
%%IncludeResource: font Times-Bold
%%IncludeResource: font Times-BoldItalic
%%IncludeResource: font Helvetica
%%IncludeResource: font Helvetica-Oblique
%%IncludeResource: font Helvetica-Bold
%%IncludeResource: font Helvetica-BoldOblique
%%IncludeResource: font Courier
%%IncludeResource: font Courier-Oblique
%%IncludeResource: font Courier-Bold
%%IncludeResource: font Courier-BoldOblique
%%IncludeResource: font Symbol
%%IncludeResource: font ZapfDingbats
/reEncode {exch findfont dup length dict begin {1 index /FID eq  {pop pop} {def} ifelse } forall /Encoding exch def currentdict end dup /FontName get exch definefont pop } def [/Times-Bold /Times-Italic /Times-BoldItalic /Helvetica /Helvetica-Oblique
 /Helvetica-Bold /Helvetica-BoldOblique /Courier /Courier-Oblique /Courier-Bold /Courier-BoldOblique /Times-Roman /AvantGarde-Book /AvantGarde-BookOblique /AvantGarde-Demi /AvantGarde-DemiOblique /Bookman-Demi /Bookman-DemiItalic /Bookman-Light
 /Bookman-LightItalic /Helvetica-Narrow /Helvetica-Narrow-Bold /Helvetica-Narrow-BoldOblique /Helvetica-Narrow-Oblique /NewCenturySchlbk-Roman /NewCenturySchlbk-Bold /NewCenturySchlbk-BoldItalic /NewCenturySchlbk-Italic /Palatino-Bold
 /Palatino-BoldItalic /Palatino-Italic /Palatino-Roman ] {ISOLatin1Encoding reEncode } forall
%%EndProlog
%%BeginSetup
%%EndSetup
newpath  gsave  .25 .25 scale  gsave  0 0 t black[  ] 0 sd 3 lw 1 1 1 c 2268 1538 0 0 bf black 1 1 1 c 1814 1230 227 154 bf black 1814 1230 227 154 bl 1 1 1 c 1814 1230 227 154 bf black 1814 1230 227 154 bl 227 154 m 1814 X s
 gsave  2268 1538 0 0 C 1853.92 35.8403 t 0 r /Helvetica-Bold findfont 58.6478 sf 0 0 m (z [mm]) show NC gr  399 191 m -37 Y s 460 172 m -18 Y s 521 172 m -18 Y s 583 172 m -18 Y s 644 191 m -37 Y s 705 172 m -18 Y s 766 172 m -18 Y s 828 172 m -18 Y
 s 889 191 m -37 Y s 950 172 m -18 Y s 1011 172 m -18 Y s 1073 172 m -18 Y s 1134 191 m -37 Y s 1195 172 m -18 Y s 1256 172 m -18 Y s 1318 172 m -18 Y s 1379 191 m -37 Y s 1440 172 m -18 Y s 1501 172 m -18 Y s 1563 172 m -18 Y s 1624 191 m -37 Y s
 1685 172 m -18 Y s 1746 172 m -18 Y s 1808 172 m -18 Y s 1869 191 m -37 Y s 399 191 m -37 Y s 338 172 m -18 Y s 276 172 m -18 Y s 1869 191 m -37 Y s 1930 172 m -18 Y s 1991 172 m -18 Y s
 gsave  2268 1538 0 0 C 361.662 97.7464 t 0 r /Helvetica-Bold findfont 58.6478 sf 0 0 m (600) show NC gr 
 gsave  2268 1538 0 0 C 332.338 97.7464 t 0 r /Symbol findfont 58.6478 sf 0 0 m (-) show NC gr 
 gsave  2268 1538 0 0 C 606.028 97.7464 t 0 r /Helvetica-Bold findfont 58.6478 sf 0 0 m (400) show NC gr 
 gsave  2268 1538 0 0 C 576.704 97.7464 t 0 r /Symbol findfont 58.6478 sf 0 0 m (-) show NC gr 
 gsave  2268 1538 0 0 C 850.394 97.7464 t 0 r /Helvetica-Bold findfont 58.6478 sf 0 0 m (200) show NC gr 
 gsave  2268 1538 0 0 C 821.07 97.7464 t 0 r /Symbol findfont 58.6478 sf 0 0 m (-) show NC gr 
 gsave  2268 1538 0 0 C 1114.31 97.7464 t 0 r /Helvetica-Bold findfont 58.6478 sf 0 0 m (0) show NC gr 
 gsave  2268 1538 0 0 C 1329.35 97.7464 t 0 r /Helvetica-Bold findfont 58.6478 sf 0 0 m (200) show NC gr 
 gsave  2268 1538 0 0 C 1573.72 97.7464 t 0 r /Helvetica-Bold findfont 58.6478 sf 0 0 m (400) show NC gr 
 gsave  2268 1538 0 0 C 1818.08 97.7464 t 0 r /Helvetica-Bold findfont 58.6478 sf 0 0 m (600) show NC gr  227 1384 m 1814 X s 399 1347 m 37 Y s 460 1366 m 18 Y s 521 1366 m 18 Y s 583 1366 m 18 Y s 644 1347 m 37 Y s 705 1366 m 18 Y s 766 1366 m 18 Y
 s 828 1366 m 18 Y s 889 1347 m 37 Y s 950 1366 m 18 Y s 1011 1366 m 18 Y s 1073 1366 m 18 Y s 1134 1347 m 37 Y s 1195 1366 m 18 Y s 1256 1366 m 18 Y s 1318 1366 m 18 Y s 1379 1347 m 37 Y s 1440 1366 m 18 Y s 1501 1366 m 18 Y s 1563 1366 m 18 Y s
 1624 1347 m 37 Y s 1685 1366 m 18 Y s 1746 1366 m 18 Y s 1808 1366 m 18 Y s 1869 1347 m 37 Y s 399 1347 m 37 Y s 338 1366 m 18 Y s 276 1366 m 18 Y s 1869 1347 m 37 Y s 1930 1366 m 18 Y s 1991 1366 m 18 Y s 227 154 m 1230 Y s
 gsave  2268 1538 0 0 C 104.263 1055.66 t 90 r /Helvetica-Bold findfont 58.6478 sf 0 0 m (Cluster size) show NC gr  281 192 m -54 X s 254 226 m -27 X s 254 261 m -27 X s 254 295 m -27 X s 254 330 m -27 X s 281 364 m -54 X s 254 399 m -27 X s 254 433
 m -27 X s 254 468 m -27 X s 254 502 m -27 X s 281 537 m -54 X s 254 572 m -27 X s 254 606 m -27 X s 254 641 m -27 X s 254 675 m -27 X s 281 710 m -54 X s 254 744 m -27 X s 254 779 m -27 X s 254 813 m -27 X s 254 848 m -27 X s 281 882 m -54 X s 254
 917 m -27 X s 254 951 m -27 X s 254 986 m -27 X s 254 1020 m -27 X s 281 1055 m -54 X s 254 1090 m -27 X s 254 1124 m -27 X s 254 1159 m -27 X s 254 1193 m -27 X s 281 1228 m -54 X s 281 192 m -54 X s 254 157 m -27 X s 281 1228 m -54 X s 254 1262 m
 -27 X s 254 1297 m -27 X s 254 1331 m -27 X s 254 1366 m -27 X s
 gsave  2268 1538 0 0 C 182.46 166.169 t 0 r /Helvetica-Bold findfont 58.6478 sf 0 0 m (2) show NC gr 
 gsave  2268 1538 0 0 C 133.587 342.112 t 0 r /Helvetica-Bold findfont 58.6478 sf 0 0 m (2.5) show NC gr 
 gsave  2268 1538 0 0 C 182.46 514.798 t 0 r /Helvetica-Bold findfont 58.6478 sf 0 0 m (3) show NC gr 
 gsave  2268 1538 0 0 C 133.587 687.483 t 0 r /Helvetica-Bold findfont 58.6478 sf 0 0 m (3.5) show NC gr 
 gsave  2268 1538 0 0 C 182.46 860.168 t 0 r /Helvetica-Bold findfont 58.6478 sf 0 0 m (4) show NC gr 
 gsave  2268 1538 0 0 C 133.587 1032.85 t 0 r /Helvetica-Bold findfont 58.6478 sf 0 0 m (4.5) show NC gr 
 gsave  2268 1538 0 0 C 182.46 1205.54 t 0 r /Helvetica-Bold findfont 58.6478 sf 0 0 m (5) show NC gr  2041 154 m 1230 Y s 1987 192 m 54 X s 2014 226 m 27 X s 2014 261 m 27 X s 2014 295 m 27 X s 2014 330 m 27 X s 1987 364 m 54 X s 2014 399 m 27 X s
 2014 433 m 27 X s 2014 468 m 27 X s 2014 502 m 27 X s 1987 537 m 54 X s 2014 572 m 27 X s 2014 606 m 27 X s 2014 641 m 27 X s 2014 675 m 27 X s 1987 710 m 54 X s 2014 744 m 27 X s 2014 779 m 27 X s 2014 813 m 27 X s 2014 848 m 27 X s 1987 882 m 54 X
 s 2014 917 m 27 X s 2014 951 m 27 X s 2014 986 m 27 X s 2014 1020 m 27 X s 1987 1055 m 54 X s 2014 1090 m 27 X s 2014 1124 m 27 X s 2014 1159 m 27 X s 2014 1193 m 27 X s 1987 1228 m 54 X s 1987 192 m 54 X s 2014 157 m 27 X s 1987 1228 m 54 X s 2014
 1262 m 27 X s 2014 1297 m 27 X s 2014 1331 m 27 X s 2014 1366 m 27 X s 309 437 m 37 Y s 303 474 m 13 X s 309 411 m -37 Y s 303 374 m 13 X s 339 407 m 43 Y s 332 450 m 13 X s 339 381 m -43 Y s 332 338 m 13 X s 368 473 m 71 Y s 361 544 m 13 X s 368
 447 m -71 Y s 361 376 m 13 X s 397 485 m 24 Y s 391 509 m 13 X s 397 459 m -25 Y s 391 434 m 13 X s 429 378 m 20 Y s 423 398 m 13 X s 429 352 m -20 Y s 423 332 m 13 X s 459 461 m 75 Y s 452 536 m 13 X s 459 435 m -75 Y s 452 360 m 13 X s 488 464 m
 54 Y s 481 518 m 13 X s 488 438 m -54 Y s 481 384 m 13 X s 517 327 m 19 Y s 511 346 m 13 X s 517 301 m -18 Y s 511 283 m 13 X s 549 354 m 41 Y s 543 395 m 13 X s 549 328 m -41 Y s 543 287 m 13 X s 579 425 m 52 Y s 572 477 m 13 X s 579 399 m -51 Y s
 572 348 m 13 X s 608 414 m 40 Y s 602 454 m 13 X s 608 388 m -39 Y s 602 349 m 13 X s 637 476 m 90 Y s 631 566 m 13 X s 637 450 m -89 Y s 631 361 m 13 X s 670 400 m 24 Y s 663 424 m 13 X s 670 374 m -23 Y s 663 351 m 13 X s 699 437 m 38 Y s 692 475
 m 13 X s 699 411 m -39 Y s 692 372 m 13 X s 728 467 m 40 Y s 722 507 m 13 X s 728 441 m -40 Y s 722 401 m 13 X s 757 403 m 27 Y s 751 430 m 13 X s 757 377 m -28 Y s 751 349 m 13 X s 790 345 m 17 Y s 783 362 m 13 X s 790 319 m -18 Y s 783 301 m 13 X
 s 819 345 m 25 Y s 812 370 m 13 X s 819 319 m -25 Y s 812 294 m 13 X s 848 378 m 68 Y s 842 446 m 13 X s 848 352 m -68 Y s 842 284 m 13 X s 877 370 m 19 Y s 871 389 m 13 X s 877 344 m -20 Y s 871 324 m 13 X s 910 369 m 35 Y s 903 404 m 13 X s 910
 343 m -35 Y s 903 308 m 13 X s 939 423 m 43 Y s 933 466 m 13 X s 939 397 m -44 Y s 933 353 m 13 X s 968 426 m 42 Y s 962 468 m 13 X s 968 400 m -42 Y s 962 358 m 13 X s 998 383 m 53 Y s 991 436 m 13 X s 998 357 m -53 Y s 991 304 m 13 X s 1030 325 m
 25 Y s 1023 350 m 13 X s 1030 299 m -26 Y s 1023 273 m 13 X s 1059 230 m 14 Y s 1053 244 m 13 X s 1059 204 m -13 Y s 1053 191 m 13 X s 1088 229 m 13 Y s 1082 242 m 13 X s 1088 203 m -12 Y s 1082 191 m 13 X s 1118 262 m 24 Y s 1111 286 m 13 X s 1118
 235 m -24 Y s 1111 211 m 13 X s 1150 379 m 35 Y s 1143 414 m 13 X s 1150 353 m -35 Y s 1143 318 m 13 X s 1179 260 m 15 Y s 1173 275 m 13 X s 1179 234 m -15 Y s 1173 219 m 13 X s 1209 321 m 24 Y s 1202 345 m 13 X s 1209 295 m -23 Y s 1202 272 m 13 X
 s 1238 237 m 10 Y s 1231 247 m 13 X s 1238 211 m -10 Y s 1231 201 m 13 X s 1270 394 m 85 Y s 1264 479 m 13 X s 1270 368 m -85 Y s 1264 283 m 13 X s 1299 298 m 15 Y s 1293 313 m 13 X s 1299 272 m -15 Y s 1293 257 m 13 X s 1329 323 m 71 Y s 1322 394 m
 13 X s 1329 297 m -70 Y s 1322 227 m 13 X s 1358 313 m 25 Y s 1351 338 m 13 X s 1358 287 m -26 Y s 1351 261 m 13 X s 1390 407 m 71 Y s 1384 478 m 13 X s 1390 381 m -70 Y s 1384 311 m 13 X s 1419 368 m 85 Y s 1413 453 m 13 X s 1419 342 m -84 Y s 1413
 258 m 13 X s 1449 351 m 26 Y s 1442 377 m 13 X s 1449 325 m -26 Y s 1442 299 m 13 X s 1478 350 m 31 Y s 1471 381 m 14 X s 1478 324 m -31 Y s 1471 293 m 14 X s 1510 429 m 38 Y s 1504 467 m 13 X s 1510 403 m -38 Y s 1504 365 m 13 X s 1539 339 m 15 Y s
 1533 354 m 13 X s 1539 312 m -15 Y s 1533 297 m 13 X s 1569 510 m 79 Y s 1562 589 m 13 X s 1569 484 m -79 Y s 1562 405 m 13 X s 1598 390 m 32 Y s 1592 422 m 13 X s 1598 364 m -32 Y s 1592 332 m 13 X s 1630 369 m 22 Y s 1624 391 m 13 X s 1630 343 m
 -22 Y s 1624 321 m 13 X s 1660 309 m 19 Y s 1653 328 m 13 X s 1660 283 m -19 Y s 1653 264 m 13 X s 1689 339 m 14 Y s 1682 353 m 13 X s 1689 313 m -15 Y s 1682 298 m 13 X s 1718 313 m 14 Y s 1712 327 m 13 X s 1718 287 m -14 Y s 1712 273 m 13 X s 1751
 421 m 36 Y s 1744 457 m 13 X s 1751 395 m -36 Y s 1744 359 m 13 X s 1780 545 m 86 Y s 1773 631 m 13 X s 1780 519 m -86 Y s 1773 433 m 13 X s 1809 344 m 20 Y s 1803 364 m 13 X s 1809 318 m -19 Y s 1803 299 m 13 X s 1838 362 m 18 Y s 1832 380 m 13 X s
 1838 336 m -18 Y s 1832 318 m 13 X s 1871 399 m 26 Y s 1864 425 m 13 X s 1871 373 m -27 Y s 1864 346 m 13 X s 1900 407 m 32 Y s 1893 439 m 13 X s 1900 381 m -32 Y s 1893 349 m 13 X s 1929 416 m 27 Y s 1923 443 m 13 X s 1929 390 m -28 Y s 1923 362 m
 13 X s 1958 384 m 17 Y s 1952 401 m 13 X s 1958 358 m -18 Y s 1952 340 m 13 X s 309 424 m 30 -30 d 29 66 d 29 12 d 32 -107 d 30 83 d 29 3 d 29 -137 d 32 27 d 30 71 d 29 -11 d 29 62 d 33 -76 d 29 37 d 29 30 d 29 -64 d 33 -58 d 29 X 29 33 d 29 -8 d 33
 -1 d 29 54 d 29 3 d 30 -43 d 32 -58 d 29 -95 d 29 -1 d 30 32 d 32 118 d 29 -119 d 30 61 d 29 -84 d 32 157 d 29 -96 d 30 25 d 29 -10 d 32 94 d 29 -39 d 30 -17 d 29 -1 d 32 79 d 29 -91 d 30 172 d 29 -120 d 32 -21 d 30 -60 d 29 30 d 29 -26 d 33 108 d
 29 124 d 29 -201 d 29 18 d 33 37 d 29 8 d 29 9 d 29 -32 d s /w 26 def /w2 {w 2 div} def /w3 {w 3 div} def 309 424 339 394 368 460 397 472 429 365 459 448 488 451 517 314 549 341 579 412 608 401 637 463 670 387 699 424 728 454 757 390 790 332 819 332
 848 365 877 357 910 356 939 410 968 413 998 370 1030 312 1059 217 1088 216 1118 248 1150 366 1179 247 1209 308 1238 224 1270 381 1299 285 1329 310 1358 300 1390 394 1419 355 1449 338 1478 337 1510 416 1539 325 1569 497 1598 377 1630 356 1660 296
 1689 326 1718 300 1751 408 1780 532 1809 331 1838 349 1871 386 1900 394 1929 403 1958 371 56 { m20} R 1 0 0 c 309 290 m 15 Y s 303 305 m 13 X s 309 264 m -15 Y s 303 249 m 13 X s 339 472 m 36 Y s 332 508 m 13 X s 339 446 m -36 Y s 332 410 m 13 X s
 368 391 m 25 Y s 361 416 m 13 X s 368 365 m -25 Y s 361 340 m 13 X s 397 425 m 35 Y s 391 460 m 13 X s 397 398 m -34 Y s 391 364 m 13 X s 429 298 m 17 Y s 423 315 m 13 X s 429 272 m -16 Y s 423 256 m 13 X s 459 360 m 23 Y s 452 383 m 13 X s 459 334
 m -23 Y s 452 311 m 13 X s 488 310 m 21 Y s 481 331 m 13 X s 488 284 m -22 Y s 481 262 m 13 X s 517 315 m 24 Y s 511 339 m 13 X s 517 289 m -23 Y s 511 266 m 13 X s 549 383 m 24 Y s 543 407 m 13 X s 549 357 m -23 Y s 543 334 m 13 X s 579 345 m 17 Y
 s 572 362 m 13 X s 579 318 m -17 Y s 572 301 m 13 X s 608 344 m 24 Y s 602 368 m 13 X s 608 318 m -24 Y s 602 294 m 13 X s 637 436 m 46 Y s 631 482 m 13 X s 637 410 m -46 Y s 631 364 m 13 X s 670 369 m 25 Y s 663 394 m 13 X s 670 343 m -25 Y s 663
 318 m 13 X s 699 418 m 68 Y s 692 486 m 13 X s 699 391 m -68 Y s 692 323 m 13 X s 728 365 m 29 Y s 722 394 m 13 X s 728 339 m -28 Y s 722 311 m 13 X s 757 324 m 21 Y s 751 345 m 13 X s 757 298 m -20 Y s 751 278 m 13 X s 790 278 m 20 Y s 783 298 m 13
 X s 790 252 m -20 Y s 783 232 m 13 X s 819 398 m 81 Y s 812 479 m 13 X s 819 372 m -82 Y s 812 290 m 13 X s 848 361 m 25 Y s 842 386 m 13 X s 848 335 m -25 Y s 842 310 m 13 X s 878 306 m 25 Y s 871 331 m 13 X s 878 280 m -26 Y s 871 254 m 13 X s 910
 259 m 16 Y s 903 275 m 13 X s 910 233 m -16 Y s 903 217 m 13 X s 939 322 m 25 Y s 932 347 m 13 X s 939 296 m -26 Y s 932 270 m 13 X s 968 231 m 16 Y s 962 247 m 13 X s 968 205 m -17 Y s 962 188 m 13 X s 998 253 m 12 Y s 991 265 m 13 X s 998 227 m
 -12 Y s 991 215 m 13 X s 1030 306 m 26 Y s 1023 332 m 13 X s 1030 280 m -26 Y s 1023 254 m 13 X s 1059 620 m 260 Y s 1053 880 m 13 X s 1059 594 m -260 Y s 1053 334 m 13 X s 1088 468 m 61 Y s 1082 529 m 13 X s 1088 442 m -60 Y s 1082 382 m 13 X s
 1118 308 m 19 Y s 1111 327 m 13 X s 1118 282 m -18 Y s 1111 264 m 13 X s 1150 286 m 16 Y s 1143 302 m 13 X s 1150 260 m -17 Y s 1143 243 m 13 X s 1179 432 m 89 Y s 1173 521 m 13 X s 1179 406 m -89 Y s 1173 317 m 13 X s 1209 358 m 36 Y s 1202 394 m
 13 X s 1209 331 m -36 Y s 1202 295 m 13 X s 1238 291 m 15 Y s 1231 306 m 13 X s 1238 265 m -14 Y s 1231 251 m 13 X s 1270 344 m 26 Y s 1263 370 m 13 X s 1270 318 m -26 Y s 1263 292 m 13 X s 1299 391 m 45 Y s 1293 436 m 13 X s 1299 365 m -44 Y s 1293
 321 m 13 X s 1329 274 m 16 Y s 1322 290 m 13 X s 1329 248 m -16 Y s 1322 232 m 13 X s 1358 376 m 31 Y s 1351 407 m 13 X s 1358 350 m -30 Y s 1351 320 m 13 X s 1390 376 m 27 Y s 1384 403 m 13 X s 1390 350 m -28 Y s 1384 322 m 13 X s 1419 405 m 34 Y s
 1413 439 m 13 X s 1419 379 m -34 Y s 1413 345 m 13 X s 1449 298 m 16 Y s 1442 314 m 13 X s 1449 272 m -15 Y s 1442 257 m 13 X s 1478 303 m 15 Y s 1471 318 m 14 X s 1478 277 m -15 Y s 1471 262 m 14 X s 1510 312 m 38 Y s 1504 350 m 13 X s 1510 286 m
 -38 Y s 1504 248 m 13 X s 1539 318 m 19 Y s 1533 337 m 13 X s 1539 292 m -18 Y s 1533 274 m 13 X s 1569 362 m 20 Y s 1562 382 m 13 X s 1569 336 m -21 Y s 1562 315 m 13 X s 1598 519 m 88 Y s 1592 607 m 13 X s 1598 492 m -88 Y s 1592 404 m 13 X s 1630
 597 m 174 Y s 1624 771 m 13 X s 1630 571 m -174 Y s 1624 397 m 13 X s 1660 403 m 41 Y s 1653 444 m 13 X s 1660 377 m -41 Y s 1653 336 m 13 X s 1689 408 m 23 Y s 1682 431 m 13 X s 1689 382 m -23 Y s 1682 359 m 13 X s 1718 402 m 36 Y s 1712 438 m 13 X
 s 1718 376 m -36 Y s 1712 340 m 13 X s 1750 450 m 44 Y s 1744 494 m 13 X s 1750 424 m -45 Y s 1744 379 m 13 X s 1780 379 m 20 Y s 1773 399 m 13 X s 1780 353 m -21 Y s 1773 332 m 13 X s 1809 488 m 39 Y s 1802 527 m 14 X s 1809 462 m -39 Y s 1802 423
 m 14 X s 1838 455 m 31 Y s 1832 486 m 13 X s 1838 429 m -32 Y s 1832 397 m 13 X s 1870 496 m 52 Y s 1864 548 m 13 X s 1870 470 m -53 Y s 1864 417 m 13 X s 1900 378 m 26 Y s 1893 404 m 13 X s 1900 352 m -26 Y s 1893 326 m 13 X s 1929 453 m 41 Y s
 1923 494 m 13 X s 1929 427 m -41 Y s 1923 386 m 13 X s 1958 455 m 45 Y s 1952 500 m 13 X s 1958 429 m -44 Y s 1952 385 m 13 X s black 1 0 0 c 309 277 m 30 182 d 29 -81 d 29 34 d 32 -127 d 30 62 d 29 -50 d 29 5 d 32 68 d 30 -38 d 29 -1 d 29 92 d 33
 -67 d 29 48 d 29 -52 d 29 -41 d 33 -46 d 29 120 d 29 -37 d 30 -55 d 32 -47 d 29 63 d 29 -91 d 30 22 d 32 53 d 29 314 d 29 -152 d 30 -160 d 32 -22 d 29 146 d 30 -74 d 29 -67 d 32 53 d 29 47 d 30 -117 d 29 102 d 32 X 29 29 d 30 -107 d 29 5 d 32 9 d 29
 6 d 30 44 d 29 157 d 32 78 d 30 -194 d 29 5 d 29 -6 d 32 48 d 30 -71 d 29 109 d 29 -33 d 32 41 d 30 -118 d 29 75 d 29 2 d s 309 277 339 459 368 378 397 412 429 285 459 347 488 297 517 302 549 370 579 332 608 331 637 423 670 356 699 404 728 352 757
 311 790 265 819 385 848 348 878 293 910 246 939 309 968 218 998 240 1030 293 1059 607 1088 455 1118 295 1150 273 1179 419 1209 345 1238 278 1270 331 1299 378 1329 261 1358 363 1390 363 1419 392 1449 285 1478 290 1510 299 1539 305 1569 349 1598 506
 1630 584 1660 390 1689 395 1718 389 1750 437 1780 366 1809 475 1838 442 1870 483 1900 365 1929 440 1958 442 56 { m20} R 0 1 0 c 728 339 m 17 Y s 722 356 m 13 X s 728 313 m -17 Y s 722 296 m 13 X s 757 363 m 21 Y s 751 384 m 13 X s 757 337 m -20 Y s
 751 317 m 13 X s 790 311 m 17 Y s 783 328 m 13 X s 790 285 m -17 Y s 783 268 m 13 X s 819 381 m 27 Y s 812 408 m 13 X s 819 355 m -26 Y s 812 329 m 13 X s 848 392 m 40 Y s 842 432 m 13 X s 848 366 m -39 Y s 842 327 m 13 X s 877 313 m 19 Y s 871 332
 m 13 X s 877 287 m -19 Y s 871 268 m 13 X s 910 355 m 34 Y s 903 389 m 13 X s 910 329 m -34 Y s 903 295 m 13 X s 939 350 m 35 Y s 933 385 m 13 X s 939 324 m -34 Y s 933 290 m 13 X s 968 269 m 20 Y s 962 289 m 13 X s 968 243 m -19 Y s 962 224 m 13 X
 s 998 299 m 19 Y s 991 318 m 13 X s 998 273 m -19 Y s 991 254 m 13 X s 1030 250 m 22 Y s 1023 272 m 13 X s 1030 223 m -22 Y s 1023 201 m 13 X s 1059 411 m 34 Y s 1053 445 m 13 X s 1059 385 m -34 Y s 1053 351 m 13 X s 1088 287 m 20 Y s 1082 307 m 13
 X s 1088 261 m -20 Y s 1082 241 m 13 X s 1118 336 m 24 Y s 1111 360 m 13 X s 1118 310 m -24 Y s 1111 286 m 13 X s 1150 280 m 26 Y s 1143 306 m 14 X s 1150 254 m -26 Y s 1143 228 m 14 X s 1179 340 m 27 Y s 1173 367 m 13 X s 1179 314 m -26 Y s 1173
 288 m 13 X s 1208 317 m 28 Y s 1202 345 m 13 X s 1208 291 m -28 Y s 1202 263 m 13 X s 1238 312 m 17 Y s 1231 329 m 13 X s 1238 286 m -17 Y s 1231 269 m 13 X s 1270 316 m 20 Y s 1264 336 m 13 X s 1270 290 m -19 Y s 1264 271 m 13 X s 1299 449 m 47 Y s
 1293 496 m 13 X s 1299 423 m -47 Y s 1293 376 m 13 X s 1329 348 m 44 Y s 1322 392 m 13 X s 1329 322 m -43 Y s 1322 279 m 13 X s 1358 370 m 31 Y s 1351 401 m 13 X s 1358 344 m -31 Y s 1351 313 m 13 X s 1390 280 m 15 Y s 1384 295 m 13 X s 1390 254 m
 -16 Y s 1384 238 m 13 X s 1420 395 m 28 Y s 1413 423 m 13 X s 1420 369 m -29 Y s 1413 340 m 13 X s 1449 303 m 23 Y s 1442 326 m 13 X s 1449 277 m -24 Y s 1442 253 m 13 X s 1478 333 m 25 Y s 1471 358 m 14 X s 1478 307 m -24 Y s 1471 283 m 14 X s 1510
 329 m 25 Y s 1504 354 m 13 X s 1510 303 m -25 Y s 1504 278 m 13 X s 1540 329 m 25 Y s 1533 354 m 13 X s 1540 302 m -25 Y s 1533 277 m 13 X s black 0 1 0 c 728 326 m 29 24 d 33 -52 d 29 70 d 29 11 d 29 -79 d 33 42 d 29 -5 d 29 -81 d 30 30 d 32 -50 d
 29 162 d 29 -124 d 30 49 d 32 -56 d 29 60 d 29 -23 d 30 -5 d 32 4 d 29 133 d 30 -101 d 29 22 d 32 -90 d 30 115 d 29 -92 d 29 30 d 32 -4 d 30 -1 d s 728 326 757 350 790 298 819 368 848 379 877 300 910 342 939 337 968 256 998 286 1030 236 1059 398
 1088 274 1118 323 1150 267 1179 327 1208 304 1238 299 1270 303 1299 436 1329 335 1358 357 1390 267 1420 382 1449 290 1478 320 1510 316 1540 315 28 { m20} R 0 0 1 c 324 454 m 29 Y s 317 483 m 13 X s 324 428 m -29 Y s 317 399 m 13 X s 382 371 m 12 Y s
 376 383 m 13 X s 382 345 m -13 Y s 376 332 m 13 X s 444 395 m 18 Y s 438 413 m 13 X s 444 369 m -18 Y s 438 351 m 13 X s 503 337 m 13 Y s 496 350 m 13 X s 503 311 m -13 Y s 496 298 m 13 X s 564 380 m 21 Y s 558 401 m 13 X s 564 354 m -21 Y s 558 333
 m 13 X s 623 400 m 26 Y s 616 426 m 13 X s 623 374 m -26 Y s 616 348 m 13 X s 684 383 m 17 Y s 678 400 m 13 X s 684 357 m -17 Y s 678 340 m 13 X s 743 330 m 15 Y s 736 345 m 13 X s 743 304 m -14 Y s 736 290 m 13 X s 804 353 m 13 Y s 798 366 m 13 X s
 804 327 m -13 Y s 798 314 m 13 X s 863 294 m 17 Y s 856 311 m 13 X s 863 268 m -17 Y s 856 251 m 13 X s 925 362 m 19 Y s 918 381 m 13 X s 925 336 m -19 Y s 918 317 m 13 X s 983 292 m 10 Y s 976 302 m 13 X s 983 266 m -10 Y s 976 256 m 13 X s 1045
 286 m 30 Y s 1038 316 m 13 X s 1045 260 m -31 Y s 1038 229 m 13 X s 1103 301 m 21 Y s 1096 322 m 14 X s 1103 275 m -22 Y s 1096 253 m 14 X s 1165 273 m 10 Y s 1158 283 m 13 X s 1165 247 m -10 Y s 1158 237 m 13 X s 1223 312 m 21 Y s 1217 333 m 13 X s
 1223 286 m -21 Y s 1217 265 m 13 X s 1285 272 m 11 Y s 1278 283 m 13 X s 1285 246 m -11 Y s 1278 235 m 13 X s 1343 388 m 23 Y s 1337 411 m 13 X s 1343 362 m -23 Y s 1337 339 m 13 X s 1405 297 m 8 Y s 1398 305 m 13 X s 1405 271 m -9 Y s 1398 262 m 13
 X s 1463 279 m 9 Y s 1457 288 m 13 X s 1463 253 m -9 Y s 1457 244 m 13 X s 1525 310 m 12 Y s 1518 322 m 13 X s 1525 284 m -12 Y s 1518 272 m 13 X s 1583 400 m 22 Y s 1577 422 m 13 X s 1583 374 m -23 Y s 1577 351 m 13 X s 1645 335 m 14 Y s 1639 349 m
 13 X s 1645 309 m -15 Y s 1639 294 m 13 X s 1703 362 m 11 Y s 1697 373 m 13 X s 1703 336 m -10 Y s 1697 326 m 13 X s 1765 379 m 18 Y s 1759 397 m 13 X s 1765 353 m -17 Y s 1759 336 m 13 X s 1824 343 m 21 Y s 1817 364 m 13 X s 1824 317 m -22 Y s 1817
 295 m 13 X s 1885 380 m 14 Y s 1879 394 m 13 X s 1885 354 m -15 Y s 1879 339 m 13 X s 1944 351 m 12 Y s 1937 363 m 13 X s 1944 325 m -11 Y s 1937 314 m 13 X s black 0 0 1 c 324 441 m 58 -83 d 62 24 d 59 -58 d 61 43 d 59 20 d 61 -17 d 59 -53 d 61 23
 d 59 -59 d 62 68 d 58 -70 d 62 -6 d 58 15 d 62 -28 d 58 39 d 62 -40 d 58 116 d 62 -91 d 58 -18 d 62 31 d 58 90 d 62 -65 d 58 27 d 62 17 d 59 -36 d 61 37 d 59 -29 d s 324 441 382 358 444 382 503 324 564 367 623 387 684 370 743 317 804 340 863 281 925
 349 983 279 1045 273 1103 288 1165 260 1223 299 1285 259 1343 375 1405 284 1463 266 1525 297 1583 387 1645 322 1703 349 1765 366 1824 330 1885 367 1944 338 28 { m20} R black
 gsave  2268 1538 0 0 C 1394.52 1273.96 t 0 r /Helvetica-Bold findfont 58.6478 sf 0 0 m (SCT Barrel) show NC gr 
 gsave  2268 1538 0 0 C 1495.52 1228.35 t 0 r /Helvetica-Bold findfont 58.6478 sf 0 0 m (Layer 0) show NC gr  1400 1238 m 80 X s 1440 1238 m20
 gsave  2268 1538 0 0 C 1495.52 1182.73 t 0 r /Helvetica-Bold findfont 58.6478 sf 0 0 m (Layer 1) show NC gr  1 0 0 c 1400 1192 m 80 X s 1440 1192 m20 black
 gsave  2268 1538 0 0 C 1495.52 1137.12 t 0 r /Helvetica-Bold findfont 58.6478 sf 0 0 m (Layer 2) show NC gr  0 1 0 c 1400 1146 m 80 X s 1440 1146 m20 black
 gsave  2268 1538 0 0 C 1495.52 1091.5 t 0 r /Helvetica-Bold findfont 58.6478 sf 0 0 m (Layer 3) show NC gr  0 0 1 c 1400 1100 m 80 X s 1440 1100 m20
 gr  gr showpage
end
%%EOF
