%!PS-Adobe-2.0 EPSF-2.0
%%BoundingBox:  0 0 567 384
%%Title: outputDir/pixHits_negZ/pixClus_x.eps: c1_n67
%%Creator: ROOT Version 6.04/12
%%CreationDate: Mon Apr 25 16:02:16 2016
%%DocumentNeededResources: ProcSet (FontSetInit)
%%EndComments
%%BeginProlog
80 dict begin
/s {stroke} def /l {lineto} def /m {moveto} def /t {translate} def
/r {rotate} def /rl {roll}  def /R {repeat} def
/d {rlineto} def /rm {rmoveto} def /gr {grestore} def /f {eofill} def
/c {setrgbcolor} def /black {0 setgray} def /sd {setdash} def
/cl {closepath} def /sf {scalefont setfont} def /lw {setlinewidth} def
/box {m dup 0 exch d exch 0 d 0 exch neg d cl} def
/NC{systemdict begin initclip end}def/C{NC box clip newpath}def
/bl {box s} def /bf {gsave box gsave f grestore 1 lw [] 0 sd s grestore} def /Y { 0 exch d} def /X { 0 d} def 
/K {{pop pop 0 moveto} exch kshow} bind def
/ita {/ang 15 def gsave [1 0 ang dup sin exch cos div 1 0 0] concat} def 
/mp {newpath /y exch def /x exch def} def
/side {[w .77 mul w .23 mul] .385 w mul sd w 0 l currentpoint t -144 r} def
/mr {mp x y w2 0 360 arc} def /m24 {mr s} def /m20 {mr f} def
/mb {mp x y w2 add m w2 neg 0 d 0 w neg d w 0 d 0 w d cl} def
/mt {mp x y w2 add m w2 neg w neg d w 0 d cl} def
/m21 {mb f} def /m25 {mb s} def /m22 {mt f} def /m26{mt s} def
/m23 {mp x y w2 sub m w2 w d w neg 0 d cl f} def
/m27 {mp x y w2 add m w3 neg w2 neg d w3 w2 neg d w3 w2 d cl s} def
/m28 {mp x w2 sub y w2 sub w3 add m w3 0 d  0 w3 neg d w3 0 d 0 w3 d w3 0 d  0 w3 d w3 neg 0 d 0 w3 d w3 neg 0 d 0 w3 neg d w3 neg 0 d cl s } def
/m29 {mp gsave x w2 sub y w2 add w3 sub m currentpoint t 4 {side} repeat cl fill gr} def
/m30 {mp gsave x w2 sub y w2 add w3 sub m currentpoint t 4 {side} repeat cl s gr} def
/m31 {mp x y w2 sub m 0 w d x w2 sub y m w 0 d x w2 sub y w2 add m w w neg d x w2 sub y w2 sub m w w d s} def
/m32 {mp x y w2 sub m w2 w d w neg 0 d cl s} def
/m33 {mp x y w2 add m w3 neg w2 neg d w3 w2 neg d w3 w2 d cl f} def
/m34 {mp x w2 sub y w2 sub w3 add m w3 0 d  0 w3 neg d w3 0 d 0 w3 d w3 0 d  0 w3 d w3 neg 0 d 0 w3 d w3 neg 0 d 0 w3 neg d w3 neg 0 d cl f } def
/m2 {mp x y w2 sub m 0 w d x w2 sub y m w 0 d s} def
/m5 {mp x w2 sub y w2 sub m w w d x w2 sub y w2 add m w w neg d s} def
%%IncludeResource: ProcSet (FontSetInit)
%%IncludeResource: font Times-Roman
%%IncludeResource: font Times-Italic
%%IncludeResource: font Times-Bold
%%IncludeResource: font Times-BoldItalic
%%IncludeResource: font Helvetica
%%IncludeResource: font Helvetica-Oblique
%%IncludeResource: font Helvetica-Bold
%%IncludeResource: font Helvetica-BoldOblique
%%IncludeResource: font Courier
%%IncludeResource: font Courier-Oblique
%%IncludeResource: font Courier-Bold
%%IncludeResource: font Courier-BoldOblique
%%IncludeResource: font Symbol
%%IncludeResource: font ZapfDingbats
/reEncode {exch findfont dup length dict begin {1 index /FID eq  {pop pop} {def} ifelse } forall /Encoding exch def currentdict end dup /FontName get exch definefont pop } def [/Times-Bold /Times-Italic /Times-BoldItalic /Helvetica /Helvetica-Oblique
 /Helvetica-Bold /Helvetica-BoldOblique /Courier /Courier-Oblique /Courier-Bold /Courier-BoldOblique /Times-Roman /AvantGarde-Book /AvantGarde-BookOblique /AvantGarde-Demi /AvantGarde-DemiOblique /Bookman-Demi /Bookman-DemiItalic /Bookman-Light
 /Bookman-LightItalic /Helvetica-Narrow /Helvetica-Narrow-Bold /Helvetica-Narrow-BoldOblique /Helvetica-Narrow-Oblique /NewCenturySchlbk-Roman /NewCenturySchlbk-Bold /NewCenturySchlbk-BoldItalic /NewCenturySchlbk-Italic /Palatino-Bold
 /Palatino-BoldItalic /Palatino-Italic /Palatino-Roman ] {ISOLatin1Encoding reEncode } forall
%%EndProlog
%%BeginSetup
%%EndSetup
newpath  gsave  .25 .25 scale  gsave  0 0 t black[  ] 0 sd 3 lw 1 1 1 c 2268 1538 0 0 bf black 1 1 1 c 1814 1307 227 154 bf black 1814 1307 227 154 bl 1 1 1 c 1814 1307 227 154 bf black 1814 1307 227 154 bl 1 1 1 c black 227 736 m 5 X 12 Y 5 X -136 Y
 5 X -62 Y 6 X 99 Y 5 X 12 Y 5 X -161 Y 10 X -37 Y 5 X 273 Y 6 X 61 Y 5 X -24 Y 5 X 111 Y 5 X 13 Y 5 X -25 Y 6 X 223 Y 10 X -446 Y 5 X -50 Y 5 X 161 Y 5 X -161 Y 6 X 87 Y 5 X 74 Y 5 X 50 Y 5 X -136 Y 5 X 74 Y 6 X -12 Y 5 X 49 Y 5 X -111 Y 5 X 223 Y 5
 X -248 Y 5 X 99 Y 6 X 161 Y 5 X 12 Y 5 X -148 Y 5 X 173 Y 5 X -12 Y 6 X 12 Y 5 X 173 Y 5 X -74 Y 5 X 248 Y 5 X -359 Y 5 X 408 Y 6 X -322 Y 5 X 13 Y 5 X 37 Y 5 X 37 Y 5 X -173 Y 6 X -99 Y 5 X -38 Y 5 X 186 Y 5 X -49 Y 5 X -75 Y 5 X -12 Y 6 X 136 Y 5
 X -210 Y 5 X -75 Y 5 X 322 Y 5 X -123 Y 6 X -124 Y 5 X 86 Y 5 X -222 Y 5 X 235 Y 5 X 25 Y 11 X 37 Y 10 X -124 Y 5 X 124 Y 5 X 12 Y 6 X 37 Y 5 X -37 Y 5 X -149 Y 5 X 87 Y 5 X 87 Y 6 X -25 Y 5 X 62 Y 5 X 12 Y 5 X 198 Y 5 X -74 Y 5 X -223 Y 6 X 223 Y
 10 X -37 Y 5 X 210 Y 5 X -136 Y 6 X -49 Y 5 X 49 Y 5 X -260 Y 5 X 87 Y 10 X 25 Y 6 X 62 Y 5 X -112 Y 5 X -210 Y 5 X 99 Y 5 X 99 Y 6 X -149 Y 5 X -185 Y 5 X 61 Y 5 X 186 Y 5 X -186 Y 5 X 62 Y 6 X 13 Y 5 X -136 Y 5 X 99 Y 5 X -62 Y 5 X 74 Y 6 X -235 Y
 5 X 74 Y 5 X 74 Y 5 X -99 Y 10 X -99 Y 6 X 13 Y 5 X 111 Y 5 X -12 Y 5 X -37 Y 5 X -137 Y 6 X 50 Y 5 X -136 Y 5 X 62 Y 5 X -75 Y 5 X 198 Y 6 X -37 Y 5 X -49 Y 10 X -13 Y 5 X -49 Y 11 X -13 Y 5 X -12 Y 5 X 37 Y 5 X 50 Y 5 X -62 Y 6 X 74 Y 5 X 50 Y 5 X
 -25 Y 5 X -50 Y 5 X 25 Y 11 X 50 Y 5 X -99 Y 10 X 49 Y 5 X 62 Y 6 X -25 Y 5 X 62 Y 5 X -25 Y 5 X 87 Y 5 X -111 Y 11 X 222 Y 5 X -160 Y 5 X 24 Y 5 X -49 Y 5 X -37 Y 6 X -25 Y 5 X 74 Y 5 X -37 Y 10 X 12 Y 5 X -37 Y 6 X -74 Y 5 X 198 Y 5 X -161 Y 5 X
 -87 Y 5 X 38 Y 6 X 99 Y 5 X -50 Y 5 X -37 Y 5 X -12 Y 5 X 49 Y 5 X 50 Y 6 X -87 Y 5 X -12 Y 5 X -13 Y 5 X -49 Y 5 X 86 Y 6 X -24 Y 5 X 12 Y 5 X -74 Y 10 X 12 Y 6 X 62 Y 5 X -50 Y 5 X -49 Y 5 X -12 Y 5 X 37 Y 11 X -62 Y 5 X 12 Y 5 X 25 Y 5 X 25 Y 5 X
 -13 Y 6 X 37 Y 5 X -37 Y 5 X 13 Y 5 X 24 Y 5 X -160 Y 5 X 49 Y 6 X 37 Y 5 X -25 Y 5 X -49 Y 5 X 173 Y 5 X -99 Y 6 X 50 Y 5 X 24 Y 5 X -24 Y 5 X -13 Y 5 X 75 Y 5 X -50 Y 6 X -12 Y 10 X 12 Y 5 X -49 Y 5 X 37 Y 6 X -13 Y 5 X -49 Y 5 X 62 Y 10 X -13 Y 5
 X 87 Y 6 X -25 Y 5 X -74 Y 5 X -12 Y 10 X 37 Y 6 X -62 Y 10 X 49 Y 5 X 13 Y 5 X -37 Y 5 X -25 Y 6 X 25 Y 5 X -13 Y 5 X 13 Y 5 X 37 Y 5 X -13 Y 6 X -49 Y 5 X 49 Y 5 X -111 Y 5 X 74 Y 5 X -62 Y 6 X 50 Y 5 X -62 Y 5 X 49 Y 5 X 13 Y 5 X 37 Y 5 X -37 Y 6
 X -50 Y 5 X 25 Y 5 X 12 Y 10 X -49 Y 6 X 62 Y 5 X -25 Y 5 X -25 Y 10 X 37 Y 5 X -49 Y 11 X 12 Y 5 X 37 Y 5 X 13 Y 5 X -25 Y 6 X 37 Y 5 X -12 Y 5 X -50 Y 5 X 13 Y 5 X 37 Y 5 X -25 Y 6 X 12 Y 5 X 13 Y 5 X -62 Y 5 X 87 Y 5 X -50 Y 6 X 25 Y 5 X -13 Y 5
 X -12 Y 5 X -62 Y 5 X 99 Y 5 X -37 Y 16 X -37 Y 5 X 74 Y 5 X -12 Y 6 X -87 Y 5 X 50 Y 5 X 24 Y 5 X -12 Y 5 X 12 Y 5 X -24 Y 6 X -13 Y 5 X 37 Y 5 X -74 Y 5 X 37 Y 16 X -24 Y 5 X 24 Y 5 X 13 Y 5 X -37 Y 6 X 24 Y 5 X -24 Y 5 X 24 Y 5 X -49 Y 5 X 49 Y 5
 X -24 Y 6 X 24 Y 5 X -12 Y 5 X -37 Y 10 X 25 Y 6 X -25 Y 181 X s 227 154 m 1814 X s 227 191 m -37 Y s 279 172 m -18 Y s 330 172 m -18 Y s 382 172 m -18 Y s 434 172 m -18 Y s 486 191 m -37 Y s 538 172 m -18 Y s 590 172 m -18 Y s 641 172 m -18 Y s 693
 172 m -18 Y s 745 191 m -37 Y s 797 172 m -18 Y s 849 172 m -18 Y s 901 172 m -18 Y s 952 172 m -18 Y s 1004 191 m -37 Y s 1056 172 m -18 Y s 1108 172 m -18 Y s 1160 172 m -18 Y s 1212 172 m -18 Y s 1263 191 m -37 Y s 1315 172 m -18 Y s 1367 172 m
 -18 Y s 1419 172 m -18 Y s 1471 172 m -18 Y s 1523 191 m -37 Y s 1574 172 m -18 Y s 1626 172 m -18 Y s 1678 172 m -18 Y s 1730 172 m -18 Y s 1782 191 m -37 Y s 1834 172 m -18 Y s 1885 172 m -18 Y s 1937 172 m -18 Y s 1989 172 m -18 Y s 2041 191 m
 -37 Y s
 gsave  2268 1538 0 0 C 208.526 97.7464 t 0 r /Helvetica-Bold findfont 58.6478 sf 0 0 m (0) show NC gr 
 gsave  2268 1538 0 0 C 452.892 97.7464 t 0 r /Helvetica-Bold findfont 58.6478 sf 0 0 m (50) show NC gr 
 gsave  2268 1538 0 0 C 693.999 97.7464 t 0 r /Helvetica-Bold findfont 58.6478 sf 0 0 m (100) show NC gr 
 gsave  2268 1538 0 0 C 954.657 97.7464 t 0 r /Helvetica-Bold findfont 58.6478 sf 0 0 m (150) show NC gr 
 gsave  2268 1538 0 0 C 1212.06 97.7464 t 0 r /Helvetica-Bold findfont 58.6478 sf 0 0 m (200) show NC gr 
 gsave  2268 1538 0 0 C 1472.71 97.7464 t 0 r /Helvetica-Bold findfont 58.6478 sf 0 0 m (250) show NC gr 
 gsave  2268 1538 0 0 C 1730.11 97.7464 t 0 r /Helvetica-Bold findfont 58.6478 sf 0 0 m (300) show NC gr 
 gsave  2268 1538 0 0 C 1990.77 97.7464 t 0 r /Helvetica-Bold findfont 58.6478 sf 0 0 m (350) show NC gr  227 1461 m 1814 X s 227 1424 m 37 Y s 279 1443 m 18 Y s 330 1443 m 18 Y s 382 1443 m 18 Y s 434 1443 m 18 Y s 486 1424 m 37 Y s 538 1443 m 18 Y
 s 590 1443 m 18 Y s 641 1443 m 18 Y s 693 1443 m 18 Y s 745 1424 m 37 Y s 797 1443 m 18 Y s 849 1443 m 18 Y s 901 1443 m 18 Y s 952 1443 m 18 Y s 1004 1424 m 37 Y s 1056 1443 m 18 Y s 1108 1443 m 18 Y s 1160 1443 m 18 Y s 1212 1443 m 18 Y s 1263
 1424 m 37 Y s 1315 1443 m 18 Y s 1367 1443 m 18 Y s 1419 1443 m 18 Y s 1471 1443 m 18 Y s 1523 1424 m 37 Y s 1574 1443 m 18 Y s 1626 1443 m 18 Y s 1678 1443 m 18 Y s 1730 1443 m 18 Y s 1782 1424 m 37 Y s 1834 1443 m 18 Y s 1885 1443 m 18 Y s 1937
 1443 m 18 Y s 1989 1443 m 18 Y s 2041 1424 m 37 Y s 227 154 m 1307 Y s 285 154 m -58 X s 256 216 m -29 X s 256 278 m -29 X s 256 339 m -29 X s 285 401 m -58 X s 256 463 m -29 X s 256 525 m -29 X s 256 587 m -29 X s 285 649 m -58 X s 256 711 m -29 X
 s 256 773 m -29 X s 256 835 m -29 X s 285 897 m -58 X s 256 958 m -29 X s 256 1020 m -29 X s 256 1082 m -29 X s 285 1144 m -58 X s 256 1206 m -29 X s 256 1268 m -29 X s 256 1330 m -29 X s 285 1392 m -58 X s 285 1392 m -58 X s 256 1454 m -29 X s
 gsave  2268 1538 0 0 C 182.46 133.587 t 0 r /Helvetica-Bold findfont 58.6478 sf 0 0 m (0) show NC gr 
 gsave  2268 1538 0 0 C 149.878 381.211 t 0 r /Helvetica-Bold findfont 58.6478 sf 0 0 m (20) show NC gr 
 gsave  2268 1538 0 0 C 149.878 628.835 t 0 r /Helvetica-Bold findfont 58.6478 sf 0 0 m (40) show NC gr 
 gsave  2268 1538 0 0 C 149.878 876.459 t 0 r /Helvetica-Bold findfont 58.6478 sf 0 0 m (60) show NC gr 
 gsave  2268 1538 0 0 C 149.878 1124.08 t 0 r /Helvetica-Bold findfont 58.6478 sf 0 0 m (80) show NC gr 
 gsave  2268 1538 0 0 C 117.296 1371.71 t 0 r /Helvetica-Bold findfont 58.6478 sf 0 0 m (100) show NC gr  2041 154 m 1307 Y s 1983 154 m 58 X s 2012 216 m 29 X s 2012 278 m 29 X s 2012 339 m 29 X s 1983 401 m 58 X s 2012 463 m 29 X s 2012 525 m 29 X
 s 2012 587 m 29 X s 1983 649 m 58 X s 2012 711 m 29 X s 2012 773 m 29 X s 2012 835 m 29 X s 1983 897 m 58 X s 2012 958 m 29 X s 2012 1020 m 29 X s 2012 1082 m 29 X s 1983 1144 m 58 X s 2012 1206 m 29 X s 2012 1268 m 29 X s 2012 1330 m 29 X s 1983
 1392 m 58 X s 1983 1392 m 58 X s 2012 1454 m 29 X s
 gsave  2268 1538 0 0 C 1326.09 1172.96 t 0 r /Helvetica-Bold findfont 58.6478 sf 0 0 m (Pixel Occupancies) show NC gr  1124 1192 m 167 X s
 gr  gr showpage
end
%%EOF
