%!PS-Adobe-2.0 EPSF-2.0
%%BoundingBox:  0 0 567 384
%%Title: d3pdDirr/pixClus_z.eps: c1_n75
%%Creator: ROOT Version 6.04/12
%%CreationDate: Tue Apr 26 00:12:48 2016
%%DocumentNeededResources: ProcSet (FontSetInit)
%%EndComments
%%BeginProlog
80 dict begin
/s {stroke} def /l {lineto} def /m {moveto} def /t {translate} def
/r {rotate} def /rl {roll}  def /R {repeat} def
/d {rlineto} def /rm {rmoveto} def /gr {grestore} def /f {eofill} def
/c {setrgbcolor} def /black {0 setgray} def /sd {setdash} def
/cl {closepath} def /sf {scalefont setfont} def /lw {setlinewidth} def
/box {m dup 0 exch d exch 0 d 0 exch neg d cl} def
/NC{systemdict begin initclip end}def/C{NC box clip newpath}def
/bl {box s} def /bf {gsave box gsave f grestore 1 lw [] 0 sd s grestore} def /Y { 0 exch d} def /X { 0 d} def 
/K {{pop pop 0 moveto} exch kshow} bind def
/ita {/ang 15 def gsave [1 0 ang dup sin exch cos div 1 0 0] concat} def 
/mp {newpath /y exch def /x exch def} def
/side {[w .77 mul w .23 mul] .385 w mul sd w 0 l currentpoint t -144 r} def
/mr {mp x y w2 0 360 arc} def /m24 {mr s} def /m20 {mr f} def
/mb {mp x y w2 add m w2 neg 0 d 0 w neg d w 0 d 0 w d cl} def
/mt {mp x y w2 add m w2 neg w neg d w 0 d cl} def
/m21 {mb f} def /m25 {mb s} def /m22 {mt f} def /m26{mt s} def
/m23 {mp x y w2 sub m w2 w d w neg 0 d cl f} def
/m27 {mp x y w2 add m w3 neg w2 neg d w3 w2 neg d w3 w2 d cl s} def
/m28 {mp x w2 sub y w2 sub w3 add m w3 0 d  0 w3 neg d w3 0 d 0 w3 d w3 0 d  0 w3 d w3 neg 0 d 0 w3 d w3 neg 0 d 0 w3 neg d w3 neg 0 d cl s } def
/m29 {mp gsave x w2 sub y w2 add w3 sub m currentpoint t 4 {side} repeat cl fill gr} def
/m30 {mp gsave x w2 sub y w2 add w3 sub m currentpoint t 4 {side} repeat cl s gr} def
/m31 {mp x y w2 sub m 0 w d x w2 sub y m w 0 d x w2 sub y w2 add m w w neg d x w2 sub y w2 sub m w w d s} def
/m32 {mp x y w2 sub m w2 w d w neg 0 d cl s} def
/m33 {mp x y w2 add m w3 neg w2 neg d w3 w2 neg d w3 w2 d cl f} def
/m34 {mp x w2 sub y w2 sub w3 add m w3 0 d  0 w3 neg d w3 0 d 0 w3 d w3 0 d  0 w3 d w3 neg 0 d 0 w3 d w3 neg 0 d 0 w3 neg d w3 neg 0 d cl f } def
/m2 {mp x y w2 sub m 0 w d x w2 sub y m w 0 d s} def
/m5 {mp x w2 sub y w2 sub m w w d x w2 sub y w2 add m w w neg d s} def
%%IncludeResource: ProcSet (FontSetInit)
%%IncludeResource: font Times-Roman
%%IncludeResource: font Times-Italic
%%IncludeResource: font Times-Bold
%%IncludeResource: font Times-BoldItalic
%%IncludeResource: font Helvetica
%%IncludeResource: font Helvetica-Oblique
%%IncludeResource: font Helvetica-Bold
%%IncludeResource: font Helvetica-BoldOblique
%%IncludeResource: font Courier
%%IncludeResource: font Courier-Oblique
%%IncludeResource: font Courier-Bold
%%IncludeResource: font Courier-BoldOblique
%%IncludeResource: font Symbol
%%IncludeResource: font ZapfDingbats
/reEncode {exch findfont dup length dict begin {1 index /FID eq  {pop pop} {def} ifelse } forall /Encoding exch def currentdict end dup /FontName get exch definefont pop } def [/Times-Bold /Times-Italic /Times-BoldItalic /Helvetica /Helvetica-Oblique
 /Helvetica-Bold /Helvetica-BoldOblique /Courier /Courier-Oblique /Courier-Bold /Courier-BoldOblique /Times-Roman /AvantGarde-Book /AvantGarde-BookOblique /AvantGarde-Demi /AvantGarde-DemiOblique /Bookman-Demi /Bookman-DemiItalic /Bookman-Light
 /Bookman-LightItalic /Helvetica-Narrow /Helvetica-Narrow-Bold /Helvetica-Narrow-BoldOblique /Helvetica-Narrow-Oblique /NewCenturySchlbk-Roman /NewCenturySchlbk-Bold /NewCenturySchlbk-BoldItalic /NewCenturySchlbk-Italic /Palatino-Bold
 /Palatino-BoldItalic /Palatino-Italic /Palatino-Roman ] {ISOLatin1Encoding reEncode } forall
%%EndProlog
%%BeginSetup
%%EndSetup
newpath  gsave  .25 .25 scale  gsave  0 0 t black[  ] 0 sd 3 lw 1 1 1 c 2268 1538 0 0 bf black 1 1 1 c 1814 1307 227 154 bf black 1814 1307 227 154 bl 1 1 1 c 1814 1307 227 154 bf black 1814 1307 227 154 bl 1 1 1 c black 227 306 m 3 X 83 Y 4 X 214 Y
 4 X -173 Y 3 X 79 Y 4 X 15 Y 4 X 11 Y 3 X 27 Y 4 X -12 Y 3 X 181 Y 4 X -150 Y 4 X 15 Y 3 X -57 Y 4 X 45 Y 4 X -124 Y 3 X 230 Y 4 X -27 Y 3 X -195 Y 11 X 120 Y 4 X 68 Y 4 X -173 Y 3 X -11 Y 4 X 67 Y 3 X 98 Y 4 X -49 Y 4 X -56 Y 3 X -15 Y 4 X 139 Y 4
 X -64 Y 3 X 82 Y 4 X -41 Y 4 X 680 Y 3 X -623 Y 4 X -147 Y 3 X 162 Y 4 X -124 Y 4 X 169 Y 3 X -109 Y 4 X 94 Y 4 X -177 Y 3 X -342 Y 4 X 402 Y 3 X -45 Y 4 X 98 Y 4 X -64 Y 3 X -4 Y 4 X 68 Y 4 X 158 Y 3 X -245 Y 4 X 19 Y 3 X 56 Y 4 X 76 Y 4 X -154 Y 3
 X 251 Y 4 X -188 Y 4 X -30 Y 3 X 83 Y 4 X 68 Y 3 X 71 Y 4 X -293 Y 4 X 64 Y 3 X 67 Y 4 X -195 Y 4 X 23 Y 3 X 45 Y 4 X 90 Y 3 X -26 Y 4 X 105 Y 4 X -113 Y 3 X 4 Y 4 X 67 Y 4 X -48 Y 3 X 105 Y 4 X -23 Y 4 X 68 Y 3 X 116 Y 4 X -285 Y 3 X 346 Y 4 X -297
 Y 4 X 79 Y 3 X 82 Y 4 X -297 Y 4 X -112 Y 3 X 413 Y 4 X -113 Y 3 X 106 Y 4 X -76 Y 4 X -64 Y 3 X -7 Y 4 X 101 Y 4 X 128 Y 3 X -327 Y 4 X 30 Y 3 X 132 Y 4 X -30 Y 4 X 214 Y 3 X -195 Y 4 X -87 Y 4 X 173 Y 3 X 94 Y 4 X -207 Y 3 X 218 Y 4 X -41 Y 4 X
 -519 Y 3 X 519 Y 4 X -15 Y 4 X 105 Y 3 X -214 Y 4 X 22 Y 4 X 91 Y 3 X -68 Y 4 X -64 Y 3 X 26 Y 4 X 181 Y 4 X -199 Y 3 X 139 Y 4 X -15 Y 4 X -109 Y 3 X 18 Y 4 X 132 Y 3 X -117 Y 4 X 79 Y 4 X -112 Y 3 X -500 Y 4 X 691 Y 4 X -161 Y 3 X -121 Y 4 X 106 Y
 3 X -102 Y 4 X 199 Y 4 X 143 Y 3 X -233 Y 4 X 60 Y 4 X 34 Y 3 X -75 Y 4 X 49 Y 3 X -90 Y 4 X 146 Y 4 X -26 Y 3 X -38 Y 4 X 87 Y 4 X 15 Y 3 X 71 Y 4 X -229 Y 4 X -180 Y 3 X 180 Y 4 X 274 Y 3 X -94 Y 4 X -120 Y 4 X 357 Y 3 X -443 Y 4 X 266 Y 4 X -124
 Y 3 X 98 Y 4 X -120 Y 3 X -117 Y 4 X 196 Y 4 X -72 Y 3 X 45 Y 4 X -281 Y 4 X 236 Y 3 X 154 Y 4 X 42 Y 3 X 79 Y 4 X -707 Y 4 X 124 Y 3 X 196 Y 4 X 161 Y 4 X 23 Y 3 X 113 Y 4 X -31 Y 3 X -90 Y 4 X -34 Y 4 X 109 Y 3 X 4 Y 4 X 87 Y 4 X -64 Y 3 X -162 Y
 4 X 83 Y 4 X 128 Y 3 X -245 Y 4 X 282 Y 3 X -124 Y 4 X -41 Y 4 X 90 Y 3 X -259 Y 4 X -121 Y 4 X 395 Y 3 X -53 Y 4 X -48 Y 3 X 82 Y 4 X -7 Y 4 X -102 Y 3 X 151 Y 4 X -83 Y 4 X -30 Y 3 X 225 Y 4 X -90 Y 3 X -225 Y 4 X 158 Y 4 X -121 Y 3 X 72 Y 4 X -45
 Y 4 X 154 Y 3 X -113 Y 4 X 26 Y 3 X -635 Y 4 X 417 Y 4 X 166 Y 3 X -46 Y 4 X 267 Y 4 X -154 Y 3 X 30 Y 4 X -56 Y 3 X -4 Y 4 X 207 Y 4 X -192 Y 3 X -34 Y 4 X -172 Y 4 X 82 Y 3 X 226 Y 4 X -91 Y 4 X 79 Y 3 X 79 Y 4 X -142 Y 3 X -49 Y 4 X 3 Y 4 X 38 Y
 3 X 45 Y 4 X -86 Y 4 X -102 Y 3 X 256 Y 4 X 45 Y 3 X -154 Y 4 X 64 Y 4 X 22 Y 3 X -82 Y 4 X 93 Y 4 X -187 Y 7 X 60 Y 3 X -15 Y 4 X -45 Y 4 X 33 Y 3 X 4 Y 4 X 113 Y 4 X -90 Y 3 X -511 Y 4 X 11 Y 3 X 466 Y 4 X 154 Y 4 X -124 Y 3 X -53 Y 4 X 252 Y 4 X
 -267 Y 3 X 308 Y 4 X -180 Y 4 X 113 Y 3 X -53 Y 4 X -225 Y 3 X 101 Y 4 X 192 Y 4 X -199 Y 3 X 127 Y 4 X -244 Y 4 X 181 Y 3 X -31 Y 4 X 61 Y 3 X -282 Y 4 X 180 Y 4 X -83 Y 3 X 166 Y 4 X -181 Y 4 X 177 Y 3 X 41 Y 4 X 19 Y 3 X -105 Y 4 X -56 Y 4 X -98
 Y 3 X 143 Y 4 X 142 Y 4 X 162 Y 3 X -327 Y 4 X -98 Y 3 X 91 Y 4 X -19 Y 4 X 154 Y 3 X -244 Y 4 X 15 Y 4 X -635 Y 3 X 890 Y 4 X -34 Y 4 X -67 Y 3 X 60 Y 4 X 86 Y 3 X -244 Y 4 X 83 Y 4 X -15 Y 3 X -27 Y 4 X 192 Y 4 X -237 Y 3 X 181 Y 4 X -4 Y 3 X -49
 Y 4 X -4 Y 4 X -127 Y 3 X 184 Y 4 X -98 Y 4 X -98 Y 3 X -236 Y 4 X 165 Y 3 X 94 Y 4 X 199 Y 4 X -101 Y 3 X -109 Y 4 X -64 Y 4 X -87 Y 3 X 260 Y 4 X -395 Y 3 X 597 Y 4 X -233 Y 4 X 8 Y 3 X -207 Y 4 X 136 Y 4 X -19 Y 3 X 26 Y 4 X -109 Y 3 X -128 Y 4 X
 45 Y 4 X 245 Y 3 X -493 Y 4 X 117 Y 4 X 308 Y 7 X -86 Y 4 X 75 Y 3 X -105 Y 4 X 135 Y 3 X 11 Y 4 X -158 Y 4 X 45 Y 3 X 94 Y 4 X -79 Y 4 X -33 Y 3 X -23 Y 4 X 226 Y 3 X -173 Y 4 X -124 Y 4 X 64 Y 7 X 63 Y 4 X -71 Y 3 X 4 Y 4 X 30 Y 3 X 101 Y 4 X 117
 Y 4 X -214 Y 3 X -185 Y 4 X 53 Y 4 X 180 Y 3 X -48 Y 4 X 3 Y 3 X -90 Y 4 X 207 Y 4 X -274 Y 3 X 37 Y 4 X 90 Y 4 X 94 Y 3 X -233 Y 4 X 214 Y 4 X -71 Y 3 X 98 Y 4 X -568 Y 3 X 421 Y 4 X 109 Y 4 X 94 Y 3 X -131 Y 4 X -109 Y 4 X 22 Y 3 X 109 Y 4 X -113
 Y 3 X 12 Y 4 X 37 Y 7 X -82 Y 4 X 131 Y 4 X -143 Y 3 X 49 Y 4 X -37 Y 3 X 86 Y 4 X 34 Y 4 X -128 Y 3 X -297 Y 4 X 229 Y 4 X 109 Y 3 X -109 Y 4 X -7 Y 3 X 68 Y 4 X 48 Y 4 X 8 Y 3 X 45 Y 4 X -158 Y 4 X -22 Y 3 X 191 Y 4 X 23 Y 4 X -143 Y 3 X -34 Y 4 X
 49 Y 3 X -49 Y 4 X -97 Y 4 X 240 Y 3 X 128 Y 4 X -184 Y 4 X -339 Y 3 X -33 Y 4 X 184 Y 3 X 225 Y 4 X -60 Y 4 X -56 Y 3 X 94 Y 4 X -60 Y 4 X -98 Y 3 X 30 Y 4 X 22 Y 3 X -33 Y 4 X 82 Y 4 X -60 Y 3 X 143 Y 4 X -34 Y 4 X 8 Y 3 X -15 Y 4 X -128 Y 3 X 64
 Y 4 X -290 Y 4 X 109 Y 3 X 233 Y 4 X -11 Y 4 X 34 Y 3 X -188 Y 4 X 38 Y 4 X -72 Y 3 X 154 Y 4 X -30 Y 3 X -116 Y 4 X 146 Y 4 X -22 Y 3 X -4 Y 4 X -49 Y 4 X -52 Y 3 X -34 Y 4 X 154 Y 3 X -117 Y 8 X 4 Y 3 X 75 Y 4 X -424 Y 4 X 514 Y 3 X -139 Y 4 X -79
 Y 3 X 154 Y 4 X -7 Y 4 X -64 Y 3 X 30 Y 4 X -131 Y 4 X 109 Y 3 X 67 Y 4 X -297 Y 3 X 166 Y 4 X 173 Y 4 X -98 Y 3 X 98 Y 4 X -124 Y 4 X 11 Y 3 X -113 Y 4 X -15 Y 3 X -45 Y 4 X 135 Y 4 X -52 Y 3 X 79 Y 4 X 71 Y 4 X -105 Y 3 X -19 Y 4 X -71 Y 4 X -27 Y
 3 X 64 Y 4 X -49 Y 3 X 102 Y 4 X 30 Y 4 X 113 Y 3 X -34 Y 4 X -286 Y 4 X 169 Y 3 X 98 Y 4 X -173 Y 3 X 120 Y 4 X -79 Y 4 X -101 Y 3 X -60 Y 4 X s 227 154 m 1814 X s 227 191 m -37 Y s 263 172 m -18 Y s 299 172 m -18 Y s 336 172 m -18 Y s 372 172 m
 -18 Y s 408 191 m -37 Y s 444 172 m -18 Y s 481 172 m -18 Y s 517 172 m -18 Y s 553 172 m -18 Y s 590 191 m -37 Y s 626 172 m -18 Y s 662 172 m -18 Y s 698 172 m -18 Y s 735 172 m -18 Y s 771 191 m -37 Y s 807 172 m -18 Y s 844 172 m -18 Y s 880 172
 m -18 Y s 916 172 m -18 Y s 952 191 m -37 Y s 989 172 m -18 Y s 1025 172 m -18 Y s 1061 172 m -18 Y s 1098 172 m -18 Y s 1134 191 m -37 Y s 1170 172 m -18 Y s 1206 172 m -18 Y s 1243 172 m -18 Y s 1279 172 m -18 Y s 1315 191 m -37 Y s 1352 172 m -18
 Y s 1388 172 m -18 Y s 1424 172 m -18 Y s 1460 172 m -18 Y s 1497 191 m -37 Y s 1533 172 m -18 Y s 1569 172 m -18 Y s 1606 172 m -18 Y s 1642 172 m -18 Y s 1678 191 m -37 Y s 1714 172 m -18 Y s 1751 172 m -18 Y s 1787 172 m -18 Y s 1823 172 m -18 Y
 s 1860 191 m -37 Y s 1896 172 m -18 Y s 1932 172 m -18 Y s 1968 172 m -18 Y s 2005 172 m -18 Y s 2041 191 m -37 Y s
 gsave  2268 1538 0 0 C 188.976 97.7464 t 0 r /Helvetica-Bold findfont 58.6478 sf 0 0 m (250) show NC gr 
 gsave  2268 1538 0 0 C 159.652 97.7464 t 0 r /Symbol findfont 58.6478 sf 0 0 m (-) show NC gr 
 gsave  2268 1538 0 0 C 371.436 97.7464 t 0 r /Helvetica-Bold findfont 58.6478 sf 0 0 m (200) show NC gr 
 gsave  2268 1538 0 0 C 342.112 97.7464 t 0 r /Symbol findfont 58.6478 sf 0 0 m (-) show NC gr 
 gsave  2268 1538 0 0 C 550.638 97.7464 t 0 r /Helvetica-Bold findfont 58.6478 sf 0 0 m (150) show NC gr 
 gsave  2268 1538 0 0 C 521.314 97.7464 t 0 r /Symbol findfont 58.6478 sf 0 0 m (-) show NC gr 
 gsave  2268 1538 0 0 C 733.098 97.7464 t 0 r /Helvetica-Bold findfont 58.6478 sf 0 0 m (100) show NC gr 
 gsave  2268 1538 0 0 C 703.774 97.7464 t 0 r /Symbol findfont 58.6478 sf 0 0 m (-) show NC gr 
 gsave  2268 1538 0 0 C 931.849 97.7464 t 0 r /Helvetica-Bold findfont 58.6478 sf 0 0 m (50) show NC gr 
 gsave  2268 1538 0 0 C 902.525 97.7464 t 0 r /Symbol findfont 58.6478 sf 0 0 m (-) show NC gr 
 gsave  2268 1538 0 0 C 1117.57 97.7464 t 0 r /Helvetica-Bold findfont 58.6478 sf 0 0 m (0) show NC gr 
 gsave  2268 1538 0 0 C 1280.48 97.7464 t 0 r /Helvetica-Bold findfont 58.6478 sf 0 0 m (50) show NC gr 
 gsave  2268 1538 0 0 C 1446.65 97.7464 t 0 r /Helvetica-Bold findfont 58.6478 sf 0 0 m (100) show NC gr 
 gsave  2268 1538 0 0 C 1629.11 97.7464 t 0 r /Helvetica-Bold findfont 58.6478 sf 0 0 m (150) show NC gr 
 gsave  2268 1538 0 0 C 1808.31 97.7464 t 0 r /Helvetica-Bold findfont 58.6478 sf 0 0 m (200) show NC gr 
 gsave  2268 1538 0 0 C 1990.77 97.7464 t 0 r /Helvetica-Bold findfont 58.6478 sf 0 0 m (250) show NC gr  227 1461 m 1814 X s 227 1424 m 37 Y s 263 1443 m 18 Y s 299 1443 m 18 Y s 336 1443 m 18 Y s 372 1443 m 18 Y s 408 1424 m 37 Y s 444 1443 m 18 Y
 s 481 1443 m 18 Y s 517 1443 m 18 Y s 553 1443 m 18 Y s 590 1424 m 37 Y s 626 1443 m 18 Y s 662 1443 m 18 Y s 698 1443 m 18 Y s 735 1443 m 18 Y s 771 1424 m 37 Y s 807 1443 m 18 Y s 844 1443 m 18 Y s 880 1443 m 18 Y s 916 1443 m 18 Y s 952 1424 m 37
 Y s 989 1443 m 18 Y s 1025 1443 m 18 Y s 1061 1443 m 18 Y s 1098 1443 m 18 Y s 1134 1424 m 37 Y s 1170 1443 m 18 Y s 1206 1443 m 18 Y s 1243 1443 m 18 Y s 1279 1443 m 18 Y s 1315 1424 m 37 Y s 1352 1443 m 18 Y s 1388 1443 m 18 Y s 1424 1443 m 18 Y s
 1460 1443 m 18 Y s 1497 1424 m 37 Y s 1533 1443 m 18 Y s 1569 1443 m 18 Y s 1606 1443 m 18 Y s 1642 1443 m 18 Y s 1678 1424 m 37 Y s 1714 1443 m 18 Y s 1751 1443 m 18 Y s 1787 1443 m 18 Y s 1823 1443 m 18 Y s 1860 1424 m 37 Y s 1896 1443 m 18 Y s
 1932 1443 m 18 Y s 1968 1443 m 18 Y s 2005 1443 m 18 Y s 2041 1424 m 37 Y s 227 154 m 1307 Y s 285 254 m -58 X s 256 291 m -29 X s 256 329 m -29 X s 256 366 m -29 X s 256 404 m -29 X s 285 442 m -58 X s 256 479 m -29 X s 256 517 m -29 X s 256 554 m
 -29 X s 256 592 m -29 X s 285 629 m -58 X s 256 667 m -29 X s 256 705 m -29 X s 256 742 m -29 X s 256 780 m -29 X s 285 817 m -58 X s 256 855 m -29 X s 256 892 m -29 X s 256 930 m -29 X s 256 968 m -29 X s 285 1005 m -58 X s 256 1043 m -29 X s 256
 1080 m -29 X s 256 1118 m -29 X s 256 1155 m -29 X s 285 1193 m -58 X s 256 1231 m -29 X s 256 1268 m -29 X s 256 1306 m -29 X s 256 1343 m -29 X s 285 1381 m -58 X s 285 254 m -58 X s 256 216 m -29 X s 256 178 m -29 X s 285 1381 m -58 X s 256 1419
 m -29 X s 256 1456 m -29 X s
 gsave  2268 1538 0 0 C 117.296 231.333 t 0 r /Helvetica-Bold findfont 58.6478 sf 0 0 m (100) show NC gr 
 gsave  2268 1538 0 0 C 117.296 420.31 t 0 r /Helvetica-Bold findfont 58.6478 sf 0 0 m (150) show NC gr 
 gsave  2268 1538 0 0 C 117.296 609.286 t 0 r /Helvetica-Bold findfont 58.6478 sf 0 0 m (200) show NC gr 
 gsave  2268 1538 0 0 C 117.296 795.004 t 0 r /Helvetica-Bold findfont 58.6478 sf 0 0 m (250) show NC gr 
 gsave  2268 1538 0 0 C 117.296 983.98 t 0 r /Helvetica-Bold findfont 58.6478 sf 0 0 m (300) show NC gr 
 gsave  2268 1538 0 0 C 117.296 1172.96 t 0 r /Helvetica-Bold findfont 58.6478 sf 0 0 m (350) show NC gr 
 gsave  2268 1538 0 0 C 117.296 1358.67 t 0 r /Helvetica-Bold findfont 58.6478 sf 0 0 m (400) show NC gr  2041 154 m 1307 Y s 1983 254 m 58 X s 2012 291 m 29 X s 2012 329 m 29 X s 2012 366 m 29 X s 2012 404 m 29 X s 1983 442 m 58 X s 2012 479 m 29 X
 s 2012 517 m 29 X s 2012 554 m 29 X s 2012 592 m 29 X s 1983 629 m 58 X s 2012 667 m 29 X s 2012 705 m 29 X s 2012 742 m 29 X s 2012 780 m 29 X s 1983 817 m 58 X s 2012 855 m 29 X s 2012 892 m 29 X s 2012 930 m 29 X s 2012 968 m 29 X s 1983 1005 m
 58 X s 2012 1043 m 29 X s 2012 1080 m 29 X s 2012 1118 m 29 X s 2012 1155 m 29 X s 1983 1193 m 58 X s 2012 1231 m 29 X s 2012 1268 m 29 X s 2012 1306 m 29 X s 2012 1343 m 29 X s 1983 1381 m 58 X s 1983 254 m 58 X s 2012 216 m 29 X s 2012 178 m 29 X
 s 1983 1381 m 58 X s 2012 1419 m 29 X s 2012 1456 m 29 X s
 gsave  2268 1538 0 0 C 1326.09 1172.96 t 0 r /Helvetica-Bold findfont 58.6478 sf 0 0 m (Pixel Occupancies) show NC gr  1124 1192 m 167 X s
 gr  gr showpage
end
%%EOF
