%!PS-Adobe-2.0 EPSF-2.0
%%BoundingBox:  0 0 567 384
%%Title: d3pdDirr/pixel_occupancy/clus_z_pixlayer_3_pos.eps: c1_n44
%%Creator: ROOT Version 6.04/12
%%CreationDate: Tue Apr 26 00:12:46 2016
%%DocumentNeededResources: ProcSet (FontSetInit)
%%EndComments
%%BeginProlog
80 dict begin
/s {stroke} def /l {lineto} def /m {moveto} def /t {translate} def
/r {rotate} def /rl {roll}  def /R {repeat} def
/d {rlineto} def /rm {rmoveto} def /gr {grestore} def /f {eofill} def
/c {setrgbcolor} def /black {0 setgray} def /sd {setdash} def
/cl {closepath} def /sf {scalefont setfont} def /lw {setlinewidth} def
/box {m dup 0 exch d exch 0 d 0 exch neg d cl} def
/NC{systemdict begin initclip end}def/C{NC box clip newpath}def
/bl {box s} def /bf {gsave box gsave f grestore 1 lw [] 0 sd s grestore} def /Y { 0 exch d} def /X { 0 d} def 
/K {{pop pop 0 moveto} exch kshow} bind def
/ita {/ang 15 def gsave [1 0 ang dup sin exch cos div 1 0 0] concat} def 
/mp {newpath /y exch def /x exch def} def
/side {[w .77 mul w .23 mul] .385 w mul sd w 0 l currentpoint t -144 r} def
/mr {mp x y w2 0 360 arc} def /m24 {mr s} def /m20 {mr f} def
/mb {mp x y w2 add m w2 neg 0 d 0 w neg d w 0 d 0 w d cl} def
/mt {mp x y w2 add m w2 neg w neg d w 0 d cl} def
/m21 {mb f} def /m25 {mb s} def /m22 {mt f} def /m26{mt s} def
/m23 {mp x y w2 sub m w2 w d w neg 0 d cl f} def
/m27 {mp x y w2 add m w3 neg w2 neg d w3 w2 neg d w3 w2 d cl s} def
/m28 {mp x w2 sub y w2 sub w3 add m w3 0 d  0 w3 neg d w3 0 d 0 w3 d w3 0 d  0 w3 d w3 neg 0 d 0 w3 d w3 neg 0 d 0 w3 neg d w3 neg 0 d cl s } def
/m29 {mp gsave x w2 sub y w2 add w3 sub m currentpoint t 4 {side} repeat cl fill gr} def
/m30 {mp gsave x w2 sub y w2 add w3 sub m currentpoint t 4 {side} repeat cl s gr} def
/m31 {mp x y w2 sub m 0 w d x w2 sub y m w 0 d x w2 sub y w2 add m w w neg d x w2 sub y w2 sub m w w d s} def
/m32 {mp x y w2 sub m w2 w d w neg 0 d cl s} def
/m33 {mp x y w2 add m w3 neg w2 neg d w3 w2 neg d w3 w2 d cl f} def
/m34 {mp x w2 sub y w2 sub w3 add m w3 0 d  0 w3 neg d w3 0 d 0 w3 d w3 0 d  0 w3 d w3 neg 0 d 0 w3 d w3 neg 0 d 0 w3 neg d w3 neg 0 d cl f } def
/m2 {mp x y w2 sub m 0 w d x w2 sub y m w 0 d s} def
/m5 {mp x w2 sub y w2 sub m w w d x w2 sub y w2 add m w w neg d s} def
%%IncludeResource: ProcSet (FontSetInit)
%%IncludeResource: font Times-Roman
%%IncludeResource: font Times-Italic
%%IncludeResource: font Times-Bold
%%IncludeResource: font Times-BoldItalic
%%IncludeResource: font Helvetica
%%IncludeResource: font Helvetica-Oblique
%%IncludeResource: font Helvetica-Bold
%%IncludeResource: font Helvetica-BoldOblique
%%IncludeResource: font Courier
%%IncludeResource: font Courier-Oblique
%%IncludeResource: font Courier-Bold
%%IncludeResource: font Courier-BoldOblique
%%IncludeResource: font Symbol
%%IncludeResource: font ZapfDingbats
/reEncode {exch findfont dup length dict begin {1 index /FID eq  {pop pop} {def} ifelse } forall /Encoding exch def currentdict end dup /FontName get exch definefont pop } def [/Times-Bold /Times-Italic /Times-BoldItalic /Helvetica /Helvetica-Oblique
 /Helvetica-Bold /Helvetica-BoldOblique /Courier /Courier-Oblique /Courier-Bold /Courier-BoldOblique /Times-Roman /AvantGarde-Book /AvantGarde-BookOblique /AvantGarde-Demi /AvantGarde-DemiOblique /Bookman-Demi /Bookman-DemiItalic /Bookman-Light
 /Bookman-LightItalic /Helvetica-Narrow /Helvetica-Narrow-Bold /Helvetica-Narrow-BoldOblique /Helvetica-Narrow-Oblique /NewCenturySchlbk-Roman /NewCenturySchlbk-Bold /NewCenturySchlbk-BoldItalic /NewCenturySchlbk-Italic /Palatino-Bold
 /Palatino-BoldItalic /Palatino-Italic /Palatino-Roman ] {ISOLatin1Encoding reEncode } forall
%%EndProlog
%%BeginSetup
%%EndSetup
newpath  gsave  .25 .25 scale  gsave  0 0 t black[  ] 0 sd 3 lw 1 1 1 c 2268 1538 0 0 bf black 1 1 1 c 1814 1230 227 154 bf black 1814 1230 227 154 bl 1 1 1 c 1814 1230 227 154 bf black 1814 1230 227 154 bl 227 154 m 1814 X s 353 191 m -37 Y s 403
 172 m -18 Y s 453 172 m -18 Y s 503 172 m -18 Y s 553 172 m -18 Y s 603 191 m -37 Y s 653 172 m -18 Y s 703 172 m -18 Y s 753 172 m -18 Y s 803 172 m -18 Y s 853 191 m -37 Y s 903 172 m -18 Y s 953 172 m -18 Y s 1003 172 m -18 Y s 1053 172 m -18 Y s
 1102 191 m -37 Y s 1152 172 m -18 Y s 1202 172 m -18 Y s 1252 172 m -18 Y s 1302 172 m -18 Y s 1352 191 m -37 Y s 1402 172 m -18 Y s 1452 172 m -18 Y s 1502 172 m -18 Y s 1552 172 m -18 Y s 1602 191 m -37 Y s 1652 172 m -18 Y s 1702 172 m -18 Y s
 1752 172 m -18 Y s 1802 172 m -18 Y s 1852 191 m -37 Y s 353 191 m -37 Y s 303 172 m -18 Y s 253 172 m -18 Y s 1852 191 m -37 Y s 1902 172 m -18 Y s 1951 172 m -18 Y s 2001 172 m -18 Y s
 gsave  2268 1538 0 0 C 319.305 97.7464 t 0 r /Helvetica-Bold findfont 58.6478 sf 0 0 m (50) show NC gr 
 gsave  2268 1538 0 0 C 553.896 97.7464 t 0 r /Helvetica-Bold findfont 58.6478 sf 0 0 m (100) show NC gr 
 gsave  2268 1538 0 0 C 801.521 97.7464 t 0 r /Helvetica-Bold findfont 58.6478 sf 0 0 m (150) show NC gr 
 gsave  2268 1538 0 0 C 1052.4 97.7464 t 0 r /Helvetica-Bold findfont 58.6478 sf 0 0 m (200) show NC gr 
 gsave  2268 1538 0 0 C 1300.03 97.7464 t 0 r /Helvetica-Bold findfont 58.6478 sf 0 0 m (250) show NC gr 
 gsave  2268 1538 0 0 C 1550.91 97.7464 t 0 r /Helvetica-Bold findfont 58.6478 sf 0 0 m (300) show NC gr 
 gsave  2268 1538 0 0 C 1801.79 97.7464 t 0 r /Helvetica-Bold findfont 58.6478 sf 0 0 m (350) show NC gr  227 1384 m 1814 X s 353 1347 m 37 Y s 403 1366 m 18 Y s 453 1366 m 18 Y s 503 1366 m 18 Y s 553 1366 m 18 Y s 603 1347 m 37 Y s 653 1366 m 18 Y
 s 703 1366 m 18 Y s 753 1366 m 18 Y s 803 1366 m 18 Y s 853 1347 m 37 Y s 903 1366 m 18 Y s 953 1366 m 18 Y s 1003 1366 m 18 Y s 1053 1366 m 18 Y s 1102 1347 m 37 Y s 1152 1366 m 18 Y s 1202 1366 m 18 Y s 1252 1366 m 18 Y s 1302 1366 m 18 Y s 1352
 1347 m 37 Y s 1402 1366 m 18 Y s 1452 1366 m 18 Y s 1502 1366 m 18 Y s 1552 1366 m 18 Y s 1602 1347 m 37 Y s 1652 1366 m 18 Y s 1702 1366 m 18 Y s 1752 1366 m 18 Y s 1802 1366 m 18 Y s 1852 1347 m 37 Y s 353 1347 m 37 Y s 303 1366 m 18 Y s 253 1366
 m 18 Y s 1852 1347 m 37 Y s 1902 1366 m 18 Y s 1951 1366 m 18 Y s 2001 1366 m 18 Y s 227 154 m 1230 Y s 281 285 m -54 X s 254 324 m -27 X s 254 363 m -27 X s 254 402 m -27 X s 254 441 m -27 X s 281 481 m -54 X s 254 520 m -27 X s 254 559 m -27 X s
 254 598 m -27 X s 254 637 m -27 X s 281 676 m -54 X s 254 715 m -27 X s 254 754 m -27 X s 254 793 m -27 X s 254 832 m -27 X s 281 871 m -54 X s 254 910 m -27 X s 254 949 m -27 X s 254 988 m -27 X s 254 1027 m -27 X s 281 1066 m -54 X s 254 1105 m
 -27 X s 254 1144 m -27 X s 254 1183 m -27 X s 254 1222 m -27 X s 281 1261 m -54 X s 281 285 m -54 X s 254 246 m -27 X s 254 207 m -27 X s 254 168 m -27 X s 281 1261 m -54 X s 254 1300 m -27 X s 254 1339 m -27 X s 254 1378 m -27 X s
 gsave  2268 1538 0 0 C 117.296 263.915 t 0 r /Helvetica-Bold findfont 58.6478 sf 0 0 m (550) show NC gr 
 gsave  2268 1538 0 0 C 117.296 459.408 t 0 r /Helvetica-Bold findfont 58.6478 sf 0 0 m (600) show NC gr 
 gsave  2268 1538 0 0 C 117.296 654.901 t 0 r /Helvetica-Bold findfont 58.6478 sf 0 0 m (650) show NC gr 
 gsave  2268 1538 0 0 C 117.296 850.394 t 0 r /Helvetica-Bold findfont 58.6478 sf 0 0 m (700) show NC gr 
 gsave  2268 1538 0 0 C 117.296 1045.89 t 0 r /Helvetica-Bold findfont 58.6478 sf 0 0 m (750) show NC gr 
 gsave  2268 1538 0 0 C 117.296 1241.38 t 0 r /Helvetica-Bold findfont 58.6478 sf 0 0 m (800) show NC gr  2041 154 m 1230 Y s 1987 285 m 54 X s 2014 324 m 27 X s 2014 363 m 27 X s 2014 402 m 27 X s 2014 441 m 27 X s 1987 481 m 54 X s 2014 520 m 27 X
 s 2014 559 m 27 X s 2014 598 m 27 X s 2014 637 m 27 X s 1987 676 m 54 X s 2014 715 m 27 X s 2014 754 m 27 X s 2014 793 m 27 X s 2014 832 m 27 X s 1987 871 m 54 X s 2014 910 m 27 X s 2014 949 m 27 X s 2014 988 m 27 X s 2014 1027 m 27 X s 1987 1066 m
 54 X s 2014 1105 m 27 X s 2014 1144 m 27 X s 2014 1183 m 27 X s 2014 1222 m 27 X s 1987 1261 m 54 X s 1987 285 m 54 X s 2014 246 m 27 X s 2014 207 m 27 X s 2014 168 m 27 X s 1987 1261 m 54 X s 2014 1300 m 27 X s 2014 1339 m 27 X s 2014 1378 m 27 X s
 309 548 m 61 Y s 303 609 m 13 X s 309 548 m -62 Y s 303 486 m 13 X s 516 635 m 63 Y s 509 698 m 13 X s 516 635 m -62 Y s 509 573 m 13 X s 720 624 m 62 Y s 714 686 m 13 X s 720 624 m -62 Y s 714 562 m 13 X s 927 345 m 58 Y s 921 403 m 13 X s 927 345
 m -59 Y s 921 286 m 13 X s 1134 559 m 61 Y s 1128 620 m 13 X s 1134 559 m -62 Y s 1128 497 m 13 X s 1338 349 m 59 Y s 1331 408 m 13 X s 1338 349 m -58 Y s 1331 291 m 13 X s 1548 323 m 58 Y s 1541 381 m 13 X s 1548 323 m -59 Y s 1541 264 m 13 X s
 1750 410 m 60 Y s 1743 470 m 13 X s 1750 410 m -59 Y s 1743 351 m 13 X s 1958 237 m 57 Y s 1952 294 m 13 X s 1958 237 m -57 Y s 1952 180 m 13 X s 1 1 1 c black 309 548 m 207 87 d 204 -11 d 207 -279 d 207 214 d 204 -210 d 210 -26 d 202 87 d 208 -173
 d s /w 2 def /w2 {w 2 div} def /w3 {w 3 div} def 309 548 516 635 720 624 927 345 1134 559 1338 349 1548 323 1750 410 1958 237 9 { m20} R
 gsave  2268 1538 0 0 C 1326.09 1172.96 t 0 r /Helvetica-Bold findfont 58.6478 sf 0 0 m (Pixel Occupancies) show NC gr  1124 1192 m 167 X s 1208 1192 m20
 gr  gr showpage
end
%%EOF
