%!PS-Adobe-2.0 EPSF-2.0
%%BoundingBox:  0 0 567 384
%%Title: d3pdDirr/pixel_occupancy/clus_z_pixlayer_3_neg.eps: c1_n45
%%Creator: ROOT Version 6.04/12
%%CreationDate: Tue Apr 26 00:12:47 2016
%%DocumentNeededResources: ProcSet (FontSetInit)
%%EndComments
%%BeginProlog
80 dict begin
/s {stroke} def /l {lineto} def /m {moveto} def /t {translate} def
/r {rotate} def /rl {roll}  def /R {repeat} def
/d {rlineto} def /rm {rmoveto} def /gr {grestore} def /f {eofill} def
/c {setrgbcolor} def /black {0 setgray} def /sd {setdash} def
/cl {closepath} def /sf {scalefont setfont} def /lw {setlinewidth} def
/box {m dup 0 exch d exch 0 d 0 exch neg d cl} def
/NC{systemdict begin initclip end}def/C{NC box clip newpath}def
/bl {box s} def /bf {gsave box gsave f grestore 1 lw [] 0 sd s grestore} def /Y { 0 exch d} def /X { 0 d} def 
/K {{pop pop 0 moveto} exch kshow} bind def
/ita {/ang 15 def gsave [1 0 ang dup sin exch cos div 1 0 0] concat} def 
/mp {newpath /y exch def /x exch def} def
/side {[w .77 mul w .23 mul] .385 w mul sd w 0 l currentpoint t -144 r} def
/mr {mp x y w2 0 360 arc} def /m24 {mr s} def /m20 {mr f} def
/mb {mp x y w2 add m w2 neg 0 d 0 w neg d w 0 d 0 w d cl} def
/mt {mp x y w2 add m w2 neg w neg d w 0 d cl} def
/m21 {mb f} def /m25 {mb s} def /m22 {mt f} def /m26{mt s} def
/m23 {mp x y w2 sub m w2 w d w neg 0 d cl f} def
/m27 {mp x y w2 add m w3 neg w2 neg d w3 w2 neg d w3 w2 d cl s} def
/m28 {mp x w2 sub y w2 sub w3 add m w3 0 d  0 w3 neg d w3 0 d 0 w3 d w3 0 d  0 w3 d w3 neg 0 d 0 w3 d w3 neg 0 d 0 w3 neg d w3 neg 0 d cl s } def
/m29 {mp gsave x w2 sub y w2 add w3 sub m currentpoint t 4 {side} repeat cl fill gr} def
/m30 {mp gsave x w2 sub y w2 add w3 sub m currentpoint t 4 {side} repeat cl s gr} def
/m31 {mp x y w2 sub m 0 w d x w2 sub y m w 0 d x w2 sub y w2 add m w w neg d x w2 sub y w2 sub m w w d s} def
/m32 {mp x y w2 sub m w2 w d w neg 0 d cl s} def
/m33 {mp x y w2 add m w3 neg w2 neg d w3 w2 neg d w3 w2 d cl f} def
/m34 {mp x w2 sub y w2 sub w3 add m w3 0 d  0 w3 neg d w3 0 d 0 w3 d w3 0 d  0 w3 d w3 neg 0 d 0 w3 d w3 neg 0 d 0 w3 neg d w3 neg 0 d cl f } def
/m2 {mp x y w2 sub m 0 w d x w2 sub y m w 0 d s} def
/m5 {mp x w2 sub y w2 sub m w w d x w2 sub y w2 add m w w neg d s} def
%%IncludeResource: ProcSet (FontSetInit)
%%IncludeResource: font Times-Roman
%%IncludeResource: font Times-Italic
%%IncludeResource: font Times-Bold
%%IncludeResource: font Times-BoldItalic
%%IncludeResource: font Helvetica
%%IncludeResource: font Helvetica-Oblique
%%IncludeResource: font Helvetica-Bold
%%IncludeResource: font Helvetica-BoldOblique
%%IncludeResource: font Courier
%%IncludeResource: font Courier-Oblique
%%IncludeResource: font Courier-Bold
%%IncludeResource: font Courier-BoldOblique
%%IncludeResource: font Symbol
%%IncludeResource: font ZapfDingbats
/reEncode {exch findfont dup length dict begin {1 index /FID eq  {pop pop} {def} ifelse } forall /Encoding exch def currentdict end dup /FontName get exch definefont pop } def [/Times-Bold /Times-Italic /Times-BoldItalic /Helvetica /Helvetica-Oblique
 /Helvetica-Bold /Helvetica-BoldOblique /Courier /Courier-Oblique /Courier-Bold /Courier-BoldOblique /Times-Roman /AvantGarde-Book /AvantGarde-BookOblique /AvantGarde-Demi /AvantGarde-DemiOblique /Bookman-Demi /Bookman-DemiItalic /Bookman-Light
 /Bookman-LightItalic /Helvetica-Narrow /Helvetica-Narrow-Bold /Helvetica-Narrow-BoldOblique /Helvetica-Narrow-Oblique /NewCenturySchlbk-Roman /NewCenturySchlbk-Bold /NewCenturySchlbk-BoldItalic /NewCenturySchlbk-Italic /Palatino-Bold
 /Palatino-BoldItalic /Palatino-Italic /Palatino-Roman ] {ISOLatin1Encoding reEncode } forall
%%EndProlog
%%BeginSetup
%%EndSetup
newpath  gsave  .25 .25 scale  gsave  0 0 t black[  ] 0 sd 3 lw 1 1 1 c 2268 1538 0 0 bf black 1 1 1 c 1814 1230 227 154 bf black 1814 1230 227 154 bl 1 1 1 c 1814 1230 227 154 bf black 1814 1230 227 154 bl 227 154 m 1814 X s 353 191 m -37 Y s 402
 172 m -18 Y s 452 172 m -18 Y s 502 172 m -18 Y s 552 172 m -18 Y s 602 191 m -37 Y s 652 172 m -18 Y s 702 172 m -18 Y s 752 172 m -18 Y s 802 172 m -18 Y s 852 191 m -37 Y s 902 172 m -18 Y s 952 172 m -18 Y s 1002 172 m -18 Y s 1051 172 m -18 Y s
 1101 191 m -37 Y s 1151 172 m -18 Y s 1201 172 m -18 Y s 1251 172 m -18 Y s 1301 172 m -18 Y s 1351 191 m -37 Y s 1401 172 m -18 Y s 1451 172 m -18 Y s 1501 172 m -18 Y s 1551 172 m -18 Y s 1601 191 m -37 Y s 1651 172 m -18 Y s 1700 172 m -18 Y s
 1750 172 m -18 Y s 1800 172 m -18 Y s 1850 191 m -37 Y s 353 191 m -37 Y s 303 172 m -18 Y s 253 172 m -18 Y s 1850 191 m -37 Y s 1900 172 m -18 Y s 1950 172 m -18 Y s 2000 172 m -18 Y s
 gsave  2268 1538 0 0 C 319.305 97.7464 t 0 r /Helvetica-Bold findfont 58.6478 sf 0 0 m (50) show NC gr 
 gsave  2268 1538 0 0 C 550.638 97.7464 t 0 r /Helvetica-Bold findfont 58.6478 sf 0 0 m (100) show NC gr 
 gsave  2268 1538 0 0 C 801.521 97.7464 t 0 r /Helvetica-Bold findfont 58.6478 sf 0 0 m (150) show NC gr 
 gsave  2268 1538 0 0 C 1052.4 97.7464 t 0 r /Helvetica-Bold findfont 58.6478 sf 0 0 m (200) show NC gr 
 gsave  2268 1538 0 0 C 1300.03 97.7464 t 0 r /Helvetica-Bold findfont 58.6478 sf 0 0 m (250) show NC gr 
 gsave  2268 1538 0 0 C 1550.91 97.7464 t 0 r /Helvetica-Bold findfont 58.6478 sf 0 0 m (300) show NC gr 
 gsave  2268 1538 0 0 C 1798.53 97.7464 t 0 r /Helvetica-Bold findfont 58.6478 sf 0 0 m (350) show NC gr  227 1384 m 1814 X s 353 1347 m 37 Y s 402 1366 m 18 Y s 452 1366 m 18 Y s 502 1366 m 18 Y s 552 1366 m 18 Y s 602 1347 m 37 Y s 652 1366 m 18 Y
 s 702 1366 m 18 Y s 752 1366 m 18 Y s 802 1366 m 18 Y s 852 1347 m 37 Y s 902 1366 m 18 Y s 952 1366 m 18 Y s 1002 1366 m 18 Y s 1051 1366 m 18 Y s 1101 1347 m 37 Y s 1151 1366 m 18 Y s 1201 1366 m 18 Y s 1251 1366 m 18 Y s 1301 1366 m 18 Y s 1351
 1347 m 37 Y s 1401 1366 m 18 Y s 1451 1366 m 18 Y s 1501 1366 m 18 Y s 1551 1366 m 18 Y s 1601 1347 m 37 Y s 1651 1366 m 18 Y s 1700 1366 m 18 Y s 1750 1366 m 18 Y s 1800 1366 m 18 Y s 1850 1347 m 37 Y s 353 1347 m 37 Y s 303 1366 m 18 Y s 253 1366
 m 18 Y s 1850 1347 m 37 Y s 1900 1366 m 18 Y s 1950 1366 m 18 Y s 2000 1366 m 18 Y s 227 154 m 1230 Y s 281 245 m -54 X s 254 276 m -27 X s 254 306 m -27 X s 254 337 m -27 X s 254 368 m -27 X s 281 399 m -54 X s 254 430 m -27 X s 254 461 m -27 X s
 254 491 m -27 X s 254 522 m -27 X s 281 553 m -54 X s 254 584 m -27 X s 254 615 m -27 X s 254 646 m -27 X s 254 676 m -27 X s 281 707 m -54 X s 254 738 m -27 X s 254 769 m -27 X s 254 800 m -27 X s 254 831 m -27 X s 281 862 m -54 X s 254 892 m -27 X
 s 254 923 m -27 X s 254 954 m -27 X s 254 985 m -27 X s 281 1016 m -54 X s 254 1047 m -27 X s 254 1077 m -27 X s 254 1108 m -27 X s 254 1139 m -27 X s 281 1170 m -54 X s 254 1201 m -27 X s 254 1232 m -27 X s 254 1262 m -27 X s 254 1293 m -27 X s 281
 1324 m -54 X s 281 245 m -54 X s 254 214 m -27 X s 254 183 m -27 X s 281 1324 m -54 X s 254 1355 m -27 X s
 gsave  2268 1538 0 0 C 117.296 224.817 t 0 r /Helvetica-Bold findfont 58.6478 sf 0 0 m (500) show NC gr 
 gsave  2268 1538 0 0 C 117.296 377.953 t 0 r /Helvetica-Bold findfont 58.6478 sf 0 0 m (550) show NC gr 
 gsave  2268 1538 0 0 C 117.296 531.089 t 0 r /Helvetica-Bold findfont 58.6478 sf 0 0 m (600) show NC gr 
 gsave  2268 1538 0 0 C 117.296 687.483 t 0 r /Helvetica-Bold findfont 58.6478 sf 0 0 m (650) show NC gr 
 gsave  2268 1538 0 0 C 117.296 840.619 t 0 r /Helvetica-Bold findfont 58.6478 sf 0 0 m (700) show NC gr 
 gsave  2268 1538 0 0 C 117.296 993.755 t 0 r /Helvetica-Bold findfont 58.6478 sf 0 0 m (750) show NC gr 
 gsave  2268 1538 0 0 C 117.296 1150.15 t 0 r /Helvetica-Bold findfont 58.6478 sf 0 0 m (800) show NC gr 
 gsave  2268 1538 0 0 C 117.296 1303.29 t 0 r /Helvetica-Bold findfont 58.6478 sf 0 0 m (850) show NC gr  2041 154 m 1230 Y s 1987 245 m 54 X s 2014 276 m 27 X s 2014 306 m 27 X s 2014 337 m 27 X s 2014 368 m 27 X s 1987 399 m 54 X s 2014 430 m 27 X
 s 2014 461 m 27 X s 2014 491 m 27 X s 2014 522 m 27 X s 1987 553 m 54 X s 2014 584 m 27 X s 2014 615 m 27 X s 2014 646 m 27 X s 2014 676 m 27 X s 1987 707 m 54 X s 2014 738 m 27 X s 2014 769 m 27 X s 2014 800 m 27 X s 2014 831 m 27 X s 1987 862 m 54
 X s 2014 892 m 27 X s 2014 923 m 27 X s 2014 954 m 27 X s 2014 985 m 27 X s 1987 1016 m 54 X s 2014 1047 m 27 X s 2014 1077 m 27 X s 2014 1108 m 27 X s 2014 1139 m 27 X s 1987 1170 m 54 X s 2014 1201 m 27 X s 2014 1232 m 27 X s 2014 1262 m 27 X s
 2014 1293 m 27 X s 1987 1324 m 54 X s 1987 245 m 54 X s 2014 214 m 27 X s 2014 183 m 27 X s 1987 1324 m 54 X s 2014 1355 m 27 X s 1958 229 m 43 Y s 1952 272 m 13 X s 1958 229 m -44 Y s 1952 185 m 13 X s 1752 380 m 46 Y s 1745 426 m 13 X s 1752 380 m
 -45 Y s 1745 335 m 13 X s 1546 337 m 45 Y s 1540 382 m 13 X s 1546 337 m -45 Y s 1540 292 m 13 X s 1343 548 m 48 Y s 1336 596 m 13 X s 1343 548 m -48 Y s 1336 500 m 13 X s 1130 616 m 49 Y s 1123 665 m 14 X s 1130 616 m -49 Y s 1123 567 m 14 X s 928
 506 m 47 Y s 922 553 m 13 X s 928 506 m -47 Y s 922 459 m 13 X s 721 651 m 49 Y s 714 700 m 13 X s 721 651 m -49 Y s 714 602 m 13 X s 514 600 m 48 Y s 507 648 m 13 X s 514 600 m -48 Y s 507 552 m 13 X s 309 765 m 51 Y s 303 816 m 13 X s 309 765 m
 -50 Y s 303 715 m 13 X s 1 1 1 c black 1958 229 m -206 151 d -206 -43 d -203 211 d -213 68 d -202 -110 d -207 145 d -207 -51 d -205 165 d s /w 2 def /w2 {w 2 div} def /w3 {w 3 div} def 1958 229 1752 380 1546 337 1343 548 1130 616 928 506 721 651 514
 600 309 765 9 { m20} R
 gsave  2268 1538 0 0 C 1326.09 1172.96 t 0 r /Helvetica-Bold findfont 58.6478 sf 0 0 m (Pixel Occupancies) show NC gr  1124 1192 m 167 X s 1208 1192 m20
 gr  gr showpage
end
%%EOF
