%!PS-Adobe-2.0 EPSF-2.0
%%BoundingBox:  0 0 567 384
%%Title: d3pdDirr/pixel_occupancy/clus_z_pixlayer_4_neg.eps: c1_n50
%%Creator: ROOT Version 6.04/12
%%CreationDate: Tue Apr 26 00:12:47 2016
%%DocumentNeededResources: ProcSet (FontSetInit)
%%EndComments
%%BeginProlog
80 dict begin
/s {stroke} def /l {lineto} def /m {moveto} def /t {translate} def
/r {rotate} def /rl {roll}  def /R {repeat} def
/d {rlineto} def /rm {rmoveto} def /gr {grestore} def /f {eofill} def
/c {setrgbcolor} def /black {0 setgray} def /sd {setdash} def
/cl {closepath} def /sf {scalefont setfont} def /lw {setlinewidth} def
/box {m dup 0 exch d exch 0 d 0 exch neg d cl} def
/NC{systemdict begin initclip end}def/C{NC box clip newpath}def
/bl {box s} def /bf {gsave box gsave f grestore 1 lw [] 0 sd s grestore} def /Y { 0 exch d} def /X { 0 d} def 
/K {{pop pop 0 moveto} exch kshow} bind def
/ita {/ang 15 def gsave [1 0 ang dup sin exch cos div 1 0 0] concat} def 
/mp {newpath /y exch def /x exch def} def
/side {[w .77 mul w .23 mul] .385 w mul sd w 0 l currentpoint t -144 r} def
/mr {mp x y w2 0 360 arc} def /m24 {mr s} def /m20 {mr f} def
/mb {mp x y w2 add m w2 neg 0 d 0 w neg d w 0 d 0 w d cl} def
/mt {mp x y w2 add m w2 neg w neg d w 0 d cl} def
/m21 {mb f} def /m25 {mb s} def /m22 {mt f} def /m26{mt s} def
/m23 {mp x y w2 sub m w2 w d w neg 0 d cl f} def
/m27 {mp x y w2 add m w3 neg w2 neg d w3 w2 neg d w3 w2 d cl s} def
/m28 {mp x w2 sub y w2 sub w3 add m w3 0 d  0 w3 neg d w3 0 d 0 w3 d w3 0 d  0 w3 d w3 neg 0 d 0 w3 d w3 neg 0 d 0 w3 neg d w3 neg 0 d cl s } def
/m29 {mp gsave x w2 sub y w2 add w3 sub m currentpoint t 4 {side} repeat cl fill gr} def
/m30 {mp gsave x w2 sub y w2 add w3 sub m currentpoint t 4 {side} repeat cl s gr} def
/m31 {mp x y w2 sub m 0 w d x w2 sub y m w 0 d x w2 sub y w2 add m w w neg d x w2 sub y w2 sub m w w d s} def
/m32 {mp x y w2 sub m w2 w d w neg 0 d cl s} def
/m33 {mp x y w2 add m w3 neg w2 neg d w3 w2 neg d w3 w2 d cl f} def
/m34 {mp x w2 sub y w2 sub w3 add m w3 0 d  0 w3 neg d w3 0 d 0 w3 d w3 0 d  0 w3 d w3 neg 0 d 0 w3 d w3 neg 0 d 0 w3 neg d w3 neg 0 d cl f } def
/m2 {mp x y w2 sub m 0 w d x w2 sub y m w 0 d s} def
/m5 {mp x w2 sub y w2 sub m w w d x w2 sub y w2 add m w w neg d s} def
%%IncludeResource: ProcSet (FontSetInit)
%%IncludeResource: font Times-Roman
%%IncludeResource: font Times-Italic
%%IncludeResource: font Times-Bold
%%IncludeResource: font Times-BoldItalic
%%IncludeResource: font Helvetica
%%IncludeResource: font Helvetica-Oblique
%%IncludeResource: font Helvetica-Bold
%%IncludeResource: font Helvetica-BoldOblique
%%IncludeResource: font Courier
%%IncludeResource: font Courier-Oblique
%%IncludeResource: font Courier-Bold
%%IncludeResource: font Courier-BoldOblique
%%IncludeResource: font Symbol
%%IncludeResource: font ZapfDingbats
/reEncode {exch findfont dup length dict begin {1 index /FID eq  {pop pop} {def} ifelse } forall /Encoding exch def currentdict end dup /FontName get exch definefont pop } def [/Times-Bold /Times-Italic /Times-BoldItalic /Helvetica /Helvetica-Oblique
 /Helvetica-Bold /Helvetica-BoldOblique /Courier /Courier-Oblique /Courier-Bold /Courier-BoldOblique /Times-Roman /AvantGarde-Book /AvantGarde-BookOblique /AvantGarde-Demi /AvantGarde-DemiOblique /Bookman-Demi /Bookman-DemiItalic /Bookman-Light
 /Bookman-LightItalic /Helvetica-Narrow /Helvetica-Narrow-Bold /Helvetica-Narrow-BoldOblique /Helvetica-Narrow-Oblique /NewCenturySchlbk-Roman /NewCenturySchlbk-Bold /NewCenturySchlbk-BoldItalic /NewCenturySchlbk-Italic /Palatino-Bold
 /Palatino-BoldItalic /Palatino-Italic /Palatino-Roman ] {ISOLatin1Encoding reEncode } forall
%%EndProlog
%%BeginSetup
%%EndSetup
newpath  gsave  .25 .25 scale  gsave  0 0 t black[  ] 0 sd 3 lw 1 1 1 c 2268 1538 0 0 bf black 1 1 1 c 1814 1230 227 154 bf black 1814 1230 227 154 bl 1 1 1 c 1814 1230 227 154 bf black 1814 1230 227 154 bl 227 154 m 1814 X s 309 191 m -37 Y s 392
 172 m -18 Y s 474 172 m -18 Y s 557 172 m -18 Y s 639 191 m -37 Y s 722 172 m -18 Y s 804 172 m -18 Y s 886 172 m -18 Y s 969 191 m -37 Y s 1051 172 m -18 Y s 1134 172 m -18 Y s 1216 172 m -18 Y s 1299 191 m -37 Y s 1381 172 m -18 Y s 1464 172 m -18
 Y s 1546 172 m -18 Y s 1629 191 m -37 Y s 1711 172 m -18 Y s 1794 172 m -18 Y s 1876 172 m -18 Y s 1958 191 m -37 Y s 309 191 m -37 Y s 1958 191 m -37 Y s
 gsave  2268 1538 0 0 C 289.981 97.7464 t 0 r /Helvetica-Bold findfont 58.6478 sf 0 0 m (0) show NC gr 
 gsave  2268 1538 0 0 C 596.253 97.7464 t 0 r /Helvetica-Bold findfont 58.6478 sf 0 0 m (0.2) show NC gr 
 gsave  2268 1538 0 0 C 925.333 97.7464 t 0 r /Helvetica-Bold findfont 58.6478 sf 0 0 m (0.4) show NC gr 
 gsave  2268 1538 0 0 C 1254.41 97.7464 t 0 r /Helvetica-Bold findfont 58.6478 sf 0 0 m (0.6) show NC gr 
 gsave  2268 1538 0 0 C 1583.49 97.7464 t 0 r /Helvetica-Bold findfont 58.6478 sf 0 0 m (0.8) show NC gr 
 gsave  2268 1538 0 0 C 1945.15 97.7464 t 0 r /Helvetica-Bold findfont 58.6478 sf 0 0 m (1) show NC gr  227 1384 m 1814 X s 309 1347 m 37 Y s 392 1366 m 18 Y s 474 1366 m 18 Y s 557 1366 m 18 Y s 639 1347 m 37 Y s 722 1366 m 18 Y s 804 1366 m 18 Y s
 886 1366 m 18 Y s 969 1347 m 37 Y s 1051 1366 m 18 Y s 1134 1366 m 18 Y s 1216 1366 m 18 Y s 1299 1347 m 37 Y s 1381 1366 m 18 Y s 1464 1366 m 18 Y s 1546 1366 m 18 Y s 1629 1347 m 37 Y s 1711 1366 m 18 Y s 1794 1366 m 18 Y s 1876 1366 m 18 Y s 1958
 1347 m 37 Y s 309 1347 m 37 Y s 1958 1347 m 37 Y s 227 154 m 1230 Y s 281 154 m -54 X s 254 178 m -27 X s 254 203 m -27 X s 254 228 m -27 X s 254 252 m -27 X s 281 277 m -54 X s 254 301 m -27 X s 254 326 m -27 X s 254 351 m -27 X s 254 375 m -27 X s
 281 400 m -54 X s 254 424 m -27 X s 254 449 m -27 X s 254 474 m -27 X s 254 498 m -27 X s 281 523 m -54 X s 254 547 m -27 X s 254 572 m -27 X s 254 597 m -27 X s 254 621 m -27 X s 281 646 m -54 X s 254 671 m -27 X s 254 695 m -27 X s 254 720 m -27 X
 s 254 744 m -27 X s 281 769 m -54 X s 254 794 m -27 X s 254 818 m -27 X s 254 843 m -27 X s 254 867 m -27 X s 281 892 m -54 X s 254 917 m -27 X s 254 941 m -27 X s 254 966 m -27 X s 254 990 m -27 X s 281 1015 m -54 X s 254 1040 m -27 X s 254 1064 m
 -27 X s 254 1089 m -27 X s 254 1113 m -27 X s 281 1138 m -54 X s 254 1163 m -27 X s 254 1187 m -27 X s 254 1212 m -27 X s 254 1236 m -27 X s 281 1261 m -54 X s 254 1286 m -27 X s 254 1310 m -27 X s 254 1335 m -27 X s 254 1359 m -27 X s 281 1384 m
 -54 X s
 gsave  2268 1538 0 0 C 182.46 133.587 t 0 r /Helvetica-Bold findfont 58.6478 sf 0 0 m (0) show NC gr 
 gsave  2268 1538 0 0 C 143.361 254.141 t 0 r /Helvetica-Bold findfont 58.6478 sf 0 0 m (0.1) show NC gr 
 gsave  2268 1538 0 0 C 133.587 377.953 t 0 r /Helvetica-Bold findfont 58.6478 sf 0 0 m (0.2) show NC gr 
 gsave  2268 1538 0 0 C 133.587 501.765 t 0 r /Helvetica-Bold findfont 58.6478 sf 0 0 m (0.3) show NC gr 
 gsave  2268 1538 0 0 C 133.587 625.577 t 0 r /Helvetica-Bold findfont 58.6478 sf 0 0 m (0.4) show NC gr 
 gsave  2268 1538 0 0 C 133.587 746.131 t 0 r /Helvetica-Bold findfont 58.6478 sf 0 0 m (0.5) show NC gr 
 gsave  2268 1538 0 0 C 133.587 869.943 t 0 r /Helvetica-Bold findfont 58.6478 sf 0 0 m (0.6) show NC gr 
 gsave  2268 1538 0 0 C 133.587 993.755 t 0 r /Helvetica-Bold findfont 58.6478 sf 0 0 m (0.7) show NC gr 
 gsave  2268 1538 0 0 C 133.587 1117.57 t 0 r /Helvetica-Bold findfont 58.6478 sf 0 0 m (0.8) show NC gr 
 gsave  2268 1538 0 0 C 133.587 1241.38 t 0 r /Helvetica-Bold findfont 58.6478 sf 0 0 m (0.9) show NC gr 
 gsave  2268 1538 0 0 C 192.235 1361.93 t 0 r /Helvetica-Bold findfont 58.6478 sf 0 0 m (1) show NC gr  2041 154 m 1230 Y s 1987 154 m 54 X s 2014 178 m 27 X s 2014 203 m 27 X s 2014 228 m 27 X s 2014 252 m 27 X s 1987 277 m 54 X s 2014 301 m 27 X s
 2014 326 m 27 X s 2014 351 m 27 X s 2014 375 m 27 X s 1987 400 m 54 X s 2014 424 m 27 X s 2014 449 m 27 X s 2014 474 m 27 X s 2014 498 m 27 X s 1987 523 m 54 X s 2014 547 m 27 X s 2014 572 m 27 X s 2014 597 m 27 X s 2014 621 m 27 X s 1987 646 m 54 X
 s 2014 671 m 27 X s 2014 695 m 27 X s 2014 720 m 27 X s 2014 744 m 27 X s 1987 769 m 54 X s 2014 794 m 27 X s 2014 818 m 27 X s 2014 843 m 27 X s 2014 867 m 27 X s 1987 892 m 54 X s 2014 917 m 27 X s 2014 941 m 27 X s 2014 966 m 27 X s 2014 990 m 27
 X s 1987 1015 m 54 X s 2014 1040 m 27 X s 2014 1064 m 27 X s 2014 1089 m 27 X s 2014 1113 m 27 X s 1987 1138 m 54 X s 2014 1163 m 27 X s 2014 1187 m 27 X s 2014 1212 m 27 X s 2014 1236 m 27 X s 1987 1261 m 54 X s 2014 1286 m 27 X s 2014 1310 m 27 X
 s 2014 1335 m 27 X s 2014 1359 m 27 X s 1987 1384 m 54 X s 1 1 1 c black 309 154 m cl s /w 2 def /w2 {w 2 div} def /w3 {w 3 div} def 309 154 309 154 309 154 309 154 309 154 309 154 309 154 309 154 309 154 9 { m20} R
 gsave  2268 1538 0 0 C 1326.09 1172.96 t 0 r /Helvetica-Bold findfont 58.6478 sf 0 0 m (Pixel Occupancies) show NC gr  1124 1192 m 167 X s 1208 1192 m20
 gr  gr showpage
end
%%EOF
