%!PS-Adobe-2.0 EPSF-2.0
%%BoundingBox:  0 0 567 384
%%Title: d3pdDirr/pixel_occupancy/clus_z_pixlayer_4_pos.eps: c1_n41
%%Creator: ROOT Version 6.04/12
%%CreationDate: Tue Apr 26 00:12:46 2016
%%DocumentNeededResources: ProcSet (FontSetInit)
%%EndComments
%%BeginProlog
80 dict begin
/s {stroke} def /l {lineto} def /m {moveto} def /t {translate} def
/r {rotate} def /rl {roll}  def /R {repeat} def
/d {rlineto} def /rm {rmoveto} def /gr {grestore} def /f {eofill} def
/c {setrgbcolor} def /black {0 setgray} def /sd {setdash} def
/cl {closepath} def /sf {scalefont setfont} def /lw {setlinewidth} def
/box {m dup 0 exch d exch 0 d 0 exch neg d cl} def
/NC{systemdict begin initclip end}def/C{NC box clip newpath}def
/bl {box s} def /bf {gsave box gsave f grestore 1 lw [] 0 sd s grestore} def /Y { 0 exch d} def /X { 0 d} def 
/K {{pop pop 0 moveto} exch kshow} bind def
/ita {/ang 15 def gsave [1 0 ang dup sin exch cos div 1 0 0] concat} def 
/mp {newpath /y exch def /x exch def} def
/side {[w .77 mul w .23 mul] .385 w mul sd w 0 l currentpoint t -144 r} def
/mr {mp x y w2 0 360 arc} def /m24 {mr s} def /m20 {mr f} def
/mb {mp x y w2 add m w2 neg 0 d 0 w neg d w 0 d 0 w d cl} def
/mt {mp x y w2 add m w2 neg w neg d w 0 d cl} def
/m21 {mb f} def /m25 {mb s} def /m22 {mt f} def /m26{mt s} def
/m23 {mp x y w2 sub m w2 w d w neg 0 d cl f} def
/m27 {mp x y w2 add m w3 neg w2 neg d w3 w2 neg d w3 w2 d cl s} def
/m28 {mp x w2 sub y w2 sub w3 add m w3 0 d  0 w3 neg d w3 0 d 0 w3 d w3 0 d  0 w3 d w3 neg 0 d 0 w3 d w3 neg 0 d 0 w3 neg d w3 neg 0 d cl s } def
/m29 {mp gsave x w2 sub y w2 add w3 sub m currentpoint t 4 {side} repeat cl fill gr} def
/m30 {mp gsave x w2 sub y w2 add w3 sub m currentpoint t 4 {side} repeat cl s gr} def
/m31 {mp x y w2 sub m 0 w d x w2 sub y m w 0 d x w2 sub y w2 add m w w neg d x w2 sub y w2 sub m w w d s} def
/m32 {mp x y w2 sub m w2 w d w neg 0 d cl s} def
/m33 {mp x y w2 add m w3 neg w2 neg d w3 w2 neg d w3 w2 d cl f} def
/m34 {mp x w2 sub y w2 sub w3 add m w3 0 d  0 w3 neg d w3 0 d 0 w3 d w3 0 d  0 w3 d w3 neg 0 d 0 w3 d w3 neg 0 d 0 w3 neg d w3 neg 0 d cl f } def
/m2 {mp x y w2 sub m 0 w d x w2 sub y m w 0 d s} def
/m5 {mp x w2 sub y w2 sub m w w d x w2 sub y w2 add m w w neg d s} def
%%IncludeResource: ProcSet (FontSetInit)
%%IncludeResource: font Times-Roman
%%IncludeResource: font Times-Italic
%%IncludeResource: font Times-Bold
%%IncludeResource: font Times-BoldItalic
%%IncludeResource: font Helvetica
%%IncludeResource: font Helvetica-Oblique
%%IncludeResource: font Helvetica-Bold
%%IncludeResource: font Helvetica-BoldOblique
%%IncludeResource: font Courier
%%IncludeResource: font Courier-Oblique
%%IncludeResource: font Courier-Bold
%%IncludeResource: font Courier-BoldOblique
%%IncludeResource: font Symbol
%%IncludeResource: font ZapfDingbats
/reEncode {exch findfont dup length dict begin {1 index /FID eq  {pop pop} {def} ifelse } forall /Encoding exch def currentdict end dup /FontName get exch definefont pop } def [/Times-Bold /Times-Italic /Times-BoldItalic /Helvetica /Helvetica-Oblique
 /Helvetica-Bold /Helvetica-BoldOblique /Courier /Courier-Oblique /Courier-Bold /Courier-BoldOblique /Times-Roman /AvantGarde-Book /AvantGarde-BookOblique /AvantGarde-Demi /AvantGarde-DemiOblique /Bookman-Demi /Bookman-DemiItalic /Bookman-Light
 /Bookman-LightItalic /Helvetica-Narrow /Helvetica-Narrow-Bold /Helvetica-Narrow-BoldOblique /Helvetica-Narrow-Oblique /NewCenturySchlbk-Roman /NewCenturySchlbk-Bold /NewCenturySchlbk-BoldItalic /NewCenturySchlbk-Italic /Palatino-Bold
 /Palatino-BoldItalic /Palatino-Italic /Palatino-Roman ] {ISOLatin1Encoding reEncode } forall
%%EndProlog
%%BeginSetup
%%EndSetup
newpath  gsave  .25 .25 scale  gsave  0 0 t black[  ] 0 sd 3 lw 1 1 1 c 0 1538 -2147483648 0 bf black 1 1 1 c 0 1230 -2147483648 154 bf black 0 1230 -2147483648 154 bl 1 1 1 c 0 1230 -2147483648 154 bf black 0 1230 -2147483648 154 bl -2147483648 154
 m s -2147483648 -2147483648 m s -2147483648 -2147483648 m s -2147483648 -2147483648 m s -2147483648 -2147483648 m s -2147483648 -2147483648 m s -2147483648 -2147483648 m s -2147483648 -2147483648 m s -2147483648 -2147483648 m s -2147483648
 -2147483648 m s -2147483648 -2147483648 m s -2147483648 -2147483648 m s -2147483648 -2147483648 m s -2147483648 -2147483648 m s -2147483648 -2147483648 m s -2147483648 -2147483648 m s -2147483648 -2147483648 m s -2147483648 -2147483648 m s
 -2147483648 -2147483648 m s -2147483648 -2147483648 m s -2147483648 -2147483648 m s -2147483648 -2147483648 m s -2147483648 -2147483648 m s -2147483648 -2147483648 m s -2147483648 -2147483648 m s -2147483648 -2147483648 m s -2147483648 -2147483648 m
 s -2147483648 -2147483648 m s -2147483648 -2147483648 m s -2147483648 -2147483648 m s -2147483648 -2147483648 m s -2147483648 -2147483648 m s -2147483648 -2147483648 m s -2147483648 -2147483648 m s -2147483648 -2147483648 m s -2147483648 -2147483648
 m s -2147483648 -2147483648 m s -2147483648 -2147483648 m s -2147483648 -2147483648 m s -2147483648 -2147483648 m s -2147483648 -2147483648 m s -2147483648 -2147483648 m s -2147483648 -2147483648 m s -2147483648 -2147483648 m s -2147483648
 -2147483648 m s -2147483648 -2147483648 m s -2147483648 -2147483648 m s -2147483648 -2147483648 m s -2147483648 -2147483648 m s -2147483648 -2147483648 m s -2147483648 -2147483648 m s -2147483648 -2147483648 m s -2147483648 -2147483648 m s
 -2147483648 -2147483648 m s -2147483648 -2147483648 m s -2147483648 -2147483648 m s -2147483648 -2147483648 m s -2147483648 -2147483648 m s -2147483648 -2147483648 m s -2147483648 -2147483648 m s -2147483648 -2147483648 m s -2147483648 -2147483648 m
 s -2147483648 -2147483648 m s -2147483648 -2147483648 m s -2147483648 -2147483648 m s -2147483648 -2147483648 m s -2147483648 -2147483648 m s -2147483648 -2147483648 m s -2147483648 -2147483648 m s -2147483648 -2147483648 m s -2147483648 -2147483648
 m s -2147483648 -2147483648 m s -2147483648 -2147483648 m s -2147483648 -2147483648 m s -2147483648 -2147483648 m s -2147483648 -2147483648 m s -2147483648 -2147483648 m s -2147483648 -2147483648 m s -2147483648 -2147483648 m s -2147483648
 -2147483648 m s -2147483648 -2147483648 m s -2147483648 -2147483648 m s -2147483648 -2147483648 m s -2147483648 -2147483648 m s -2147483648 -2147483648 m s -2147483648 -2147483648 m s -2147483648 -2147483648 m s -2147483648 -2147483648 m s
 -2147483648 -2147483648 m s -2147483648 -2147483648 m s -2147483648 -2147483648 m s -2147483648 -2147483648 m s -2147483648 -2147483648 m s -2147483648 -2147483648 m s -2147483648 -2147483648 m s -2147483648 -2147483648 m s -2147483648 -2147483648 m
 s -2147483648 -2147483648 m s -2147483648 -2147483648 m s -2147483648 -2147483648 m s -2147483648 -2147483648 m s -2147483648 -2147483648 m s -2147483648 -2147483648 m s -2147483648 -2147483648 m s -2147483648 -2147483648 m s -2147483648 -2147483648
 m s -2147483648 -2147483648 m s -2147483648 -2147483648 m s -2147483648 -2147483648 m s -2147483648 -2147483648 m s -2147483648 -2147483648 m s -2147483648 -2147483648 m s -2147483648 -2147483648 m s -2147483648 -2147483648 m s -2147483648
 -2147483648 m s -2147483648 -2147483648 m s -2147483648 -2147483648 m s -2147483648 -2147483648 m s -2147483648 -2147483648 m s -2147483648 -2147483648 m s -2147483648 -2147483648 m s -2147483648 -2147483648 m s -2147483648 -2147483648 m s
 -2147483648 -2147483648 m s -2147483648 -2147483648 m s -2147483648 -2147483648 m s -2147483648 -2147483648 m s -2147483648 -2147483648 m s -2147483648 -2147483648 m s -2147483648 -2147483648 m s -2147483648 -2147483648 m s -2147483648 -2147483648 m
 s -2147483648 -2147483648 m s -2147483648 -2147483648 m s -2147483648 -2147483648 m s -2147483648 -2147483648 m s -2147483648 -2147483648 m s -2147483648 -2147483648 m s -2147483648 -2147483648 m s -2147483648 -2147483648 m s -2147483648 -2147483648
 m s -2147483648 -2147483648 m s -2147483648 -2147483648 m s -2147483648 -2147483648 m s -2147483648 -2147483648 m s -2147483648 -2147483648 m s -2147483648 -2147483648 m s -2147483648 -2147483648 m s -2147483648 -2147483648 m s -2147483648
 -2147483648 m s -2147483648 -2147483648 m s -2147483648 -2147483648 m s -2147483648 -2147483648 m s -2147483648 -2147483648 m s -2147483648 -2147483648 m s -2147483648 -2147483648 m s -2147483648 -2147483648 m s -2147483648 -2147483648 m s
 -2147483648 -2147483648 m s -2147483648 -2147483648 m s -2147483648 -2147483648 m s -2147483648 -2147483648 m s -2147483648 -2147483648 m s -2147483648 -2147483648 m s -2147483648 -2147483648 m s -2147483648 -2147483648 m s -2147483648 -2147483648 m
 s -2147483648 -2147483648 m s -2147483648 -2147483648 m s -2147483648 -2147483648 m s -2147483648 -2147483648 m s -2147483648 -2147483648 m s -2147483648 -2147483648 m s -2147483648 -2147483648 m s -2147483648 -2147483648 m s -2147483648 -2147483648
 m s -2147483648 -2147483648 m s -2147483648 -2147483648 m s -2147483648 -2147483648 m s -2147483648 -2147483648 m s -2147483648 -2147483648 m s -2147483648 -2147483648 m s -2147483648 -2147483648 m s -2147483648 -2147483648 m s -2147483648
 -2147483648 m s -2147483648 -2147483648 m s -2147483648 -2147483648 m s -2147483648 -2147483648 m s -2147483648 -2147483648 m s -2147483648 -2147483648 m s -2147483648 -2147483648 m s -2147483648 -2147483648 m s -2147483648 -2147483648 m s
 -2147483648 -2147483648 m s -2147483648 -2147483648 m s -2147483648 -2147483648 m s -2147483648 -2147483648 m s -2147483648 -2147483648 m s -2147483648 -2147483648 m s -2147483648 -2147483648 m s -2147483648 -2147483648 m s -2147483648 -2147483648 m
 s -2147483648 -2147483648 m s -2147483648 -2147483648 m s -2147483648 -2147483648 m s -2147483648 -2147483648 m s -2147483648 -2147483648 m s -2147483648 -2147483648 m s -2147483648 -2147483648 m s -2147483648 -2147483648 m s -2147483648 -2147483648
 m s -2147483648 -2147483648 m s -2147483648 -2147483648 m s -2147483648 -2147483648 m s -2147483648 -2147483648 m s -2147483648 -2147483648 m s -2147483648 -2147483648 m s -2147483648 -2147483648 m s -2147483648 -2147483648 m s -2147483648
 -2147483648 m s -2147483648 -2147483648 m s -2147483648 -2147483648 m s -2147483648 -2147483648 m s -2147483648 -2147483648 m s -2147483648 -2147483648 m s -2147483648 -2147483648 m s -2147483648 -2147483648 m s -2147483648 -2147483648 m s
 -2147483648 -2147483648 m s -2147483648 -2147483648 m s -2147483648 -2147483648 m s -2147483648 -2147483648 m s -2147483648 -2147483648 m s -2147483648 -2147483648 m s -2147483648 -2147483648 m s -2147483648 -2147483648 m s -2147483648 -2147483648 m
 s -2147483648 -2147483648 m s -2147483648 -2147483648 m s -2147483648 -2147483648 m s -2147483648 -2147483648 m s -2147483648 -2147483648 m s -2147483648 -2147483648 m s -2147483648 -2147483648 m s -2147483648 -2147483648 m s -2147483648 -2147483648
 m s -2147483648 -2147483648 m s -2147483648 -2147483648 m s -2147483648 -2147483648 m s -2147483648 -2147483648 m s -2147483648 -2147483648 m s -2147483648 -2147483648 m s -2147483648 -2147483648 m s -2147483648 -2147483648 m s -2147483648
 -2147483648 m s -2147483648 -2147483648 m s -2147483648 -2147483648 m s -2147483648 -2147483648 m s -2147483648 -2147483648 m s -2147483648 -2147483648 m s -2147483648 -2147483648 m s -2147483648 -2147483648 m s -2147483648 -2147483648 m s
 -2147483648 -2147483648 m s -2147483648 -2147483648 m s -2147483648 -2147483648 m s -2147483648 -2147483648 m s -2147483648 -2147483648 m s -2147483648 -2147483648 m s -2147483648 -2147483648 m s -2147483648 -2147483648 m s -2147483648 -2147483648 m
 s -2147483648 -2147483648 m s -2147483648 -2147483648 m s -2147483648 -2147483648 m s -2147483648 -2147483648 m s -2147483648 -2147483648 m s -2147483648 -2147483648 m s -2147483648 -2147483648 m s -2147483648 -2147483648 m s -2147483648 -2147483648
 m s -2147483648 -2147483648 m s -2147483648 -2147483648 m s -2147483648 -2147483648 m s -2147483648 -2147483648 m s -2147483648 -2147483648 m s -2147483648 -2147483648 m s -2147483648 -2147483648 m s -2147483648 -2147483648 m s -2147483648
 -2147483648 m s -2147483648 -2147483648 m s -2147483648 -2147483648 m s -2147483648 -2147483648 m s -2147483648 -2147483648 m s -2147483648 -2147483648 m s -2147483648 -2147483648 m s -2147483648 -2147483648 m s -2147483648 -2147483648 m s
 -2147483648 -2147483648 m s -2147483648 -2147483648 m s -2147483648 -2147483648 m s -2147483648 -2147483648 m s -2147483648 -2147483648 m s -2147483648 -2147483648 m s -2147483648 -2147483648 m s -2147483648 -2147483648 m s -2147483648 -2147483648 m
 s -2147483648 -2147483648 m s -2147483648 -2147483648 m s -2147483648 -2147483648 m s -2147483648 -2147483648 m s -2147483648 -2147483648 m s -2147483648 -2147483648 m s -2147483648 -2147483648 m s -2147483648 -2147483648 m s -2147483648 -2147483648
 m s -2147483648 -2147483648 m s -2147483648 -2147483648 m s -2147483648 -2147483648 m s -2147483648 -2147483648 m s -2147483648 -2147483648 m s -2147483648 -2147483648 m s -2147483648 -2147483648 m s -2147483648 -2147483648 m s -2147483648
 -2147483648 m s -2147483648 -2147483648 m s -2147483648 -2147483648 m s -2147483648 -2147483648 m s -2147483648 -2147483648 m s -2147483648 -2147483648 m s -2147483648 -2147483648 m s -2147483648 -2147483648 m s -2147483648 -2147483648 m s
 -2147483648 -2147483648 m s -2147483648 -2147483648 m s -2147483648 -2147483648 m s -2147483648 -2147483648 m s -2147483648 -2147483648 m s -2147483648 -2147483648 m s -2147483648 -2147483648 m s -2147483648 -2147483648 m s -2147483648 -2147483648 m
 s -2147483648 -2147483648 m s -2147483648 -2147483648 m s -2147483648 -2147483648 m s -2147483648 -2147483648 m s -2147483648 -2147483648 m s -2147483648 -2147483648 m s -2147483648 -2147483648 m s -2147483648 -2147483648 m s -2147483648 -2147483648
 m s -2147483648 -2147483648 m s -2147483648 -2147483648 m s -2147483648 -2147483648 m s -2147483648 -2147483648 m s -2147483648 -2147483648 m s -2147483648 -2147483648 m s -2147483648 -2147483648 m s -2147483648 -2147483648 m s -2147483648
 -2147483648 m s -2147483648 -2147483648 m s -2147483648 -2147483648 m s -2147483648 -2147483648 m s -2147483648 -2147483648 m s -2147483648 -2147483648 m s -2147483648 -2147483648 m s -2147483648 -2147483648 m s -2147483648 -2147483648 m s
 -2147483648 -2147483648 m s -2147483648 -2147483648 m s -2147483648 -2147483648 m s -2147483648 -2147483648 m s -2147483648 -2147483648 m s -2147483648 -2147483648 m s -2147483648 -2147483648 m s -2147483648 -2147483648 m s -2147483648 -2147483648 m
 s -2147483648 -2147483648 m s -2147483648 -2147483648 m s -2147483648 -2147483648 m s -2147483648 -2147483648 m s -2147483648 -2147483648 m s -2147483648 -2147483648 m s -2147483648 -2147483648 m s -2147483648 -2147483648 m s -2147483648 -2147483648
 m s -2147483648 -2147483648 m s -2147483648 -2147483648 m s -2147483648 -2147483648 m s -2147483648 -2147483648 m s -2147483648 -2147483648 m s -2147483648 -2147483648 m s -2147483648 -2147483648 m s -2147483648 -2147483648 m s -2147483648
 -2147483648 m s -2147483648 -2147483648 m s -2147483648 -2147483648 m s -2147483648 -2147483648 m s -2147483648 -2147483648 m s -2147483648 -2147483648 m s -2147483648 -2147483648 m s -2147483648 -2147483648 m s -2147483648 -2147483648 m s
 -2147483648 -2147483648 m s -2147483648 -2147483648 m s -2147483648 -2147483648 m s -2147483648 -2147483648 m s -2147483648 -2147483648 m s -2147483648 -2147483648 m s -2147483648 -2147483648 m s -2147483648 -2147483648 m s -2147483648 -2147483648 m
 s -2147483648 -2147483648 m s -2147483648 -2147483648 m s -2147483648 -2147483648 m s -2147483648 -2147483648 m s -2147483648 -2147483648 m s -2147483648 -2147483648 m s -2147483648 -2147483648 m s -2147483648 -2147483648 m s -2147483648 -2147483648
 m s -2147483648 -2147483648 m s -2147483648 -2147483648 m s -2147483648 -2147483648 m s -2147483648 -2147483648 m s -2147483648 -2147483648 m s -2147483648 -2147483648 m s -2147483648 -2147483648 m s -2147483648 -2147483648 m s -2147483648
 -2147483648 m s -2147483648 -2147483648 m s -2147483648 -2147483648 m s -2147483648 -2147483648 m s -2147483648 -2147483648 m s -2147483648 -2147483648 m s -2147483648 -2147483648 m s -2147483648 -2147483648 m s -2147483648 -2147483648 m s
 -2147483648 -2147483648 m s -2147483648 -2147483648 m s -2147483648 -2147483648 m s -2147483648 -2147483648 m s -2147483648 -2147483648 m s -2147483648 -2147483648 m s -2147483648 -2147483648 m s -2147483648 -2147483648 m s -2147483648 -2147483648 m
 s -2147483648 -2147483648 m s -2147483648 -2147483648 m s -2147483648 -2147483648 m s -2147483648 -2147483648 m s -2147483648 -2147483648 m s -2147483648 -2147483648 m s -2147483648 -2147483648 m s -2147483648 -2147483648 m s -2147483648 -2147483648
 m s -2147483648 -2147483648 m s -2147483648 -2147483648 m s -2147483648 -2147483648 m s -2147483648 -2147483648 m s -2147483648 -2147483648 m s -2147483648 -2147483648 m s -2147483648 -2147483648 m s -2147483648 -2147483648 m s -2147483648
 -2147483648 m s -2147483648 -2147483648 m s -2147483648 -2147483648 m s -2147483648 -2147483648 m s -2147483648 -2147483648 m s -2147483648 -2147483648 m s -2147483648 -2147483648 m s -2147483648 -2147483648 m s -2147483648 -2147483648 m s
 -2147483648 -2147483648 m s -2147483648 -2147483648 m s -2147483648 -2147483648 m s -2147483648 -2147483648 m s -2147483648 -2147483648 m s -2147483648 -2147483648 m s -2147483648 -2147483648 m s -2147483648 -2147483648 m s -2147483648 -2147483648 m
 s -2147483648 -2147483648 m s -2147483648 -2147483648 m s -2147483648 -2147483648 m s -2147483648 -2147483648 m s -2147483648 -2147483648 m s -2147483648 -2147483648 m s -2147483648 -2147483648 m s -2147483648 -2147483648 m s -2147483648 -2147483648
 m s -2147483648 -2147483648 m s -2147483648 -2147483648 m s -2147483648 -2147483648 m s -2147483648 -2147483648 m s -2147483648 -2147483648 m s -2147483648 -2147483648 m s -2147483648 -2147483648 m s -2147483648 -2147483648 m s -2147483648
 -2147483648 m s -2147483648 -2147483648 m s -2147483648 -2147483648 m s
 gsave  0 1538 -2147483648 0 C -nan 6.99696e+09 t 0 r /Helvetica-Bold findfont 84.7002 sf 0 0 m (0) show NC gr 
 gsave  0 1538 -2147483648 0 C -nan 6.99696e+09 t 0 r /Helvetica-Bold findfont 84.7002 sf 0 0 m (0.01) show NC gr 
 gsave  0 1538 -2147483648 0 C -nan 6.99696e+09 t 0 r /Helvetica-Bold findfont 84.7002 sf 0 0 m (0.02) show NC gr 
 gsave  0 1538 -2147483648 0 C -nan 6.99696e+09 t 0 r /Helvetica-Bold findfont 84.7002 sf 0 0 m (0.03) show NC gr 
 gsave  0 1538 -2147483648 0 C -nan 6.99696e+09 t 0 r /Helvetica-Bold findfont 84.7002 sf 0 0 m (0.04) show NC gr 
 gsave  0 1538 -2147483648 0 C -nan 6.99696e+09 t 0 r /Helvetica-Bold findfont 84.7002 sf 0 0 m (0.05) show NC gr 
 gsave  0 1538 -2147483648 0 C -nan 6.99696e+09 t 0 r /Helvetica-Bold findfont 84.7002 sf 0 0 m (0.06) show NC gr 
 gsave  0 1538 -2147483648 0 C -nan 6.99696e+09 t 0 r /Helvetica-Bold findfont 84.7002 sf 0 0 m (0.07) show NC gr 
 gsave  0 1538 -2147483648 0 C -nan 6.99696e+09 t 0 r /Helvetica-Bold findfont 84.7002 sf 0 0 m (0.08) show NC gr 
 gsave  0 1538 -2147483648 0 C -nan 6.99696e+09 t 0 r /Helvetica-Bold findfont 84.7002 sf 0 0 m (0.09) show NC gr 
 gsave  0 1538 -2147483648 0 C -nan 6.99696e+09 t 0 r /Helvetica-Bold findfont 84.7002 sf 0 0 m (0.1) show NC gr 
 gsave  0 1538 -2147483648 0 C -nan 6.99696e+09 t 0 r /Helvetica-Bold findfont 84.7002 sf 0 0 m (0.11) show NC gr 
 gsave  0 1538 -2147483648 0 C -nan 6.99696e+09 t 0 r /Helvetica-Bold findfont 84.7002 sf 0 0 m (0.12) show NC gr 
 gsave  0 1538 -2147483648 0 C -nan 6.99696e+09 t 0 r /Helvetica-Bold findfont 84.7002 sf 0 0 m (0.13) show NC gr 
 gsave  0 1538 -2147483648 0 C -nan 6.99696e+09 t 0 r /Helvetica-Bold findfont 84.7002 sf 0 0 m (0.14) show NC gr 
 gsave  0 1538 -2147483648 0 C -nan 6.99696e+09 t 0 r /Helvetica-Bold findfont 84.7002 sf 0 0 m (0.15) show NC gr 
 gsave  0 1538 -2147483648 0 C -nan 6.99696e+09 t 0 r /Helvetica-Bold findfont 84.7002 sf 0 0 m (0.16) show NC gr 
 gsave  0 1538 -2147483648 0 C -nan 6.99696e+09 t 0 r /Helvetica-Bold findfont 84.7002 sf 0 0 m (0.17) show NC gr 
 gsave  0 1538 -2147483648 0 C -nan 6.99696e+09 t 0 r /Helvetica-Bold findfont 84.7002 sf 0 0 m (0.18) show NC gr 
 gsave  0 1538 -2147483648 0 C -nan 6.99696e+09 t 0 r /Helvetica-Bold findfont 84.7002 sf 0 0 m (0.19) show NC gr 
 gsave  0 1538 -2147483648 0 C -nan 6.99696e+09 t 0 r /Helvetica-Bold findfont 84.7002 sf 0 0 m (0.2) show NC gr 
 gsave  0 1538 -2147483648 0 C -nan 6.99696e+09 t 0 r /Helvetica-Bold findfont 84.7002 sf 0 0 m (0.21) show NC gr 
 gsave  0 1538 -2147483648 0 C -nan 6.99696e+09 t 0 r /Helvetica-Bold findfont 84.7002 sf 0 0 m (0.22) show NC gr 
 gsave  0 1538 -2147483648 0 C -nan 6.99696e+09 t 0 r /Helvetica-Bold findfont 84.7002 sf 0 0 m (0.23) show NC gr 
 gsave  0 1538 -2147483648 0 C -nan 6.99696e+09 t 0 r /Helvetica-Bold findfont 84.7002 sf 0 0 m (0.24) show NC gr 
 gsave  0 1538 -2147483648 0 C -nan 6.99696e+09 t 0 r /Helvetica-Bold findfont 84.7002 sf 0 0 m (0.25) show NC gr 
 gsave  0 1538 -2147483648 0 C -nan 6.99696e+09 t 0 r /Helvetica-Bold findfont 84.7002 sf 0 0 m (0.26) show NC gr 
 gsave  0 1538 -2147483648 0 C -nan 6.99696e+09 t 0 r /Helvetica-Bold findfont 84.7002 sf 0 0 m (0.27) show NC gr 
 gsave  0 1538 -2147483648 0 C -nan 6.99696e+09 t 0 r /Helvetica-Bold findfont 84.7002 sf 0 0 m (0.28) show NC gr 
 gsave  0 1538 -2147483648 0 C -nan 6.99696e+09 t 0 r /Helvetica-Bold findfont 84.7002 sf 0 0 m (0.29) show NC gr 
 gsave  0 1538 -2147483648 0 C -nan 6.99696e+09 t 0 r /Helvetica-Bold findfont 84.7002 sf 0 0 m (0.3) show NC gr 
 gsave  0 1538 -2147483648 0 C -nan 6.99696e+09 t 0 r /Helvetica-Bold findfont 84.7002 sf 0 0 m (0.31) show NC gr 
 gsave  0 1538 -2147483648 0 C -nan 6.99696e+09 t 0 r /Helvetica-Bold findfont 84.7002 sf 0 0 m (0.32) show NC gr 
 gsave  0 1538 -2147483648 0 C -nan 6.99696e+09 t 0 r /Helvetica-Bold findfont 84.7002 sf 0 0 m (0.33) show NC gr 
 gsave  0 1538 -2147483648 0 C -nan 6.99696e+09 t 0 r /Helvetica-Bold findfont 84.7002 sf 0 0 m (0.34) show NC gr 
 gsave  0 1538 -2147483648 0 C -nan 6.99696e+09 t 0 r /Helvetica-Bold findfont 84.7002 sf 0 0 m (0.35) show NC gr 
 gsave  0 1538 -2147483648 0 C -nan 6.99696e+09 t 0 r /Helvetica-Bold findfont 84.7002 sf 0 0 m (0.36) show NC gr 
 gsave  0 1538 -2147483648 0 C -nan 6.99696e+09 t 0 r /Helvetica-Bold findfont 84.7002 sf 0 0 m (0.37) show NC gr 
 gsave  0 1538 -2147483648 0 C -nan 6.99696e+09 t 0 r /Helvetica-Bold findfont 84.7002 sf 0 0 m (0.38) show NC gr 
 gsave  0 1538 -2147483648 0 C -nan 6.99696e+09 t 0 r /Helvetica-Bold findfont 84.7002 sf 0 0 m (0.39) show NC gr 
 gsave  0 1538 -2147483648 0 C -nan 6.99696e+09 t 0 r /Helvetica-Bold findfont 84.7002 sf 0 0 m (0.4) show NC gr 
 gsave  0 1538 -2147483648 0 C -nan 6.99696e+09 t 0 r /Helvetica-Bold findfont 84.7002 sf 0 0 m (0.41) show NC gr 
 gsave  0 1538 -2147483648 0 C -nan 6.99696e+09 t 0 r /Helvetica-Bold findfont 84.7002 sf 0 0 m (0.42) show NC gr 
 gsave  0 1538 -2147483648 0 C -nan 6.99696e+09 t 0 r /Helvetica-Bold findfont 84.7002 sf 0 0 m (0.43) show NC gr 
 gsave  0 1538 -2147483648 0 C -nan 6.99696e+09 t 0 r /Helvetica-Bold findfont 84.7002 sf 0 0 m (0.44) show NC gr 
 gsave  0 1538 -2147483648 0 C -nan 6.99696e+09 t 0 r /Helvetica-Bold findfont 84.7002 sf 0 0 m (0.45) show NC gr 
 gsave  0 1538 -2147483648 0 C -nan 6.99696e+09 t 0 r /Helvetica-Bold findfont 84.7002 sf 0 0 m (0.46) show NC gr 
 gsave  0 1538 -2147483648 0 C -nan 6.99696e+09 t 0 r /Helvetica-Bold findfont 84.7002 sf 0 0 m (0.47) show NC gr 
 gsave  0 1538 -2147483648 0 C -nan 6.99696e+09 t 0 r /Helvetica-Bold findfont 84.7002 sf 0 0 m (0.48) show NC gr 
 gsave  0 1538 -2147483648 0 C -nan 6.99696e+09 t 0 r /Helvetica-Bold findfont 84.7002 sf 0 0 m (0.49) show NC gr 
 gsave  0 1538 -2147483648 0 C -nan 6.99696e+09 t 0 r /Helvetica-Bold findfont 84.7002 sf 0 0 m (0.5) show NC gr 
 gsave  0 1538 -2147483648 0 C -nan 6.99696e+09 t 0 r /Helvetica-Bold findfont 84.7002 sf 0 0 m (0.51) show NC gr 
 gsave  0 1538 -2147483648 0 C -nan 6.99696e+09 t 0 r /Helvetica-Bold findfont 84.7002 sf 0 0 m (0.52) show NC gr 
 gsave  0 1538 -2147483648 0 C -nan 6.99696e+09 t 0 r /Helvetica-Bold findfont 84.7002 sf 0 0 m (0.53) show NC gr 
 gsave  0 1538 -2147483648 0 C -nan 6.99696e+09 t 0 r /Helvetica-Bold findfont 84.7002 sf 0 0 m (0.54) show NC gr 
 gsave  0 1538 -2147483648 0 C -nan 6.99696e+09 t 0 r /Helvetica-Bold findfont 84.7002 sf 0 0 m (0.55) show NC gr 
 gsave  0 1538 -2147483648 0 C -nan 6.99696e+09 t 0 r /Helvetica-Bold findfont 84.7002 sf 0 0 m (0.56) show NC gr 
 gsave  0 1538 -2147483648 0 C -nan 6.99696e+09 t 0 r /Helvetica-Bold findfont 84.7002 sf 0 0 m (0.57) show NC gr 
 gsave  0 1538 -2147483648 0 C -nan 6.99696e+09 t 0 r /Helvetica-Bold findfont 84.7002 sf 0 0 m (0.58) show NC gr 
 gsave  0 1538 -2147483648 0 C -nan 6.99696e+09 t 0 r /Helvetica-Bold findfont 84.7002 sf 0 0 m (0.59) show NC gr 
 gsave  0 1538 -2147483648 0 C -nan 6.99696e+09 t 0 r /Helvetica-Bold findfont 84.7002 sf 0 0 m (0.6) show NC gr 
 gsave  0 1538 -2147483648 0 C -nan 6.99696e+09 t 0 r /Helvetica-Bold findfont 84.7002 sf 0 0 m (0.61) show NC gr 
 gsave  0 1538 -2147483648 0 C -nan 6.99696e+09 t 0 r /Helvetica-Bold findfont 84.7002 sf 0 0 m (0.62) show NC gr 
 gsave  0 1538 -2147483648 0 C -nan 6.99696e+09 t 0 r /Helvetica-Bold findfont 84.7002 sf 0 0 m (0.63) show NC gr 
 gsave  0 1538 -2147483648 0 C -nan 6.99696e+09 t 0 r /Helvetica-Bold findfont 84.7002 sf 0 0 m (0.64) show NC gr 
 gsave  0 1538 -2147483648 0 C -nan 6.99696e+09 t 0 r /Helvetica-Bold findfont 84.7002 sf 0 0 m (0.65) show NC gr 
 gsave  0 1538 -2147483648 0 C -nan 6.99696e+09 t 0 r /Helvetica-Bold findfont 84.7002 sf 0 0 m (0.66) show NC gr 
 gsave  0 1538 -2147483648 0 C -nan 6.99696e+09 t 0 r /Helvetica-Bold findfont 84.7002 sf 0 0 m (0.67) show NC gr 
 gsave  0 1538 -2147483648 0 C -nan 6.99696e+09 t 0 r /Helvetica-Bold findfont 84.7002 sf 0 0 m (0.68) show NC gr 
 gsave  0 1538 -2147483648 0 C -nan 6.99696e+09 t 0 r /Helvetica-Bold findfont 84.7002 sf 0 0 m (0.69) show NC gr 
 gsave  0 1538 -2147483648 0 C -nan 6.99696e+09 t 0 r /Helvetica-Bold findfont 84.7002 sf 0 0 m (0.7) show NC gr 
 gsave  0 1538 -2147483648 0 C -nan 6.99696e+09 t 0 r /Helvetica-Bold findfont 84.7002 sf 0 0 m (0.71) show NC gr 
 gsave  0 1538 -2147483648 0 C -nan 6.99696e+09 t 0 r /Helvetica-Bold findfont 84.7002 sf 0 0 m (0.72) show NC gr 
 gsave  0 1538 -2147483648 0 C -nan 6.99696e+09 t 0 r /Helvetica-Bold findfont 84.7002 sf 0 0 m (0.73) show NC gr 
 gsave  0 1538 -2147483648 0 C -nan 6.99696e+09 t 0 r /Helvetica-Bold findfont 84.7002 sf 0 0 m (0.74) show NC gr 
 gsave  0 1538 -2147483648 0 C -nan 6.99696e+09 t 0 r /Helvetica-Bold findfont 84.7002 sf 0 0 m (0.75) show NC gr 
 gsave  0 1538 -2147483648 0 C -nan 6.99696e+09 t 0 r /Helvetica-Bold findfont 84.7002 sf 0 0 m (0.76) show NC gr 
 gsave  0 1538 -2147483648 0 C -nan 6.99696e+09 t 0 r /Helvetica-Bold findfont 84.7002 sf 0 0 m (0.77) show NC gr 
 gsave  0 1538 -2147483648 0 C -nan 6.99696e+09 t 0 r /Helvetica-Bold findfont 84.7002 sf 0 0 m (0.78) show NC gr 
 gsave  0 1538 -2147483648 0 C -nan 6.99696e+09 t 0 r /Helvetica-Bold findfont 84.7002 sf 0 0 m (0.79) show NC gr 
 gsave  0 1538 -2147483648 0 C -nan 6.99696e+09 t 0 r /Helvetica-Bold findfont 84.7002 sf 0 0 m (0.8) show NC gr 
 gsave  0 1538 -2147483648 0 C -nan 6.99696e+09 t 0 r /Helvetica-Bold findfont 84.7002 sf 0 0 m (0.81) show NC gr 
 gsave  0 1538 -2147483648 0 C -nan 6.99696e+09 t 0 r /Helvetica-Bold findfont 84.7002 sf 0 0 m (0.82) show NC gr 
 gsave  0 1538 -2147483648 0 C -nan 6.99696e+09 t 0 r /Helvetica-Bold findfont 84.7002 sf 0 0 m (0.83) show NC gr 
 gsave  0 1538 -2147483648 0 C -nan 6.99696e+09 t 0 r /Helvetica-Bold findfont 84.7002 sf 0 0 m (0.84) show NC gr 
 gsave  0 1538 -2147483648 0 C -nan 6.99696e+09 t 0 r /Helvetica-Bold findfont 84.7002 sf 0 0 m (0.85) show NC gr 
 gsave  0 1538 -2147483648 0 C -nan 6.99696e+09 t 0 r /Helvetica-Bold findfont 84.7002 sf 0 0 m (0.86) show NC gr 
 gsave  0 1538 -2147483648 0 C -nan 6.99696e+09 t 0 r /Helvetica-Bold findfont 84.7002 sf 0 0 m (0.87) show NC gr 
 gsave  0 1538 -2147483648 0 C -nan 6.99696e+09 t 0 r /Helvetica-Bold findfont 84.7002 sf 0 0 m (0.88) show NC gr 
 gsave  0 1538 -2147483648 0 C -nan 6.99696e+09 t 0 r /Helvetica-Bold findfont 84.7002 sf 0 0 m (0.89) show NC gr 
 gsave  0 1538 -2147483648 0 C -nan 6.99696e+09 t 0 r /Helvetica-Bold findfont 84.7002 sf 0 0 m (0.9) show NC gr 
 gsave  0 1538 -2147483648 0 C -nan 6.99696e+09 t 0 r /Helvetica-Bold findfont 84.7002 sf 0 0 m (0.91) show NC gr 
 gsave  0 1538 -2147483648 0 C -nan 6.99696e+09 t 0 r /Helvetica-Bold findfont 84.7002 sf 0 0 m (0.92) show NC gr 
 gsave  0 1538 -2147483648 0 C -nan 6.99696e+09 t 0 r /Helvetica-Bold findfont 84.7002 sf 0 0 m (0.93) show NC gr 
 gsave  0 1538 -2147483648 0 C -nan 6.99696e+09 t 0 r /Helvetica-Bold findfont 84.7002 sf 0 0 m (0.94) show NC gr 
 gsave  0 1538 -2147483648 0 C -nan 6.99696e+09 t 0 r /Helvetica-Bold findfont 84.7002 sf 0 0 m (0.95) show NC gr 
 gsave  0 1538 -2147483648 0 C -nan 6.99696e+09 t 0 r /Helvetica-Bold findfont 84.7002 sf 0 0 m (0.96) show NC gr 
 gsave  0 1538 -2147483648 0 C -nan 6.99696e+09 t 0 r /Helvetica-Bold findfont 84.7002 sf 0 0 m (0.97) show NC gr 
 gsave  0 1538 -2147483648 0 C -nan 6.99696e+09 t 0 r /Helvetica-Bold findfont 84.7002 sf 0 0 m (0.98) show NC gr 
 gsave  0 1538 -2147483648 0 C -nan 6.99696e+09 t 0 r /Helvetica-Bold findfont 84.7002 sf 0 0 m (0.99) show NC gr 
 gsave  0 1538 -2147483648 0 C -nan 6.99696e+09 t 0 r /Helvetica-Bold findfont 84.7002 sf 0 0 m (1) show NC gr  -2147483648 1384 m s -2147483648 -2147483648 m s -2147483648 -2147483648 m s -2147483648 -2147483648 m s -2147483648 -2147483648 m s
 -2147483648 -2147483648 m s -2147483648 -2147483648 m s -2147483648 -2147483648 m s -2147483648 -2147483648 m s -2147483648 -2147483648 m s -2147483648 -2147483648 m s -2147483648 -2147483648 m s -2147483648 -2147483648 m s -2147483648 -2147483648 m
 s -2147483648 -2147483648 m s -2147483648 -2147483648 m s -2147483648 -2147483648 m s -2147483648 -2147483648 m s -2147483648 -2147483648 m s -2147483648 -2147483648 m s -2147483648 -2147483648 m s -2147483648 -2147483648 m s -2147483648 -2147483648
 m s -2147483648 -2147483648 m s -2147483648 -2147483648 m s -2147483648 -2147483648 m s -2147483648 -2147483648 m s -2147483648 -2147483648 m s -2147483648 -2147483648 m s -2147483648 -2147483648 m s -2147483648 -2147483648 m s -2147483648
 -2147483648 m s -2147483648 -2147483648 m s -2147483648 -2147483648 m s -2147483648 -2147483648 m s -2147483648 -2147483648 m s -2147483648 -2147483648 m s -2147483648 -2147483648 m s -2147483648 -2147483648 m s -2147483648 -2147483648 m s
 -2147483648 -2147483648 m s -2147483648 -2147483648 m s -2147483648 -2147483648 m s -2147483648 -2147483648 m s -2147483648 -2147483648 m s -2147483648 -2147483648 m s -2147483648 -2147483648 m s -2147483648 -2147483648 m s -2147483648 -2147483648 m
 s -2147483648 -2147483648 m s -2147483648 -2147483648 m s -2147483648 -2147483648 m s -2147483648 -2147483648 m s -2147483648 -2147483648 m s -2147483648 -2147483648 m s -2147483648 -2147483648 m s -2147483648 -2147483648 m s -2147483648 -2147483648
 m s -2147483648 -2147483648 m s -2147483648 -2147483648 m s -2147483648 -2147483648 m s -2147483648 -2147483648 m s -2147483648 -2147483648 m s -2147483648 -2147483648 m s -2147483648 -2147483648 m s -2147483648 -2147483648 m s -2147483648
 -2147483648 m s -2147483648 -2147483648 m s -2147483648 -2147483648 m s -2147483648 -2147483648 m s -2147483648 -2147483648 m s -2147483648 -2147483648 m s -2147483648 -2147483648 m s -2147483648 -2147483648 m s -2147483648 -2147483648 m s
 -2147483648 -2147483648 m s -2147483648 -2147483648 m s -2147483648 -2147483648 m s -2147483648 -2147483648 m s -2147483648 -2147483648 m s -2147483648 -2147483648 m s -2147483648 -2147483648 m s -2147483648 -2147483648 m s -2147483648 -2147483648 m
 s -2147483648 -2147483648 m s -2147483648 -2147483648 m s -2147483648 -2147483648 m s -2147483648 -2147483648 m s -2147483648 -2147483648 m s -2147483648 -2147483648 m s -2147483648 -2147483648 m s -2147483648 -2147483648 m s -2147483648 -2147483648
 m s -2147483648 -2147483648 m s -2147483648 -2147483648 m s -2147483648 -2147483648 m s -2147483648 -2147483648 m s -2147483648 -2147483648 m s -2147483648 -2147483648 m s -2147483648 -2147483648 m s -2147483648 -2147483648 m s -2147483648
 -2147483648 m s -2147483648 -2147483648 m s -2147483648 -2147483648 m s -2147483648 -2147483648 m s -2147483648 -2147483648 m s -2147483648 -2147483648 m s -2147483648 -2147483648 m s -2147483648 -2147483648 m s -2147483648 -2147483648 m s
 -2147483648 -2147483648 m s -2147483648 -2147483648 m s -2147483648 -2147483648 m s -2147483648 -2147483648 m s -2147483648 -2147483648 m s -2147483648 -2147483648 m s -2147483648 -2147483648 m s -2147483648 -2147483648 m s -2147483648 -2147483648 m
 s -2147483648 -2147483648 m s -2147483648 -2147483648 m s -2147483648 -2147483648 m s -2147483648 -2147483648 m s -2147483648 -2147483648 m s -2147483648 -2147483648 m s -2147483648 -2147483648 m s -2147483648 -2147483648 m s -2147483648 -2147483648
 m s -2147483648 -2147483648 m s -2147483648 -2147483648 m s -2147483648 -2147483648 m s -2147483648 -2147483648 m s -2147483648 -2147483648 m s -2147483648 -2147483648 m s -2147483648 -2147483648 m s -2147483648 -2147483648 m s -2147483648
 -2147483648 m s -2147483648 -2147483648 m s -2147483648 -2147483648 m s -2147483648 -2147483648 m s -2147483648 -2147483648 m s -2147483648 -2147483648 m s -2147483648 -2147483648 m s -2147483648 -2147483648 m s -2147483648 -2147483648 m s
 -2147483648 -2147483648 m s -2147483648 -2147483648 m s -2147483648 -2147483648 m s -2147483648 -2147483648 m s -2147483648 -2147483648 m s -2147483648 -2147483648 m s -2147483648 -2147483648 m s -2147483648 -2147483648 m s -2147483648 -2147483648 m
 s -2147483648 -2147483648 m s -2147483648 -2147483648 m s -2147483648 -2147483648 m s -2147483648 -2147483648 m s -2147483648 -2147483648 m s -2147483648 -2147483648 m s -2147483648 -2147483648 m s -2147483648 -2147483648 m s -2147483648 -2147483648
 m s -2147483648 -2147483648 m s -2147483648 -2147483648 m s -2147483648 -2147483648 m s -2147483648 -2147483648 m s -2147483648 -2147483648 m s -2147483648 -2147483648 m s -2147483648 -2147483648 m s -2147483648 -2147483648 m s -2147483648
 -2147483648 m s -2147483648 -2147483648 m s -2147483648 -2147483648 m s -2147483648 -2147483648 m s -2147483648 -2147483648 m s -2147483648 -2147483648 m s -2147483648 -2147483648 m s -2147483648 -2147483648 m s -2147483648 -2147483648 m s
 -2147483648 -2147483648 m s -2147483648 -2147483648 m s -2147483648 -2147483648 m s -2147483648 -2147483648 m s -2147483648 -2147483648 m s -2147483648 -2147483648 m s -2147483648 -2147483648 m s -2147483648 -2147483648 m s -2147483648 -2147483648 m
 s -2147483648 -2147483648 m s -2147483648 -2147483648 m s -2147483648 -2147483648 m s -2147483648 -2147483648 m s -2147483648 -2147483648 m s -2147483648 -2147483648 m s -2147483648 -2147483648 m s -2147483648 -2147483648 m s -2147483648 -2147483648
 m s -2147483648 -2147483648 m s -2147483648 -2147483648 m s -2147483648 -2147483648 m s -2147483648 -2147483648 m s -2147483648 -2147483648 m s -2147483648 -2147483648 m s -2147483648 -2147483648 m s -2147483648 -2147483648 m s -2147483648
 -2147483648 m s -2147483648 -2147483648 m s -2147483648 -2147483648 m s -2147483648 -2147483648 m s -2147483648 -2147483648 m s -2147483648 -2147483648 m s -2147483648 -2147483648 m s -2147483648 -2147483648 m s -2147483648 -2147483648 m s
 -2147483648 -2147483648 m s -2147483648 -2147483648 m s -2147483648 -2147483648 m s -2147483648 -2147483648 m s -2147483648 -2147483648 m s -2147483648 -2147483648 m s -2147483648 -2147483648 m s -2147483648 -2147483648 m s -2147483648 -2147483648 m
 s -2147483648 -2147483648 m s -2147483648 -2147483648 m s -2147483648 -2147483648 m s -2147483648 -2147483648 m s -2147483648 -2147483648 m s -2147483648 -2147483648 m s -2147483648 -2147483648 m s -2147483648 -2147483648 m s -2147483648 -2147483648
 m s -2147483648 -2147483648 m s -2147483648 -2147483648 m s -2147483648 -2147483648 m s -2147483648 -2147483648 m s -2147483648 -2147483648 m s -2147483648 -2147483648 m s -2147483648 -2147483648 m s -2147483648 -2147483648 m s -2147483648
 -2147483648 m s -2147483648 -2147483648 m s -2147483648 -2147483648 m s -2147483648 -2147483648 m s -2147483648 -2147483648 m s -2147483648 -2147483648 m s -2147483648 -2147483648 m s -2147483648 -2147483648 m s -2147483648 -2147483648 m s
 -2147483648 -2147483648 m s -2147483648 -2147483648 m s -2147483648 -2147483648 m s -2147483648 -2147483648 m s -2147483648 -2147483648 m s -2147483648 -2147483648 m s -2147483648 -2147483648 m s -2147483648 -2147483648 m s -2147483648 -2147483648 m
 s -2147483648 -2147483648 m s -2147483648 -2147483648 m s -2147483648 -2147483648 m s -2147483648 -2147483648 m s -2147483648 -2147483648 m s -2147483648 -2147483648 m s -2147483648 -2147483648 m s -2147483648 -2147483648 m s -2147483648 -2147483648
 m s -2147483648 -2147483648 m s -2147483648 -2147483648 m s -2147483648 -2147483648 m s -2147483648 -2147483648 m s -2147483648 -2147483648 m s -2147483648 -2147483648 m s -2147483648 -2147483648 m s -2147483648 -2147483648 m s -2147483648
 -2147483648 m s -2147483648 -2147483648 m s -2147483648 -2147483648 m s -2147483648 -2147483648 m s -2147483648 -2147483648 m s -2147483648 -2147483648 m s -2147483648 -2147483648 m s -2147483648 -2147483648 m s -2147483648 -2147483648 m s
 -2147483648 -2147483648 m s -2147483648 -2147483648 m s -2147483648 -2147483648 m s -2147483648 -2147483648 m s -2147483648 -2147483648 m s -2147483648 -2147483648 m s -2147483648 -2147483648 m s -2147483648 -2147483648 m s -2147483648 -2147483648 m
 s -2147483648 -2147483648 m s -2147483648 -2147483648 m s -2147483648 -2147483648 m s -2147483648 -2147483648 m s -2147483648 -2147483648 m s -2147483648 -2147483648 m s -2147483648 -2147483648 m s -2147483648 -2147483648 m s -2147483648 -2147483648
 m s -2147483648 -2147483648 m s -2147483648 -2147483648 m s -2147483648 -2147483648 m s -2147483648 -2147483648 m s -2147483648 -2147483648 m s -2147483648 -2147483648 m s -2147483648 -2147483648 m s -2147483648 -2147483648 m s -2147483648
 -2147483648 m s -2147483648 -2147483648 m s -2147483648 -2147483648 m s -2147483648 -2147483648 m s -2147483648 -2147483648 m s -2147483648 -2147483648 m s -2147483648 -2147483648 m s -2147483648 -2147483648 m s -2147483648 -2147483648 m s
 -2147483648 -2147483648 m s -2147483648 -2147483648 m s -2147483648 -2147483648 m s -2147483648 -2147483648 m s -2147483648 -2147483648 m s -2147483648 -2147483648 m s -2147483648 -2147483648 m s -2147483648 -2147483648 m s -2147483648 -2147483648 m
 s -2147483648 -2147483648 m s -2147483648 -2147483648 m s -2147483648 -2147483648 m s -2147483648 -2147483648 m s -2147483648 -2147483648 m s -2147483648 -2147483648 m s -2147483648 -2147483648 m s -2147483648 -2147483648 m s -2147483648 -2147483648
 m s -2147483648 -2147483648 m s -2147483648 -2147483648 m s -2147483648 -2147483648 m s -2147483648 -2147483648 m s -2147483648 -2147483648 m s -2147483648 -2147483648 m s -2147483648 -2147483648 m s -2147483648 -2147483648 m s -2147483648
 -2147483648 m s -2147483648 -2147483648 m s -2147483648 -2147483648 m s -2147483648 -2147483648 m s -2147483648 -2147483648 m s -2147483648 -2147483648 m s -2147483648 -2147483648 m s -2147483648 -2147483648 m s -2147483648 -2147483648 m s
 -2147483648 -2147483648 m s -2147483648 -2147483648 m s -2147483648 -2147483648 m s -2147483648 -2147483648 m s -2147483648 -2147483648 m s -2147483648 -2147483648 m s -2147483648 -2147483648 m s -2147483648 -2147483648 m s -2147483648 -2147483648 m
 s -2147483648 -2147483648 m s -2147483648 -2147483648 m s -2147483648 -2147483648 m s -2147483648 -2147483648 m s -2147483648 -2147483648 m s -2147483648 -2147483648 m s -2147483648 -2147483648 m s -2147483648 -2147483648 m s -2147483648 -2147483648
 m s -2147483648 -2147483648 m s -2147483648 -2147483648 m s -2147483648 -2147483648 m s -2147483648 -2147483648 m s -2147483648 -2147483648 m s -2147483648 -2147483648 m s -2147483648 -2147483648 m s -2147483648 -2147483648 m s -2147483648
 -2147483648 m s -2147483648 -2147483648 m s -2147483648 -2147483648 m s -2147483648 -2147483648 m s -2147483648 -2147483648 m s -2147483648 -2147483648 m s -2147483648 -2147483648 m s -2147483648 -2147483648 m s -2147483648 -2147483648 m s
 -2147483648 -2147483648 m s -2147483648 -2147483648 m s -2147483648 -2147483648 m s -2147483648 -2147483648 m s -2147483648 -2147483648 m s -2147483648 -2147483648 m s -2147483648 -2147483648 m s -2147483648 -2147483648 m s -2147483648 -2147483648 m
 s -2147483648 -2147483648 m s -2147483648 -2147483648 m s -2147483648 -2147483648 m s -2147483648 -2147483648 m s -2147483648 -2147483648 m s -2147483648 -2147483648 m s -2147483648 -2147483648 m s -2147483648 -2147483648 m s -2147483648 -2147483648
 m s -2147483648 -2147483648 m s -2147483648 -2147483648 m s -2147483648 -2147483648 m s -2147483648 -2147483648 m s -2147483648 -2147483648 m s -2147483648 -2147483648 m s -2147483648 -2147483648 m s -2147483648 -2147483648 m s -2147483648
 -2147483648 m s -2147483648 -2147483648 m s -2147483648 -2147483648 m s -2147483648 -2147483648 m s -2147483648 -2147483648 m s -2147483648 -2147483648 m s -2147483648 -2147483648 m s -2147483648 -2147483648 m s -2147483648 -2147483648 m s
 -2147483648 -2147483648 m s -2147483648 -2147483648 m s -2147483648 -2147483648 m s -2147483648 -2147483648 m s -2147483648 -2147483648 m s -2147483648 -2147483648 m s -2147483648 -2147483648 m s -2147483648 -2147483648 m s -2147483648 -2147483648 m
 s -2147483648 -2147483648 m s -2147483648 -2147483648 m s -2147483648 -2147483648 m s -2147483648 -2147483648 m s -2147483648 -2147483648 m s -2147483648 -2147483648 m s -2147483648 -2147483648 m s -2147483648 -2147483648 m s -2147483648 -2147483648
 m s -2147483648 -2147483648 m s -2147483648 -2147483648 m s -2147483648 -2147483648 m s -2147483648 -2147483648 m s -2147483648 -2147483648 m s -2147483648 -2147483648 m s -2147483648 -2147483648 m s -2147483648 -2147483648 m s -2147483648
 -2147483648 m s -2147483648 -2147483648 m s -2147483648 -2147483648 m s -2147483648 -2147483648 m s -2147483648 -2147483648 m s -2147483648 -2147483648 m s -2147483648 -2147483648 m s -2147483648 -2147483648 m s -2147483648 -2147483648 m s
 -2147483648 -2147483648 m s -2147483648 -2147483648 m s -2147483648 -2147483648 m s -2147483648 -2147483648 m s -2147483648 -2147483648 m s -2147483648 -2147483648 m s -2147483648 -2147483648 m s -2147483648 -2147483648 m s -2147483648 -2147483648 m
 s -2147483648 -2147483648 m s -2147483648 -2147483648 m s -2147483648 -2147483648 m s -2147483648 -2147483648 m s -2147483648 -2147483648 m s -2147483648 -2147483648 m s -2147483648 -2147483648 m s -2147483648 -2147483648 m s -2147483648 -2147483648
 m s -2147483648 -2147483648 m s -2147483648 -2147483648 m s -2147483648 -2147483648 m s -2147483648 -2147483648 m s -2147483648 -2147483648 m s -2147483648 -2147483648 m s -2147483648 -2147483648 m s -2147483648 -2147483648 m s -2147483648
 -2147483648 m s -2147483648 -2147483648 m s -2147483648 -2147483648 m s -2147483648 -2147483648 m s -2147483648 -2147483648 m s -2147483648 -2147483648 m s -2147483648 -2147483648 m s -2147483648 -2147483648 m s -2147483648 -2147483648 m s
 -2147483648 -2147483648 m s -2147483648 -2147483648 m s -2147483648 -2147483648 m s -2147483648 -2147483648 m s -2147483648 -2147483648 m s -2147483648 -2147483648 m s -2147483648 -2147483648 m s -2147483648 154 m 1230 Y s -2147483648 -2147483648 m
 s -2147483648 -2147483648 m s -2147483648 -2147483648 m s -2147483648 -2147483648 m s -2147483648 -2147483648 m s -2147483648 -2147483648 m s -2147483648 -2147483648 m s -2147483648 -2147483648 m s -2147483648 -2147483648 m s -2147483648 -2147483648
 m s -2147483648 -2147483648 m s -2147483648 -2147483648 m s -2147483648 -2147483648 m s -2147483648 -2147483648 m s -2147483648 -2147483648 m s -2147483648 -2147483648 m s -2147483648 -2147483648 m s -2147483648 -2147483648 m s -2147483648
 -2147483648 m s -2147483648 -2147483648 m s -2147483648 -2147483648 m s -2147483648 -2147483648 m s -2147483648 -2147483648 m s -2147483648 -2147483648 m s -2147483648 -2147483648 m s -2147483648 -2147483648 m s -2147483648 -2147483648 m s
 -2147483648 -2147483648 m s -2147483648 -2147483648 m s -2147483648 -2147483648 m s -2147483648 -2147483648 m s -2147483648 -2147483648 m s -2147483648 -2147483648 m s -2147483648 -2147483648 m s -2147483648 -2147483648 m s -2147483648 -2147483648 m
 s -2147483648 -2147483648 m s -2147483648 -2147483648 m s -2147483648 -2147483648 m s -2147483648 -2147483648 m s -2147483648 -2147483648 m s -2147483648 -2147483648 m s -2147483648 -2147483648 m s -2147483648 -2147483648 m s -2147483648 -2147483648
 m s -2147483648 -2147483648 m s -2147483648 -2147483648 m s -2147483648 -2147483648 m s -2147483648 -2147483648 m s -2147483648 -2147483648 m s -2147483648 -2147483648 m s
 gsave  0 1538 -2147483648 0 C -nan 6.99696e+09 t 0 r /Helvetica-Bold findfont 84.7002 sf 0 0 m (0) show NC gr 
 gsave  0 1538 -2147483648 0 C -nan 6.99696e+09 t 0 r /Helvetica-Bold findfont 84.7002 sf 0 0 m (0.1) show NC gr 
 gsave  0 1538 -2147483648 0 C -nan 6.99696e+09 t 0 r /Helvetica-Bold findfont 84.7002 sf 0 0 m (0.2) show NC gr 
 gsave  0 1538 -2147483648 0 C -nan 6.99696e+09 t 0 r /Helvetica-Bold findfont 84.7002 sf 0 0 m (0.3) show NC gr 
 gsave  0 1538 -2147483648 0 C -nan 6.99696e+09 t 0 r /Helvetica-Bold findfont 84.7002 sf 0 0 m (0.4) show NC gr 
 gsave  0 1538 -2147483648 0 C -nan 6.99696e+09 t 0 r /Helvetica-Bold findfont 84.7002 sf 0 0 m (0.5) show NC gr 
 gsave  0 1538 -2147483648 0 C -nan 6.99696e+09 t 0 r /Helvetica-Bold findfont 84.7002 sf 0 0 m (0.6) show NC gr 
 gsave  0 1538 -2147483648 0 C -nan 6.99696e+09 t 0 r /Helvetica-Bold findfont 84.7002 sf 0 0 m (0.7) show NC gr 
 gsave  0 1538 -2147483648 0 C -nan 6.99696e+09 t 0 r /Helvetica-Bold findfont 84.7002 sf 0 0 m (0.8) show NC gr 
 gsave  0 1538 -2147483648 0 C -nan 6.99696e+09 t 0 r /Helvetica-Bold findfont 84.7002 sf 0 0 m (0.9) show NC gr 
 gsave  0 1538 -2147483648 0 C -nan 6.99696e+09 t 0 r /Helvetica-Bold findfont 84.7002 sf 0 0 m (1) show NC gr  -2147483648 154 m 1230 Y s -2147483648 -2147483648 m s -2147483648 -2147483648 m s -2147483648 -2147483648 m s -2147483648 -2147483648 m s
 -2147483648 -2147483648 m s -2147483648 -2147483648 m s -2147483648 -2147483648 m s -2147483648 -2147483648 m s -2147483648 -2147483648 m s -2147483648 -2147483648 m s -2147483648 -2147483648 m s -2147483648 -2147483648 m s -2147483648 -2147483648 m
 s -2147483648 -2147483648 m s -2147483648 -2147483648 m s -2147483648 -2147483648 m s -2147483648 -2147483648 m s -2147483648 -2147483648 m s -2147483648 -2147483648 m s -2147483648 -2147483648 m s -2147483648 -2147483648 m s -2147483648 -2147483648
 m s -2147483648 -2147483648 m s -2147483648 -2147483648 m s -2147483648 -2147483648 m s -2147483648 -2147483648 m s -2147483648 -2147483648 m s -2147483648 -2147483648 m s -2147483648 -2147483648 m s -2147483648 -2147483648 m s -2147483648
 -2147483648 m s -2147483648 -2147483648 m s -2147483648 -2147483648 m s -2147483648 -2147483648 m s -2147483648 -2147483648 m s -2147483648 -2147483648 m s -2147483648 -2147483648 m s -2147483648 -2147483648 m s -2147483648 -2147483648 m s
 -2147483648 -2147483648 m s -2147483648 -2147483648 m s -2147483648 -2147483648 m s -2147483648 -2147483648 m s -2147483648 -2147483648 m s -2147483648 -2147483648 m s -2147483648 -2147483648 m s -2147483648 -2147483648 m s -2147483648 -2147483648 m
 s -2147483648 -2147483648 m s -2147483648 -2147483648 m s -2147483648 -2147483648 m s 1 1 1 c black -2147483648 154 m s
 gsave  0 1538 -2147483648 0 C -nan 948.14 t 0 r /Helvetica-Bold findfont 84.7002 sf 0 0 m (Pixel Occupancies) show NC gr  -2147483648 1192 m s
 gr  gr showpage
end
%%EOF
