%!PS-Adobe-2.0 EPSF-2.0
%%BoundingBox:  0 0 567 384
%%Title: d3pdDirr/pixel_occupancy/flu_pixlayer_mg.eps: c1_n8
%%Creator: ROOT Version 6.04/12
%%CreationDate: Tue Apr 26 00:12:42 2016
%%DocumentNeededResources: ProcSet (FontSetInit)
%%EndComments
%%BeginProlog
80 dict begin
/s {stroke} def /l {lineto} def /m {moveto} def /t {translate} def
/r {rotate} def /rl {roll}  def /R {repeat} def
/d {rlineto} def /rm {rmoveto} def /gr {grestore} def /f {eofill} def
/c {setrgbcolor} def /black {0 setgray} def /sd {setdash} def
/cl {closepath} def /sf {scalefont setfont} def /lw {setlinewidth} def
/box {m dup 0 exch d exch 0 d 0 exch neg d cl} def
/NC{systemdict begin initclip end}def/C{NC box clip newpath}def
/bl {box s} def /bf {gsave box gsave f grestore 1 lw [] 0 sd s grestore} def /Y { 0 exch d} def /X { 0 d} def 
/K {{pop pop 0 moveto} exch kshow} bind def
/ita {/ang 15 def gsave [1 0 ang dup sin exch cos div 1 0 0] concat} def 
/mp {newpath /y exch def /x exch def} def
/side {[w .77 mul w .23 mul] .385 w mul sd w 0 l currentpoint t -144 r} def
/mr {mp x y w2 0 360 arc} def /m24 {mr s} def /m20 {mr f} def
/mb {mp x y w2 add m w2 neg 0 d 0 w neg d w 0 d 0 w d cl} def
/mt {mp x y w2 add m w2 neg w neg d w 0 d cl} def
/m21 {mb f} def /m25 {mb s} def /m22 {mt f} def /m26{mt s} def
/m23 {mp x y w2 sub m w2 w d w neg 0 d cl f} def
/m27 {mp x y w2 add m w3 neg w2 neg d w3 w2 neg d w3 w2 d cl s} def
/m28 {mp x w2 sub y w2 sub w3 add m w3 0 d  0 w3 neg d w3 0 d 0 w3 d w3 0 d  0 w3 d w3 neg 0 d 0 w3 d w3 neg 0 d 0 w3 neg d w3 neg 0 d cl s } def
/m29 {mp gsave x w2 sub y w2 add w3 sub m currentpoint t 4 {side} repeat cl fill gr} def
/m30 {mp gsave x w2 sub y w2 add w3 sub m currentpoint t 4 {side} repeat cl s gr} def
/m31 {mp x y w2 sub m 0 w d x w2 sub y m w 0 d x w2 sub y w2 add m w w neg d x w2 sub y w2 sub m w w d s} def
/m32 {mp x y w2 sub m w2 w d w neg 0 d cl s} def
/m33 {mp x y w2 add m w3 neg w2 neg d w3 w2 neg d w3 w2 d cl f} def
/m34 {mp x w2 sub y w2 sub w3 add m w3 0 d  0 w3 neg d w3 0 d 0 w3 d w3 0 d  0 w3 d w3 neg 0 d 0 w3 d w3 neg 0 d 0 w3 neg d w3 neg 0 d cl f } def
/m2 {mp x y w2 sub m 0 w d x w2 sub y m w 0 d s} def
/m5 {mp x w2 sub y w2 sub m w w d x w2 sub y w2 add m w w neg d s} def
%%IncludeResource: ProcSet (FontSetInit)
%%IncludeResource: font Times-Roman
%%IncludeResource: font Times-Italic
%%IncludeResource: font Times-Bold
%%IncludeResource: font Times-BoldItalic
%%IncludeResource: font Helvetica
%%IncludeResource: font Helvetica-Oblique
%%IncludeResource: font Helvetica-Bold
%%IncludeResource: font Helvetica-BoldOblique
%%IncludeResource: font Courier
%%IncludeResource: font Courier-Oblique
%%IncludeResource: font Courier-Bold
%%IncludeResource: font Courier-BoldOblique
%%IncludeResource: font Symbol
%%IncludeResource: font ZapfDingbats
/reEncode {exch findfont dup length dict begin {1 index /FID eq  {pop pop} {def} ifelse } forall /Encoding exch def currentdict end dup /FontName get exch definefont pop } def [/Times-Bold /Times-Italic /Times-BoldItalic /Helvetica /Helvetica-Oblique
 /Helvetica-Bold /Helvetica-BoldOblique /Courier /Courier-Oblique /Courier-Bold /Courier-BoldOblique /Times-Roman /AvantGarde-Book /AvantGarde-BookOblique /AvantGarde-Demi /AvantGarde-DemiOblique /Bookman-Demi /Bookman-DemiItalic /Bookman-Light
 /Bookman-LightItalic /Helvetica-Narrow /Helvetica-Narrow-Bold /Helvetica-Narrow-BoldOblique /Helvetica-Narrow-Oblique /NewCenturySchlbk-Roman /NewCenturySchlbk-Bold /NewCenturySchlbk-BoldItalic /NewCenturySchlbk-Italic /Palatino-Bold
 /Palatino-BoldItalic /Palatino-Italic /Palatino-Roman ] {ISOLatin1Encoding reEncode } forall
%%EndProlog
%%BeginSetup
%%EndSetup
newpath  gsave  .25 .25 scale  gsave  0 0 t black[  ] 0 sd 3 lw 1 1 1 c 2268 1538 0 0 bf black 1 1 1 c 1814 1230 227 154 bf black 1814 1230 227 154 bl 1 1 1 c 1814 1230 227 154 bf black 1814 1230 227 154 bl 227 154 m 1814 X s
 gsave  2268 1538 0 0 C 1772.47 32.5821 t 0 r /Helvetica-Bold findfont 58.6478 sf 0 0 m (moduleID) show NC gr  500 191 m -37 Y s 563 172 m -18 Y s 626 172 m -18 Y s 690 172 m -18 Y s 753 172 m -18 Y s 817 191 m -37 Y s 880 172 m -18 Y s 944 172 m -18
 Y s 1007 172 m -18 Y s 1070 172 m -18 Y s 1134 191 m -37 Y s 1197 172 m -18 Y s 1261 172 m -18 Y s 1324 172 m -18 Y s 1388 172 m -18 Y s 1451 191 m -37 Y s 1514 172 m -18 Y s 1578 172 m -18 Y s 1641 172 m -18 Y s 1705 172 m -18 Y s 1768 191 m -37 Y
 s 500 191 m -37 Y s 436 172 m -18 Y s 373 172 m -18 Y s 309 172 m -18 Y s 246 172 m -18 Y s 1768 191 m -37 Y s 1832 172 m -18 Y s 1895 172 m -18 Y s 1958 172 m -18 Y s 2022 172 m -18 Y s
 gsave  2268 1538 0 0 C 478.957 97.7464 t 0 r /Helvetica-Bold findfont 58.6478 sf 0 0 m (10) show NC gr 
 gsave  2268 1538 0 0 C 449.633 97.7464 t 0 r /Symbol findfont 58.6478 sf 0 0 m (-) show NC gr 
 gsave  2268 1538 0 0 C 811.295 97.7464 t 0 r /Helvetica-Bold findfont 58.6478 sf 0 0 m (5) show NC gr 
 gsave  2268 1538 0 0 C 781.971 97.7464 t 0 r /Symbol findfont 58.6478 sf 0 0 m (-) show NC gr 
 gsave  2268 1538 0 0 C 1117.57 97.7464 t 0 r /Helvetica-Bold findfont 58.6478 sf 0 0 m (0) show NC gr 
 gsave  2268 1538 0 0 C 1433.61 97.7464 t 0 r /Helvetica-Bold findfont 58.6478 sf 0 0 m (5) show NC gr 
 gsave  2268 1538 0 0 C 1733.37 97.7464 t 0 r /Helvetica-Bold findfont 58.6478 sf 0 0 m (10) show NC gr  227 1384 m 1814 X s 500 1347 m 37 Y s 563 1366 m 18 Y s 626 1366 m 18 Y s 690 1366 m 18 Y s 753 1366 m 18 Y s 817 1347 m 37 Y s 880 1366 m 18 Y s
 944 1366 m 18 Y s 1007 1366 m 18 Y s 1070 1366 m 18 Y s 1134 1347 m 37 Y s 1197 1366 m 18 Y s 1261 1366 m 18 Y s 1324 1366 m 18 Y s 1388 1366 m 18 Y s 1451 1347 m 37 Y s 1514 1366 m 18 Y s 1578 1366 m 18 Y s 1641 1366 m 18 Y s 1705 1366 m 18 Y s
 1768 1347 m 37 Y s 500 1347 m 37 Y s 436 1366 m 18 Y s 373 1366 m 18 Y s 309 1366 m 18 Y s 246 1366 m 18 Y s 1768 1347 m 37 Y s 1832 1366 m 18 Y s 1895 1366 m 18 Y s 1958 1366 m 18 Y s 2022 1366 m 18 Y s 227 154 m 1230 Y s
 gsave  2268 1538 0 0 C 78.1971 1361.93 t 90 r /Helvetica-Bold findfont 39.0986 sf 0 0 m (2) show NC gr 
 gsave  2268 1538 0 0 C 104.263 1026.34 t 90 r /Helvetica-Bold findfont 58.6478 sf 0 0 m (Hits per mm) show NC gr  281 154 m -54 X s 254 189 m -27 X s 254 223 m -27 X s 254 258 m -27 X s 281 293 m -54 X s 254 328 m -27 X s 254 363 m -27 X s 254 398 m
 -27 X s 281 432 m -54 X s 254 467 m -27 X s 254 502 m -27 X s 254 537 m -27 X s 281 572 m -54 X s 254 606 m -27 X s 254 641 m -27 X s 254 676 m -27 X s 281 711 m -54 X s 254 746 m -27 X s 254 781 m -27 X s 254 815 m -27 X s 281 850 m -54 X s 254 885
 m -27 X s 254 920 m -27 X s 254 955 m -27 X s 281 989 m -54 X s 254 1024 m -27 X s 254 1059 m -27 X s 254 1094 m -27 X s 281 1129 m -54 X s 254 1164 m -27 X s 254 1198 m -27 X s 254 1233 m -27 X s 281 1268 m -54 X s 281 1268 m -54 X s 254 1303 m -27
 X s 254 1338 m -27 X s 254 1373 m -27 X s
 gsave  2268 1538 0 0 C 182.46 133.587 t 0 r /Helvetica-Bold findfont 58.6478 sf 0 0 m (0) show NC gr 
 gsave  2268 1538 0 0 C 133.587 270.432 t 0 r /Helvetica-Bold findfont 58.6478 sf 0 0 m (0.2) show NC gr 
 gsave  2268 1538 0 0 C 133.587 410.535 t 0 r /Helvetica-Bold findfont 58.6478 sf 0 0 m (0.4) show NC gr 
 gsave  2268 1538 0 0 C 133.587 550.638 t 0 r /Helvetica-Bold findfont 58.6478 sf 0 0 m (0.6) show NC gr 
 gsave  2268 1538 0 0 C 133.587 690.741 t 0 r /Helvetica-Bold findfont 58.6478 sf 0 0 m (0.8) show NC gr 
 gsave  2268 1538 0 0 C 192.235 827.586 t 0 r /Helvetica-Bold findfont 58.6478 sf 0 0 m (1) show NC gr 
 gsave  2268 1538 0 0 C 133.587 964.431 t 0 r /Helvetica-Bold findfont 58.6478 sf 0 0 m (1.2) show NC gr 
 gsave  2268 1538 0 0 C 133.587 1107.79 t 0 r /Helvetica-Bold findfont 58.6478 sf 0 0 m (1.4) show NC gr 
 gsave  2268 1538 0 0 C 133.587 1247.9 t 0 r /Helvetica-Bold findfont 58.6478 sf 0 0 m (1.6) show NC gr  2041 154 m 1230 Y s 1987 154 m 54 X s 2014 189 m 27 X s 2014 223 m 27 X s 2014 258 m 27 X s 1987 293 m 54 X s 2014 328 m 27 X s 2014 363 m 27 X s
 2014 398 m 27 X s 1987 432 m 54 X s 2014 467 m 27 X s 2014 502 m 27 X s 2014 537 m 27 X s 1987 572 m 54 X s 2014 606 m 27 X s 2014 641 m 27 X s 2014 676 m 27 X s 1987 711 m 54 X s 2014 746 m 27 X s 2014 781 m 27 X s 2014 815 m 27 X s 1987 850 m 54 X
 s 2014 885 m 27 X s 2014 920 m 27 X s 2014 955 m 27 X s 1987 989 m 54 X s 2014 1024 m 27 X s 2014 1059 m 27 X s 2014 1094 m 27 X s 1987 1129 m 54 X s 2014 1164 m 27 X s 2014 1198 m 27 X s 2014 1233 m 27 X s 1987 1268 m 54 X s 1987 1268 m 54 X s 2014
 1303 m 27 X s 2014 1338 m 27 X s 2014 1373 m 27 X s 626 1087 m 64 -70 d 63 41 d 64 -83 d 63 12 d 64 15 d 63 24 d 63 -53 d 127 -9 d 64 -5 d 63 90 d 64 -82 d 63 46 d 63 -42 d 64 27 d 63 4 d s /w 26 def /w2 {w 2 div} def /w3 {w 3 div} def 626 1087 690
 1017 753 1058 817 975 880 987 944 1002 1007 1026 1070 973 1197 964 1261 959 1324 1049 1388 967 1451 1013 1514 971 1578 998 1641 1002 16 { m20} R 1 0 0 c black 1 0 0 c 309 863 m 64 13 d 63 -114 d 64 -2 d 63 -64 d 63 5 d 64 7 d 63 23 d 64 -3 d 63 7 d
 64 -48 d 63 -8 d 63 -18 d 64 -507 d 63 527 d 64 43 d 63 -58 d 64 33 d 63 21 d 63 -42 d 64 29 d 63 51 d 64 -36 d 63 31 d 64 -2 d 63 30 d 63 -26 d s 309 863 373 876 436 762 500 760 563 696 626 701 690 708 753 731 817 728 880 735 944 687 1007 679 1070
 661 1134 154 1197 681 1261 724 1324 666 1388 699 1451 720 1514 678 1578 707 1641 758 1705 722 1768 753 1832 751 1895 781 1958 755 27 { m20} R 0 1 0 c black 0 1 0 c 563 276 m 63 -7 d 64 -17 d 63 8 d 64 18 d 63 -6 d 64 -7 d 63 -6 d 63 13 d 127 15 d 64
 -11 d 63 -7 d 64 X 63 10 d 63 -18 d 64 9 d 63 X 64 8 d s 563 276 626 269 690 252 753 260 817 278 880 272 944 265 1007 259 1070 272 1197 287 1261 276 1324 269 1388 269 1451 279 1514 261 1578 270 1641 270 1705 278 18 { m20} R 0 0 1 c black 0 0 1 c 563
 218 m 63 12 d 64 -8 d 63 7 d 64 -2 d 63 -5 d 64 -3 d 63 1 d 63 5 d 127 -9 d 64 4 d 63 -2 d 64 4 d 63 2 d 63 -1 d 64 1 d 63 16 d 64 -18 d s 563 218 626 230 690 222 753 229 817 227 880 222 944 219 1007 220 1070 225 1197 216 1261 220 1324 218 1388 222
 1451 224 1514 223 1578 224 1641 240 1705 222 18 { m20} R 1 1 0 c black 1 1 0 c 563 154 m 1142 X s 563 154 626 154 690 154 753 154 817 154 880 154 944 154 1007 154 1070 154 1197 154 1261 154 1324 154 1388 154 1451 154 1514 154 1578 154 1641 154 1705
 154 18 { m20} R black
 gsave  2268 1538 0 0 C 1531.36 1032.85 t 0 r /Helvetica-Bold findfont 58.6478 sf 0 0 m (Pixel Barrel) show NC gr 
 gsave  2268 1538 0 0 C 1648.66 967.689 t 0 r /Helvetica-Bold findfont 58.6478 sf 0 0 m (Layer 0) show NC gr  1539 980 m 91 X s 1585 980 m20
 gsave  2268 1538 0 0 C 1648.66 902.525 t 0 r /Helvetica-Bold findfont 58.6478 sf 0 0 m (Layer 1) show NC gr  1 0 0 c 1539 916 m 91 X s 1585 916 m20 black
 gsave  2268 1538 0 0 C 1648.66 840.619 t 0 r /Helvetica-Bold findfont 58.6478 sf 0 0 m (Layer 2) show NC gr  0 1 0 c 1539 852 m 91 X s 1585 852 m20 black
 gsave  2268 1538 0 0 C 1648.66 775.455 t 0 r /Helvetica-Bold findfont 58.6478 sf 0 0 m (Layer 3) show NC gr  0 0 1 c 1539 788 m 91 X s 1585 788 m20 black
 gsave  2268 1538 0 0 C 1648.66 710.291 t 0 r /Helvetica-Bold findfont 58.6478 sf 0 0 m (Layer 4) show NC gr  1 1 0 c 1539 724 m 91 X s 1585 724 m20
 gr  gr showpage
end
%%EOF
