%!PS-Adobe-2.0 EPSF-2.0
%%BoundingBox:  0 0 567 384
%%Title: d3pdDirr/pixel_occupancy/flu_pixdisk_mg.eps: c1_n18
%%Creator: ROOT Version 6.04/12
%%CreationDate: Tue Apr 26 00:12:43 2016
%%DocumentNeededResources: ProcSet (FontSetInit)
%%EndComments
%%BeginProlog
80 dict begin
/s {stroke} def /l {lineto} def /m {moveto} def /t {translate} def
/r {rotate} def /rl {roll}  def /R {repeat} def
/d {rlineto} def /rm {rmoveto} def /gr {grestore} def /f {eofill} def
/c {setrgbcolor} def /black {0 setgray} def /sd {setdash} def
/cl {closepath} def /sf {scalefont setfont} def /lw {setlinewidth} def
/box {m dup 0 exch d exch 0 d 0 exch neg d cl} def
/NC{systemdict begin initclip end}def/C{NC box clip newpath}def
/bl {box s} def /bf {gsave box gsave f grestore 1 lw [] 0 sd s grestore} def /Y { 0 exch d} def /X { 0 d} def 
/K {{pop pop 0 moveto} exch kshow} bind def
/ita {/ang 15 def gsave [1 0 ang dup sin exch cos div 1 0 0] concat} def 
/mp {newpath /y exch def /x exch def} def
/side {[w .77 mul w .23 mul] .385 w mul sd w 0 l currentpoint t -144 r} def
/mr {mp x y w2 0 360 arc} def /m24 {mr s} def /m20 {mr f} def
/mb {mp x y w2 add m w2 neg 0 d 0 w neg d w 0 d 0 w d cl} def
/mt {mp x y w2 add m w2 neg w neg d w 0 d cl} def
/m21 {mb f} def /m25 {mb s} def /m22 {mt f} def /m26{mt s} def
/m23 {mp x y w2 sub m w2 w d w neg 0 d cl f} def
/m27 {mp x y w2 add m w3 neg w2 neg d w3 w2 neg d w3 w2 d cl s} def
/m28 {mp x w2 sub y w2 sub w3 add m w3 0 d  0 w3 neg d w3 0 d 0 w3 d w3 0 d  0 w3 d w3 neg 0 d 0 w3 d w3 neg 0 d 0 w3 neg d w3 neg 0 d cl s } def
/m29 {mp gsave x w2 sub y w2 add w3 sub m currentpoint t 4 {side} repeat cl fill gr} def
/m30 {mp gsave x w2 sub y w2 add w3 sub m currentpoint t 4 {side} repeat cl s gr} def
/m31 {mp x y w2 sub m 0 w d x w2 sub y m w 0 d x w2 sub y w2 add m w w neg d x w2 sub y w2 sub m w w d s} def
/m32 {mp x y w2 sub m w2 w d w neg 0 d cl s} def
/m33 {mp x y w2 add m w3 neg w2 neg d w3 w2 neg d w3 w2 d cl f} def
/m34 {mp x w2 sub y w2 sub w3 add m w3 0 d  0 w3 neg d w3 0 d 0 w3 d w3 0 d  0 w3 d w3 neg 0 d 0 w3 d w3 neg 0 d 0 w3 neg d w3 neg 0 d cl f } def
/m2 {mp x y w2 sub m 0 w d x w2 sub y m w 0 d s} def
/m5 {mp x w2 sub y w2 sub m w w d x w2 sub y w2 add m w w neg d s} def
%%IncludeResource: ProcSet (FontSetInit)
%%IncludeResource: font Times-Roman
%%IncludeResource: font Times-Italic
%%IncludeResource: font Times-Bold
%%IncludeResource: font Times-BoldItalic
%%IncludeResource: font Helvetica
%%IncludeResource: font Helvetica-Oblique
%%IncludeResource: font Helvetica-Bold
%%IncludeResource: font Helvetica-BoldOblique
%%IncludeResource: font Courier
%%IncludeResource: font Courier-Oblique
%%IncludeResource: font Courier-Bold
%%IncludeResource: font Courier-BoldOblique
%%IncludeResource: font Symbol
%%IncludeResource: font ZapfDingbats
/reEncode {exch findfont dup length dict begin {1 index /FID eq  {pop pop} {def} ifelse } forall /Encoding exch def currentdict end dup /FontName get exch definefont pop } def [/Times-Bold /Times-Italic /Times-BoldItalic /Helvetica /Helvetica-Oblique
 /Helvetica-Bold /Helvetica-BoldOblique /Courier /Courier-Oblique /Courier-Bold /Courier-BoldOblique /Times-Roman /AvantGarde-Book /AvantGarde-BookOblique /AvantGarde-Demi /AvantGarde-DemiOblique /Bookman-Demi /Bookman-DemiItalic /Bookman-Light
 /Bookman-LightItalic /Helvetica-Narrow /Helvetica-Narrow-Bold /Helvetica-Narrow-BoldOblique /Helvetica-Narrow-Oblique /NewCenturySchlbk-Roman /NewCenturySchlbk-Bold /NewCenturySchlbk-BoldItalic /NewCenturySchlbk-Italic /Palatino-Bold
 /Palatino-BoldItalic /Palatino-Italic /Palatino-Roman ] {ISOLatin1Encoding reEncode } forall
%%EndProlog
%%BeginSetup
%%EndSetup
newpath  gsave  .25 .25 scale  gsave  0 0 t black[  ] 0 sd 3 lw 1 1 1 c 2268 1538 0 0 bf black 1 1 1 c 1814 1230 227 154 bf black 1814 1230 227 154 bl 1 1 1 c 1814 1230 227 154 bf black 1814 1230 227 154 bl 227 154 m 1814 X s
 gsave  2268 1538 0 0 C 1772.47 32.5821 t 0 r /Helvetica-Bold findfont 58.6478 sf 0 0 m (moduleID) show NC gr  309 191 m -37 Y s 392 172 m -18 Y s 474 172 m -18 Y s 557 172 m -18 Y s 639 172 m -18 Y s 722 191 m -37 Y s 804 172 m -18 Y s 886 172 m -18
 Y s 969 172 m -18 Y s 1051 172 m -18 Y s 1134 191 m -37 Y s 1216 172 m -18 Y s 1299 172 m -18 Y s 1381 172 m -18 Y s 1464 172 m -18 Y s 1546 191 m -37 Y s 1629 172 m -18 Y s 1711 172 m -18 Y s 1794 172 m -18 Y s 1876 172 m -18 Y s 1958 191 m -37 Y s
 309 191 m -37 Y s 1958 191 m -37 Y s 2041 172 m -18 Y s
 gsave  2268 1538 0 0 C 289.981 97.7464 t 0 r /Helvetica-Bold findfont 58.6478 sf 0 0 m (0) show NC gr 
 gsave  2268 1538 0 0 C 677.708 97.7464 t 0 r /Helvetica-Bold findfont 58.6478 sf 0 0 m (0.5) show NC gr 
 gsave  2268 1538 0 0 C 1120.83 97.7464 t 0 r /Helvetica-Bold findfont 58.6478 sf 0 0 m (1) show NC gr 
 gsave  2268 1538 0 0 C 1502.04 97.7464 t 0 r /Helvetica-Bold findfont 58.6478 sf 0 0 m (1.5) show NC gr 
 gsave  2268 1538 0 0 C 1941.9 97.7464 t 0 r /Helvetica-Bold findfont 58.6478 sf 0 0 m (2) show NC gr  227 1384 m 1814 X s 309 1347 m 37 Y s 392 1366 m 18 Y s 474 1366 m 18 Y s 557 1366 m 18 Y s 639 1366 m 18 Y s 722 1347 m 37 Y s 804 1366 m 18 Y s
 886 1366 m 18 Y s 969 1366 m 18 Y s 1051 1366 m 18 Y s 1134 1347 m 37 Y s 1216 1366 m 18 Y s 1299 1366 m 18 Y s 1381 1366 m 18 Y s 1464 1366 m 18 Y s 1546 1347 m 37 Y s 1629 1366 m 18 Y s 1711 1366 m 18 Y s 1794 1366 m 18 Y s 1876 1366 m 18 Y s 1958
 1347 m 37 Y s 309 1347 m 37 Y s 1958 1347 m 37 Y s 2041 1366 m 18 Y s 227 154 m 1230 Y s
 gsave  2268 1538 0 0 C 78.1971 1361.93 t 90 r /Helvetica-Bold findfont 39.0986 sf 0 0 m (2) show NC gr 
 gsave  2268 1538 0 0 C 104.263 1026.34 t 90 r /Helvetica-Bold findfont 58.6478 sf 0 0 m (Hits per mm) show NC gr  281 164 m -54 X s 254 207 m -27 X s 254 251 m -27 X s 254 294 m -27 X s 254 338 m -27 X s 281 381 m -54 X s 254 424 m -27 X s 254 468 m
 -27 X s 254 511 m -27 X s 254 555 m -27 X s 281 598 m -54 X s 254 642 m -27 X s 254 685 m -27 X s 254 728 m -27 X s 254 772 m -27 X s 281 815 m -54 X s 254 859 m -27 X s 254 902 m -27 X s 254 945 m -27 X s 254 989 m -27 X s 281 1032 m -54 X s 254
 1076 m -27 X s 254 1119 m -27 X s 254 1162 m -27 X s 254 1206 m -27 X s 281 1249 m -54 X s 281 164 m -54 X s 281 1249 m -54 X s 254 1293 m -27 X s 254 1336 m -27 X s 254 1379 m -27 X s
 gsave  2268 1538 0 0 C 143.361 143.361 t 0 r /Helvetica-Bold findfont 58.6478 sf 0 0 m (0.1) show NC gr 
 gsave  2268 1538 0 0 C 133.587 358.403 t 0 r /Helvetica-Bold findfont 58.6478 sf 0 0 m (0.2) show NC gr 
 gsave  2268 1538 0 0 C 133.587 576.704 t 0 r /Helvetica-Bold findfont 58.6478 sf 0 0 m (0.3) show NC gr 
 gsave  2268 1538 0 0 C 133.587 795.004 t 0 r /Helvetica-Bold findfont 58.6478 sf 0 0 m (0.4) show NC gr 
 gsave  2268 1538 0 0 C 133.587 1010.05 t 0 r /Helvetica-Bold findfont 58.6478 sf 0 0 m (0.5) show NC gr 
 gsave  2268 1538 0 0 C 133.587 1228.35 t 0 r /Helvetica-Bold findfont 58.6478 sf 0 0 m (0.6) show NC gr  2041 154 m 1230 Y s 1987 164 m 54 X s 2014 207 m 27 X s 2014 251 m 27 X s 2014 294 m 27 X s 2014 338 m 27 X s 1987 381 m 54 X s 2014 424 m 27 X
 s 2014 468 m 27 X s 2014 511 m 27 X s 2014 555 m 27 X s 1987 598 m 54 X s 2014 642 m 27 X s 2014 685 m 27 X s 2014 728 m 27 X s 2014 772 m 27 X s 1987 815 m 54 X s 2014 859 m 27 X s 2014 902 m 27 X s 2014 945 m 27 X s 2014 989 m 27 X s 1987 1032 m
 54 X s 2014 1076 m 27 X s 2014 1119 m 27 X s 2014 1162 m 27 X s 2014 1206 m 27 X s 1987 1249 m 54 X s 1987 164 m 54 X s 1987 1249 m 54 X s 2014 1293 m 27 X s 2014 1336 m 27 X s 2014 1379 m 27 X s 309 357 m 825 151 d 824 -147 d s /w 26 def /w2 {w 2
 div} def /w3 {w 3 div} def 309 357 1134 508 1958 361 3 { m20} R 1 0 0 c black 1 0 0 c 309 296 m 825 204 d 824 -244 d s 309 296 1134 500 1958 256 3 { m20} R 0 1 0 c black 0 1 0 c 309 217 m 825 68 d 824 -85 d s 309 217 1134 285 1958 200 3 { m20} R
 black[ 12 12] 0 sd 309 881 m 825 155 d 824 -160 d s[  ] 0 sd 309 881 1134 1036 1958 876 3 { m21} R[ 12 12] 0 sd 1 0 0 c black 1 0 0 c 309 698 m 825 -84 d 824 -38 d s[  ] 0 sd 309 698 1134 614 1958 576 3 { m21} R[ 12 12] 0 sd 0 1 0 c black 0 1 0 c
 309 538 m 825 -46 d 824 -296 d s[  ] 0 sd 309 538 1134 492 1958 196 3 { m21} R[ 12 12] 0 sd black
 gsave  2268 1538 0 0 C 325.821 1270.7 t 0 r /Helvetica-Bold findfont 58.6478 sf 0 0 m (Pixel Disk \(left\)) show NC gr 
 gsave  2268 1538 0 0 C 430.084 1172.96 t 0 r /Helvetica-Bold findfont 58.6478 sf 0 0 m (Disk 0) show NC gr [  ] 0 sd 334 1194 m 80 X s 374 1194 m20
 gsave  2268 1538 0 0 C 430.084 1078.47 t 0 r /Helvetica-Bold findfont 58.6478 sf 0 0 m (Disk 1) show NC gr  1 0 0 c 334 1098 m 80 X s 374 1098 m20 black
 gsave  2268 1538 0 0 C 430.084 980.722 t 0 r /Helvetica-Bold findfont 58.6478 sf 0 0 m (Disk 2) show NC gr  0 1 0 c 334 1002 m 80 X s 374 1002 m20 black
 gsave  2268 1538 0 0 C 622.319 1270.7 t 0 r /Helvetica-Bold findfont 58.6478 sf 0 0 m (  \(right\)) show NC gr 
 gsave  2268 1538 0 0 C 723.323 1172.96 t 0 r /Helvetica-Bold findfont 58.6478 sf 0 0 m (Disk 0) show NC gr [ 12 12] 0 sd 629 1194 m 80 X s[  ] 0 sd 669 1194 m21[ 12 12] 0 sd
 gsave  2268 1538 0 0 C 723.323 1078.47 t 0 r /Helvetica-Bold findfont 58.6478 sf 0 0 m (Disk 1) show NC gr  1 0 0 c 629 1098 m 80 X s[  ] 0 sd 669 1098 m21[ 12 12] 0 sd black
 gsave  2268 1538 0 0 C 723.323 980.722 t 0 r /Helvetica-Bold findfont 58.6478 sf 0 0 m (Disk 2) show NC gr  0 1 0 c 629 1002 m 80 X s[  ] 0 sd 669 1002 m21[ 12 12] 0 sd
 gr  gr showpage
end
%%EOF
