%!PS-Adobe-2.0 EPSF-2.0
%%BoundingBox:  0 0 567 384
%%Title: d3pdDirr/pixel_occupancy/flu_pixlayer_mgz.eps: c1_n9
%%Creator: ROOT Version 6.04/12
%%CreationDate: Tue Apr 26 00:12:42 2016
%%DocumentNeededResources: ProcSet (FontSetInit)
%%EndComments
%%BeginProlog
80 dict begin
/s {stroke} def /l {lineto} def /m {moveto} def /t {translate} def
/r {rotate} def /rl {roll}  def /R {repeat} def
/d {rlineto} def /rm {rmoveto} def /gr {grestore} def /f {eofill} def
/c {setrgbcolor} def /black {0 setgray} def /sd {setdash} def
/cl {closepath} def /sf {scalefont setfont} def /lw {setlinewidth} def
/box {m dup 0 exch d exch 0 d 0 exch neg d cl} def
/NC{systemdict begin initclip end}def/C{NC box clip newpath}def
/bl {box s} def /bf {gsave box gsave f grestore 1 lw [] 0 sd s grestore} def /Y { 0 exch d} def /X { 0 d} def 
/K {{pop pop 0 moveto} exch kshow} bind def
/ita {/ang 15 def gsave [1 0 ang dup sin exch cos div 1 0 0] concat} def 
/mp {newpath /y exch def /x exch def} def
/side {[w .77 mul w .23 mul] .385 w mul sd w 0 l currentpoint t -144 r} def
/mr {mp x y w2 0 360 arc} def /m24 {mr s} def /m20 {mr f} def
/mb {mp x y w2 add m w2 neg 0 d 0 w neg d w 0 d 0 w d cl} def
/mt {mp x y w2 add m w2 neg w neg d w 0 d cl} def
/m21 {mb f} def /m25 {mb s} def /m22 {mt f} def /m26{mt s} def
/m23 {mp x y w2 sub m w2 w d w neg 0 d cl f} def
/m27 {mp x y w2 add m w3 neg w2 neg d w3 w2 neg d w3 w2 d cl s} def
/m28 {mp x w2 sub y w2 sub w3 add m w3 0 d  0 w3 neg d w3 0 d 0 w3 d w3 0 d  0 w3 d w3 neg 0 d 0 w3 d w3 neg 0 d 0 w3 neg d w3 neg 0 d cl s } def
/m29 {mp gsave x w2 sub y w2 add w3 sub m currentpoint t 4 {side} repeat cl fill gr} def
/m30 {mp gsave x w2 sub y w2 add w3 sub m currentpoint t 4 {side} repeat cl s gr} def
/m31 {mp x y w2 sub m 0 w d x w2 sub y m w 0 d x w2 sub y w2 add m w w neg d x w2 sub y w2 sub m w w d s} def
/m32 {mp x y w2 sub m w2 w d w neg 0 d cl s} def
/m33 {mp x y w2 add m w3 neg w2 neg d w3 w2 neg d w3 w2 d cl f} def
/m34 {mp x w2 sub y w2 sub w3 add m w3 0 d  0 w3 neg d w3 0 d 0 w3 d w3 0 d  0 w3 d w3 neg 0 d 0 w3 d w3 neg 0 d 0 w3 neg d w3 neg 0 d cl f } def
/m2 {mp x y w2 sub m 0 w d x w2 sub y m w 0 d s} def
/m5 {mp x w2 sub y w2 sub m w w d x w2 sub y w2 add m w w neg d s} def
%%IncludeResource: ProcSet (FontSetInit)
%%IncludeResource: font Times-Roman
%%IncludeResource: font Times-Italic
%%IncludeResource: font Times-Bold
%%IncludeResource: font Times-BoldItalic
%%IncludeResource: font Helvetica
%%IncludeResource: font Helvetica-Oblique
%%IncludeResource: font Helvetica-Bold
%%IncludeResource: font Helvetica-BoldOblique
%%IncludeResource: font Courier
%%IncludeResource: font Courier-Oblique
%%IncludeResource: font Courier-Bold
%%IncludeResource: font Courier-BoldOblique
%%IncludeResource: font Symbol
%%IncludeResource: font ZapfDingbats
/reEncode {exch findfont dup length dict begin {1 index /FID eq  {pop pop} {def} ifelse } forall /Encoding exch def currentdict end dup /FontName get exch definefont pop } def [/Times-Bold /Times-Italic /Times-BoldItalic /Helvetica /Helvetica-Oblique
 /Helvetica-Bold /Helvetica-BoldOblique /Courier /Courier-Oblique /Courier-Bold /Courier-BoldOblique /Times-Roman /AvantGarde-Book /AvantGarde-BookOblique /AvantGarde-Demi /AvantGarde-DemiOblique /Bookman-Demi /Bookman-DemiItalic /Bookman-Light
 /Bookman-LightItalic /Helvetica-Narrow /Helvetica-Narrow-Bold /Helvetica-Narrow-BoldOblique /Helvetica-Narrow-Oblique /NewCenturySchlbk-Roman /NewCenturySchlbk-Bold /NewCenturySchlbk-BoldItalic /NewCenturySchlbk-Italic /Palatino-Bold
 /Palatino-BoldItalic /Palatino-Italic /Palatino-Roman ] {ISOLatin1Encoding reEncode } forall
%%EndProlog
%%BeginSetup
%%EndSetup
newpath  gsave  .25 .25 scale  gsave  0 0 t black[  ] 0 sd 3 lw 1 1 1 c 2268 1538 0 0 bf black 1 1 1 c 1814 1230 227 154 bf black 1814 1230 227 154 bl 1 1 1 c 1814 1230 227 154 bf black 1814 1230 227 154 bl 227 154 m 1814 X s
 gsave  2268 1538 0 0 C 1853.92 35.8403 t 0 r /Helvetica-Bold findfont 58.6478 sf 0 0 m (z [mm]) show NC gr  498 191 m -37 Y s 578 172 m -18 Y s 657 172 m -18 Y s 736 172 m -18 Y s 816 191 m -37 Y s 895 172 m -18 Y s 975 172 m -18 Y s 1054 172 m -18
 Y s 1134 191 m -37 Y s 1213 172 m -18 Y s 1293 172 m -18 Y s 1372 172 m -18 Y s 1452 191 m -37 Y s 1531 172 m -18 Y s 1610 172 m -18 Y s 1690 172 m -18 Y s 1769 191 m -37 Y s 498 191 m -37 Y s 419 172 m -18 Y s 339 172 m -18 Y s 260 172 m -18 Y s
 1769 191 m -37 Y s 1849 172 m -18 Y s 1928 172 m -18 Y s 2008 172 m -18 Y s
 gsave  2268 1538 0 0 C 459.408 97.7464 t 0 r /Helvetica-Bold findfont 58.6478 sf 0 0 m (400) show NC gr 
 gsave  2268 1538 0 0 C 430.084 97.7464 t 0 r /Symbol findfont 58.6478 sf 0 0 m (-) show NC gr 
 gsave  2268 1538 0 0 C 778.713 97.7464 t 0 r /Helvetica-Bold findfont 58.6478 sf 0 0 m (200) show NC gr 
 gsave  2268 1538 0 0 C 749.389 97.7464 t 0 r /Symbol findfont 58.6478 sf 0 0 m (-) show NC gr 
 gsave  2268 1538 0 0 C 1114.31 97.7464 t 0 r /Helvetica-Bold findfont 58.6478 sf 0 0 m (0) show NC gr 
 gsave  2268 1538 0 0 C 1401.03 97.7464 t 0 r /Helvetica-Bold findfont 58.6478 sf 0 0 m (200) show NC gr 
 gsave  2268 1538 0 0 C 1720.34 97.7464 t 0 r /Helvetica-Bold findfont 58.6478 sf 0 0 m (400) show NC gr  227 1384 m 1814 X s 498 1347 m 37 Y s 578 1366 m 18 Y s 657 1366 m 18 Y s 736 1366 m 18 Y s 816 1347 m 37 Y s 895 1366 m 18 Y s 975 1366 m 18 Y
 s 1054 1366 m 18 Y s 1134 1347 m 37 Y s 1213 1366 m 18 Y s 1293 1366 m 18 Y s 1372 1366 m 18 Y s 1452 1347 m 37 Y s 1531 1366 m 18 Y s 1610 1366 m 18 Y s 1690 1366 m 18 Y s 1769 1347 m 37 Y s 498 1347 m 37 Y s 419 1366 m 18 Y s 339 1366 m 18 Y s 260
 1366 m 18 Y s 1769 1347 m 37 Y s 1849 1366 m 18 Y s 1928 1366 m 18 Y s 2008 1366 m 18 Y s 227 154 m 1230 Y s
 gsave  2268 1538 0 0 C 78.1971 1361.93 t 90 r /Helvetica-Bold findfont 39.0986 sf 0 0 m (2) show NC gr 
 gsave  2268 1538 0 0 C 104.263 1026.34 t 90 r /Helvetica-Bold findfont 58.6478 sf 0 0 m (Hits per mm) show NC gr  281 154 m -54 X s 254 189 m -27 X s 254 223 m -27 X s 254 258 m -27 X s 281 293 m -54 X s 254 328 m -27 X s 254 363 m -27 X s 254 398 m
 -27 X s 281 432 m -54 X s 254 467 m -27 X s 254 502 m -27 X s 254 537 m -27 X s 281 572 m -54 X s 254 606 m -27 X s 254 641 m -27 X s 254 676 m -27 X s 281 711 m -54 X s 254 746 m -27 X s 254 781 m -27 X s 254 815 m -27 X s 281 850 m -54 X s 254 885
 m -27 X s 254 920 m -27 X s 254 955 m -27 X s 281 989 m -54 X s 254 1024 m -27 X s 254 1059 m -27 X s 254 1094 m -27 X s 281 1129 m -54 X s 254 1164 m -27 X s 254 1198 m -27 X s 254 1233 m -27 X s 281 1268 m -54 X s 281 1268 m -54 X s 254 1303 m -27
 X s 254 1338 m -27 X s 254 1373 m -27 X s
 gsave  2268 1538 0 0 C 182.46 133.587 t 0 r /Helvetica-Bold findfont 58.6478 sf 0 0 m (0) show NC gr 
 gsave  2268 1538 0 0 C 133.587 270.432 t 0 r /Helvetica-Bold findfont 58.6478 sf 0 0 m (0.2) show NC gr 
 gsave  2268 1538 0 0 C 133.587 410.535 t 0 r /Helvetica-Bold findfont 58.6478 sf 0 0 m (0.4) show NC gr 
 gsave  2268 1538 0 0 C 133.587 550.638 t 0 r /Helvetica-Bold findfont 58.6478 sf 0 0 m (0.6) show NC gr 
 gsave  2268 1538 0 0 C 133.587 690.741 t 0 r /Helvetica-Bold findfont 58.6478 sf 0 0 m (0.8) show NC gr 
 gsave  2268 1538 0 0 C 192.235 827.586 t 0 r /Helvetica-Bold findfont 58.6478 sf 0 0 m (1) show NC gr 
 gsave  2268 1538 0 0 C 133.587 964.431 t 0 r /Helvetica-Bold findfont 58.6478 sf 0 0 m (1.2) show NC gr 
 gsave  2268 1538 0 0 C 133.587 1107.79 t 0 r /Helvetica-Bold findfont 58.6478 sf 0 0 m (1.4) show NC gr 
 gsave  2268 1538 0 0 C 133.587 1247.9 t 0 r /Helvetica-Bold findfont 58.6478 sf 0 0 m (1.6) show NC gr  2041 154 m 1230 Y s 1987 154 m 54 X s 2014 189 m 27 X s 2014 223 m 27 X s 2014 258 m 27 X s 1987 293 m 54 X s 2014 328 m 27 X s 2014 363 m 27 X s
 2014 398 m 27 X s 1987 432 m 54 X s 2014 467 m 27 X s 2014 502 m 27 X s 2014 537 m 27 X s 1987 572 m 54 X s 2014 606 m 27 X s 2014 641 m 27 X s 2014 676 m 27 X s 1987 711 m 54 X s 2014 746 m 27 X s 2014 781 m 27 X s 2014 815 m 27 X s 1987 850 m 54 X
 s 2014 885 m 27 X s 2014 920 m 27 X s 2014 955 m 27 X s 1987 989 m 54 X s 2014 1024 m 27 X s 2014 1059 m 27 X s 2014 1094 m 27 X s 1987 1129 m 54 X s 2014 1164 m 27 X s 2014 1198 m 27 X s 2014 1233 m 27 X s 1987 1268 m 54 X s 1987 1268 m 54 X s 2014
 1303 m 27 X s 2014 1338 m 27 X s 2014 1373 m 27 X s 639 1087 m 67 -70 d 66 41 d 66 -83 d 66 12 d 67 15 d 64 24 d 66 -53 d 65 -9 d 65 -5 d 67 90 d 65 -82 d 66 46 d 68 -42 d 66 27 d 64 4 d s /w 26 def /w2 {w 2 div} def /w3 {w 3 div} def 639 1087 706
 1017 772 1058 838 975 904 987 971 1002 1035 1026 1101 973 1166 964 1231 959 1298 1049 1363 967 1429 1013 1497 971 1563 998 1627 1002 16 { m20} R 1 0 0 c black 1 0 0 c 309 863 m 66 13 d 67 -114 d 67 -2 d 65 -64 d 65 5 d 66 7 d 68 23 d 65 -3 d 65 7 d
 67 -48 d 66 -8 d 65 -18 d 2147482547 -507 d -2147482482 527 d 66 43 d 66 -58 d 66 33 d 66 21 d 65 -42 d 67 29 d 65 51 d 66 -36 d 66 31 d 68 -2 d 66 30 d 65 -26 d s 309 863 375 876 442 762 509 760 574 696 639 701 705 708 773 731 838 728 903 735 970
 687 1036 679 1101 661 13 { m20} R 1166 681 1232 724 1298 666 1364 699 1430 720 1495 678 1562 707 1627 758 1693 722 1759 753 1827 751 1893 781 1958 755 13 { m20} R 0 1 0 c black 0 1 0 c 544 276 m 65 -7 d 64 -17 d 67 8 d 66 18 d 66 -6 d 65 -7 d 66 -6
 d 65 13 d 131 15 d 66 -11 d 65 -7 d 67 X 65 10 d 66 -18 d 64 9 d 67 X 65 8 d s 544 276 609 269 673 252 740 260 806 278 872 272 937 265 1003 259 1068 272 1199 287 1265 276 1330 269 1397 269 1462 279 1528 261 1592 270 1659 270 1724 278 18 { m20} R 0 0
 1 c black 0 0 1 c 543 218 m 66 12 d 65 -8 d 65 7 d 68 -2 d 64 -5 d 66 -3 d 66 1 d 65 5 d 131 -9 d 66 4 d 65 -2 d 66 4 d 66 2 d 64 -1 d 67 1 d 65 16 d 66 -18 d s 543 218 609 230 674 222 739 229 807 227 871 222 937 219 1003 220 1068 225 1199 216 1265
 220 1330 218 1396 222 1462 224 1526 223 1593 224 1658 240 1724 222 18 { m20} R 1 1 0 c black 1 1 0 c -2147483648 154 m s black
 gsave  2268 1538 0 0 C 1531.36 1032.85 t 0 r /Helvetica-Bold findfont 58.6478 sf 0 0 m (Pixel Barrel) show NC gr 
 gsave  2268 1538 0 0 C 1648.66 967.689 t 0 r /Helvetica-Bold findfont 58.6478 sf 0 0 m (Layer 0) show NC gr  1539 980 m 91 X s 1585 980 m20
 gsave  2268 1538 0 0 C 1648.66 902.525 t 0 r /Helvetica-Bold findfont 58.6478 sf 0 0 m (Layer 1) show NC gr  1 0 0 c 1539 916 m 91 X s 1585 916 m20 black
 gsave  2268 1538 0 0 C 1648.66 840.619 t 0 r /Helvetica-Bold findfont 58.6478 sf 0 0 m (Layer 2) show NC gr  0 1 0 c 1539 852 m 91 X s 1585 852 m20 black
 gsave  2268 1538 0 0 C 1648.66 775.455 t 0 r /Helvetica-Bold findfont 58.6478 sf 0 0 m (Layer 3) show NC gr  0 0 1 c 1539 788 m 91 X s 1585 788 m20 black
 gsave  2268 1538 0 0 C 1648.66 710.291 t 0 r /Helvetica-Bold findfont 58.6478 sf 0 0 m (Layer 4) show NC gr  1 1 0 c 1539 724 m 91 X s 1585 724 m20
 gr  gr showpage
end
%%EOF
