%!PS-Adobe-2.0 EPSF-2.0
%%BoundingBox:  0 0 567 384
%%Title: d3pdDirr/pixel_occupancy/occ_pixlayer_mgz.eps: c1_n2
%%Creator: ROOT Version 6.04/12
%%CreationDate: Tue Apr 26 00:12:41 2016
%%DocumentNeededResources: ProcSet (FontSetInit)
%%EndComments
%%BeginProlog
80 dict begin
/s {stroke} def /l {lineto} def /m {moveto} def /t {translate} def
/r {rotate} def /rl {roll}  def /R {repeat} def
/d {rlineto} def /rm {rmoveto} def /gr {grestore} def /f {eofill} def
/c {setrgbcolor} def /black {0 setgray} def /sd {setdash} def
/cl {closepath} def /sf {scalefont setfont} def /lw {setlinewidth} def
/box {m dup 0 exch d exch 0 d 0 exch neg d cl} def
/NC{systemdict begin initclip end}def/C{NC box clip newpath}def
/bl {box s} def /bf {gsave box gsave f grestore 1 lw [] 0 sd s grestore} def /Y { 0 exch d} def /X { 0 d} def 
/K {{pop pop 0 moveto} exch kshow} bind def
/ita {/ang 15 def gsave [1 0 ang dup sin exch cos div 1 0 0] concat} def 
/mp {newpath /y exch def /x exch def} def
/side {[w .77 mul w .23 mul] .385 w mul sd w 0 l currentpoint t -144 r} def
/mr {mp x y w2 0 360 arc} def /m24 {mr s} def /m20 {mr f} def
/mb {mp x y w2 add m w2 neg 0 d 0 w neg d w 0 d 0 w d cl} def
/mt {mp x y w2 add m w2 neg w neg d w 0 d cl} def
/m21 {mb f} def /m25 {mb s} def /m22 {mt f} def /m26{mt s} def
/m23 {mp x y w2 sub m w2 w d w neg 0 d cl f} def
/m27 {mp x y w2 add m w3 neg w2 neg d w3 w2 neg d w3 w2 d cl s} def
/m28 {mp x w2 sub y w2 sub w3 add m w3 0 d  0 w3 neg d w3 0 d 0 w3 d w3 0 d  0 w3 d w3 neg 0 d 0 w3 d w3 neg 0 d 0 w3 neg d w3 neg 0 d cl s } def
/m29 {mp gsave x w2 sub y w2 add w3 sub m currentpoint t 4 {side} repeat cl fill gr} def
/m30 {mp gsave x w2 sub y w2 add w3 sub m currentpoint t 4 {side} repeat cl s gr} def
/m31 {mp x y w2 sub m 0 w d x w2 sub y m w 0 d x w2 sub y w2 add m w w neg d x w2 sub y w2 sub m w w d s} def
/m32 {mp x y w2 sub m w2 w d w neg 0 d cl s} def
/m33 {mp x y w2 add m w3 neg w2 neg d w3 w2 neg d w3 w2 d cl f} def
/m34 {mp x w2 sub y w2 sub w3 add m w3 0 d  0 w3 neg d w3 0 d 0 w3 d w3 0 d  0 w3 d w3 neg 0 d 0 w3 d w3 neg 0 d 0 w3 neg d w3 neg 0 d cl f } def
/m2 {mp x y w2 sub m 0 w d x w2 sub y m w 0 d s} def
/m5 {mp x w2 sub y w2 sub m w w d x w2 sub y w2 add m w w neg d s} def
%%IncludeResource: ProcSet (FontSetInit)
%%IncludeResource: font Times-Roman
%%IncludeResource: font Times-Italic
%%IncludeResource: font Times-Bold
%%IncludeResource: font Times-BoldItalic
%%IncludeResource: font Helvetica
%%IncludeResource: font Helvetica-Oblique
%%IncludeResource: font Helvetica-Bold
%%IncludeResource: font Helvetica-BoldOblique
%%IncludeResource: font Courier
%%IncludeResource: font Courier-Oblique
%%IncludeResource: font Courier-Bold
%%IncludeResource: font Courier-BoldOblique
%%IncludeResource: font Symbol
%%IncludeResource: font ZapfDingbats
/reEncode {exch findfont dup length dict begin {1 index /FID eq  {pop pop} {def} ifelse } forall /Encoding exch def currentdict end dup /FontName get exch definefont pop } def [/Times-Bold /Times-Italic /Times-BoldItalic /Helvetica /Helvetica-Oblique
 /Helvetica-Bold /Helvetica-BoldOblique /Courier /Courier-Oblique /Courier-Bold /Courier-BoldOblique /Times-Roman /AvantGarde-Book /AvantGarde-BookOblique /AvantGarde-Demi /AvantGarde-DemiOblique /Bookman-Demi /Bookman-DemiItalic /Bookman-Light
 /Bookman-LightItalic /Helvetica-Narrow /Helvetica-Narrow-Bold /Helvetica-Narrow-BoldOblique /Helvetica-Narrow-Oblique /NewCenturySchlbk-Roman /NewCenturySchlbk-Bold /NewCenturySchlbk-BoldItalic /NewCenturySchlbk-Italic /Palatino-Bold
 /Palatino-BoldItalic /Palatino-Italic /Palatino-Roman ] {ISOLatin1Encoding reEncode } forall
%%EndProlog
%%BeginSetup
%%EndSetup
newpath  gsave  .25 .25 scale  gsave  0 0 t black[  ] 0 sd 3 lw 1 1 1 c 2268 1538 0 0 bf black 1 1 1 c 1814 1230 227 154 bf black 1814 1230 227 154 bl 1 1 1 c 1814 1230 227 154 bf black 1814 1230 227 154 bl 227 154 m 1814 X s
 gsave  2268 1538 0 0 C 1853.92 35.8403 t 0 r /Helvetica-Bold findfont 58.6478 sf 0 0 m (z [mm]) show NC gr  498 191 m -37 Y s 578 172 m -18 Y s 657 172 m -18 Y s 736 172 m -18 Y s 816 191 m -37 Y s 895 172 m -18 Y s 975 172 m -18 Y s 1054 172 m -18
 Y s 1134 191 m -37 Y s 1213 172 m -18 Y s 1293 172 m -18 Y s 1372 172 m -18 Y s 1452 191 m -37 Y s 1531 172 m -18 Y s 1610 172 m -18 Y s 1690 172 m -18 Y s 1769 191 m -37 Y s 498 191 m -37 Y s 419 172 m -18 Y s 339 172 m -18 Y s 260 172 m -18 Y s
 1769 191 m -37 Y s 1849 172 m -18 Y s 1928 172 m -18 Y s 2008 172 m -18 Y s
 gsave  2268 1538 0 0 C 459.408 97.7464 t 0 r /Helvetica-Bold findfont 58.6478 sf 0 0 m (400) show NC gr 
 gsave  2268 1538 0 0 C 430.084 97.7464 t 0 r /Symbol findfont 58.6478 sf 0 0 m (-) show NC gr 
 gsave  2268 1538 0 0 C 778.713 97.7464 t 0 r /Helvetica-Bold findfont 58.6478 sf 0 0 m (200) show NC gr 
 gsave  2268 1538 0 0 C 749.389 97.7464 t 0 r /Symbol findfont 58.6478 sf 0 0 m (-) show NC gr 
 gsave  2268 1538 0 0 C 1114.31 97.7464 t 0 r /Helvetica-Bold findfont 58.6478 sf 0 0 m (0) show NC gr 
 gsave  2268 1538 0 0 C 1401.03 97.7464 t 0 r /Helvetica-Bold findfont 58.6478 sf 0 0 m (200) show NC gr 
 gsave  2268 1538 0 0 C 1720.34 97.7464 t 0 r /Helvetica-Bold findfont 58.6478 sf 0 0 m (400) show NC gr  227 1384 m 1814 X s 498 1347 m 37 Y s 578 1366 m 18 Y s 657 1366 m 18 Y s 736 1366 m 18 Y s 816 1347 m 37 Y s 895 1366 m 18 Y s 975 1366 m 18 Y
 s 1054 1366 m 18 Y s 1134 1347 m 37 Y s 1213 1366 m 18 Y s 1293 1366 m 18 Y s 1372 1366 m 18 Y s 1452 1347 m 37 Y s 1531 1366 m 18 Y s 1610 1366 m 18 Y s 1690 1366 m 18 Y s 1769 1347 m 37 Y s 498 1347 m 37 Y s 419 1366 m 18 Y s 339 1366 m 18 Y s 260
 1366 m 18 Y s 1769 1347 m 37 Y s 1849 1366 m 18 Y s 1928 1366 m 18 Y s 2008 1366 m 18 Y s 227 154 m 1230 Y s
 gsave  2268 1538 0 0 C 97.7464 772.197 t 90 r /Helvetica-Bold findfont 58.6478 sf 0 0 m (Occupancy in percent) show NC gr  281 154 m -54 X s 254 197 m -27 X s 254 240 m -27 X s 254 283 m -27 X s 281 326 m -54 X s 254 369 m -27 X s 254 412 m -27 X s
 254 455 m -27 X s 281 498 m -54 X s 254 541 m -27 X s 254 584 m -27 X s 254 627 m -27 X s 281 670 m -54 X s 254 713 m -27 X s 254 756 m -27 X s 254 799 m -27 X s 281 842 m -54 X s 254 885 m -27 X s 254 928 m -27 X s 254 971 m -27 X s 281 1014 m -54
 X s 254 1057 m -27 X s 254 1100 m -27 X s 254 1143 m -27 X s 281 1186 m -54 X s 254 1229 m -27 X s 254 1272 m -27 X s 254 1315 m -27 X s 281 1358 m -54 X s 281 1358 m -54 X s
 gsave  2268 1538 0 0 C 182.46 133.587 t 0 r /Helvetica-Bold findfont 58.6478 sf 0 0 m (0) show NC gr 
 gsave  2268 1538 0 0 C 133.587 306.272 t 0 r /Helvetica-Bold findfont 58.6478 sf 0 0 m (0.2) show NC gr 
 gsave  2268 1538 0 0 C 133.587 475.699 t 0 r /Helvetica-Bold findfont 58.6478 sf 0 0 m (0.4) show NC gr 
 gsave  2268 1538 0 0 C 133.587 648.384 t 0 r /Helvetica-Bold findfont 58.6478 sf 0 0 m (0.6) show NC gr 
 gsave  2268 1538 0 0 C 133.587 821.07 t 0 r /Helvetica-Bold findfont 58.6478 sf 0 0 m (0.8) show NC gr 
 gsave  2268 1538 0 0 C 192.235 993.755 t 0 r /Helvetica-Bold findfont 58.6478 sf 0 0 m (1) show NC gr 
 gsave  2268 1538 0 0 C 133.587 1163.18 t 0 r /Helvetica-Bold findfont 58.6478 sf 0 0 m (1.2) show NC gr 
 gsave  2268 1538 0 0 C 133.587 1335.87 t 0 r /Helvetica-Bold findfont 58.6478 sf 0 0 m (1.4) show NC gr  2041 154 m 1230 Y s 1987 154 m 54 X s 2014 197 m 27 X s 2014 240 m 27 X s 2014 283 m 27 X s 1987 326 m 54 X s 2014 369 m 27 X s 2014 412 m 27 X
 s 2014 455 m 27 X s 1987 498 m 54 X s 2014 541 m 27 X s 2014 584 m 27 X s 2014 627 m 27 X s 1987 670 m 54 X s 2014 713 m 27 X s 2014 756 m 27 X s 2014 799 m 27 X s 1987 842 m 54 X s 2014 885 m 27 X s 2014 928 m 27 X s 2014 971 m 27 X s 1987 1014 m
 54 X s 2014 1057 m 27 X s 2014 1100 m 27 X s 2014 1143 m 27 X s 1987 1186 m 54 X s 2014 1229 m 27 X s 2014 1272 m 27 X s 2014 1315 m 27 X s 1987 1358 m 54 X s 1987 1358 m 54 X s 639 298 m 67 -11 d 66 6 d 66 -12 d 66 1 d 67 3 d 64 4 d 66 -9 d 65 -1 d
 65 -1 d 67 14 d 65 -13 d 66 7 d 68 -6 d 66 4 d 64 1 d s /w 26 def /w2 {w 2 div} def /w3 {w 3 div} def 639 298 706 287 772 293 838 281 904 282 971 285 1035 289 1101 280 1166 279 1231 278 1298 292 1363 279 1429 286 1497 280 1563 284 1627 285 16 { m20}
 R 1 0 0 c black 1 0 0 c 309 209 m 66 1 d 67 -9 d 67 X 65 -5 d 65 X 66 1 d 68 1 d 65 X 65 1 d 67 -4 d 66 -1 d 65 -1 d 2147482547 -39 d -2147482482 41 d 66 3 d 66 -5 d 66 3 d 66 2 d 65 -4 d 67 3 d 65 3 d 66 -2 d 66 2 d 68 X 66 2 d 65 -2 d s 309 209
 375 210 442 201 509 201 574 196 639 196 705 197 773 198 838 198 903 199 970 195 1036 194 1101 193 13 { m20} R 1166 195 1232 198 1298 193 1364 196 1430 198 1495 194 1562 197 1627 200 1693 198 1759 200 1827 200 1893 202 1958 200 13 { m20} R 0 1 0 c
 black 0 1 0 c 544 163 m 65 X 64 -2 d 67 1 d 66 1 d 66 X 65 -1 d 66 X 65 1 d 131 1 d 66 -1 d 197 X 66 -1 d 64 1 d 132 X s 544 163 609 163 673 161 740 162 806 163 872 163 937 162 1003 162 1068 163 1199 164 1265 163 1330 163 1397 163 1462 163 1528 162
 1592 163 1659 163 1724 163 18 { m20} R 0 0 1 c black 0 0 1 c 543 159 m 66 1 d 65 -1 d 65 1 d 68 -1 d 786 X 65 1 d 66 -1 d s 543 159 609 160 674 159 739 160 807 159 871 159 937 159 1003 159 1068 159 1199 159 1265 159 1330 159 1396 159 1462 159 1526
 159 1593 159 1658 160 1724 159 18 { m20} R 1 1 0 c black 1 1 0 c -2147483648 154 m s black
 gsave  2268 1538 0 0 C 1531.36 1032.85 t 0 r /Helvetica-Bold findfont 58.6478 sf 0 0 m (Pixel Barrel) show NC gr 
 gsave  2268 1538 0 0 C 1648.66 967.689 t 0 r /Helvetica-Bold findfont 58.6478 sf 0 0 m (Layer 0) show NC gr  1539 980 m 91 X s 1585 980 m20
 gsave  2268 1538 0 0 C 1648.66 902.525 t 0 r /Helvetica-Bold findfont 58.6478 sf 0 0 m (Layer 1) show NC gr  1 0 0 c 1539 916 m 91 X s 1585 916 m20 black
 gsave  2268 1538 0 0 C 1648.66 840.619 t 0 r /Helvetica-Bold findfont 58.6478 sf 0 0 m (Layer 2) show NC gr  0 1 0 c 1539 852 m 91 X s 1585 852 m20 black
 gsave  2268 1538 0 0 C 1648.66 775.455 t 0 r /Helvetica-Bold findfont 58.6478 sf 0 0 m (Layer 3) show NC gr  0 0 1 c 1539 788 m 91 X s 1585 788 m20 black
 gsave  2268 1538 0 0 C 1648.66 710.291 t 0 r /Helvetica-Bold findfont 58.6478 sf 0 0 m (Layer 4) show NC gr  1 1 0 c 1539 724 m 91 X s 1585 724 m20
 gr  gr showpage
end
%%EOF
