%!PS-Adobe-2.0 EPSF-2.0
%%BoundingBox:  0 0 567 384
%%Title: d3pdDirr/pixel_occupancy/occ_pixlayer_mg.eps: c1
%%Creator: ROOT Version 6.04/12
%%CreationDate: Tue Apr 26 00:12:41 2016
%%DocumentNeededResources: ProcSet (FontSetInit)
%%EndComments
%%BeginProlog
80 dict begin
/s {stroke} def /l {lineto} def /m {moveto} def /t {translate} def
/r {rotate} def /rl {roll}  def /R {repeat} def
/d {rlineto} def /rm {rmoveto} def /gr {grestore} def /f {eofill} def
/c {setrgbcolor} def /black {0 setgray} def /sd {setdash} def
/cl {closepath} def /sf {scalefont setfont} def /lw {setlinewidth} def
/box {m dup 0 exch d exch 0 d 0 exch neg d cl} def
/NC{systemdict begin initclip end}def/C{NC box clip newpath}def
/bl {box s} def /bf {gsave box gsave f grestore 1 lw [] 0 sd s grestore} def /Y { 0 exch d} def /X { 0 d} def 
/K {{pop pop 0 moveto} exch kshow} bind def
/ita {/ang 15 def gsave [1 0 ang dup sin exch cos div 1 0 0] concat} def 
/mp {newpath /y exch def /x exch def} def
/side {[w .77 mul w .23 mul] .385 w mul sd w 0 l currentpoint t -144 r} def
/mr {mp x y w2 0 360 arc} def /m24 {mr s} def /m20 {mr f} def
/mb {mp x y w2 add m w2 neg 0 d 0 w neg d w 0 d 0 w d cl} def
/mt {mp x y w2 add m w2 neg w neg d w 0 d cl} def
/m21 {mb f} def /m25 {mb s} def /m22 {mt f} def /m26{mt s} def
/m23 {mp x y w2 sub m w2 w d w neg 0 d cl f} def
/m27 {mp x y w2 add m w3 neg w2 neg d w3 w2 neg d w3 w2 d cl s} def
/m28 {mp x w2 sub y w2 sub w3 add m w3 0 d  0 w3 neg d w3 0 d 0 w3 d w3 0 d  0 w3 d w3 neg 0 d 0 w3 d w3 neg 0 d 0 w3 neg d w3 neg 0 d cl s } def
/m29 {mp gsave x w2 sub y w2 add w3 sub m currentpoint t 4 {side} repeat cl fill gr} def
/m30 {mp gsave x w2 sub y w2 add w3 sub m currentpoint t 4 {side} repeat cl s gr} def
/m31 {mp x y w2 sub m 0 w d x w2 sub y m w 0 d x w2 sub y w2 add m w w neg d x w2 sub y w2 sub m w w d s} def
/m32 {mp x y w2 sub m w2 w d w neg 0 d cl s} def
/m33 {mp x y w2 add m w3 neg w2 neg d w3 w2 neg d w3 w2 d cl f} def
/m34 {mp x w2 sub y w2 sub w3 add m w3 0 d  0 w3 neg d w3 0 d 0 w3 d w3 0 d  0 w3 d w3 neg 0 d 0 w3 d w3 neg 0 d 0 w3 neg d w3 neg 0 d cl f } def
/m2 {mp x y w2 sub m 0 w d x w2 sub y m w 0 d s} def
/m5 {mp x w2 sub y w2 sub m w w d x w2 sub y w2 add m w w neg d s} def
%%IncludeResource: ProcSet (FontSetInit)
%%IncludeResource: font Times-Roman
%%IncludeResource: font Times-Italic
%%IncludeResource: font Times-Bold
%%IncludeResource: font Times-BoldItalic
%%IncludeResource: font Helvetica
%%IncludeResource: font Helvetica-Oblique
%%IncludeResource: font Helvetica-Bold
%%IncludeResource: font Helvetica-BoldOblique
%%IncludeResource: font Courier
%%IncludeResource: font Courier-Oblique
%%IncludeResource: font Courier-Bold
%%IncludeResource: font Courier-BoldOblique
%%IncludeResource: font Symbol
%%IncludeResource: font ZapfDingbats
/reEncode {exch findfont dup length dict begin {1 index /FID eq  {pop pop} {def} ifelse } forall /Encoding exch def currentdict end dup /FontName get exch definefont pop } def [/Times-Bold /Times-Italic /Times-BoldItalic /Helvetica /Helvetica-Oblique
 /Helvetica-Bold /Helvetica-BoldOblique /Courier /Courier-Oblique /Courier-Bold /Courier-BoldOblique /Times-Roman /AvantGarde-Book /AvantGarde-BookOblique /AvantGarde-Demi /AvantGarde-DemiOblique /Bookman-Demi /Bookman-DemiItalic /Bookman-Light
 /Bookman-LightItalic /Helvetica-Narrow /Helvetica-Narrow-Bold /Helvetica-Narrow-BoldOblique /Helvetica-Narrow-Oblique /NewCenturySchlbk-Roman /NewCenturySchlbk-Bold /NewCenturySchlbk-BoldItalic /NewCenturySchlbk-Italic /Palatino-Bold
 /Palatino-BoldItalic /Palatino-Italic /Palatino-Roman ] {ISOLatin1Encoding reEncode } forall
%%EndProlog
%%BeginSetup
%%EndSetup
newpath  gsave  .25 .25 scale  gsave  0 0 t black[  ] 0 sd 3 lw 1 1 1 c 2268 1538 0 0 bf black 1 1 1 c 1814 1230 227 154 bf black 1814 1230 227 154 bl 1 1 1 c 1814 1230 227 154 bf black 1814 1230 227 154 bl 227 154 m 1814 X s
 gsave  2268 1538 0 0 C 1772.47 32.5821 t 0 r /Helvetica-Bold findfont 58.6478 sf 0 0 m (moduleID) show NC gr  500 191 m -37 Y s 563 172 m -18 Y s 626 172 m -18 Y s 690 172 m -18 Y s 753 172 m -18 Y s 817 191 m -37 Y s 880 172 m -18 Y s 944 172 m -18
 Y s 1007 172 m -18 Y s 1070 172 m -18 Y s 1134 191 m -37 Y s 1197 172 m -18 Y s 1261 172 m -18 Y s 1324 172 m -18 Y s 1388 172 m -18 Y s 1451 191 m -37 Y s 1514 172 m -18 Y s 1578 172 m -18 Y s 1641 172 m -18 Y s 1705 172 m -18 Y s 1768 191 m -37 Y
 s 500 191 m -37 Y s 436 172 m -18 Y s 373 172 m -18 Y s 309 172 m -18 Y s 246 172 m -18 Y s 1768 191 m -37 Y s 1832 172 m -18 Y s 1895 172 m -18 Y s 1958 172 m -18 Y s 2022 172 m -18 Y s
 gsave  2268 1538 0 0 C 478.957 97.7464 t 0 r /Helvetica-Bold findfont 58.6478 sf 0 0 m (10) show NC gr 
 gsave  2268 1538 0 0 C 449.633 97.7464 t 0 r /Symbol findfont 58.6478 sf 0 0 m (-) show NC gr 
 gsave  2268 1538 0 0 C 811.295 97.7464 t 0 r /Helvetica-Bold findfont 58.6478 sf 0 0 m (5) show NC gr 
 gsave  2268 1538 0 0 C 781.971 97.7464 t 0 r /Symbol findfont 58.6478 sf 0 0 m (-) show NC gr 
 gsave  2268 1538 0 0 C 1117.57 97.7464 t 0 r /Helvetica-Bold findfont 58.6478 sf 0 0 m (0) show NC gr 
 gsave  2268 1538 0 0 C 1433.61 97.7464 t 0 r /Helvetica-Bold findfont 58.6478 sf 0 0 m (5) show NC gr 
 gsave  2268 1538 0 0 C 1733.37 97.7464 t 0 r /Helvetica-Bold findfont 58.6478 sf 0 0 m (10) show NC gr  227 1384 m 1814 X s 500 1347 m 37 Y s 563 1366 m 18 Y s 626 1366 m 18 Y s 690 1366 m 18 Y s 753 1366 m 18 Y s 817 1347 m 37 Y s 880 1366 m 18 Y s
 944 1366 m 18 Y s 1007 1366 m 18 Y s 1070 1366 m 18 Y s 1134 1347 m 37 Y s 1197 1366 m 18 Y s 1261 1366 m 18 Y s 1324 1366 m 18 Y s 1388 1366 m 18 Y s 1451 1347 m 37 Y s 1514 1366 m 18 Y s 1578 1366 m 18 Y s 1641 1366 m 18 Y s 1705 1366 m 18 Y s
 1768 1347 m 37 Y s 500 1347 m 37 Y s 436 1366 m 18 Y s 373 1366 m 18 Y s 309 1366 m 18 Y s 246 1366 m 18 Y s 1768 1347 m 37 Y s 1832 1366 m 18 Y s 1895 1366 m 18 Y s 1958 1366 m 18 Y s 2022 1366 m 18 Y s 227 154 m 1230 Y s
 gsave  2268 1538 0 0 C 97.7464 772.197 t 90 r /Helvetica-Bold findfont 58.6478 sf 0 0 m (Occupancy in percent) show NC gr  281 154 m -54 X s 254 197 m -27 X s 254 240 m -27 X s 254 283 m -27 X s 281 326 m -54 X s 254 369 m -27 X s 254 412 m -27 X s
 254 455 m -27 X s 281 498 m -54 X s 254 541 m -27 X s 254 584 m -27 X s 254 627 m -27 X s 281 670 m -54 X s 254 713 m -27 X s 254 756 m -27 X s 254 799 m -27 X s 281 842 m -54 X s 254 885 m -27 X s 254 928 m -27 X s 254 971 m -27 X s 281 1014 m -54
 X s 254 1057 m -27 X s 254 1100 m -27 X s 254 1143 m -27 X s 281 1186 m -54 X s 254 1229 m -27 X s 254 1272 m -27 X s 254 1315 m -27 X s 281 1358 m -54 X s 281 1358 m -54 X s
 gsave  2268 1538 0 0 C 182.46 133.587 t 0 r /Helvetica-Bold findfont 58.6478 sf 0 0 m (0) show NC gr 
 gsave  2268 1538 0 0 C 133.587 306.272 t 0 r /Helvetica-Bold findfont 58.6478 sf 0 0 m (0.2) show NC gr 
 gsave  2268 1538 0 0 C 133.587 475.699 t 0 r /Helvetica-Bold findfont 58.6478 sf 0 0 m (0.4) show NC gr 
 gsave  2268 1538 0 0 C 133.587 648.384 t 0 r /Helvetica-Bold findfont 58.6478 sf 0 0 m (0.6) show NC gr 
 gsave  2268 1538 0 0 C 133.587 821.07 t 0 r /Helvetica-Bold findfont 58.6478 sf 0 0 m (0.8) show NC gr 
 gsave  2268 1538 0 0 C 192.235 993.755 t 0 r /Helvetica-Bold findfont 58.6478 sf 0 0 m (1) show NC gr 
 gsave  2268 1538 0 0 C 133.587 1163.18 t 0 r /Helvetica-Bold findfont 58.6478 sf 0 0 m (1.2) show NC gr 
 gsave  2268 1538 0 0 C 133.587 1335.87 t 0 r /Helvetica-Bold findfont 58.6478 sf 0 0 m (1.4) show NC gr  2041 154 m 1230 Y s 1987 154 m 54 X s 2014 197 m 27 X s 2014 240 m 27 X s 2014 283 m 27 X s 1987 326 m 54 X s 2014 369 m 27 X s 2014 412 m 27 X
 s 2014 455 m 27 X s 1987 498 m 54 X s 2014 541 m 27 X s 2014 584 m 27 X s 2014 627 m 27 X s 1987 670 m 54 X s 2014 713 m 27 X s 2014 756 m 27 X s 2014 799 m 27 X s 1987 842 m 54 X s 2014 885 m 27 X s 2014 928 m 27 X s 2014 971 m 27 X s 1987 1014 m
 54 X s 2014 1057 m 27 X s 2014 1100 m 27 X s 2014 1143 m 27 X s 1987 1186 m 54 X s 2014 1229 m 27 X s 2014 1272 m 27 X s 2014 1315 m 27 X s 1987 1358 m 54 X s 1987 1358 m 54 X s 626 298 m 64 -11 d 63 6 d 64 -12 d 63 1 d 64 3 d 63 4 d 63 -9 d 127 -1
 d 64 -1 d 63 14 d 64 -13 d 63 7 d 63 -6 d 64 4 d 63 1 d s /w 26 def /w2 {w 2 div} def /w3 {w 3 div} def 626 298 690 287 753 293 817 281 880 282 944 285 1007 289 1070 280 1197 279 1261 278 1324 292 1388 279 1451 286 1514 280 1578 284 1641 285 16 {
 m20} R 1 0 0 c black 1 0 0 c 309 209 m 64 1 d 63 -9 d 64 X 63 -5 d 63 X 64 1 d 63 1 d 64 X 63 1 d 64 -4 d 63 -1 d 63 -1 d 64 -39 d 63 41 d 64 3 d 63 -5 d 64 3 d 63 2 d 63 -4 d 64 3 d 63 3 d 64 -2 d 63 2 d 64 X 63 2 d 63 -2 d s 309 209 373 210 436
 201 500 201 563 196 626 196 690 197 753 198 817 198 880 199 944 195 1007 194 1070 193 1134 154 1197 195 1261 198 1324 193 1388 196 1451 198 1514 194 1578 197 1641 200 1705 198 1768 200 1832 200 1895 202 1958 200 27 { m20} R 0 1 0 c black 0 1 0 c 563
 163 m 63 X 64 -2 d 63 1 d 64 1 d 63 X 64 -1 d 63 X 63 1 d 127 1 d 64 -1 d 190 X 63 -1 d 64 1 d 127 X s 563 163 626 163 690 161 753 162 817 163 880 163 944 162 1007 162 1070 163 1197 164 1261 163 1324 163 1388 163 1451 163 1514 162 1578 163 1641 163
 1705 163 18 { m20} R 0 0 1 c black 0 0 1 c 563 159 m 63 1 d 64 -1 d 63 1 d 64 -1 d 761 X 63 1 d 64 -1 d s 563 159 626 160 690 159 753 160 817 159 880 159 944 159 1007 159 1070 159 1197 159 1261 159 1324 159 1388 159 1451 159 1514 159 1578 159 1641
 160 1705 159 18 { m20} R 1 1 0 c black 1 1 0 c 563 154 m 1142 X s 563 154 626 154 690 154 753 154 817 154 880 154 944 154 1007 154 1070 154 1197 154 1261 154 1324 154 1388 154 1451 154 1514 154 1578 154 1641 154 1705 154 18 { m20} R black
 gsave  2268 1538 0 0 C 1531.36 1032.85 t 0 r /Helvetica-Bold findfont 58.6478 sf 0 0 m (Pixel Barrel) show NC gr 
 gsave  2268 1538 0 0 C 1648.66 967.689 t 0 r /Helvetica-Bold findfont 58.6478 sf 0 0 m (Layer 0) show NC gr  1539 980 m 91 X s 1585 980 m20
 gsave  2268 1538 0 0 C 1648.66 902.525 t 0 r /Helvetica-Bold findfont 58.6478 sf 0 0 m (Layer 1) show NC gr  1 0 0 c 1539 916 m 91 X s 1585 916 m20 black
 gsave  2268 1538 0 0 C 1648.66 840.619 t 0 r /Helvetica-Bold findfont 58.6478 sf 0 0 m (Layer 2) show NC gr  0 1 0 c 1539 852 m 91 X s 1585 852 m20 black
 gsave  2268 1538 0 0 C 1648.66 775.455 t 0 r /Helvetica-Bold findfont 58.6478 sf 0 0 m (Layer 3) show NC gr  0 0 1 c 1539 788 m 91 X s 1585 788 m20 black
 gsave  2268 1538 0 0 C 1648.66 710.291 t 0 r /Helvetica-Bold findfont 58.6478 sf 0 0 m (Layer 4) show NC gr  1 1 0 c 1539 724 m 91 X s 1585 724 m20
 gr  gr showpage
end
%%EOF
