%!PS-Adobe-2.0 EPSF-2.0
%%BoundingBox:  0 0 567 384
%%Title: d3pdDirr/pixel_occupancy/size_pixlayer_mgz.eps: c1_n11
%%Creator: ROOT Version 6.04/12
%%CreationDate: Tue Apr 26 00:12:42 2016
%%DocumentNeededResources: ProcSet (FontSetInit)
%%EndComments
%%BeginProlog
80 dict begin
/s {stroke} def /l {lineto} def /m {moveto} def /t {translate} def
/r {rotate} def /rl {roll}  def /R {repeat} def
/d {rlineto} def /rm {rmoveto} def /gr {grestore} def /f {eofill} def
/c {setrgbcolor} def /black {0 setgray} def /sd {setdash} def
/cl {closepath} def /sf {scalefont setfont} def /lw {setlinewidth} def
/box {m dup 0 exch d exch 0 d 0 exch neg d cl} def
/NC{systemdict begin initclip end}def/C{NC box clip newpath}def
/bl {box s} def /bf {gsave box gsave f grestore 1 lw [] 0 sd s grestore} def /Y { 0 exch d} def /X { 0 d} def 
/K {{pop pop 0 moveto} exch kshow} bind def
/ita {/ang 15 def gsave [1 0 ang dup sin exch cos div 1 0 0] concat} def 
/mp {newpath /y exch def /x exch def} def
/side {[w .77 mul w .23 mul] .385 w mul sd w 0 l currentpoint t -144 r} def
/mr {mp x y w2 0 360 arc} def /m24 {mr s} def /m20 {mr f} def
/mb {mp x y w2 add m w2 neg 0 d 0 w neg d w 0 d 0 w d cl} def
/mt {mp x y w2 add m w2 neg w neg d w 0 d cl} def
/m21 {mb f} def /m25 {mb s} def /m22 {mt f} def /m26{mt s} def
/m23 {mp x y w2 sub m w2 w d w neg 0 d cl f} def
/m27 {mp x y w2 add m w3 neg w2 neg d w3 w2 neg d w3 w2 d cl s} def
/m28 {mp x w2 sub y w2 sub w3 add m w3 0 d  0 w3 neg d w3 0 d 0 w3 d w3 0 d  0 w3 d w3 neg 0 d 0 w3 d w3 neg 0 d 0 w3 neg d w3 neg 0 d cl s } def
/m29 {mp gsave x w2 sub y w2 add w3 sub m currentpoint t 4 {side} repeat cl fill gr} def
/m30 {mp gsave x w2 sub y w2 add w3 sub m currentpoint t 4 {side} repeat cl s gr} def
/m31 {mp x y w2 sub m 0 w d x w2 sub y m w 0 d x w2 sub y w2 add m w w neg d x w2 sub y w2 sub m w w d s} def
/m32 {mp x y w2 sub m w2 w d w neg 0 d cl s} def
/m33 {mp x y w2 add m w3 neg w2 neg d w3 w2 neg d w3 w2 d cl f} def
/m34 {mp x w2 sub y w2 sub w3 add m w3 0 d  0 w3 neg d w3 0 d 0 w3 d w3 0 d  0 w3 d w3 neg 0 d 0 w3 d w3 neg 0 d 0 w3 neg d w3 neg 0 d cl f } def
/m2 {mp x y w2 sub m 0 w d x w2 sub y m w 0 d s} def
/m5 {mp x w2 sub y w2 sub m w w d x w2 sub y w2 add m w w neg d s} def
%%IncludeResource: ProcSet (FontSetInit)
%%IncludeResource: font Times-Roman
%%IncludeResource: font Times-Italic
%%IncludeResource: font Times-Bold
%%IncludeResource: font Times-BoldItalic
%%IncludeResource: font Helvetica
%%IncludeResource: font Helvetica-Oblique
%%IncludeResource: font Helvetica-Bold
%%IncludeResource: font Helvetica-BoldOblique
%%IncludeResource: font Courier
%%IncludeResource: font Courier-Oblique
%%IncludeResource: font Courier-Bold
%%IncludeResource: font Courier-BoldOblique
%%IncludeResource: font Symbol
%%IncludeResource: font ZapfDingbats
/reEncode {exch findfont dup length dict begin {1 index /FID eq  {pop pop} {def} ifelse } forall /Encoding exch def currentdict end dup /FontName get exch definefont pop } def [/Times-Bold /Times-Italic /Times-BoldItalic /Helvetica /Helvetica-Oblique
 /Helvetica-Bold /Helvetica-BoldOblique /Courier /Courier-Oblique /Courier-Bold /Courier-BoldOblique /Times-Roman /AvantGarde-Book /AvantGarde-BookOblique /AvantGarde-Demi /AvantGarde-DemiOblique /Bookman-Demi /Bookman-DemiItalic /Bookman-Light
 /Bookman-LightItalic /Helvetica-Narrow /Helvetica-Narrow-Bold /Helvetica-Narrow-BoldOblique /Helvetica-Narrow-Oblique /NewCenturySchlbk-Roman /NewCenturySchlbk-Bold /NewCenturySchlbk-BoldItalic /NewCenturySchlbk-Italic /Palatino-Bold
 /Palatino-BoldItalic /Palatino-Italic /Palatino-Roman ] {ISOLatin1Encoding reEncode } forall
%%EndProlog
%%BeginSetup
%%EndSetup
newpath  gsave  .25 .25 scale  gsave  0 0 t black[  ] 0 sd 3 lw 1 1 1 c 2268 1538 0 0 bf black 1 1 1 c 1814 1230 227 154 bf black 1814 1230 227 154 bl 1 1 1 c 1814 1230 227 154 bf black 1814 1230 227 154 bl 227 154 m 1814 X s
 gsave  2268 1538 0 0 C 1853.92 35.8403 t 0 r /Helvetica-Bold findfont 58.6478 sf 0 0 m (z [mm]) show NC gr  498 191 m -37 Y s 578 172 m -18 Y s 657 172 m -18 Y s 736 172 m -18 Y s 816 191 m -37 Y s 895 172 m -18 Y s 975 172 m -18 Y s 1054 172 m -18
 Y s 1134 191 m -37 Y s 1213 172 m -18 Y s 1293 172 m -18 Y s 1372 172 m -18 Y s 1452 191 m -37 Y s 1531 172 m -18 Y s 1610 172 m -18 Y s 1690 172 m -18 Y s 1769 191 m -37 Y s 498 191 m -37 Y s 419 172 m -18 Y s 339 172 m -18 Y s 260 172 m -18 Y s
 1769 191 m -37 Y s 1849 172 m -18 Y s 1928 172 m -18 Y s 2008 172 m -18 Y s
 gsave  2268 1538 0 0 C 459.408 97.7464 t 0 r /Helvetica-Bold findfont 58.6478 sf 0 0 m (400) show NC gr 
 gsave  2268 1538 0 0 C 430.084 97.7464 t 0 r /Symbol findfont 58.6478 sf 0 0 m (-) show NC gr 
 gsave  2268 1538 0 0 C 778.713 97.7464 t 0 r /Helvetica-Bold findfont 58.6478 sf 0 0 m (200) show NC gr 
 gsave  2268 1538 0 0 C 749.389 97.7464 t 0 r /Symbol findfont 58.6478 sf 0 0 m (-) show NC gr 
 gsave  2268 1538 0 0 C 1114.31 97.7464 t 0 r /Helvetica-Bold findfont 58.6478 sf 0 0 m (0) show NC gr 
 gsave  2268 1538 0 0 C 1401.03 97.7464 t 0 r /Helvetica-Bold findfont 58.6478 sf 0 0 m (200) show NC gr 
 gsave  2268 1538 0 0 C 1720.34 97.7464 t 0 r /Helvetica-Bold findfont 58.6478 sf 0 0 m (400) show NC gr  227 1384 m 1814 X s 498 1347 m 37 Y s 578 1366 m 18 Y s 657 1366 m 18 Y s 736 1366 m 18 Y s 816 1347 m 37 Y s 895 1366 m 18 Y s 975 1366 m 18 Y
 s 1054 1366 m 18 Y s 1134 1347 m 37 Y s 1213 1366 m 18 Y s 1293 1366 m 18 Y s 1372 1366 m 18 Y s 1452 1347 m 37 Y s 1531 1366 m 18 Y s 1610 1366 m 18 Y s 1690 1366 m 18 Y s 1769 1347 m 37 Y s 498 1347 m 37 Y s 419 1366 m 18 Y s 339 1366 m 18 Y s 260
 1366 m 18 Y s 1769 1347 m 37 Y s 1849 1366 m 18 Y s 1928 1366 m 18 Y s 2008 1366 m 18 Y s 227 154 m 1230 Y s
 gsave  2268 1538 0 0 C 104.263 1055.66 t 90 r /Helvetica-Bold findfont 58.6478 sf 0 0 m (Cluster size) show NC gr  281 198 m -54 X s 254 247 m -27 X s 254 296 m -27 X s 254 345 m -27 X s 281 395 m -54 X s 254 444 m -27 X s 254 493 m -27 X s 254 543
 m -27 X s 281 592 m -54 X s 254 641 m -27 X s 254 690 m -27 X s 254 740 m -27 X s 281 789 m -54 X s 254 838 m -27 X s 254 888 m -27 X s 254 937 m -27 X s 281 986 m -54 X s 254 1036 m -27 X s 254 1085 m -27 X s 254 1134 m -27 X s 281 1183 m -54 X s
 254 1233 m -27 X s 254 1282 m -27 X s 254 1331 m -27 X s 281 1381 m -54 X s 281 198 m -54 X s 281 1381 m -54 X s
 gsave  2268 1538 0 0 C 182.46 172.685 t 0 r /Helvetica-Bold findfont 58.6478 sf 0 0 m (2) show NC gr 
 gsave  2268 1538 0 0 C 182.46 374.695 t 0 r /Helvetica-Bold findfont 58.6478 sf 0 0 m (4) show NC gr 
 gsave  2268 1538 0 0 C 182.46 570.187 t 0 r /Helvetica-Bold findfont 58.6478 sf 0 0 m (6) show NC gr 
 gsave  2268 1538 0 0 C 182.46 768.938 t 0 r /Helvetica-Bold findfont 58.6478 sf 0 0 m (8) show NC gr 
 gsave  2268 1538 0 0 C 149.878 964.431 t 0 r /Helvetica-Bold findfont 58.6478 sf 0 0 m (10) show NC gr 
 gsave  2268 1538 0 0 C 149.878 1159.92 t 0 r /Helvetica-Bold findfont 58.6478 sf 0 0 m (12) show NC gr 
 gsave  2268 1538 0 0 C 149.878 1358.67 t 0 r /Helvetica-Bold findfont 58.6478 sf 0 0 m (14) show NC gr  2041 154 m 1230 Y s 1987 198 m 54 X s 2014 247 m 27 X s 2014 296 m 27 X s 2014 345 m 27 X s 1987 395 m 54 X s 2014 444 m 27 X s 2014 493 m 27 X s
 2014 543 m 27 X s 1987 592 m 54 X s 2014 641 m 27 X s 2014 690 m 27 X s 2014 740 m 27 X s 1987 789 m 54 X s 2014 838 m 27 X s 2014 888 m 27 X s 2014 937 m 27 X s 1987 986 m 54 X s 2014 1036 m 27 X s 2014 1085 m 27 X s 2014 1134 m 27 X s 1987 1183 m
 54 X s 2014 1233 m 27 X s 2014 1282 m 27 X s 2014 1331 m 27 X s 1987 1381 m 54 X s 1987 198 m 54 X s 1987 1381 m 54 X s 639 974 m 21 Y s 632 995 m 13 X s 639 948 m -22 Y s 632 926 m 13 X s 706 888 m 14 Y s 699 902 m 13 X s 706 862 m -14 Y s 699 848
 m 13 X s 772 782 m 4 Y s 766 786 m 13 X s 772 756 m -5 Y s 766 751 m 13 X s 639 961 m 67 -86 d 66 -106 d 66 -161 d 66 -114 d 67 -93 d 64 -51 d 66 -43 d 65 4 d 65 21 d 67 112 d 65 33 d 66 133 d 68 82 d 66 84 d 64 14 d s /w 26 def /w2 {w 2 div} def
 /w3 {w 3 div} def 639 961 706 875 772 769 838 608 904 494 971 401 1035 350 1101 307 1166 311 1231 332 1298 444 1363 477 1429 610 1497 692 1563 776 1627 790 16 { m20} R 1 0 0 c 309 710 m 8 Y s 303 718 m 13 X s 309 684 m -8 Y s 303 676 m 13 X s 375
 724 m 13 Y s 369 737 m 13 X s 375 698 m -12 Y s 369 686 m 13 X s 509 668 m 3 Y s 503 671 m 13 X s 509 642 m -2 Y s 503 640 m 13 X s 1759 644 m 1 Y s 1753 645 m 13 X s 1759 618 m -2 Y s 1753 616 m 13 X s 1827 660 m 1 Y s 1820 661 m 13 X s 1827 634 m
 s 1820 634 m 13 X s 1893 689 m 3 Y s 1886 692 m 13 X s 1893 663 m -4 Y s 1886 659 m 13 X s black 1 0 0 c 309 697 m 66 14 d 67 -49 d 67 -7 d 65 -68 d 65 -21 d 66 -63 d 68 -56 d 65 -27 d 65 -56 d 67 -59 d 66 -17 d 65 -28 d 2147482547 2147483388 d
 -2147482482 -2147483382 d 66 29 d 66 13 d 66 58 d 66 59 d 65 49 d 67 38 d 65 39 d 66 23 d 66 57 d 68 16 d 66 29 d 65 -18 d s 309 697 375 711 442 662 509 655 574 587 639 566 705 503 773 447 838 420 903 364 970 305 1036 288 1101 260 13 { m20} R 1166
 266 1232 295 1298 308 1364 366 1430 425 1495 474 1562 512 1627 551 1693 574 1759 631 1827 647 1893 676 1958 658 13 { m20} R 0 1 0 c black 0 1 0 c 544 295 m 65 -1 d 64 -38 d 67 -5 d 66 7 d 66 -26 d 65 -17 d 66 -18 d 65 12 d 131 25 d 66 -7 d 65 4 d 67
 9 d 65 31 d 66 -10 d 64 3 d 67 35 d 65 5 d s 544 295 609 294 673 256 740 251 806 258 872 232 937 215 1003 197 1068 209 1199 234 1265 227 1330 231 1397 240 1462 271 1528 261 1592 264 1659 299 1724 304 18 { m20} R 0 0 1 c black 0 0 1 c 543 273 m 66 20
 d 65 -22 d 65 -9 d 68 -15 d 64 -4 d 66 -25 d 66 6 d 65 1 d 131 -13 d 66 4 d 65 -4 d 66 40 d 66 -15 d 64 20 d 67 6 d 65 47 d 66 -46 d s 543 273 609 293 674 271 739 262 807 247 871 243 937 218 1003 224 1068 225 1199 212 1265 216 1330 212 1396 252 1462
 237 1526 257 1593 263 1658 310 1724 264 18 { m20} R 1 1 0 c black 1 1 0 c -2147483648 -2147483648 m s black
 gsave  2268 1538 0 0 C 1394.52 1280.48 t 0 r /Helvetica-Bold findfont 58.6478 sf 0 0 m (Pixel Barrel) show NC gr 
 gsave  2268 1538 0 0 C 1495.52 1241.38 t 0 r /Helvetica-Bold findfont 58.6478 sf 0 0 m (Layer 0) show NC gr  1400 1250 m 80 X s 1440 1250 m20
 gsave  2268 1538 0 0 C 1495.52 1205.54 t 0 r /Helvetica-Bold findfont 58.6478 sf 0 0 m (Layer 1) show NC gr  1 0 0 c 1400 1211 m 80 X s 1440 1211 m20 black
 gsave  2268 1538 0 0 C 1495.52 1166.44 t 0 r /Helvetica-Bold findfont 58.6478 sf 0 0 m (Layer 2) show NC gr  0 1 0 c 1400 1173 m 80 X s 1440 1173 m20 black
 gsave  2268 1538 0 0 C 1495.52 1127.34 t 0 r /Helvetica-Bold findfont 58.6478 sf 0 0 m (Layer 3) show NC gr  0 0 1 c 1400 1134 m 80 X s 1440 1134 m20 black
 gsave  2268 1538 0 0 C 1495.52 1088.24 t 0 r /Helvetica-Bold findfont 58.6478 sf 0 0 m (Layer 4) show NC gr  1 1 0 c 1400 1096 m 80 X s 1440 1096 m20
 gr  gr showpage
end
%%EOF
