%!PS-Adobe-2.0 EPSF-2.0
%%BoundingBox:  0 0 567 384
%%Title: d3pdDirr/pixel_occupancy/size_pixlayer_mg.eps: c1_n10
%%Creator: ROOT Version 6.04/12
%%CreationDate: Tue Apr 26 00:12:42 2016
%%DocumentNeededResources: ProcSet (FontSetInit)
%%EndComments
%%BeginProlog
80 dict begin
/s {stroke} def /l {lineto} def /m {moveto} def /t {translate} def
/r {rotate} def /rl {roll}  def /R {repeat} def
/d {rlineto} def /rm {rmoveto} def /gr {grestore} def /f {eofill} def
/c {setrgbcolor} def /black {0 setgray} def /sd {setdash} def
/cl {closepath} def /sf {scalefont setfont} def /lw {setlinewidth} def
/box {m dup 0 exch d exch 0 d 0 exch neg d cl} def
/NC{systemdict begin initclip end}def/C{NC box clip newpath}def
/bl {box s} def /bf {gsave box gsave f grestore 1 lw [] 0 sd s grestore} def /Y { 0 exch d} def /X { 0 d} def 
/K {{pop pop 0 moveto} exch kshow} bind def
/ita {/ang 15 def gsave [1 0 ang dup sin exch cos div 1 0 0] concat} def 
/mp {newpath /y exch def /x exch def} def
/side {[w .77 mul w .23 mul] .385 w mul sd w 0 l currentpoint t -144 r} def
/mr {mp x y w2 0 360 arc} def /m24 {mr s} def /m20 {mr f} def
/mb {mp x y w2 add m w2 neg 0 d 0 w neg d w 0 d 0 w d cl} def
/mt {mp x y w2 add m w2 neg w neg d w 0 d cl} def
/m21 {mb f} def /m25 {mb s} def /m22 {mt f} def /m26{mt s} def
/m23 {mp x y w2 sub m w2 w d w neg 0 d cl f} def
/m27 {mp x y w2 add m w3 neg w2 neg d w3 w2 neg d w3 w2 d cl s} def
/m28 {mp x w2 sub y w2 sub w3 add m w3 0 d  0 w3 neg d w3 0 d 0 w3 d w3 0 d  0 w3 d w3 neg 0 d 0 w3 d w3 neg 0 d 0 w3 neg d w3 neg 0 d cl s } def
/m29 {mp gsave x w2 sub y w2 add w3 sub m currentpoint t 4 {side} repeat cl fill gr} def
/m30 {mp gsave x w2 sub y w2 add w3 sub m currentpoint t 4 {side} repeat cl s gr} def
/m31 {mp x y w2 sub m 0 w d x w2 sub y m w 0 d x w2 sub y w2 add m w w neg d x w2 sub y w2 sub m w w d s} def
/m32 {mp x y w2 sub m w2 w d w neg 0 d cl s} def
/m33 {mp x y w2 add m w3 neg w2 neg d w3 w2 neg d w3 w2 d cl f} def
/m34 {mp x w2 sub y w2 sub w3 add m w3 0 d  0 w3 neg d w3 0 d 0 w3 d w3 0 d  0 w3 d w3 neg 0 d 0 w3 d w3 neg 0 d 0 w3 neg d w3 neg 0 d cl f } def
/m2 {mp x y w2 sub m 0 w d x w2 sub y m w 0 d s} def
/m5 {mp x w2 sub y w2 sub m w w d x w2 sub y w2 add m w w neg d s} def
%%IncludeResource: ProcSet (FontSetInit)
%%IncludeResource: font Times-Roman
%%IncludeResource: font Times-Italic
%%IncludeResource: font Times-Bold
%%IncludeResource: font Times-BoldItalic
%%IncludeResource: font Helvetica
%%IncludeResource: font Helvetica-Oblique
%%IncludeResource: font Helvetica-Bold
%%IncludeResource: font Helvetica-BoldOblique
%%IncludeResource: font Courier
%%IncludeResource: font Courier-Oblique
%%IncludeResource: font Courier-Bold
%%IncludeResource: font Courier-BoldOblique
%%IncludeResource: font Symbol
%%IncludeResource: font ZapfDingbats
/reEncode {exch findfont dup length dict begin {1 index /FID eq  {pop pop} {def} ifelse } forall /Encoding exch def currentdict end dup /FontName get exch definefont pop } def [/Times-Bold /Times-Italic /Times-BoldItalic /Helvetica /Helvetica-Oblique
 /Helvetica-Bold /Helvetica-BoldOblique /Courier /Courier-Oblique /Courier-Bold /Courier-BoldOblique /Times-Roman /AvantGarde-Book /AvantGarde-BookOblique /AvantGarde-Demi /AvantGarde-DemiOblique /Bookman-Demi /Bookman-DemiItalic /Bookman-Light
 /Bookman-LightItalic /Helvetica-Narrow /Helvetica-Narrow-Bold /Helvetica-Narrow-BoldOblique /Helvetica-Narrow-Oblique /NewCenturySchlbk-Roman /NewCenturySchlbk-Bold /NewCenturySchlbk-BoldItalic /NewCenturySchlbk-Italic /Palatino-Bold
 /Palatino-BoldItalic /Palatino-Italic /Palatino-Roman ] {ISOLatin1Encoding reEncode } forall
%%EndProlog
%%BeginSetup
%%EndSetup
newpath  gsave  .25 .25 scale  gsave  0 0 t black[  ] 0 sd 3 lw 1 1 1 c 2268 1538 0 0 bf black 1 1 1 c 1814 1230 227 154 bf black 1814 1230 227 154 bl 1 1 1 c 1814 1230 227 154 bf black 1814 1230 227 154 bl 227 154 m 1814 X s
 gsave  2268 1538 0 0 C 1772.47 32.5821 t 0 r /Helvetica-Bold findfont 58.6478 sf 0 0 m (moduleID) show NC gr  500 191 m -37 Y s 563 172 m -18 Y s 626 172 m -18 Y s 690 172 m -18 Y s 753 172 m -18 Y s 817 191 m -37 Y s 880 172 m -18 Y s 944 172 m -18
 Y s 1007 172 m -18 Y s 1070 172 m -18 Y s 1134 191 m -37 Y s 1197 172 m -18 Y s 1261 172 m -18 Y s 1324 172 m -18 Y s 1388 172 m -18 Y s 1451 191 m -37 Y s 1514 172 m -18 Y s 1578 172 m -18 Y s 1641 172 m -18 Y s 1705 172 m -18 Y s 1768 191 m -37 Y
 s 500 191 m -37 Y s 436 172 m -18 Y s 373 172 m -18 Y s 309 172 m -18 Y s 246 172 m -18 Y s 1768 191 m -37 Y s 1832 172 m -18 Y s 1895 172 m -18 Y s 1958 172 m -18 Y s 2022 172 m -18 Y s
 gsave  2268 1538 0 0 C 478.957 97.7464 t 0 r /Helvetica-Bold findfont 58.6478 sf 0 0 m (10) show NC gr 
 gsave  2268 1538 0 0 C 449.633 97.7464 t 0 r /Symbol findfont 58.6478 sf 0 0 m (-) show NC gr 
 gsave  2268 1538 0 0 C 811.295 97.7464 t 0 r /Helvetica-Bold findfont 58.6478 sf 0 0 m (5) show NC gr 
 gsave  2268 1538 0 0 C 781.971 97.7464 t 0 r /Symbol findfont 58.6478 sf 0 0 m (-) show NC gr 
 gsave  2268 1538 0 0 C 1117.57 97.7464 t 0 r /Helvetica-Bold findfont 58.6478 sf 0 0 m (0) show NC gr 
 gsave  2268 1538 0 0 C 1433.61 97.7464 t 0 r /Helvetica-Bold findfont 58.6478 sf 0 0 m (5) show NC gr 
 gsave  2268 1538 0 0 C 1733.37 97.7464 t 0 r /Helvetica-Bold findfont 58.6478 sf 0 0 m (10) show NC gr  227 1384 m 1814 X s 500 1347 m 37 Y s 563 1366 m 18 Y s 626 1366 m 18 Y s 690 1366 m 18 Y s 753 1366 m 18 Y s 817 1347 m 37 Y s 880 1366 m 18 Y s
 944 1366 m 18 Y s 1007 1366 m 18 Y s 1070 1366 m 18 Y s 1134 1347 m 37 Y s 1197 1366 m 18 Y s 1261 1366 m 18 Y s 1324 1366 m 18 Y s 1388 1366 m 18 Y s 1451 1347 m 37 Y s 1514 1366 m 18 Y s 1578 1366 m 18 Y s 1641 1366 m 18 Y s 1705 1366 m 18 Y s
 1768 1347 m 37 Y s 500 1347 m 37 Y s 436 1366 m 18 Y s 373 1366 m 18 Y s 309 1366 m 18 Y s 246 1366 m 18 Y s 1768 1347 m 37 Y s 1832 1366 m 18 Y s 1895 1366 m 18 Y s 1958 1366 m 18 Y s 2022 1366 m 18 Y s 227 154 m 1230 Y s
 gsave  2268 1538 0 0 C 104.263 1055.66 t 90 r /Helvetica-Bold findfont 58.6478 sf 0 0 m (Cluster size) show NC gr  281 198 m -54 X s 254 247 m -27 X s 254 296 m -27 X s 254 345 m -27 X s 281 395 m -54 X s 254 444 m -27 X s 254 493 m -27 X s 254 543
 m -27 X s 281 592 m -54 X s 254 641 m -27 X s 254 690 m -27 X s 254 740 m -27 X s 281 789 m -54 X s 254 838 m -27 X s 254 888 m -27 X s 254 937 m -27 X s 281 986 m -54 X s 254 1036 m -27 X s 254 1085 m -27 X s 254 1134 m -27 X s 281 1183 m -54 X s
 254 1233 m -27 X s 254 1282 m -27 X s 254 1331 m -27 X s 281 1381 m -54 X s 281 198 m -54 X s 281 1381 m -54 X s
 gsave  2268 1538 0 0 C 182.46 172.685 t 0 r /Helvetica-Bold findfont 58.6478 sf 0 0 m (2) show NC gr 
 gsave  2268 1538 0 0 C 182.46 374.695 t 0 r /Helvetica-Bold findfont 58.6478 sf 0 0 m (4) show NC gr 
 gsave  2268 1538 0 0 C 182.46 570.187 t 0 r /Helvetica-Bold findfont 58.6478 sf 0 0 m (6) show NC gr 
 gsave  2268 1538 0 0 C 182.46 768.938 t 0 r /Helvetica-Bold findfont 58.6478 sf 0 0 m (8) show NC gr 
 gsave  2268 1538 0 0 C 149.878 964.431 t 0 r /Helvetica-Bold findfont 58.6478 sf 0 0 m (10) show NC gr 
 gsave  2268 1538 0 0 C 149.878 1159.92 t 0 r /Helvetica-Bold findfont 58.6478 sf 0 0 m (12) show NC gr 
 gsave  2268 1538 0 0 C 149.878 1358.67 t 0 r /Helvetica-Bold findfont 58.6478 sf 0 0 m (14) show NC gr  2041 154 m 1230 Y s 1987 198 m 54 X s 2014 247 m 27 X s 2014 296 m 27 X s 2014 345 m 27 X s 1987 395 m 54 X s 2014 444 m 27 X s 2014 493 m 27 X s
 2014 543 m 27 X s 1987 592 m 54 X s 2014 641 m 27 X s 2014 690 m 27 X s 2014 740 m 27 X s 1987 789 m 54 X s 2014 838 m 27 X s 2014 888 m 27 X s 2014 937 m 27 X s 1987 986 m 54 X s 2014 1036 m 27 X s 2014 1085 m 27 X s 2014 1134 m 27 X s 1987 1183 m
 54 X s 2014 1233 m 27 X s 2014 1282 m 27 X s 2014 1331 m 27 X s 1987 1381 m 54 X s 1987 198 m 54 X s 1987 1381 m 54 X s 626 974 m 21 Y s 620 995 m 13 X s 626 948 m -22 Y s 620 926 m 13 X s 690 888 m 14 Y s 683 902 m 13 X s 690 862 m -14 Y s 683 848
 m 13 X s 753 782 m 4 Y s 747 786 m 13 X s 753 756 m -5 Y s 747 751 m 13 X s 626 961 m 64 -86 d 63 -106 d 64 -161 d 63 -114 d 64 -93 d 63 -51 d 63 -43 d 127 4 d 64 21 d 63 112 d 64 33 d 63 133 d 63 82 d 64 84 d 63 14 d s /w 26 def /w2 {w 2 div} def
 /w3 {w 3 div} def 626 961 690 875 753 769 817 608 880 494 944 401 1007 350 1070 307 1197 311 1261 332 1324 444 1388 477 1451 610 1514 692 1578 776 1641 790 16 { m20} R 1 0 0 c 309 710 m 8 Y s 303 718 m 13 X s 309 684 m -8 Y s 303 676 m 13 X s 373
 724 m 13 Y s 366 737 m 13 X s 373 698 m -12 Y s 366 686 m 13 X s 500 668 m 3 Y s 493 671 m 13 X s 500 642 m -2 Y s 493 640 m 13 X s 1768 644 m 1 Y s 1762 645 m 13 X s 1768 618 m -2 Y s 1762 616 m 13 X s 1832 660 m 1 Y s 1825 661 m 13 X s 1832 634 m
 s 1825 634 m 13 X s 1895 689 m 3 Y s 1889 692 m 13 X s 1895 663 m -4 Y s 1889 659 m 13 X s black 1 0 0 c 309 697 m 64 14 d 63 -49 d 64 -7 d 63 -68 d 63 -21 d 64 -63 d 63 -56 d 64 -27 d 63 -56 d 64 -59 d 63 -17 d 63 -28 d 64 2147483388 d 63
 -2147483382 d 64 29 d 63 13 d 64 58 d 63 59 d 63 49 d 64 38 d 63 39 d 64 23 d 63 57 d 64 16 d 63 29 d 63 -18 d s 309 697 373 711 436 662 500 655 563 587 626 566 690 503 753 447 817 420 880 364 944 305 1007 288 1070 260 13 { m20} R 1197 266 1261 295
 1324 308 1388 366 1451 425 1514 474 1578 512 1641 551 1705 574 1768 631 1832 647 1895 676 1958 658 13 { m20} R 0 1 0 c black 0 1 0 c 563 295 m 63 -1 d 64 -38 d 63 -5 d 64 7 d 63 -26 d 64 -17 d 63 -18 d 63 12 d 127 25 d 64 -7 d 63 4 d 64 9 d 63 31 d
 63 -10 d 64 3 d 63 35 d 64 5 d s 563 295 626 294 690 256 753 251 817 258 880 232 944 215 1007 197 1070 209 1197 234 1261 227 1324 231 1388 240 1451 271 1514 261 1578 264 1641 299 1705 304 18 { m20} R 0 0 1 c black 0 0 1 c 563 273 m 63 20 d 64 -22 d
 63 -9 d 64 -15 d 63 -4 d 64 -25 d 63 6 d 63 1 d 127 -13 d 64 4 d 63 -4 d 64 40 d 63 -15 d 63 20 d 64 6 d 63 47 d 64 -46 d s 563 273 626 293 690 271 753 262 817 247 880 243 944 218 1007 224 1070 225 1197 212 1261 216 1324 212 1388 252 1451 237 1514
 257 1578 263 1641 310 1705 264 18 { m20} R 1 1 0 c black 1 1 0 c 563 -2147483648 m 1142 X s black
 gsave  2268 1538 0 0 C 1394.52 1280.48 t 0 r /Helvetica-Bold findfont 58.6478 sf 0 0 m (Pixel Barrel) show NC gr 
 gsave  2268 1538 0 0 C 1495.52 1241.38 t 0 r /Helvetica-Bold findfont 58.6478 sf 0 0 m (Layer 0) show NC gr  1400 1250 m 80 X s 1440 1250 m20
 gsave  2268 1538 0 0 C 1495.52 1205.54 t 0 r /Helvetica-Bold findfont 58.6478 sf 0 0 m (Layer 1) show NC gr  1 0 0 c 1400 1211 m 80 X s 1440 1211 m20 black
 gsave  2268 1538 0 0 C 1495.52 1166.44 t 0 r /Helvetica-Bold findfont 58.6478 sf 0 0 m (Layer 2) show NC gr  0 1 0 c 1400 1173 m 80 X s 1440 1173 m20 black
 gsave  2268 1538 0 0 C 1495.52 1127.34 t 0 r /Helvetica-Bold findfont 58.6478 sf 0 0 m (Layer 3) show NC gr  0 0 1 c 1400 1134 m 80 X s 1440 1134 m20 black
 gsave  2268 1538 0 0 C 1495.52 1088.24 t 0 r /Helvetica-Bold findfont 58.6478 sf 0 0 m (Layer 4) show NC gr  1 1 0 c 1400 1096 m 80 X s 1440 1096 m20
 gr  gr showpage
end
%%EOF
