%!PS-Adobe-2.0 EPSF-2.0
%%BoundingBox:  0 0 567 384
%%Title: d3pdDirr/pixel_occupancy/size_pixdisk_mg.eps: c1_n42
%%Creator: ROOT Version 6.04/12
%%CreationDate: Tue Apr 26 00:12:46 2016
%%DocumentNeededResources: ProcSet (FontSetInit)
%%EndComments
%%BeginProlog
80 dict begin
/s {stroke} def /l {lineto} def /m {moveto} def /t {translate} def
/r {rotate} def /rl {roll}  def /R {repeat} def
/d {rlineto} def /rm {rmoveto} def /gr {grestore} def /f {eofill} def
/c {setrgbcolor} def /black {0 setgray} def /sd {setdash} def
/cl {closepath} def /sf {scalefont setfont} def /lw {setlinewidth} def
/box {m dup 0 exch d exch 0 d 0 exch neg d cl} def
/NC{systemdict begin initclip end}def/C{NC box clip newpath}def
/bl {box s} def /bf {gsave box gsave f grestore 1 lw [] 0 sd s grestore} def /Y { 0 exch d} def /X { 0 d} def 
/K {{pop pop 0 moveto} exch kshow} bind def
/ita {/ang 15 def gsave [1 0 ang dup sin exch cos div 1 0 0] concat} def 
/mp {newpath /y exch def /x exch def} def
/side {[w .77 mul w .23 mul] .385 w mul sd w 0 l currentpoint t -144 r} def
/mr {mp x y w2 0 360 arc} def /m24 {mr s} def /m20 {mr f} def
/mb {mp x y w2 add m w2 neg 0 d 0 w neg d w 0 d 0 w d cl} def
/mt {mp x y w2 add m w2 neg w neg d w 0 d cl} def
/m21 {mb f} def /m25 {mb s} def /m22 {mt f} def /m26{mt s} def
/m23 {mp x y w2 sub m w2 w d w neg 0 d cl f} def
/m27 {mp x y w2 add m w3 neg w2 neg d w3 w2 neg d w3 w2 d cl s} def
/m28 {mp x w2 sub y w2 sub w3 add m w3 0 d  0 w3 neg d w3 0 d 0 w3 d w3 0 d  0 w3 d w3 neg 0 d 0 w3 d w3 neg 0 d 0 w3 neg d w3 neg 0 d cl s } def
/m29 {mp gsave x w2 sub y w2 add w3 sub m currentpoint t 4 {side} repeat cl fill gr} def
/m30 {mp gsave x w2 sub y w2 add w3 sub m currentpoint t 4 {side} repeat cl s gr} def
/m31 {mp x y w2 sub m 0 w d x w2 sub y m w 0 d x w2 sub y w2 add m w w neg d x w2 sub y w2 sub m w w d s} def
/m32 {mp x y w2 sub m w2 w d w neg 0 d cl s} def
/m33 {mp x y w2 add m w3 neg w2 neg d w3 w2 neg d w3 w2 d cl f} def
/m34 {mp x w2 sub y w2 sub w3 add m w3 0 d  0 w3 neg d w3 0 d 0 w3 d w3 0 d  0 w3 d w3 neg 0 d 0 w3 d w3 neg 0 d 0 w3 neg d w3 neg 0 d cl f } def
/m2 {mp x y w2 sub m 0 w d x w2 sub y m w 0 d s} def
/m5 {mp x w2 sub y w2 sub m w w d x w2 sub y w2 add m w w neg d s} def
%%IncludeResource: ProcSet (FontSetInit)
%%IncludeResource: font Times-Roman
%%IncludeResource: font Times-Italic
%%IncludeResource: font Times-Bold
%%IncludeResource: font Times-BoldItalic
%%IncludeResource: font Helvetica
%%IncludeResource: font Helvetica-Oblique
%%IncludeResource: font Helvetica-Bold
%%IncludeResource: font Helvetica-BoldOblique
%%IncludeResource: font Courier
%%IncludeResource: font Courier-Oblique
%%IncludeResource: font Courier-Bold
%%IncludeResource: font Courier-BoldOblique
%%IncludeResource: font Symbol
%%IncludeResource: font ZapfDingbats
/reEncode {exch findfont dup length dict begin {1 index /FID eq  {pop pop} {def} ifelse } forall /Encoding exch def currentdict end dup /FontName get exch definefont pop } def [/Times-Bold /Times-Italic /Times-BoldItalic /Helvetica /Helvetica-Oblique
 /Helvetica-Bold /Helvetica-BoldOblique /Courier /Courier-Oblique /Courier-Bold /Courier-BoldOblique /Times-Roman /AvantGarde-Book /AvantGarde-BookOblique /AvantGarde-Demi /AvantGarde-DemiOblique /Bookman-Demi /Bookman-DemiItalic /Bookman-Light
 /Bookman-LightItalic /Helvetica-Narrow /Helvetica-Narrow-Bold /Helvetica-Narrow-BoldOblique /Helvetica-Narrow-Oblique /NewCenturySchlbk-Roman /NewCenturySchlbk-Bold /NewCenturySchlbk-BoldItalic /NewCenturySchlbk-Italic /Palatino-Bold
 /Palatino-BoldItalic /Palatino-Italic /Palatino-Roman ] {ISOLatin1Encoding reEncode } forall
%%EndProlog
%%BeginSetup
%%EndSetup
newpath  gsave  .25 .25 scale  gsave  0 0 t black[  ] 0 sd 3 lw 1 1 1 c 2268 1538 0 0 bf black 1 1 1 c 1814 1230 227 154 bf black 1814 1230 227 154 bl 1 1 1 c 1814 1230 227 154 bf black 1814 1230 227 154 bl 227 154 m 1814 X s 309 191 m -37 Y s 392
 172 m -18 Y s 474 172 m -18 Y s 557 172 m -18 Y s 639 172 m -18 Y s 722 191 m -37 Y s 804 172 m -18 Y s 886 172 m -18 Y s 969 172 m -18 Y s 1051 172 m -18 Y s 1134 191 m -37 Y s 1216 172 m -18 Y s 1299 172 m -18 Y s 1381 172 m -18 Y s 1464 172 m -18
 Y s 1546 191 m -37 Y s 1629 172 m -18 Y s 1711 172 m -18 Y s 1794 172 m -18 Y s 1876 172 m -18 Y s 1958 191 m -37 Y s 309 191 m -37 Y s 1958 191 m -37 Y s 2041 172 m -18 Y s
 gsave  2268 1538 0 0 C 289.981 97.7464 t 0 r /Helvetica-Bold findfont 58.6478 sf 0 0 m (0) show NC gr 
 gsave  2268 1538 0 0 C 677.708 97.7464 t 0 r /Helvetica-Bold findfont 58.6478 sf 0 0 m (0.5) show NC gr 
 gsave  2268 1538 0 0 C 1120.83 97.7464 t 0 r /Helvetica-Bold findfont 58.6478 sf 0 0 m (1) show NC gr 
 gsave  2268 1538 0 0 C 1502.04 97.7464 t 0 r /Helvetica-Bold findfont 58.6478 sf 0 0 m (1.5) show NC gr 
 gsave  2268 1538 0 0 C 1941.9 97.7464 t 0 r /Helvetica-Bold findfont 58.6478 sf 0 0 m (2) show NC gr  227 1384 m 1814 X s 309 1347 m 37 Y s 392 1366 m 18 Y s 474 1366 m 18 Y s 557 1366 m 18 Y s 639 1366 m 18 Y s 722 1347 m 37 Y s 804 1366 m 18 Y s
 886 1366 m 18 Y s 969 1366 m 18 Y s 1051 1366 m 18 Y s 1134 1347 m 37 Y s 1216 1366 m 18 Y s 1299 1366 m 18 Y s 1381 1366 m 18 Y s 1464 1366 m 18 Y s 1546 1347 m 37 Y s 1629 1366 m 18 Y s 1711 1366 m 18 Y s 1794 1366 m 18 Y s 1876 1366 m 18 Y s 1958
 1347 m 37 Y s 309 1347 m 37 Y s 1958 1347 m 37 Y s 2041 1366 m 18 Y s 227 154 m 1230 Y s 281 206 m -54 X s 254 243 m -27 X s 254 280 m -27 X s 254 318 m -27 X s 281 355 m -54 X s 254 393 m -27 X s 254 430 m -27 X s 254 467 m -27 X s 281 505 m -54 X
 s 254 542 m -27 X s 254 579 m -27 X s 254 617 m -27 X s 281 654 m -54 X s 254 692 m -27 X s 254 729 m -27 X s 254 766 m -27 X s 281 804 m -54 X s 254 841 m -27 X s 254 878 m -27 X s 254 916 m -27 X s 281 953 m -54 X s 254 991 m -27 X s 254 1028 m
 -27 X s 254 1065 m -27 X s 281 1103 m -54 X s 254 1140 m -27 X s 254 1178 m -27 X s 254 1215 m -27 X s 281 1252 m -54 X s 281 206 m -54 X s 254 168 m -27 X s 281 1252 m -54 X s 254 1290 m -27 X s 254 1327 m -27 X s 254 1364 m -27 X s
 gsave  2268 1538 0 0 C 133.587 185.718 t 0 r /Helvetica-Bold findfont 58.6478 sf 0 0 m (1.6) show NC gr 
 gsave  2268 1538 0 0 C 133.587 332.338 t 0 r /Helvetica-Bold findfont 58.6478 sf 0 0 m (1.8) show NC gr 
 gsave  2268 1538 0 0 C 182.46 478.957 t 0 r /Helvetica-Bold findfont 58.6478 sf 0 0 m (2) show NC gr 
 gsave  2268 1538 0 0 C 133.587 628.835 t 0 r /Helvetica-Bold findfont 58.6478 sf 0 0 m (2.2) show NC gr 
 gsave  2268 1538 0 0 C 133.587 778.713 t 0 r /Helvetica-Bold findfont 58.6478 sf 0 0 m (2.4) show NC gr 
 gsave  2268 1538 0 0 C 133.587 931.849 t 0 r /Helvetica-Bold findfont 58.6478 sf 0 0 m (2.6) show NC gr 
 gsave  2268 1538 0 0 C 133.587 1081.73 t 0 r /Helvetica-Bold findfont 58.6478 sf 0 0 m (2.8) show NC gr 
 gsave  2268 1538 0 0 C 182.46 1231.6 t 0 r /Helvetica-Bold findfont 58.6478 sf 0 0 m (3) show NC gr  2041 154 m 1230 Y s 1987 206 m 54 X s 2014 243 m 27 X s 2014 280 m 27 X s 2014 318 m 27 X s 1987 355 m 54 X s 2014 393 m 27 X s 2014 430 m 27 X s
 2014 467 m 27 X s 1987 505 m 54 X s 2014 542 m 27 X s 2014 579 m 27 X s 2014 617 m 27 X s 1987 654 m 54 X s 2014 692 m 27 X s 2014 729 m 27 X s 2014 766 m 27 X s 1987 804 m 54 X s 2014 841 m 27 X s 2014 878 m 27 X s 2014 916 m 27 X s 1987 953 m 54 X
 s 2014 991 m 27 X s 2014 1028 m 27 X s 2014 1065 m 27 X s 1987 1103 m 54 X s 2014 1140 m 27 X s 2014 1178 m 27 X s 2014 1215 m 27 X s 1987 1252 m 54 X s 1987 206 m 54 X s 2014 168 m 27 X s 1987 1252 m 54 X s 2014 1290 m 27 X s 2014 1327 m 27 X s
 2014 1364 m 27 X s 309 437 m 7 Y s 303 444 m 13 X s 309 411 m -8 Y s 303 403 m 13 X s 1134 413 m 15 Y s 1127 428 m 13 X s 1134 386 m -15 Y s 1127 371 m 13 X s 1958 255 m 9 Y s 1952 264 m 13 X s 1958 229 m -9 Y s 1952 220 m 13 X s 309 424 m 825 -25 d
 824 -157 d s /w 26 def /w2 {w 2 div} def /w3 {w 3 div} def 309 424 1134 399 1958 242 3 { m20} R 1 0 0 c 309 480 m 22 Y s 303 502 m 13 X s 309 454 m -21 Y s 303 433 m 13 X s 1134 695 m 85 Y s 1127 780 m 13 X s 1134 669 m -86 Y s 1127 583 m 13 X s
 1958 255 m 4 Y s 1952 259 m 13 X s 1958 228 m -4 Y s 1952 224 m 13 X s black 1 0 0 c 309 467 m 825 215 d 824 -440 d s 309 467 1134 682 1958 242 3 { m20} R 0 1 0 c 309 317 m 4 Y s 303 321 m 13 X s 309 291 m -5 Y s 303 286 m 13 X s 1134 325 m 14 Y s
 1127 339 m 13 X s 1134 298 m -14 Y s 1127 284 m 13 X s 1958 224 m 3 Y s 1952 227 m 13 X s 1958 198 m -3 Y s 1952 195 m 13 X s black 0 1 0 c 309 304 m 825 8 d 824 -101 d s 309 304 1134 312 1958 211 3 { m20} R black[ 12 12] 0 sd 309 438 m 2 Y s 303
 440 m 13 X s 309 412 m -2 Y s 303 410 m 13 X s 1958 305 m 8 Y s 1952 313 m 13 X s 1958 279 m -8 Y s 1952 271 m 13 X s 309 425 m 825 -111 d 824 -22 d s[  ] 0 sd 309 425 1134 314 1958 292 3 { m21} R[ 12 12] 0 sd 1 0 0 c 309 440 m 7 Y s 303 447 m 13 X
 s 309 414 m -8 Y s 303 406 m 13 X s 1134 329 m 3 Y s 1127 332 m 13 X s 1134 303 m -4 Y s 1127 299 m 13 X s black 1 0 0 c 309 427 m 825 -111 d 824 -106 d s[  ] 0 sd 309 427 1134 316 1958 210 3 { m21} R[ 12 12] 0 sd 0 1 0 c 309 390 m 5 Y s 303 395 m
 13 X s 309 364 m -5 Y s 303 359 m 13 X s 1134 321 m 4 Y s 1127 325 m 13 X s 1134 295 m -5 Y s 1127 290 m 13 X s 1958 215 m 6 Y s 1952 221 m 13 X s 1958 189 m -5 Y s 1952 184 m 13 X s black 0 1 0 c 309 377 m 825 -69 d 824 -106 d s[  ] 0 sd 309 377
 1134 308 1958 202 3 { m21} R[ 12 12] 0 sd black
 gsave  2268 1538 0 0 C 1326.09 1339.13 t 0 r /Helvetica-Bold findfont 58.6478 sf 0 0 m (Disk 0) show NC gr [  ] 0 sd 1124 1352 m 167 X s 1208 1352 m20
 gsave  2268 1538 0 0 C 1326.09 1273.96 t 0 r /Helvetica-Bold findfont 58.6478 sf 0 0 m (Disk 1) show NC gr  1 0 0 c 1124 1288 m 167 X s 1208 1288 m20 black
 gsave  2268 1538 0 0 C 1326.09 1212.06 t 0 r /Helvetica-Bold findfont 58.6478 sf 0 0 m (Disk 2) show NC gr  0 1 0 c 1124 1224 m 167 X s 1208 1224 m20 black
 gsave  2268 1538 0 0 C 1326.09 1146.89 t 0 r /Helvetica-Bold findfont 58.6478 sf 0 0 m (Disk 0) show NC gr [ 12 12] 0 sd 1124 1160 m 167 X s[  ] 0 sd 1208 1160 m21[ 12 12] 0 sd
 gsave  2268 1538 0 0 C 1326.09 1081.73 t 0 r /Helvetica-Bold findfont 58.6478 sf 0 0 m (Disk 1) show NC gr  1 0 0 c 1124 1096 m 167 X s[  ] 0 sd 1208 1096 m21[ 12 12] 0 sd black
 gsave  2268 1538 0 0 C 1326.09 1019.82 t 0 r /Helvetica-Bold findfont 58.6478 sf 0 0 m (Disk 2) show NC gr  0 1 0 c 1124 1032 m 167 X s[  ] 0 sd 1208 1032 m21[ 12 12] 0 sd
 gr  gr showpage
end
%%EOF
