%!PS-Adobe-2.0 EPSF-2.0
%%BoundingBox:  0 0 567 384
%%Title: pionDir/pixClus_z.eps: c1_n74
%%Creator: ROOT Version 6.04/12
%%CreationDate: Tue Apr 19 16:53:30 2016
%%DocumentNeededResources: ProcSet (FontSetInit)
%%EndComments
%%BeginProlog
80 dict begin
/s {stroke} def /l {lineto} def /m {moveto} def /t {translate} def
/r {rotate} def /rl {roll}  def /R {repeat} def
/d {rlineto} def /rm {rmoveto} def /gr {grestore} def /f {eofill} def
/c {setrgbcolor} def /black {0 setgray} def /sd {setdash} def
/cl {closepath} def /sf {scalefont setfont} def /lw {setlinewidth} def
/box {m dup 0 exch d exch 0 d 0 exch neg d cl} def
/NC{systemdict begin initclip end}def/C{NC box clip newpath}def
/bl {box s} def /bf {gsave box gsave f grestore 1 lw [] 0 sd s grestore} def /Y { 0 exch d} def /X { 0 d} def 
/K {{pop pop 0 moveto} exch kshow} bind def
/ita {/ang 15 def gsave [1 0 ang dup sin exch cos div 1 0 0] concat} def 
/mp {newpath /y exch def /x exch def} def
/side {[w .77 mul w .23 mul] .385 w mul sd w 0 l currentpoint t -144 r} def
/mr {mp x y w2 0 360 arc} def /m24 {mr s} def /m20 {mr f} def
/mb {mp x y w2 add m w2 neg 0 d 0 w neg d w 0 d 0 w d cl} def
/mt {mp x y w2 add m w2 neg w neg d w 0 d cl} def
/m21 {mb f} def /m25 {mb s} def /m22 {mt f} def /m26{mt s} def
/m23 {mp x y w2 sub m w2 w d w neg 0 d cl f} def
/m27 {mp x y w2 add m w3 neg w2 neg d w3 w2 neg d w3 w2 d cl s} def
/m28 {mp x w2 sub y w2 sub w3 add m w3 0 d  0 w3 neg d w3 0 d 0 w3 d w3 0 d  0 w3 d w3 neg 0 d 0 w3 d w3 neg 0 d 0 w3 neg d w3 neg 0 d cl s } def
/m29 {mp gsave x w2 sub y w2 add w3 sub m currentpoint t 4 {side} repeat cl fill gr} def
/m30 {mp gsave x w2 sub y w2 add w3 sub m currentpoint t 4 {side} repeat cl s gr} def
/m31 {mp x y w2 sub m 0 w d x w2 sub y m w 0 d x w2 sub y w2 add m w w neg d x w2 sub y w2 sub m w w d s} def
/m32 {mp x y w2 sub m w2 w d w neg 0 d cl s} def
/m33 {mp x y w2 add m w3 neg w2 neg d w3 w2 neg d w3 w2 d cl f} def
/m34 {mp x w2 sub y w2 sub w3 add m w3 0 d  0 w3 neg d w3 0 d 0 w3 d w3 0 d  0 w3 d w3 neg 0 d 0 w3 d w3 neg 0 d 0 w3 neg d w3 neg 0 d cl f } def
/m2 {mp x y w2 sub m 0 w d x w2 sub y m w 0 d s} def
/m5 {mp x w2 sub y w2 sub m w w d x w2 sub y w2 add m w w neg d s} def
%%IncludeResource: ProcSet (FontSetInit)
%%IncludeResource: font Times-Roman
%%IncludeResource: font Times-Italic
%%IncludeResource: font Times-Bold
%%IncludeResource: font Times-BoldItalic
%%IncludeResource: font Helvetica
%%IncludeResource: font Helvetica-Oblique
%%IncludeResource: font Helvetica-Bold
%%IncludeResource: font Helvetica-BoldOblique
%%IncludeResource: font Courier
%%IncludeResource: font Courier-Oblique
%%IncludeResource: font Courier-Bold
%%IncludeResource: font Courier-BoldOblique
%%IncludeResource: font Symbol
%%IncludeResource: font ZapfDingbats
/reEncode {exch findfont dup length dict begin {1 index /FID eq  {pop pop} {def} ifelse } forall /Encoding exch def currentdict end dup /FontName get exch definefont pop } def [/Times-Bold /Times-Italic /Times-BoldItalic /Helvetica /Helvetica-Oblique
 /Helvetica-Bold /Helvetica-BoldOblique /Courier /Courier-Oblique /Courier-Bold /Courier-BoldOblique /Times-Roman /AvantGarde-Book /AvantGarde-BookOblique /AvantGarde-Demi /AvantGarde-DemiOblique /Bookman-Demi /Bookman-DemiItalic /Bookman-Light
 /Bookman-LightItalic /Helvetica-Narrow /Helvetica-Narrow-Bold /Helvetica-Narrow-BoldOblique /Helvetica-Narrow-Oblique /NewCenturySchlbk-Roman /NewCenturySchlbk-Bold /NewCenturySchlbk-BoldItalic /NewCenturySchlbk-Italic /Palatino-Bold
 /Palatino-BoldItalic /Palatino-Italic /Palatino-Roman ] {ISOLatin1Encoding reEncode } forall
%%EndProlog
%%BeginSetup
%%EndSetup
newpath  gsave  .25 .25 scale  gsave  0 0 t black[  ] 0 sd 3 lw 1 1 1 c 2268 1538 0 0 bf black 1 1 1 c 1814 1307 227 154 bf black 1814 1307 227 154 bl 1 1 1 c 1814 1307 227 154 bf black 1814 1307 227 154 bl 1 1 1 c black 227 748 m 3 X -198 Y 4 X 99 Y
 4 X -297 Y 3 X 297 Y 4 X -396 Y 4 X 198 Y 3 X 99 Y 4 X -297 Y 7 X 297 Y 4 X -297 Y 3 X 198 Y 4 X -198 Y 4 X 99 Y 3 X -198 Y 4 X 396 Y 3 X -297 Y 4 X 297 Y 7 X -198 Y 8 X -99 Y 7 X 198 Y 3 X -297 Y 4 X 495 Y 4 X -297 Y 3 X -99 Y 4 X 594 Y 4 X -594 Y
 3 X 495 Y 4 X -396 Y 4 X 198 Y 3 X -297 Y 7 X 99 Y 8 X 198 Y 3 X -99 Y 4 X -198 Y 4 X 99 Y 3 X -198 Y 7 X 99 Y 4 X 396 Y 4 X -198 Y 7 X -297 Y 4 X 297 Y 3 X -297 Y 4 X 693 Y 3 X -297 Y 4 X -297 Y 4 X 99 Y 3 X 99 Y 11 X -99 Y 4 X 99 Y 3 X 198 Y 4 X
 99 Y 4 X -198 Y 3 X 297 Y 4 X -396 Y 4 X -198 Y 3 X 198 Y 4 X 99 Y 3 X 99 Y 4 X 396 Y 4 X -792 Y 3 X 396 Y 4 X 297 Y 7 X -297 Y 4 X 198 Y 4 X -99 Y 3 X -99 Y 4 X -297 Y 3 X 99 Y 4 X 99 Y 4 X -99 Y 11 X 198 Y 3 X -198 Y 4 X -99 Y 3 X -198 Y 4 X 693 Y
 4 X -396 Y 3 X 99 Y 4 X -99 Y 4 X -99 Y 7 X 396 Y 3 X -297 Y 4 X 198 Y 4 X 198 Y 3 X -297 Y 4 X -297 Y 4 X 495 Y 3 X -99 Y 4 X -297 Y 3 X 198 Y 4 X -99 Y 4 X -297 Y 7 X 198 Y 4 X 198 Y 3 X -396 Y 4 X 198 Y 4 X -99 Y 3 X 99 Y 4 X 99 Y 3 X 198 Y 4 X
 -198 Y 4 X -297 Y 3 X 297 Y 4 X -198 Y 4 X 594 Y 3 X -396 Y 4 X -198 Y 3 X 594 Y 8 X -396 Y 7 X 198 Y 4 X 99 Y 3 X -594 Y 4 X 396 Y 3 X -99 Y 4 X -198 Y 4 X 198 Y 3 X -99 Y 4 X 99 Y 4 X 99 Y 3 X -99 Y 4 X 297 Y 3 X 99 Y 4 X -396 Y 7 X 198 Y 4 X -297
 Y 4 X -99 Y 3 X 198 Y 4 X -297 Y 4 X 198 Y 3 X 99 Y 4 X -99 Y 14 X -99 Y 4 X -99 Y 4 X 594 Y 3 X -396 Y 4 X 198 Y 3 X -99 Y 4 X 99 Y 4 X 99 Y 3 X -99 Y 4 X -198 Y 4 X 297 Y 3 X -198 Y 11 X 99 Y 4 X -297 Y 7 X 495 Y 4 X -297 Y 3 X 297 Y 4 X -297 Y 3
 X 198 Y 4 X -396 Y 4 X 198 Y 3 X -297 Y 4 X 198 Y 4 X 396 Y 3 X -297 Y 4 X 198 Y 4 X 99 Y 3 X 198 Y 4 X -594 Y 7 X 297 Y 7 X -396 Y 4 X 297 Y 11 X -99 Y 7 X -198 Y 4 X 396 Y 3 X -99 Y 4 X -99 Y 4 X -198 Y 3 X 198 Y 4 X 198 Y 3 X -99 Y 8 X 99 Y 3 X
 99 Y 4 X -99 Y 4 X 99 Y 3 X 99 Y 4 X -396 Y 7 X 297 Y 4 X 99 Y 3 X -495 Y 4 X 99 Y 4 X 396 Y 7 X -396 Y 3 X 198 Y 4 X -297 Y 4 X 297 Y 3 X 99 Y 4 X 198 Y 4 X -198 Y 3 X -297 Y 4 X -99 Y 4 X -99 Y 3 X 396 Y 4 X -297 Y 3 X 396 Y 4 X -297 Y 4 X 297 Y 7
 X -198 Y 4 X -198 Y 7 X 891 Y 3 X -594 Y 4 X 198 Y 7 X -396 Y 8 X 198 Y 3 X 99 Y 4 X -396 Y 3 X 198 Y 4 X 99 Y 4 X 99 Y 3 X -396 Y 4 X -99 Y 4 X 396 Y 3 X -198 Y 4 X -99 Y 3 X 396 Y 4 X -297 Y 18 X 297 Y 4 X -594 Y 4 X 198 Y 3 X 396 Y 4 X -396 Y 3 X
 396 Y 4 X -396 Y 4 X 198 Y 3 X 99 Y 4 X -99 Y 4 X 198 Y 3 X -297 Y 4 X 297 Y 7 X -396 Y 7 X 396 Y 4 X -99 Y 4 X -297 Y 3 X 198 Y 4 X -297 Y 3 X 198 Y 8 X -198 Y 3 X 396 Y 4 X -99 Y 4 X 297 Y 3 X -396 Y 4 X 198 Y 3 X 693 Y 4 X -990 Y 7 X 99 Y 4 X
 -198 Y 4 X 99 Y 3 X 99 Y 4 X 198 Y 4 X -396 Y 7 X 99 Y 7 X 297 Y 4 X -297 Y 3 X -99 Y 4 X 297 Y 4 X -297 Y 3 X 495 Y 4 X -198 Y 3 X -396 Y 4 X 198 Y 4 X -198 Y 3 X 396 Y 4 X -198 Y 4 X 99 Y 3 X 198 Y 4 X -198 Y 3 X -198 Y 4 X -99 Y 7 X 396 Y 4 X
 -297 Y 4 X 297 Y 3 X -198 Y 4 X 99 Y 7 X -297 Y 7 X 198 Y 8 X 198 Y 3 X -99 Y 4 X -297 Y 3 X 495 Y 4 X -198 Y 4 X -297 Y 3 X 594 Y 4 X 99 Y 4 X -198 Y 3 X -99 Y 4 X -396 Y 4 X 99 Y 10 X 99 Y 4 X 297 Y 4 X -396 Y 3 X 297 Y 8 X -198 Y 3 X 297 Y 4 X
 -198 Y 3 X -198 Y 4 X 99 Y 4 X 99 Y 3 X 297 Y 4 X -495 Y 4 X 99 Y 3 X 198 Y 4 X -297 Y 3 X 99 Y 8 X 198 Y 3 X -198 Y 4 X 99 Y 4 X -198 Y 3 X 396 Y 4 X -396 Y 7 X 297 Y 4 X -198 Y 3 X 297 Y 4 X -99 Y 4 X -396 Y 7 X 198 Y 4 X -198 Y 3 X 99 Y 7 X 396 Y
 4 X -297 Y 4 X -198 Y 3 X 990 Y 4 X -891 Y 4 X 495 Y 3 X -396 Y 11 X 99 Y 4 X -198 Y 7 X 99 Y 4 X -99 Y 3 X 297 Y 7 X -99 Y 4 X -297 Y 4 X 297 Y 7 X -99 Y 4 X -99 Y 3 X 198 Y 4 X -198 Y 3 X 198 Y 4 X 99 Y 4 X -99 Y 3 X 198 Y 4 X -198 Y 7 X -198 Y 4
 X 99 Y 4 X 99 Y 3 X -198 Y 4 X 198 Y 3 X -297 Y 4 X 396 Y 7 X -198 Y 4 X 198 Y 4 X -297 Y 3 X 297 Y 4 X -297 Y 3 X 99 Y 4 X -198 Y 11 X 297 Y 4 X 99 Y 7 X 99 Y 3 X -198 Y 4 X -198 Y 4 X -99 Y 3 X 297 Y 8 X -99 Y 3 X 99 Y 7 X -297 Y 4 X 99 Y 4 X -99
 Y 3 X 99 Y 4 X 396 Y 4 X 198 Y 3 X -495 Y 4 X -198 Y 7 X 396 Y 4 X -99 Y 3 X 396 Y 4 X -396 Y 7 X 396 Y 4 X -396 Y 4 X -99 Y 3 X -99 Y 4 X 396 Y 3 X -297 Y 4 X 297 Y 4 X 198 Y 3 X -396 Y 4 X -198 Y 4 X -99 Y 3 X 198 Y 4 X 495 Y 3 X -594 Y 4 X 495 Y
 4 X -198 Y 3 X -99 Y 4 X -99 Y 7 X 99 Y 4 X -198 Y 3 X 99 Y 4 X 396 Y 4 X -594 Y 3 X 396 Y 4 X -99 Y 4 X 198 Y 3 X -396 Y 4 X 297 Y 3 X -99 Y 11 X 99 Y 4 X -297 Y 4 X 297 Y 3 X 198 Y 4 X -198 Y 7 X -99 Y 4 X -198 Y 3 X 297 Y 4 X -99 Y 7 X 495 Y 4 X
 -99 Y 4 X -495 Y 3 X -99 Y 4 X 99 Y 3 X 198 Y 4 X -198 Y 4 X 297 Y 3 X -198 Y 4 X s 227 154 m 1814 X s 227 191 m -37 Y s 263 172 m -18 Y s 299 172 m -18 Y s 336 172 m -18 Y s 372 172 m -18 Y s 408 191 m -37 Y s 444 172 m -18 Y s 481 172 m -18 Y s
 517 172 m -18 Y s 553 172 m -18 Y s 590 191 m -37 Y s 626 172 m -18 Y s 662 172 m -18 Y s 698 172 m -18 Y s 735 172 m -18 Y s 771 191 m -37 Y s 807 172 m -18 Y s 844 172 m -18 Y s 880 172 m -18 Y s 916 172 m -18 Y s 952 191 m -37 Y s 989 172 m -18 Y
 s 1025 172 m -18 Y s 1061 172 m -18 Y s 1098 172 m -18 Y s 1134 191 m -37 Y s 1170 172 m -18 Y s 1206 172 m -18 Y s 1243 172 m -18 Y s 1279 172 m -18 Y s 1315 191 m -37 Y s 1352 172 m -18 Y s 1388 172 m -18 Y s 1424 172 m -18 Y s 1460 172 m -18 Y s
 1497 191 m -37 Y s 1533 172 m -18 Y s 1569 172 m -18 Y s 1606 172 m -18 Y s 1642 172 m -18 Y s 1678 191 m -37 Y s 1714 172 m -18 Y s 1751 172 m -18 Y s 1787 172 m -18 Y s 1823 172 m -18 Y s 1860 191 m -37 Y s 1896 172 m -18 Y s 1932 172 m -18 Y s
 1968 172 m -18 Y s 2005 172 m -18 Y s 2041 191 m -37 Y s
 gsave  2268 1538 0 0 C 188.976 97.7464 t 0 r /Helvetica-Bold findfont 58.6478 sf 0 0 m (250) show NC gr 
 gsave  2268 1538 0 0 C 159.652 97.7464 t 0 r /Symbol findfont 58.6478 sf 0 0 m (-) show NC gr 
 gsave  2268 1538 0 0 C 371.436 97.7464 t 0 r /Helvetica-Bold findfont 58.6478 sf 0 0 m (200) show NC gr 
 gsave  2268 1538 0 0 C 342.112 97.7464 t 0 r /Symbol findfont 58.6478 sf 0 0 m (-) show NC gr 
 gsave  2268 1538 0 0 C 550.638 97.7464 t 0 r /Helvetica-Bold findfont 58.6478 sf 0 0 m (150) show NC gr 
 gsave  2268 1538 0 0 C 521.314 97.7464 t 0 r /Symbol findfont 58.6478 sf 0 0 m (-) show NC gr 
 gsave  2268 1538 0 0 C 733.098 97.7464 t 0 r /Helvetica-Bold findfont 58.6478 sf 0 0 m (100) show NC gr 
 gsave  2268 1538 0 0 C 703.774 97.7464 t 0 r /Symbol findfont 58.6478 sf 0 0 m (-) show NC gr 
 gsave  2268 1538 0 0 C 931.849 97.7464 t 0 r /Helvetica-Bold findfont 58.6478 sf 0 0 m (50) show NC gr 
 gsave  2268 1538 0 0 C 902.525 97.7464 t 0 r /Symbol findfont 58.6478 sf 0 0 m (-) show NC gr 
 gsave  2268 1538 0 0 C 1117.57 97.7464 t 0 r /Helvetica-Bold findfont 58.6478 sf 0 0 m (0) show NC gr 
 gsave  2268 1538 0 0 C 1280.48 97.7464 t 0 r /Helvetica-Bold findfont 58.6478 sf 0 0 m (50) show NC gr 
 gsave  2268 1538 0 0 C 1446.65 97.7464 t 0 r /Helvetica-Bold findfont 58.6478 sf 0 0 m (100) show NC gr 
 gsave  2268 1538 0 0 C 1629.11 97.7464 t 0 r /Helvetica-Bold findfont 58.6478 sf 0 0 m (150) show NC gr 
 gsave  2268 1538 0 0 C 1808.31 97.7464 t 0 r /Helvetica-Bold findfont 58.6478 sf 0 0 m (200) show NC gr 
 gsave  2268 1538 0 0 C 1990.77 97.7464 t 0 r /Helvetica-Bold findfont 58.6478 sf 0 0 m (250) show NC gr  227 1461 m 1814 X s 227 1424 m 37 Y s 263 1443 m 18 Y s 299 1443 m 18 Y s 336 1443 m 18 Y s 372 1443 m 18 Y s 408 1424 m 37 Y s 444 1443 m 18 Y
 s 481 1443 m 18 Y s 517 1443 m 18 Y s 553 1443 m 18 Y s 590 1424 m 37 Y s 626 1443 m 18 Y s 662 1443 m 18 Y s 698 1443 m 18 Y s 735 1443 m 18 Y s 771 1424 m 37 Y s 807 1443 m 18 Y s 844 1443 m 18 Y s 880 1443 m 18 Y s 916 1443 m 18 Y s 952 1424 m 37
 Y s 989 1443 m 18 Y s 1025 1443 m 18 Y s 1061 1443 m 18 Y s 1098 1443 m 18 Y s 1134 1424 m 37 Y s 1170 1443 m 18 Y s 1206 1443 m 18 Y s 1243 1443 m 18 Y s 1279 1443 m 18 Y s 1315 1424 m 37 Y s 1352 1443 m 18 Y s 1388 1443 m 18 Y s 1424 1443 m 18 Y s
 1460 1443 m 18 Y s 1497 1424 m 37 Y s 1533 1443 m 18 Y s 1569 1443 m 18 Y s 1606 1443 m 18 Y s 1642 1443 m 18 Y s 1678 1424 m 37 Y s 1714 1443 m 18 Y s 1751 1443 m 18 Y s 1787 1443 m 18 Y s 1823 1443 m 18 Y s 1860 1424 m 37 Y s 1896 1443 m 18 Y s
 1932 1443 m 18 Y s 1968 1443 m 18 Y s 2005 1443 m 18 Y s 2041 1424 m 37 Y s 227 154 m 1307 Y s 285 154 m -58 X s 256 203 m -29 X s 256 253 m -29 X s 256 302 m -29 X s 285 352 m -58 X s 256 401 m -29 X s 256 451 m -29 X s 256 500 m -29 X s 285 550 m
 -58 X s 256 599 m -29 X s 256 649 m -29 X s 256 698 m -29 X s 285 748 m -58 X s 256 797 m -29 X s 256 847 m -29 X s 256 897 m -29 X s 285 946 m -58 X s 256 996 m -29 X s 256 1045 m -29 X s 256 1095 m -29 X s 285 1144 m -58 X s 256 1194 m -29 X s 256
 1243 m -29 X s 256 1293 m -29 X s 285 1342 m -58 X s 285 1342 m -58 X s 256 1392 m -29 X s 256 1441 m -29 X s
 gsave  2268 1538 0 0 C 182.46 133.587 t 0 r /Helvetica-Bold findfont 58.6478 sf 0 0 m (0) show NC gr 
 gsave  2268 1538 0 0 C 182.46 325.821 t 0 r /Helvetica-Bold findfont 58.6478 sf 0 0 m (2) show NC gr 
 gsave  2268 1538 0 0 C 182.46 527.831 t 0 r /Helvetica-Bold findfont 58.6478 sf 0 0 m (4) show NC gr 
 gsave  2268 1538 0 0 C 182.46 726.582 t 0 r /Helvetica-Bold findfont 58.6478 sf 0 0 m (6) show NC gr 
 gsave  2268 1538 0 0 C 182.46 925.333 t 0 r /Helvetica-Bold findfont 58.6478 sf 0 0 m (8) show NC gr 
 gsave  2268 1538 0 0 C 149.878 1124.08 t 0 r /Helvetica-Bold findfont 58.6478 sf 0 0 m (10) show NC gr 
 gsave  2268 1538 0 0 C 149.878 1316.32 t 0 r /Helvetica-Bold findfont 58.6478 sf 0 0 m (12) show NC gr  2041 154 m 1307 Y s 1983 154 m 58 X s 2012 203 m 29 X s 2012 253 m 29 X s 2012 302 m 29 X s 1983 352 m 58 X s 2012 401 m 29 X s 2012 451 m 29 X s
 2012 500 m 29 X s 1983 550 m 58 X s 2012 599 m 29 X s 2012 649 m 29 X s 2012 698 m 29 X s 1983 748 m 58 X s 2012 797 m 29 X s 2012 847 m 29 X s 2012 897 m 29 X s 1983 946 m 58 X s 2012 996 m 29 X s 2012 1045 m 29 X s 2012 1095 m 29 X s 1983 1144 m
 58 X s 2012 1194 m 29 X s 2012 1243 m 29 X s 2012 1293 m 29 X s 1983 1342 m 58 X s 1983 1342 m 58 X s 2012 1392 m 29 X s 2012 1441 m 29 X s
 gsave  2268 1538 0 0 C 1326.09 1172.96 t 0 r /Helvetica-Bold findfont 58.6478 sf 0 0 m (Pixel Occupancies) show NC gr  1124 1192 m 167 X s
 gr  gr showpage
end
%%EOF
