%!PS-Adobe-2.0 EPSF-2.0
%%BoundingBox:  0 0 567 384
%%Title: outputDir/pixel_occupancy/clus_z_pixlayer_3_neg.eps: c1_n45
%%Creator: ROOT Version 6.04/12
%%CreationDate: Mon Apr 25 16:02:14 2016
%%DocumentNeededResources: ProcSet (FontSetInit)
%%EndComments
%%BeginProlog
80 dict begin
/s {stroke} def /l {lineto} def /m {moveto} def /t {translate} def
/r {rotate} def /rl {roll}  def /R {repeat} def
/d {rlineto} def /rm {rmoveto} def /gr {grestore} def /f {eofill} def
/c {setrgbcolor} def /black {0 setgray} def /sd {setdash} def
/cl {closepath} def /sf {scalefont setfont} def /lw {setlinewidth} def
/box {m dup 0 exch d exch 0 d 0 exch neg d cl} def
/NC{systemdict begin initclip end}def/C{NC box clip newpath}def
/bl {box s} def /bf {gsave box gsave f grestore 1 lw [] 0 sd s grestore} def /Y { 0 exch d} def /X { 0 d} def 
/K {{pop pop 0 moveto} exch kshow} bind def
/ita {/ang 15 def gsave [1 0 ang dup sin exch cos div 1 0 0] concat} def 
/mp {newpath /y exch def /x exch def} def
/side {[w .77 mul w .23 mul] .385 w mul sd w 0 l currentpoint t -144 r} def
/mr {mp x y w2 0 360 arc} def /m24 {mr s} def /m20 {mr f} def
/mb {mp x y w2 add m w2 neg 0 d 0 w neg d w 0 d 0 w d cl} def
/mt {mp x y w2 add m w2 neg w neg d w 0 d cl} def
/m21 {mb f} def /m25 {mb s} def /m22 {mt f} def /m26{mt s} def
/m23 {mp x y w2 sub m w2 w d w neg 0 d cl f} def
/m27 {mp x y w2 add m w3 neg w2 neg d w3 w2 neg d w3 w2 d cl s} def
/m28 {mp x w2 sub y w2 sub w3 add m w3 0 d  0 w3 neg d w3 0 d 0 w3 d w3 0 d  0 w3 d w3 neg 0 d 0 w3 d w3 neg 0 d 0 w3 neg d w3 neg 0 d cl s } def
/m29 {mp gsave x w2 sub y w2 add w3 sub m currentpoint t 4 {side} repeat cl fill gr} def
/m30 {mp gsave x w2 sub y w2 add w3 sub m currentpoint t 4 {side} repeat cl s gr} def
/m31 {mp x y w2 sub m 0 w d x w2 sub y m w 0 d x w2 sub y w2 add m w w neg d x w2 sub y w2 sub m w w d s} def
/m32 {mp x y w2 sub m w2 w d w neg 0 d cl s} def
/m33 {mp x y w2 add m w3 neg w2 neg d w3 w2 neg d w3 w2 d cl f} def
/m34 {mp x w2 sub y w2 sub w3 add m w3 0 d  0 w3 neg d w3 0 d 0 w3 d w3 0 d  0 w3 d w3 neg 0 d 0 w3 d w3 neg 0 d 0 w3 neg d w3 neg 0 d cl f } def
/m2 {mp x y w2 sub m 0 w d x w2 sub y m w 0 d s} def
/m5 {mp x w2 sub y w2 sub m w w d x w2 sub y w2 add m w w neg d s} def
%%IncludeResource: ProcSet (FontSetInit)
%%IncludeResource: font Times-Roman
%%IncludeResource: font Times-Italic
%%IncludeResource: font Times-Bold
%%IncludeResource: font Times-BoldItalic
%%IncludeResource: font Helvetica
%%IncludeResource: font Helvetica-Oblique
%%IncludeResource: font Helvetica-Bold
%%IncludeResource: font Helvetica-BoldOblique
%%IncludeResource: font Courier
%%IncludeResource: font Courier-Oblique
%%IncludeResource: font Courier-Bold
%%IncludeResource: font Courier-BoldOblique
%%IncludeResource: font Symbol
%%IncludeResource: font ZapfDingbats
/reEncode {exch findfont dup length dict begin {1 index /FID eq  {pop pop} {def} ifelse } forall /Encoding exch def currentdict end dup /FontName get exch definefont pop } def [/Times-Bold /Times-Italic /Times-BoldItalic /Helvetica /Helvetica-Oblique
 /Helvetica-Bold /Helvetica-BoldOblique /Courier /Courier-Oblique /Courier-Bold /Courier-BoldOblique /Times-Roman /AvantGarde-Book /AvantGarde-BookOblique /AvantGarde-Demi /AvantGarde-DemiOblique /Bookman-Demi /Bookman-DemiItalic /Bookman-Light
 /Bookman-LightItalic /Helvetica-Narrow /Helvetica-Narrow-Bold /Helvetica-Narrow-BoldOblique /Helvetica-Narrow-Oblique /NewCenturySchlbk-Roman /NewCenturySchlbk-Bold /NewCenturySchlbk-BoldItalic /NewCenturySchlbk-Italic /Palatino-Bold
 /Palatino-BoldItalic /Palatino-Italic /Palatino-Roman ] {ISOLatin1Encoding reEncode } forall
%%EndProlog
%%BeginSetup
%%EndSetup
newpath  gsave  .25 .25 scale  gsave  0 0 t black[  ] 0 sd 3 lw 1 1 1 c 2268 1538 0 0 bf black 1 1 1 c 1814 1230 227 154 bf black 1814 1230 227 154 bl 1 1 1 c 1814 1230 227 154 bf black 1814 1230 227 154 bl 227 154 m 1814 X s 450 191 m -37 Y s 501
 172 m -18 Y s 552 172 m -18 Y s 603 172 m -18 Y s 654 172 m -18 Y s 705 191 m -37 Y s 756 172 m -18 Y s 807 172 m -18 Y s 858 172 m -18 Y s 909 172 m -18 Y s 960 191 m -37 Y s 1011 172 m -18 Y s 1062 172 m -18 Y s 1113 172 m -18 Y s 1164 172 m -18 Y
 s 1215 191 m -37 Y s 1266 172 m -18 Y s 1317 172 m -18 Y s 1368 172 m -18 Y s 1419 172 m -18 Y s 1470 191 m -37 Y s 1521 172 m -18 Y s 1572 172 m -18 Y s 1623 172 m -18 Y s 1674 172 m -18 Y s 1725 191 m -37 Y s 1776 172 m -18 Y s 1827 172 m -18 Y s
 1878 172 m -18 Y s 1929 172 m -18 Y s 1981 191 m -37 Y s 450 191 m -37 Y s 399 172 m -18 Y s 348 172 m -18 Y s 297 172 m -18 Y s 246 172 m -18 Y s 1981 191 m -37 Y s 2032 172 m -18 Y s
 gsave  2268 1538 0 0 C 417.051 97.7464 t 0 r /Helvetica-Bold findfont 58.6478 sf 0 0 m (50) show NC gr 
 gsave  2268 1538 0 0 C 654.901 97.7464 t 0 r /Helvetica-Bold findfont 58.6478 sf 0 0 m (100) show NC gr 
 gsave  2268 1538 0 0 C 909.042 97.7464 t 0 r /Helvetica-Bold findfont 58.6478 sf 0 0 m (150) show NC gr 
 gsave  2268 1538 0 0 C 1163.18 97.7464 t 0 r /Helvetica-Bold findfont 58.6478 sf 0 0 m (200) show NC gr 
 gsave  2268 1538 0 0 C 1420.58 97.7464 t 0 r /Helvetica-Bold findfont 58.6478 sf 0 0 m (250) show NC gr 
 gsave  2268 1538 0 0 C 1674.72 97.7464 t 0 r /Helvetica-Bold findfont 58.6478 sf 0 0 m (300) show NC gr 
 gsave  2268 1538 0 0 C 1928.86 97.7464 t 0 r /Helvetica-Bold findfont 58.6478 sf 0 0 m (350) show NC gr  227 1384 m 1814 X s 450 1347 m 37 Y s 501 1366 m 18 Y s 552 1366 m 18 Y s 603 1366 m 18 Y s 654 1366 m 18 Y s 705 1347 m 37 Y s 756 1366 m 18 Y
 s 807 1366 m 18 Y s 858 1366 m 18 Y s 909 1366 m 18 Y s 960 1347 m 37 Y s 1011 1366 m 18 Y s 1062 1366 m 18 Y s 1113 1366 m 18 Y s 1164 1366 m 18 Y s 1215 1347 m 37 Y s 1266 1366 m 18 Y s 1317 1366 m 18 Y s 1368 1366 m 18 Y s 1419 1366 m 18 Y s 1470
 1347 m 37 Y s 1521 1366 m 18 Y s 1572 1366 m 18 Y s 1623 1366 m 18 Y s 1674 1366 m 18 Y s 1725 1347 m 37 Y s 1776 1366 m 18 Y s 1827 1366 m 18 Y s 1878 1366 m 18 Y s 1929 1366 m 18 Y s 1981 1347 m 37 Y s 450 1347 m 37 Y s 399 1366 m 18 Y s 348 1366
 m 18 Y s 297 1366 m 18 Y s 246 1366 m 18 Y s 1981 1347 m 37 Y s 2032 1366 m 18 Y s 227 154 m 1230 Y s 281 269 m -54 X s 254 295 m -27 X s 254 322 m -27 X s 254 348 m -27 X s 254 374 m -27 X s 281 401 m -54 X s 254 427 m -27 X s 254 453 m -27 X s 254
 480 m -27 X s 254 506 m -27 X s 281 533 m -54 X s 254 559 m -27 X s 254 585 m -27 X s 254 612 m -27 X s 254 638 m -27 X s 281 664 m -54 X s 254 691 m -27 X s 254 717 m -27 X s 254 744 m -27 X s 254 770 m -27 X s 281 796 m -54 X s 254 823 m -27 X s
 254 849 m -27 X s 254 876 m -27 X s 254 902 m -27 X s 281 928 m -54 X s 254 955 m -27 X s 254 981 m -27 X s 254 1007 m -27 X s 254 1034 m -27 X s 281 1060 m -54 X s 254 1087 m -27 X s 254 1113 m -27 X s 254 1139 m -27 X s 254 1166 m -27 X s 281 1192
 m -54 X s 254 1218 m -27 X s 254 1245 m -27 X s 254 1271 m -27 X s 254 1298 m -27 X s 281 1324 m -54 X s 281 269 m -54 X s 254 242 m -27 X s 254 216 m -27 X s 254 190 m -27 X s 254 163 m -27 X s 281 1324 m -54 X s 254 1350 m -27 X s 254 1377 m -27 X
 s
 gsave  2268 1538 0 0 C 149.878 247.624 t 0 r /Helvetica-Bold findfont 58.6478 sf 0 0 m (30) show NC gr 
 gsave  2268 1538 0 0 C 149.878 377.953 t 0 r /Helvetica-Bold findfont 58.6478 sf 0 0 m (35) show NC gr 
 gsave  2268 1538 0 0 C 149.878 511.539 t 0 r /Helvetica-Bold findfont 58.6478 sf 0 0 m (40) show NC gr 
 gsave  2268 1538 0 0 C 149.878 641.868 t 0 r /Helvetica-Bold findfont 58.6478 sf 0 0 m (45) show NC gr 
 gsave  2268 1538 0 0 C 149.878 775.455 t 0 r /Helvetica-Bold findfont 58.6478 sf 0 0 m (50) show NC gr 
 gsave  2268 1538 0 0 C 149.878 905.783 t 0 r /Helvetica-Bold findfont 58.6478 sf 0 0 m (55) show NC gr 
 gsave  2268 1538 0 0 C 149.878 1039.37 t 0 r /Helvetica-Bold findfont 58.6478 sf 0 0 m (60) show NC gr 
 gsave  2268 1538 0 0 C 149.878 1169.7 t 0 r /Helvetica-Bold findfont 58.6478 sf 0 0 m (65) show NC gr 
 gsave  2268 1538 0 0 C 149.878 1303.29 t 0 r /Helvetica-Bold findfont 58.6478 sf 0 0 m (70) show NC gr  2041 154 m 1230 Y s 1987 269 m 54 X s 2014 295 m 27 X s 2014 322 m 27 X s 2014 348 m 27 X s 2014 374 m 27 X s 1987 401 m 54 X s 2014 427 m 27 X s
 2014 453 m 27 X s 2014 480 m 27 X s 2014 506 m 27 X s 1987 533 m 54 X s 2014 559 m 27 X s 2014 585 m 27 X s 2014 612 m 27 X s 2014 638 m 27 X s 1987 664 m 54 X s 2014 691 m 27 X s 2014 717 m 27 X s 2014 744 m 27 X s 2014 770 m 27 X s 1987 796 m 54 X
 s 2014 823 m 27 X s 2014 849 m 27 X s 2014 876 m 27 X s 2014 902 m 27 X s 1987 928 m 54 X s 2014 955 m 27 X s 2014 981 m 27 X s 2014 1007 m 27 X s 2014 1034 m 27 X s 1987 1060 m 54 X s 2014 1087 m 27 X s 2014 1113 m 27 X s 2014 1139 m 27 X s 2014
 1166 m 27 X s 1987 1192 m 54 X s 2014 1218 m 27 X s 2014 1245 m 27 X s 2014 1271 m 27 X s 2014 1298 m 27 X s 1987 1324 m 54 X s 1987 269 m 54 X s 2014 242 m 27 X s 2014 216 m 27 X s 2014 190 m 27 X s 2014 163 m 27 X s 1987 1324 m 54 X s 2014 1350 m
 27 X s 2014 1377 m 27 X s 1958 290 m 93 Y s 1952 383 m 13 X s 1958 290 m -93 Y s 1952 197 m 13 X s 1743 490 m 104 Y s 1736 594 m 13 X s 1743 490 m -103 Y s 1736 387 m 13 X s 1536 564 m 107 Y s 1529 671 m 13 X s 1536 564 m -107 Y s 1529 457 m 13 X s
 1332 490 m 104 Y s 1325 594 m 13 X s 1332 490 m -103 Y s 1325 387 m 13 X s 1110 628 m 110 Y s 1103 738 m 13 X s 1110 628 m -111 Y s 1103 517 m 13 X s 926 585 m 108 Y s 920 693 m 13 X s 926 585 m -108 Y s 920 477 m 13 X s 709 839 m 119 Y s 702 958 m
 13 X s 709 839 m -120 Y s 702 719 m 13 X s 500 944 m 125 Y s 494 1069 m 13 X s 500 944 m -124 Y s 494 820 m 13 X s 309 934 m 124 Y s 303 1058 m 13 X s 309 934 m -124 Y s 303 810 m 13 X s 1 1 1 c black 1958 290 m -215 200 d -207 74 d -204 -74 d -222
 138 d -184 -43 d -217 254 d -209 105 d -191 -10 d s /w 2 def /w2 {w 2 div} def /w3 {w 3 div} def 1958 290 1743 490 1536 564 1332 490 1110 628 926 585 709 839 500 944 309 934 9 { m20} R
 gsave  2268 1538 0 0 C 1326.09 1172.96 t 0 r /Helvetica-Bold findfont 58.6478 sf 0 0 m (Pixel Occupancies) show NC gr  1124 1192 m 167 X s 1208 1192 m20
 gr  gr showpage
end
%%EOF
