%!PS-Adobe-2.0 EPSF-2.0
%%BoundingBox:  0 0 567 384
%%Title: outputDir/pixel_occupancy/clus_z_pixlayer_4_pos.eps: c1_n41
%%Creator: ROOT Version 6.04/12
%%CreationDate: Mon Apr 25 16:02:13 2016
%%DocumentNeededResources: ProcSet (FontSetInit)
%%EndComments
%%BeginProlog
80 dict begin
/s {stroke} def /l {lineto} def /m {moveto} def /t {translate} def
/r {rotate} def /rl {roll}  def /R {repeat} def
/d {rlineto} def /rm {rmoveto} def /gr {grestore} def /f {eofill} def
/c {setrgbcolor} def /black {0 setgray} def /sd {setdash} def
/cl {closepath} def /sf {scalefont setfont} def /lw {setlinewidth} def
/box {m dup 0 exch d exch 0 d 0 exch neg d cl} def
/NC{systemdict begin initclip end}def/C{NC box clip newpath}def
/bl {box s} def /bf {gsave box gsave f grestore 1 lw [] 0 sd s grestore} def /Y { 0 exch d} def /X { 0 d} def 
/K {{pop pop 0 moveto} exch kshow} bind def
/ita {/ang 15 def gsave [1 0 ang dup sin exch cos div 1 0 0] concat} def 
/mp {newpath /y exch def /x exch def} def
/side {[w .77 mul w .23 mul] .385 w mul sd w 0 l currentpoint t -144 r} def
/mr {mp x y w2 0 360 arc} def /m24 {mr s} def /m20 {mr f} def
/mb {mp x y w2 add m w2 neg 0 d 0 w neg d w 0 d 0 w d cl} def
/mt {mp x y w2 add m w2 neg w neg d w 0 d cl} def
/m21 {mb f} def /m25 {mb s} def /m22 {mt f} def /m26{mt s} def
/m23 {mp x y w2 sub m w2 w d w neg 0 d cl f} def
/m27 {mp x y w2 add m w3 neg w2 neg d w3 w2 neg d w3 w2 d cl s} def
/m28 {mp x w2 sub y w2 sub w3 add m w3 0 d  0 w3 neg d w3 0 d 0 w3 d w3 0 d  0 w3 d w3 neg 0 d 0 w3 d w3 neg 0 d 0 w3 neg d w3 neg 0 d cl s } def
/m29 {mp gsave x w2 sub y w2 add w3 sub m currentpoint t 4 {side} repeat cl fill gr} def
/m30 {mp gsave x w2 sub y w2 add w3 sub m currentpoint t 4 {side} repeat cl s gr} def
/m31 {mp x y w2 sub m 0 w d x w2 sub y m w 0 d x w2 sub y w2 add m w w neg d x w2 sub y w2 sub m w w d s} def
/m32 {mp x y w2 sub m w2 w d w neg 0 d cl s} def
/m33 {mp x y w2 add m w3 neg w2 neg d w3 w2 neg d w3 w2 d cl f} def
/m34 {mp x w2 sub y w2 sub w3 add m w3 0 d  0 w3 neg d w3 0 d 0 w3 d w3 0 d  0 w3 d w3 neg 0 d 0 w3 d w3 neg 0 d 0 w3 neg d w3 neg 0 d cl f } def
/m2 {mp x y w2 sub m 0 w d x w2 sub y m w 0 d s} def
/m5 {mp x w2 sub y w2 sub m w w d x w2 sub y w2 add m w w neg d s} def
%%IncludeResource: ProcSet (FontSetInit)
%%IncludeResource: font Times-Roman
%%IncludeResource: font Times-Italic
%%IncludeResource: font Times-Bold
%%IncludeResource: font Times-BoldItalic
%%IncludeResource: font Helvetica
%%IncludeResource: font Helvetica-Oblique
%%IncludeResource: font Helvetica-Bold
%%IncludeResource: font Helvetica-BoldOblique
%%IncludeResource: font Courier
%%IncludeResource: font Courier-Oblique
%%IncludeResource: font Courier-Bold
%%IncludeResource: font Courier-BoldOblique
%%IncludeResource: font Symbol
%%IncludeResource: font ZapfDingbats
/reEncode {exch findfont dup length dict begin {1 index /FID eq  {pop pop} {def} ifelse } forall /Encoding exch def currentdict end dup /FontName get exch definefont pop } def [/Times-Bold /Times-Italic /Times-BoldItalic /Helvetica /Helvetica-Oblique
 /Helvetica-Bold /Helvetica-BoldOblique /Courier /Courier-Oblique /Courier-Bold /Courier-BoldOblique /Times-Roman /AvantGarde-Book /AvantGarde-BookOblique /AvantGarde-Demi /AvantGarde-DemiOblique /Bookman-Demi /Bookman-DemiItalic /Bookman-Light
 /Bookman-LightItalic /Helvetica-Narrow /Helvetica-Narrow-Bold /Helvetica-Narrow-BoldOblique /Helvetica-Narrow-Oblique /NewCenturySchlbk-Roman /NewCenturySchlbk-Bold /NewCenturySchlbk-BoldItalic /NewCenturySchlbk-Italic /Palatino-Bold
 /Palatino-BoldItalic /Palatino-Italic /Palatino-Roman ] {ISOLatin1Encoding reEncode } forall
%%EndProlog
%%BeginSetup
%%EndSetup
newpath  gsave  .25 .25 scale  gsave  0 0 t black[  ] 0 sd 3 lw 1 1 1 c 2268 1538 0 0 bf black 1 1 1 c 1814 1230 227 154 bf black 1814 1230 227 154 bl 1 1 1 c 1814 1230 227 154 bf black 1814 1230 227 154 bl 227 154 m 1814 X s 463 191 m -37 Y s 514
 172 m -18 Y s 565 172 m -18 Y s 616 172 m -18 Y s 666 172 m -18 Y s 717 191 m -37 Y s 768 172 m -18 Y s 819 172 m -18 Y s 870 172 m -18 Y s 921 172 m -18 Y s 972 191 m -37 Y s 1023 172 m -18 Y s 1074 172 m -18 Y s 1125 172 m -18 Y s 1176 172 m -18 Y
 s 1227 191 m -37 Y s 1278 172 m -18 Y s 1329 172 m -18 Y s 1380 172 m -18 Y s 1431 172 m -18 Y s 1482 191 m -37 Y s 1533 172 m -18 Y s 1584 172 m -18 Y s 1635 172 m -18 Y s 1686 172 m -18 Y s 1737 191 m -37 Y s 1787 172 m -18 Y s 1838 172 m -18 Y s
 1889 172 m -18 Y s 1940 172 m -18 Y s 1991 191 m -37 Y s 463 191 m -37 Y s 412 172 m -18 Y s 361 172 m -18 Y s 310 172 m -18 Y s 259 172 m -18 Y s 1991 191 m -37 Y s
 gsave  2268 1538 0 0 C 426.826 97.7464 t 0 r /Helvetica-Bold findfont 58.6478 sf 0 0 m (50) show NC gr 
 gsave  2268 1538 0 0 C 667.934 97.7464 t 0 r /Helvetica-Bold findfont 58.6478 sf 0 0 m (100) show NC gr 
 gsave  2268 1538 0 0 C 922.074 97.7464 t 0 r /Helvetica-Bold findfont 58.6478 sf 0 0 m (150) show NC gr 
 gsave  2268 1538 0 0 C 1176.22 97.7464 t 0 r /Helvetica-Bold findfont 58.6478 sf 0 0 m (200) show NC gr 
 gsave  2268 1538 0 0 C 1430.36 97.7464 t 0 r /Helvetica-Bold findfont 58.6478 sf 0 0 m (250) show NC gr 
 gsave  2268 1538 0 0 C 1684.5 97.7464 t 0 r /Helvetica-Bold findfont 58.6478 sf 0 0 m (300) show NC gr 
 gsave  2268 1538 0 0 C 1941.9 97.7464 t 0 r /Helvetica-Bold findfont 58.6478 sf 0 0 m (350) show NC gr  227 1384 m 1814 X s 463 1347 m 37 Y s 514 1366 m 18 Y s 565 1366 m 18 Y s 616 1366 m 18 Y s 666 1366 m 18 Y s 717 1347 m 37 Y s 768 1366 m 18 Y s
 819 1366 m 18 Y s 870 1366 m 18 Y s 921 1366 m 18 Y s 972 1347 m 37 Y s 1023 1366 m 18 Y s 1074 1366 m 18 Y s 1125 1366 m 18 Y s 1176 1366 m 18 Y s 1227 1347 m 37 Y s 1278 1366 m 18 Y s 1329 1366 m 18 Y s 1380 1366 m 18 Y s 1431 1366 m 18 Y s 1482
 1347 m 37 Y s 1533 1366 m 18 Y s 1584 1366 m 18 Y s 1635 1366 m 18 Y s 1686 1366 m 18 Y s 1737 1347 m 37 Y s 1787 1366 m 18 Y s 1838 1366 m 18 Y s 1889 1366 m 18 Y s 1940 1366 m 18 Y s 1991 1347 m 37 Y s 463 1347 m 37 Y s 412 1366 m 18 Y s 361 1366
 m 18 Y s 310 1366 m 18 Y s 259 1366 m 18 Y s 1991 1347 m 37 Y s 227 154 m 1230 Y s 281 348 m -54 X s 254 392 m -27 X s 254 435 m -27 X s 254 479 m -27 X s 254 522 m -27 X s 281 566 m -54 X s 254 610 m -27 X s 254 653 m -27 X s 254 697 m -27 X s 254
 740 m -27 X s 281 784 m -54 X s 254 828 m -27 X s 254 871 m -27 X s 254 915 m -27 X s 254 958 m -27 X s 281 1002 m -54 X s 254 1046 m -27 X s 254 1089 m -27 X s 254 1133 m -27 X s 254 1177 m -27 X s 281 1220 m -54 X s 281 348 m -54 X s 254 304 m -27
 X s 254 261 m -27 X s 254 217 m -27 X s 254 174 m -27 X s 281 1220 m -54 X s 254 1264 m -27 X s 254 1307 m -27 X s 254 1351 m -27 X s
 gsave  2268 1538 0 0 C 149.878 325.821 t 0 r /Helvetica-Bold findfont 58.6478 sf 0 0 m (35) show NC gr 
 gsave  2268 1538 0 0 C 149.878 544.122 t 0 r /Helvetica-Bold findfont 58.6478 sf 0 0 m (40) show NC gr 
 gsave  2268 1538 0 0 C 149.878 762.422 t 0 r /Helvetica-Bold findfont 58.6478 sf 0 0 m (45) show NC gr 
 gsave  2268 1538 0 0 C 149.878 980.722 t 0 r /Helvetica-Bold findfont 58.6478 sf 0 0 m (50) show NC gr 
 gsave  2268 1538 0 0 C 149.878 1199.02 t 0 r /Helvetica-Bold findfont 58.6478 sf 0 0 m (55) show NC gr  2041 154 m 1230 Y s 1987 348 m 54 X s 2014 392 m 27 X s 2014 435 m 27 X s 2014 479 m 27 X s 2014 522 m 27 X s 1987 566 m 54 X s 2014 610 m 27 X s
 2014 653 m 27 X s 2014 697 m 27 X s 2014 740 m 27 X s 1987 784 m 54 X s 2014 828 m 27 X s 2014 871 m 27 X s 2014 915 m 27 X s 2014 958 m 27 X s 1987 1002 m 54 X s 2014 1046 m 27 X s 2014 1089 m 27 X s 2014 1133 m 27 X s 2014 1177 m 27 X s 1987 1220
 m 54 X s 1987 348 m 54 X s 2014 304 m 27 X s 2014 261 m 27 X s 2014 217 m 27 X s 2014 174 m 27 X s 1987 1220 m 54 X s 2014 1264 m 27 X s 2014 1307 m 27 X s 2014 1351 m 27 X s 309 671 m 179 Y s 303 850 m 13 X s 309 671 m -180 Y s 303 491 m 13 X s 522
 549 m 173 Y s 515 722 m 13 X s 522 549 m -174 Y s 515 375 m 13 X s 729 793 m 185 Y s 723 978 m 13 X s 729 793 m -186 Y s 723 607 m 13 X s 924 496 m 171 Y s 917 667 m 13 X s 924 496 m -171 Y s 917 325 m 13 X s 1145 426 m 168 Y s 1138 594 m 13 X s
 1145 426 m -167 Y s 1138 259 m 13 X s 1353 688 m 181 Y s 1347 869 m 13 X s 1353 688 m -180 Y s 1347 508 m 13 X s 1546 461 m 169 Y s 1540 630 m 13 X s 1546 461 m -169 Y s 1540 292 m 13 X s 1760 357 m 163 Y s 1753 520 m 13 X s 1760 357 m -164 Y s 1753
 193 m 13 X s 1958 461 m 169 Y s 1952 630 m 13 X s 1958 461 m -169 Y s 1952 292 m 13 X s 1 1 1 c black 309 671 m 213 -122 d 207 244 d 195 -297 d 221 -70 d 208 262 d 193 -227 d 214 -104 d 198 104 d s /w 2 def /w2 {w 2 div} def /w3 {w 3 div} def 309
 671 522 549 729 793 924 496 1145 426 1353 688 1546 461 1760 357 1958 461 9 { m20} R
 gsave  2268 1538 0 0 C 1326.09 1172.96 t 0 r /Helvetica-Bold findfont 58.6478 sf 0 0 m (Pixel Occupancies) show NC gr  1124 1192 m 167 X s 1208 1192 m20
 gr  gr showpage
end
%%EOF
