%!PS-Adobe-2.0 EPSF-2.0
%%BoundingBox:  0 0 567 384
%%Title: outputDir/pixel_occupancy/clus_z_pixlayer_2_pos.eps: c1_n49
%%Creator: ROOT Version 6.04/12
%%CreationDate: Mon Apr 25 16:02:14 2016
%%DocumentNeededResources: ProcSet (FontSetInit)
%%EndComments
%%BeginProlog
80 dict begin
/s {stroke} def /l {lineto} def /m {moveto} def /t {translate} def
/r {rotate} def /rl {roll}  def /R {repeat} def
/d {rlineto} def /rm {rmoveto} def /gr {grestore} def /f {eofill} def
/c {setrgbcolor} def /black {0 setgray} def /sd {setdash} def
/cl {closepath} def /sf {scalefont setfont} def /lw {setlinewidth} def
/box {m dup 0 exch d exch 0 d 0 exch neg d cl} def
/NC{systemdict begin initclip end}def/C{NC box clip newpath}def
/bl {box s} def /bf {gsave box gsave f grestore 1 lw [] 0 sd s grestore} def /Y { 0 exch d} def /X { 0 d} def 
/K {{pop pop 0 moveto} exch kshow} bind def
/ita {/ang 15 def gsave [1 0 ang dup sin exch cos div 1 0 0] concat} def 
/mp {newpath /y exch def /x exch def} def
/side {[w .77 mul w .23 mul] .385 w mul sd w 0 l currentpoint t -144 r} def
/mr {mp x y w2 0 360 arc} def /m24 {mr s} def /m20 {mr f} def
/mb {mp x y w2 add m w2 neg 0 d 0 w neg d w 0 d 0 w d cl} def
/mt {mp x y w2 add m w2 neg w neg d w 0 d cl} def
/m21 {mb f} def /m25 {mb s} def /m22 {mt f} def /m26{mt s} def
/m23 {mp x y w2 sub m w2 w d w neg 0 d cl f} def
/m27 {mp x y w2 add m w3 neg w2 neg d w3 w2 neg d w3 w2 d cl s} def
/m28 {mp x w2 sub y w2 sub w3 add m w3 0 d  0 w3 neg d w3 0 d 0 w3 d w3 0 d  0 w3 d w3 neg 0 d 0 w3 d w3 neg 0 d 0 w3 neg d w3 neg 0 d cl s } def
/m29 {mp gsave x w2 sub y w2 add w3 sub m currentpoint t 4 {side} repeat cl fill gr} def
/m30 {mp gsave x w2 sub y w2 add w3 sub m currentpoint t 4 {side} repeat cl s gr} def
/m31 {mp x y w2 sub m 0 w d x w2 sub y m w 0 d x w2 sub y w2 add m w w neg d x w2 sub y w2 sub m w w d s} def
/m32 {mp x y w2 sub m w2 w d w neg 0 d cl s} def
/m33 {mp x y w2 add m w3 neg w2 neg d w3 w2 neg d w3 w2 d cl f} def
/m34 {mp x w2 sub y w2 sub w3 add m w3 0 d  0 w3 neg d w3 0 d 0 w3 d w3 0 d  0 w3 d w3 neg 0 d 0 w3 d w3 neg 0 d 0 w3 neg d w3 neg 0 d cl f } def
/m2 {mp x y w2 sub m 0 w d x w2 sub y m w 0 d s} def
/m5 {mp x w2 sub y w2 sub m w w d x w2 sub y w2 add m w w neg d s} def
%%IncludeResource: ProcSet (FontSetInit)
%%IncludeResource: font Times-Roman
%%IncludeResource: font Times-Italic
%%IncludeResource: font Times-Bold
%%IncludeResource: font Times-BoldItalic
%%IncludeResource: font Helvetica
%%IncludeResource: font Helvetica-Oblique
%%IncludeResource: font Helvetica-Bold
%%IncludeResource: font Helvetica-BoldOblique
%%IncludeResource: font Courier
%%IncludeResource: font Courier-Oblique
%%IncludeResource: font Courier-Bold
%%IncludeResource: font Courier-BoldOblique
%%IncludeResource: font Symbol
%%IncludeResource: font ZapfDingbats
/reEncode {exch findfont dup length dict begin {1 index /FID eq  {pop pop} {def} ifelse } forall /Encoding exch def currentdict end dup /FontName get exch definefont pop } def [/Times-Bold /Times-Italic /Times-BoldItalic /Helvetica /Helvetica-Oblique
 /Helvetica-Bold /Helvetica-BoldOblique /Courier /Courier-Oblique /Courier-Bold /Courier-BoldOblique /Times-Roman /AvantGarde-Book /AvantGarde-BookOblique /AvantGarde-Demi /AvantGarde-DemiOblique /Bookman-Demi /Bookman-DemiItalic /Bookman-Light
 /Bookman-LightItalic /Helvetica-Narrow /Helvetica-Narrow-Bold /Helvetica-Narrow-BoldOblique /Helvetica-Narrow-Oblique /NewCenturySchlbk-Roman /NewCenturySchlbk-Bold /NewCenturySchlbk-BoldItalic /NewCenturySchlbk-Italic /Palatino-Bold
 /Palatino-BoldItalic /Palatino-Italic /Palatino-Roman ] {ISOLatin1Encoding reEncode } forall
%%EndProlog
%%BeginSetup
%%EndSetup
newpath  gsave  .25 .25 scale  gsave  0 0 t black[  ] 0 sd 3 lw 1 1 1 c 2268 1538 0 0 bf black 1 1 1 c 1814 1230 227 154 bf black 1814 1230 227 154 bl 1 1 1 c 1814 1230 227 154 bf black 1814 1230 227 154 bl 227 154 m 1814 X s 457 191 m -37 Y s 508
 172 m -18 Y s 559 172 m -18 Y s 609 172 m -18 Y s 660 172 m -18 Y s 711 191 m -37 Y s 762 172 m -18 Y s 813 172 m -18 Y s 863 172 m -18 Y s 914 172 m -18 Y s 965 191 m -37 Y s 1016 172 m -18 Y s 1066 172 m -18 Y s 1117 172 m -18 Y s 1168 172 m -18 Y
 s 1219 191 m -37 Y s 1270 172 m -18 Y s 1320 172 m -18 Y s 1371 172 m -18 Y s 1422 172 m -18 Y s 1473 191 m -37 Y s 1523 172 m -18 Y s 1574 172 m -18 Y s 1625 172 m -18 Y s 1676 172 m -18 Y s 1727 191 m -37 Y s 1777 172 m -18 Y s 1828 172 m -18 Y s
 1879 172 m -18 Y s 1930 172 m -18 Y s 1981 191 m -37 Y s 457 191 m -37 Y s 406 172 m -18 Y s 356 172 m -18 Y s 305 172 m -18 Y s 254 172 m -18 Y s 1981 191 m -37 Y s 2031 172 m -18 Y s
 gsave  2268 1538 0 0 C 423.568 97.7464 t 0 r /Helvetica-Bold findfont 58.6478 sf 0 0 m (50) show NC gr 
 gsave  2268 1538 0 0 C 661.417 97.7464 t 0 r /Helvetica-Bold findfont 58.6478 sf 0 0 m (100) show NC gr 
 gsave  2268 1538 0 0 C 915.558 97.7464 t 0 r /Helvetica-Bold findfont 58.6478 sf 0 0 m (150) show NC gr 
 gsave  2268 1538 0 0 C 1169.7 97.7464 t 0 r /Helvetica-Bold findfont 58.6478 sf 0 0 m (200) show NC gr 
 gsave  2268 1538 0 0 C 1423.84 97.7464 t 0 r /Helvetica-Bold findfont 58.6478 sf 0 0 m (250) show NC gr 
 gsave  2268 1538 0 0 C 1674.72 97.7464 t 0 r /Helvetica-Bold findfont 58.6478 sf 0 0 m (300) show NC gr 
 gsave  2268 1538 0 0 C 1928.86 97.7464 t 0 r /Helvetica-Bold findfont 58.6478 sf 0 0 m (350) show NC gr  227 1384 m 1814 X s 457 1347 m 37 Y s 508 1366 m 18 Y s 559 1366 m 18 Y s 609 1366 m 18 Y s 660 1366 m 18 Y s 711 1347 m 37 Y s 762 1366 m 18 Y
 s 813 1366 m 18 Y s 863 1366 m 18 Y s 914 1366 m 18 Y s 965 1347 m 37 Y s 1016 1366 m 18 Y s 1066 1366 m 18 Y s 1117 1366 m 18 Y s 1168 1366 m 18 Y s 1219 1347 m 37 Y s 1270 1366 m 18 Y s 1320 1366 m 18 Y s 1371 1366 m 18 Y s 1422 1366 m 18 Y s 1473
 1347 m 37 Y s 1523 1366 m 18 Y s 1574 1366 m 18 Y s 1625 1366 m 18 Y s 1676 1366 m 18 Y s 1727 1347 m 37 Y s 1777 1366 m 18 Y s 1828 1366 m 18 Y s 1879 1366 m 18 Y s 1930 1366 m 18 Y s 1981 1347 m 37 Y s 457 1347 m 37 Y s 406 1366 m 18 Y s 356 1366
 m 18 Y s 305 1366 m 18 Y s 254 1366 m 18 Y s 1981 1347 m 37 Y s 2031 1366 m 18 Y s 227 154 m 1230 Y s 281 159 m -54 X s 254 194 m -27 X s 254 229 m -27 X s 254 264 m -27 X s 254 299 m -27 X s 281 334 m -54 X s 254 370 m -27 X s 254 405 m -27 X s 254
 440 m -27 X s 254 475 m -27 X s 281 510 m -54 X s 254 545 m -27 X s 254 580 m -27 X s 254 615 m -27 X s 254 650 m -27 X s 281 685 m -54 X s 254 720 m -27 X s 254 755 m -27 X s 254 791 m -27 X s 254 826 m -27 X s 281 861 m -54 X s 254 896 m -27 X s
 254 931 m -27 X s 254 966 m -27 X s 254 1001 m -27 X s 281 1036 m -54 X s 254 1071 m -27 X s 254 1106 m -27 X s 254 1141 m -27 X s 254 1176 m -27 X s 281 1211 m -54 X s 281 159 m -54 X s 281 1211 m -54 X s 254 1247 m -27 X s 254 1282 m -27 X s 254
 1317 m -27 X s 254 1352 m -27 X s
 gsave  2268 1538 0 0 C 149.878 136.845 t 0 r /Helvetica-Bold findfont 58.6478 sf 0 0 m (30) show NC gr 
 gsave  2268 1538 0 0 C 149.878 312.788 t 0 r /Helvetica-Bold findfont 58.6478 sf 0 0 m (40) show NC gr 
 gsave  2268 1538 0 0 C 149.878 488.732 t 0 r /Helvetica-Bold findfont 58.6478 sf 0 0 m (50) show NC gr 
 gsave  2268 1538 0 0 C 149.878 664.676 t 0 r /Helvetica-Bold findfont 58.6478 sf 0 0 m (60) show NC gr 
 gsave  2268 1538 0 0 C 149.878 840.619 t 0 r /Helvetica-Bold findfont 58.6478 sf 0 0 m (70) show NC gr 
 gsave  2268 1538 0 0 C 149.878 1013.3 t 0 r /Helvetica-Bold findfont 58.6478 sf 0 0 m (80) show NC gr 
 gsave  2268 1538 0 0 C 149.878 1189.25 t 0 r /Helvetica-Bold findfont 58.6478 sf 0 0 m (90) show NC gr  2041 154 m 1230 Y s 1987 159 m 54 X s 2014 194 m 27 X s 2014 229 m 27 X s 2014 264 m 27 X s 2014 299 m 27 X s 1987 334 m 54 X s 2014 370 m 27 X s
 2014 405 m 27 X s 2014 440 m 27 X s 2014 475 m 27 X s 1987 510 m 54 X s 2014 545 m 27 X s 2014 580 m 27 X s 2014 615 m 27 X s 2014 650 m 27 X s 1987 685 m 54 X s 2014 720 m 27 X s 2014 755 m 27 X s 2014 791 m 27 X s 2014 826 m 27 X s 1987 861 m 54 X
 s 2014 896 m 27 X s 2014 931 m 27 X s 2014 966 m 27 X s 2014 1001 m 27 X s 1987 1036 m 54 X s 2014 1071 m 27 X s 2014 1106 m 27 X s 2014 1141 m 27 X s 2014 1176 m 27 X s 1987 1211 m 54 X s 1987 159 m 54 X s 1987 1211 m 54 X s 2014 1247 m 27 X s 2014
 1282 m 27 X s 2014 1317 m 27 X s 2014 1352 m 27 X s 309 980 m 97 Y s 303 1077 m 13 X s 309 980 m -97 Y s 303 883 m 13 X s 517 671 m 86 Y s 510 757 m 13 X s 517 671 m -85 Y s 510 586 m 13 X s 724 776 m 90 Y s 718 866 m 13 X s 724 776 m -89 Y s 718
 687 m 13 X s 922 629 m 84 Y s 916 713 m 13 X s 922 629 m -83 Y s 916 546 m 13 X s 1132 538 m 80 Y s 1126 618 m 13 X s 1132 538 m -80 Y s 1126 458 m 13 X s 1337 608 m 83 Y s 1331 691 m 13 X s 1337 608 m -83 Y s 1331 525 m 13 X s 1543 313 m 70 Y s
 1536 383 m 13 X s 1543 313 m -69 Y s 1536 244 m 13 X s 1749 341 m 71 Y s 1742 412 m 13 X s 1749 341 m -70 Y s 1742 271 m 13 X s 1958 264 m 67 Y s 1952 331 m 13 X s 1958 264 m -66 Y s 1952 198 m 13 X s 1 1 1 c black 309 980 m 208 -309 d 207 105 d 198
 -147 d 210 -91 d 205 70 d 206 -295 d 206 28 d 209 -77 d s /w 2 def /w2 {w 2 div} def /w3 {w 3 div} def 309 980 517 671 724 776 922 629 1132 538 1337 608 1543 313 1749 341 1958 264 9 { m20} R
 gsave  2268 1538 0 0 C 1326.09 1172.96 t 0 r /Helvetica-Bold findfont 58.6478 sf 0 0 m (Pixel Occupancies) show NC gr  1124 1192 m 167 X s 1208 1192 m20
 gr  gr showpage
end
%%EOF
