%!PS-Adobe-2.0 EPSF-2.0
%%BoundingBox:  0 0 567 384
%%Title: outputDir/pixel_occupancy/clus_z_pixlayer_1_pos.eps: c1_n43
%%Creator: ROOT Version 6.04/12
%%CreationDate: Mon Apr 25 16:02:13 2016
%%DocumentNeededResources: ProcSet (FontSetInit)
%%EndComments
%%BeginProlog
80 dict begin
/s {stroke} def /l {lineto} def /m {moveto} def /t {translate} def
/r {rotate} def /rl {roll}  def /R {repeat} def
/d {rlineto} def /rm {rmoveto} def /gr {grestore} def /f {eofill} def
/c {setrgbcolor} def /black {0 setgray} def /sd {setdash} def
/cl {closepath} def /sf {scalefont setfont} def /lw {setlinewidth} def
/box {m dup 0 exch d exch 0 d 0 exch neg d cl} def
/NC{systemdict begin initclip end}def/C{NC box clip newpath}def
/bl {box s} def /bf {gsave box gsave f grestore 1 lw [] 0 sd s grestore} def /Y { 0 exch d} def /X { 0 d} def 
/K {{pop pop 0 moveto} exch kshow} bind def
/ita {/ang 15 def gsave [1 0 ang dup sin exch cos div 1 0 0] concat} def 
/mp {newpath /y exch def /x exch def} def
/side {[w .77 mul w .23 mul] .385 w mul sd w 0 l currentpoint t -144 r} def
/mr {mp x y w2 0 360 arc} def /m24 {mr s} def /m20 {mr f} def
/mb {mp x y w2 add m w2 neg 0 d 0 w neg d w 0 d 0 w d cl} def
/mt {mp x y w2 add m w2 neg w neg d w 0 d cl} def
/m21 {mb f} def /m25 {mb s} def /m22 {mt f} def /m26{mt s} def
/m23 {mp x y w2 sub m w2 w d w neg 0 d cl f} def
/m27 {mp x y w2 add m w3 neg w2 neg d w3 w2 neg d w3 w2 d cl s} def
/m28 {mp x w2 sub y w2 sub w3 add m w3 0 d  0 w3 neg d w3 0 d 0 w3 d w3 0 d  0 w3 d w3 neg 0 d 0 w3 d w3 neg 0 d 0 w3 neg d w3 neg 0 d cl s } def
/m29 {mp gsave x w2 sub y w2 add w3 sub m currentpoint t 4 {side} repeat cl fill gr} def
/m30 {mp gsave x w2 sub y w2 add w3 sub m currentpoint t 4 {side} repeat cl s gr} def
/m31 {mp x y w2 sub m 0 w d x w2 sub y m w 0 d x w2 sub y w2 add m w w neg d x w2 sub y w2 sub m w w d s} def
/m32 {mp x y w2 sub m w2 w d w neg 0 d cl s} def
/m33 {mp x y w2 add m w3 neg w2 neg d w3 w2 neg d w3 w2 d cl f} def
/m34 {mp x w2 sub y w2 sub w3 add m w3 0 d  0 w3 neg d w3 0 d 0 w3 d w3 0 d  0 w3 d w3 neg 0 d 0 w3 d w3 neg 0 d 0 w3 neg d w3 neg 0 d cl f } def
/m2 {mp x y w2 sub m 0 w d x w2 sub y m w 0 d s} def
/m5 {mp x w2 sub y w2 sub m w w d x w2 sub y w2 add m w w neg d s} def
%%IncludeResource: ProcSet (FontSetInit)
%%IncludeResource: font Times-Roman
%%IncludeResource: font Times-Italic
%%IncludeResource: font Times-Bold
%%IncludeResource: font Times-BoldItalic
%%IncludeResource: font Helvetica
%%IncludeResource: font Helvetica-Oblique
%%IncludeResource: font Helvetica-Bold
%%IncludeResource: font Helvetica-BoldOblique
%%IncludeResource: font Courier
%%IncludeResource: font Courier-Oblique
%%IncludeResource: font Courier-Bold
%%IncludeResource: font Courier-BoldOblique
%%IncludeResource: font Symbol
%%IncludeResource: font ZapfDingbats
/reEncode {exch findfont dup length dict begin {1 index /FID eq  {pop pop} {def} ifelse } forall /Encoding exch def currentdict end dup /FontName get exch definefont pop } def [/Times-Bold /Times-Italic /Times-BoldItalic /Helvetica /Helvetica-Oblique
 /Helvetica-Bold /Helvetica-BoldOblique /Courier /Courier-Oblique /Courier-Bold /Courier-BoldOblique /Times-Roman /AvantGarde-Book /AvantGarde-BookOblique /AvantGarde-Demi /AvantGarde-DemiOblique /Bookman-Demi /Bookman-DemiItalic /Bookman-Light
 /Bookman-LightItalic /Helvetica-Narrow /Helvetica-Narrow-Bold /Helvetica-Narrow-BoldOblique /Helvetica-Narrow-Oblique /NewCenturySchlbk-Roman /NewCenturySchlbk-Bold /NewCenturySchlbk-BoldItalic /NewCenturySchlbk-Italic /Palatino-Bold
 /Palatino-BoldItalic /Palatino-Italic /Palatino-Roman ] {ISOLatin1Encoding reEncode } forall
%%EndProlog
%%BeginSetup
%%EndSetup
newpath  gsave  .25 .25 scale  gsave  0 0 t black[  ] 0 sd 3 lw 1 1 1 c 2268 1538 0 0 bf black 1 1 1 c 1814 1230 227 154 bf black 1814 1230 227 154 bl 1 1 1 c 1814 1230 227 154 bf black 1814 1230 227 154 bl 227 154 m 1814 X s 254 191 m -37 Y s 307
 172 m -18 Y s 359 172 m -18 Y s 412 172 m -18 Y s 464 172 m -18 Y s 516 191 m -37 Y s 569 172 m -18 Y s 621 172 m -18 Y s 674 172 m -18 Y s 726 172 m -18 Y s 778 191 m -37 Y s 831 172 m -18 Y s 883 172 m -18 Y s 936 172 m -18 Y s 988 172 m -18 Y s
 1040 191 m -37 Y s 1093 172 m -18 Y s 1145 172 m -18 Y s 1198 172 m -18 Y s 1250 172 m -18 Y s 1303 191 m -37 Y s 1355 172 m -18 Y s 1407 172 m -18 Y s 1460 172 m -18 Y s 1512 172 m -18 Y s 1565 191 m -37 Y s 1617 172 m -18 Y s 1669 172 m -18 Y s
 1722 172 m -18 Y s 1774 172 m -18 Y s 1827 191 m -37 Y s 254 191 m -37 Y s 1827 191 m -37 Y s 1879 172 m -18 Y s 1931 172 m -18 Y s 1984 172 m -18 Y s 2036 172 m -18 Y s
 gsave  2268 1538 0 0 C 237.85 97.7464 t 0 r /Helvetica-Bold findfont 58.6478 sf 0 0 m (0) show NC gr 
 gsave  2268 1538 0 0 C 465.925 97.7464 t 0 r /Helvetica-Bold findfont 58.6478 sf 0 0 m (100) show NC gr 
 gsave  2268 1538 0 0 C 726.582 97.7464 t 0 r /Helvetica-Bold findfont 58.6478 sf 0 0 m (200) show NC gr 
 gsave  2268 1538 0 0 C 990.497 97.7464 t 0 r /Helvetica-Bold findfont 58.6478 sf 0 0 m (300) show NC gr 
 gsave  2268 1538 0 0 C 1251.15 97.7464 t 0 r /Helvetica-Bold findfont 58.6478 sf 0 0 m (400) show NC gr 
 gsave  2268 1538 0 0 C 1515.07 97.7464 t 0 r /Helvetica-Bold findfont 58.6478 sf 0 0 m (500) show NC gr 
 gsave  2268 1538 0 0 C 1775.73 97.7464 t 0 r /Helvetica-Bold findfont 58.6478 sf 0 0 m (600) show NC gr  227 1384 m 1814 X s 254 1347 m 37 Y s 307 1366 m 18 Y s 359 1366 m 18 Y s 412 1366 m 18 Y s 464 1366 m 18 Y s 516 1347 m 37 Y s 569 1366 m 18 Y
 s 621 1366 m 18 Y s 674 1366 m 18 Y s 726 1366 m 18 Y s 778 1347 m 37 Y s 831 1366 m 18 Y s 883 1366 m 18 Y s 936 1366 m 18 Y s 988 1366 m 18 Y s 1040 1347 m 37 Y s 1093 1366 m 18 Y s 1145 1366 m 18 Y s 1198 1366 m 18 Y s 1250 1366 m 18 Y s 1303
 1347 m 37 Y s 1355 1366 m 18 Y s 1407 1366 m 18 Y s 1460 1366 m 18 Y s 1512 1366 m 18 Y s 1565 1347 m 37 Y s 1617 1366 m 18 Y s 1669 1366 m 18 Y s 1722 1366 m 18 Y s 1774 1366 m 18 Y s 1827 1347 m 37 Y s 254 1347 m 37 Y s 1827 1347 m 37 Y s 1879
 1366 m 18 Y s 1931 1366 m 18 Y s 1984 1366 m 18 Y s 2036 1366 m 18 Y s 227 154 m 1230 Y s 281 360 m -54 X s 254 422 m -27 X s 254 483 m -27 X s 254 544 m -27 X s 281 605 m -54 X s 254 667 m -27 X s 254 728 m -27 X s 254 789 m -27 X s 281 851 m -54 X
 s 254 912 m -27 X s 254 973 m -27 X s 254 1034 m -27 X s 281 1096 m -54 X s 254 1157 m -27 X s 254 1218 m -27 X s 254 1280 m -27 X s 281 1341 m -54 X s 281 360 m -54 X s 254 299 m -27 X s 254 238 m -27 X s 254 176 m -27 X s 281 1341 m -54 X s
 gsave  2268 1538 0 0 C 149.878 338.854 t 0 r /Helvetica-Bold findfont 58.6478 sf 0 0 m (60) show NC gr 
 gsave  2268 1538 0 0 C 149.878 583.22 t 0 r /Helvetica-Bold findfont 58.6478 sf 0 0 m (80) show NC gr 
 gsave  2268 1538 0 0 C 117.296 830.844 t 0 r /Helvetica-Bold findfont 58.6478 sf 0 0 m (100) show NC gr 
 gsave  2268 1538 0 0 C 117.296 1075.21 t 0 r /Helvetica-Bold findfont 58.6478 sf 0 0 m (120) show NC gr 
 gsave  2268 1538 0 0 C 117.296 1319.58 t 0 r /Helvetica-Bold findfont 58.6478 sf 0 0 m (140) show NC gr  2041 154 m 1230 Y s 1987 360 m 54 X s 2014 422 m 27 X s 2014 483 m 27 X s 2014 544 m 27 X s 1987 605 m 54 X s 2014 667 m 27 X s 2014 728 m 27 X
 s 2014 789 m 27 X s 1987 851 m 54 X s 2014 912 m 27 X s 2014 973 m 27 X s 2014 1034 m 27 X s 1987 1096 m 54 X s 2014 1157 m 27 X s 2014 1218 m 27 X s 2014 1280 m 27 X s 1987 1341 m 54 X s 1987 360 m 54 X s 2014 299 m 27 X s 2014 238 m 27 X s 2014
 176 m 27 X s 1987 1341 m 54 X s 309 978 m 82 Y s 303 1060 m 13 X s 309 978 m -81 Y s 303 897 m 13 X s 413 875 m 78 Y s 406 953 m 13 X s 413 875 m -78 Y s 406 797 m 13 X s 517 846 m 77 Y s 511 923 m 13 X s 517 846 m -78 Y s 511 768 m 13 X s 624 679 m
 72 Y s 618 751 m 13 X s 624 679 m -72 Y s 618 607 m 13 X s 734 419 m 63 Y s 727 482 m 13 X s 734 419 m -62 Y s 727 357 m 13 X s 826 297 m 57 Y s 820 354 m 13 X s 826 297 m -58 Y s 820 239 m 13 X s 896 252 m 56 Y s 890 308 m 13 X s 896 252 m -55 Y s
 890 197 m 13 X s 976 316 m 58 Y s 970 374 m 13 X s 976 316 m -58 Y s 970 258 m 13 X s 1076 336 m 59 Y s 1070 395 m 13 X s 1076 336 m -59 Y s 1070 277 m 13 X s 1196 267 m 56 Y s 1189 323 m 13 X s 1196 267 m -56 Y s 1189 211 m 13 X s 1340 360 m 60 Y s
 1333 420 m 13 X s 1340 360 m -60 Y s 1333 300 m 13 X s 1506 399 m 62 Y s 1499 461 m 13 X s 1506 399 m -61 Y s 1499 338 m 13 X s 1711 439 m 63 Y s 1704 502 m 13 X s 1711 439 m -63 Y s 1704 376 m 13 X s 1836 419 m 63 Y s 1829 482 m 13 X s 1836 419 m
 -62 Y s 1829 357 m 13 X s 1958 355 m 60 Y s 1952 415 m 13 X s 1958 355 m -59 Y s 1952 296 m 13 X s 1 1 1 c black 309 978 m 104 -103 d 104 -29 d 107 -167 d 110 -260 d 92 -122 d 70 -45 d 80 64 d 100 20 d 120 -69 d 144 93 d 166 39 d 205 40 d 125 -20 d
 122 -64 d s /w 2 def /w2 {w 2 div} def /w3 {w 3 div} def 309 978 413 875 517 846 624 679 734 419 826 297 896 252 976 316 1076 336 1196 267 1340 360 1506 399 1711 439 1836 419 1958 355 15 { m20} R
 gsave  2268 1538 0 0 C 1326.09 1172.96 t 0 r /Helvetica-Bold findfont 58.6478 sf 0 0 m (Pixel Occupancies) show NC gr  1124 1192 m 167 X s 1208 1192 m20
 gr  gr showpage
end
%%EOF
