%!PS-Adobe-2.0 EPSF-2.0
%%BoundingBox:  0 0 567 384
%%Title: outputDir/pixel_occupancy/clus_z_pixlayer_3_pos.eps: c1_n44
%%Creator: ROOT Version 6.04/12
%%CreationDate: Mon Apr 25 16:02:13 2016
%%DocumentNeededResources: ProcSet (FontSetInit)
%%EndComments
%%BeginProlog
80 dict begin
/s {stroke} def /l {lineto} def /m {moveto} def /t {translate} def
/r {rotate} def /rl {roll}  def /R {repeat} def
/d {rlineto} def /rm {rmoveto} def /gr {grestore} def /f {eofill} def
/c {setrgbcolor} def /black {0 setgray} def /sd {setdash} def
/cl {closepath} def /sf {scalefont setfont} def /lw {setlinewidth} def
/box {m dup 0 exch d exch 0 d 0 exch neg d cl} def
/NC{systemdict begin initclip end}def/C{NC box clip newpath}def
/bl {box s} def /bf {gsave box gsave f grestore 1 lw [] 0 sd s grestore} def /Y { 0 exch d} def /X { 0 d} def 
/K {{pop pop 0 moveto} exch kshow} bind def
/ita {/ang 15 def gsave [1 0 ang dup sin exch cos div 1 0 0] concat} def 
/mp {newpath /y exch def /x exch def} def
/side {[w .77 mul w .23 mul] .385 w mul sd w 0 l currentpoint t -144 r} def
/mr {mp x y w2 0 360 arc} def /m24 {mr s} def /m20 {mr f} def
/mb {mp x y w2 add m w2 neg 0 d 0 w neg d w 0 d 0 w d cl} def
/mt {mp x y w2 add m w2 neg w neg d w 0 d cl} def
/m21 {mb f} def /m25 {mb s} def /m22 {mt f} def /m26{mt s} def
/m23 {mp x y w2 sub m w2 w d w neg 0 d cl f} def
/m27 {mp x y w2 add m w3 neg w2 neg d w3 w2 neg d w3 w2 d cl s} def
/m28 {mp x w2 sub y w2 sub w3 add m w3 0 d  0 w3 neg d w3 0 d 0 w3 d w3 0 d  0 w3 d w3 neg 0 d 0 w3 d w3 neg 0 d 0 w3 neg d w3 neg 0 d cl s } def
/m29 {mp gsave x w2 sub y w2 add w3 sub m currentpoint t 4 {side} repeat cl fill gr} def
/m30 {mp gsave x w2 sub y w2 add w3 sub m currentpoint t 4 {side} repeat cl s gr} def
/m31 {mp x y w2 sub m 0 w d x w2 sub y m w 0 d x w2 sub y w2 add m w w neg d x w2 sub y w2 sub m w w d s} def
/m32 {mp x y w2 sub m w2 w d w neg 0 d cl s} def
/m33 {mp x y w2 add m w3 neg w2 neg d w3 w2 neg d w3 w2 d cl f} def
/m34 {mp x w2 sub y w2 sub w3 add m w3 0 d  0 w3 neg d w3 0 d 0 w3 d w3 0 d  0 w3 d w3 neg 0 d 0 w3 d w3 neg 0 d 0 w3 neg d w3 neg 0 d cl f } def
/m2 {mp x y w2 sub m 0 w d x w2 sub y m w 0 d s} def
/m5 {mp x w2 sub y w2 sub m w w d x w2 sub y w2 add m w w neg d s} def
%%IncludeResource: ProcSet (FontSetInit)
%%IncludeResource: font Times-Roman
%%IncludeResource: font Times-Italic
%%IncludeResource: font Times-Bold
%%IncludeResource: font Times-BoldItalic
%%IncludeResource: font Helvetica
%%IncludeResource: font Helvetica-Oblique
%%IncludeResource: font Helvetica-Bold
%%IncludeResource: font Helvetica-BoldOblique
%%IncludeResource: font Courier
%%IncludeResource: font Courier-Oblique
%%IncludeResource: font Courier-Bold
%%IncludeResource: font Courier-BoldOblique
%%IncludeResource: font Symbol
%%IncludeResource: font ZapfDingbats
/reEncode {exch findfont dup length dict begin {1 index /FID eq  {pop pop} {def} ifelse } forall /Encoding exch def currentdict end dup /FontName get exch definefont pop } def [/Times-Bold /Times-Italic /Times-BoldItalic /Helvetica /Helvetica-Oblique
 /Helvetica-Bold /Helvetica-BoldOblique /Courier /Courier-Oblique /Courier-Bold /Courier-BoldOblique /Times-Roman /AvantGarde-Book /AvantGarde-BookOblique /AvantGarde-Demi /AvantGarde-DemiOblique /Bookman-Demi /Bookman-DemiItalic /Bookman-Light
 /Bookman-LightItalic /Helvetica-Narrow /Helvetica-Narrow-Bold /Helvetica-Narrow-BoldOblique /Helvetica-Narrow-Oblique /NewCenturySchlbk-Roman /NewCenturySchlbk-Bold /NewCenturySchlbk-BoldItalic /NewCenturySchlbk-Italic /Palatino-Bold
 /Palatino-BoldItalic /Palatino-Italic /Palatino-Roman ] {ISOLatin1Encoding reEncode } forall
%%EndProlog
%%BeginSetup
%%EndSetup
newpath  gsave  .25 .25 scale  gsave  0 0 t black[  ] 0 sd 3 lw 1 1 1 c 2268 1538 0 0 bf black 1 1 1 c 1814 1230 227 154 bf black 1814 1230 227 154 bl 1 1 1 c 1814 1230 227 154 bf black 1814 1230 227 154 bl 227 154 m 1814 X s 459 191 m -37 Y s 510
 172 m -18 Y s 561 172 m -18 Y s 611 172 m -18 Y s 662 172 m -18 Y s 713 191 m -37 Y s 764 172 m -18 Y s 815 172 m -18 Y s 865 172 m -18 Y s 916 172 m -18 Y s 967 191 m -37 Y s 1018 172 m -18 Y s 1069 172 m -18 Y s 1119 172 m -18 Y s 1170 172 m -18 Y
 s 1221 191 m -37 Y s 1272 172 m -18 Y s 1322 172 m -18 Y s 1373 172 m -18 Y s 1424 172 m -18 Y s 1475 191 m -37 Y s 1526 172 m -18 Y s 1576 172 m -18 Y s 1627 172 m -18 Y s 1678 172 m -18 Y s 1729 191 m -37 Y s 1780 172 m -18 Y s 1830 172 m -18 Y s
 1881 172 m -18 Y s 1932 172 m -18 Y s 1983 191 m -37 Y s 459 191 m -37 Y s 408 172 m -18 Y s 357 172 m -18 Y s 307 172 m -18 Y s 256 172 m -18 Y s 1983 191 m -37 Y s 2034 172 m -18 Y s
 gsave  2268 1538 0 0 C 423.568 97.7464 t 0 r /Helvetica-Bold findfont 58.6478 sf 0 0 m (50) show NC gr 
 gsave  2268 1538 0 0 C 661.417 97.7464 t 0 r /Helvetica-Bold findfont 58.6478 sf 0 0 m (100) show NC gr 
 gsave  2268 1538 0 0 C 915.558 97.7464 t 0 r /Helvetica-Bold findfont 58.6478 sf 0 0 m (150) show NC gr 
 gsave  2268 1538 0 0 C 1169.7 97.7464 t 0 r /Helvetica-Bold findfont 58.6478 sf 0 0 m (200) show NC gr 
 gsave  2268 1538 0 0 C 1423.84 97.7464 t 0 r /Helvetica-Bold findfont 58.6478 sf 0 0 m (250) show NC gr 
 gsave  2268 1538 0 0 C 1677.98 97.7464 t 0 r /Helvetica-Bold findfont 58.6478 sf 0 0 m (300) show NC gr 
 gsave  2268 1538 0 0 C 1932.12 97.7464 t 0 r /Helvetica-Bold findfont 58.6478 sf 0 0 m (350) show NC gr  227 1384 m 1814 X s 459 1347 m 37 Y s 510 1366 m 18 Y s 561 1366 m 18 Y s 611 1366 m 18 Y s 662 1366 m 18 Y s 713 1347 m 37 Y s 764 1366 m 18 Y
 s 815 1366 m 18 Y s 865 1366 m 18 Y s 916 1366 m 18 Y s 967 1347 m 37 Y s 1018 1366 m 18 Y s 1069 1366 m 18 Y s 1119 1366 m 18 Y s 1170 1366 m 18 Y s 1221 1347 m 37 Y s 1272 1366 m 18 Y s 1322 1366 m 18 Y s 1373 1366 m 18 Y s 1424 1366 m 18 Y s 1475
 1347 m 37 Y s 1526 1366 m 18 Y s 1576 1366 m 18 Y s 1627 1366 m 18 Y s 1678 1366 m 18 Y s 1729 1347 m 37 Y s 1780 1366 m 18 Y s 1830 1366 m 18 Y s 1881 1366 m 18 Y s 1932 1366 m 18 Y s 1983 1347 m 37 Y s 459 1347 m 37 Y s 408 1366 m 18 Y s 357 1366
 m 18 Y s 307 1366 m 18 Y s 256 1366 m 18 Y s 1983 1347 m 37 Y s 2034 1366 m 18 Y s 227 154 m 1230 Y s 281 307 m -54 X s 254 339 m -27 X s 254 370 m -27 X s 254 401 m -27 X s 254 433 m -27 X s 281 464 m -54 X s 254 495 m -27 X s 254 527 m -27 X s 254
 558 m -27 X s 254 589 m -27 X s 281 621 m -54 X s 254 652 m -27 X s 254 683 m -27 X s 254 715 m -27 X s 254 746 m -27 X s 281 777 m -54 X s 254 809 m -27 X s 254 840 m -27 X s 254 871 m -27 X s 254 903 m -27 X s 281 934 m -54 X s 254 965 m -27 X s
 254 997 m -27 X s 254 1028 m -27 X s 254 1059 m -27 X s 281 1091 m -54 X s 254 1122 m -27 X s 254 1153 m -27 X s 254 1185 m -27 X s 254 1216 m -27 X s 281 1247 m -54 X s 281 307 m -54 X s 254 276 m -27 X s 254 245 m -27 X s 254 213 m -27 X s 254 182
 m -27 X s 281 1247 m -54 X s 254 1279 m -27 X s 254 1310 m -27 X s 254 1341 m -27 X s 254 1373 m -27 X s
 gsave  2268 1538 0 0 C 149.878 286.723 t 0 r /Helvetica-Bold findfont 58.6478 sf 0 0 m (40) show NC gr 
 gsave  2268 1538 0 0 C 149.878 443.117 t 0 r /Helvetica-Bold findfont 58.6478 sf 0 0 m (45) show NC gr 
 gsave  2268 1538 0 0 C 149.878 599.511 t 0 r /Helvetica-Bold findfont 58.6478 sf 0 0 m (50) show NC gr 
 gsave  2268 1538 0 0 C 149.878 755.906 t 0 r /Helvetica-Bold findfont 58.6478 sf 0 0 m (55) show NC gr 
 gsave  2268 1538 0 0 C 149.878 912.3 t 0 r /Helvetica-Bold findfont 58.6478 sf 0 0 m (60) show NC gr 
 gsave  2268 1538 0 0 C 149.878 1068.69 t 0 r /Helvetica-Bold findfont 58.6478 sf 0 0 m (65) show NC gr 
 gsave  2268 1538 0 0 C 149.878 1225.09 t 0 r /Helvetica-Bold findfont 58.6478 sf 0 0 m (70) show NC gr  2041 154 m 1230 Y s 1987 307 m 54 X s 2014 339 m 27 X s 2014 370 m 27 X s 2014 401 m 27 X s 2014 433 m 27 X s 1987 464 m 54 X s 2014 495 m 27 X s
 2014 527 m 27 X s 2014 558 m 27 X s 2014 589 m 27 X s 1987 621 m 54 X s 2014 652 m 27 X s 2014 683 m 27 X s 2014 715 m 27 X s 2014 746 m 27 X s 1987 777 m 54 X s 2014 809 m 27 X s 2014 840 m 27 X s 2014 871 m 27 X s 2014 903 m 27 X s 1987 934 m 54 X
 s 2014 965 m 27 X s 2014 997 m 27 X s 2014 1028 m 27 X s 2014 1059 m 27 X s 1987 1091 m 54 X s 2014 1122 m 27 X s 2014 1153 m 27 X s 2014 1185 m 27 X s 2014 1216 m 27 X s 1987 1247 m 54 X s 1987 307 m 54 X s 2014 276 m 27 X s 2014 245 m 27 X s 2014
 213 m 27 X s 2014 182 m 27 X s 1987 1247 m 54 X s 2014 1279 m 27 X s 2014 1310 m 27 X s 2014 1341 m 27 X s 2014 1373 m 27 X s 309 846 m 150 Y s 303 996 m 13 X s 309 846 m -150 Y s 303 696 m 13 X s 513 433 m 131 Y s 506 564 m 13 X s 513 433 m -132 Y
 s 506 301 m 13 X s 715 646 m 141 Y s 709 787 m 13 X s 715 646 m -141 Y s 709 505 m 13 X s 940 357 m 128 Y s 933 485 m 13 X s 940 357 m -127 Y s 933 230 m 13 X s 1132 433 m 131 Y s 1125 564 m 13 X s 1132 433 m -132 Y s 1125 301 m 13 X s 1350 320 m
 126 Y s 1343 446 m 13 X s 1350 320 m -126 Y s 1343 194 m 13 X s 1553 332 m 127 Y s 1546 459 m 13 X s 1553 332 m -126 Y s 1546 206 m 13 X s 1750 470 m 134 Y s 1744 604 m 13 X s 1750 470 m -133 Y s 1744 337 m 13 X s 1958 383 m 129 Y s 1952 512 m 13 X
 s 1958 383 m -130 Y s 1952 253 m 13 X s 1 1 1 c black 309 846 m 204 -413 d 202 213 d 225 -289 d 192 76 d 218 -113 d 203 12 d 197 138 d 208 -87 d s /w 2 def /w2 {w 2 div} def /w3 {w 3 div} def 309 846 513 433 715 646 940 357 1132 433 1350 320 1553
 332 1750 470 1958 383 9 { m20} R
 gsave  2268 1538 0 0 C 1326.09 1172.96 t 0 r /Helvetica-Bold findfont 58.6478 sf 0 0 m (Pixel Occupancies) show NC gr  1124 1192 m 167 X s 1208 1192 m20
 gr  gr showpage
end
%%EOF
