%!PS-Adobe-2.0 EPSF-2.0
%%BoundingBox:  0 0 567 384
%%Title: outputDir/pixel_occupancy/clus_z_pixlayer_0_pos.eps: c1_n51
%%Creator: ROOT Version 6.04/12
%%CreationDate: Mon Apr 25 16:02:15 2016
%%DocumentNeededResources: ProcSet (FontSetInit)
%%EndComments
%%BeginProlog
80 dict begin
/s {stroke} def /l {lineto} def /m {moveto} def /t {translate} def
/r {rotate} def /rl {roll}  def /R {repeat} def
/d {rlineto} def /rm {rmoveto} def /gr {grestore} def /f {eofill} def
/c {setrgbcolor} def /black {0 setgray} def /sd {setdash} def
/cl {closepath} def /sf {scalefont setfont} def /lw {setlinewidth} def
/box {m dup 0 exch d exch 0 d 0 exch neg d cl} def
/NC{systemdict begin initclip end}def/C{NC box clip newpath}def
/bl {box s} def /bf {gsave box gsave f grestore 1 lw [] 0 sd s grestore} def /Y { 0 exch d} def /X { 0 d} def 
/K {{pop pop 0 moveto} exch kshow} bind def
/ita {/ang 15 def gsave [1 0 ang dup sin exch cos div 1 0 0] concat} def 
/mp {newpath /y exch def /x exch def} def
/side {[w .77 mul w .23 mul] .385 w mul sd w 0 l currentpoint t -144 r} def
/mr {mp x y w2 0 360 arc} def /m24 {mr s} def /m20 {mr f} def
/mb {mp x y w2 add m w2 neg 0 d 0 w neg d w 0 d 0 w d cl} def
/mt {mp x y w2 add m w2 neg w neg d w 0 d cl} def
/m21 {mb f} def /m25 {mb s} def /m22 {mt f} def /m26{mt s} def
/m23 {mp x y w2 sub m w2 w d w neg 0 d cl f} def
/m27 {mp x y w2 add m w3 neg w2 neg d w3 w2 neg d w3 w2 d cl s} def
/m28 {mp x w2 sub y w2 sub w3 add m w3 0 d  0 w3 neg d w3 0 d 0 w3 d w3 0 d  0 w3 d w3 neg 0 d 0 w3 d w3 neg 0 d 0 w3 neg d w3 neg 0 d cl s } def
/m29 {mp gsave x w2 sub y w2 add w3 sub m currentpoint t 4 {side} repeat cl fill gr} def
/m30 {mp gsave x w2 sub y w2 add w3 sub m currentpoint t 4 {side} repeat cl s gr} def
/m31 {mp x y w2 sub m 0 w d x w2 sub y m w 0 d x w2 sub y w2 add m w w neg d x w2 sub y w2 sub m w w d s} def
/m32 {mp x y w2 sub m w2 w d w neg 0 d cl s} def
/m33 {mp x y w2 add m w3 neg w2 neg d w3 w2 neg d w3 w2 d cl f} def
/m34 {mp x w2 sub y w2 sub w3 add m w3 0 d  0 w3 neg d w3 0 d 0 w3 d w3 0 d  0 w3 d w3 neg 0 d 0 w3 d w3 neg 0 d 0 w3 neg d w3 neg 0 d cl f } def
/m2 {mp x y w2 sub m 0 w d x w2 sub y m w 0 d s} def
/m5 {mp x w2 sub y w2 sub m w w d x w2 sub y w2 add m w w neg d s} def
%%IncludeResource: ProcSet (FontSetInit)
%%IncludeResource: font Times-Roman
%%IncludeResource: font Times-Italic
%%IncludeResource: font Times-Bold
%%IncludeResource: font Times-BoldItalic
%%IncludeResource: font Helvetica
%%IncludeResource: font Helvetica-Oblique
%%IncludeResource: font Helvetica-Bold
%%IncludeResource: font Helvetica-BoldOblique
%%IncludeResource: font Courier
%%IncludeResource: font Courier-Oblique
%%IncludeResource: font Courier-Bold
%%IncludeResource: font Courier-BoldOblique
%%IncludeResource: font Symbol
%%IncludeResource: font ZapfDingbats
/reEncode {exch findfont dup length dict begin {1 index /FID eq  {pop pop} {def} ifelse } forall /Encoding exch def currentdict end dup /FontName get exch definefont pop } def [/Times-Bold /Times-Italic /Times-BoldItalic /Helvetica /Helvetica-Oblique
 /Helvetica-Bold /Helvetica-BoldOblique /Courier /Courier-Oblique /Courier-Bold /Courier-BoldOblique /Times-Roman /AvantGarde-Book /AvantGarde-BookOblique /AvantGarde-Demi /AvantGarde-DemiOblique /Bookman-Demi /Bookman-DemiItalic /Bookman-Light
 /Bookman-LightItalic /Helvetica-Narrow /Helvetica-Narrow-Bold /Helvetica-Narrow-BoldOblique /Helvetica-Narrow-Oblique /NewCenturySchlbk-Roman /NewCenturySchlbk-Bold /NewCenturySchlbk-BoldItalic /NewCenturySchlbk-Italic /Palatino-Bold
 /Palatino-BoldItalic /Palatino-Italic /Palatino-Roman ] {ISOLatin1Encoding reEncode } forall
%%EndProlog
%%BeginSetup
%%EndSetup
newpath  gsave  .25 .25 scale  gsave  0 0 t black[  ] 0 sd 3 lw 1 1 1 c 2268 1538 0 0 bf black 1 1 1 c 1814 1230 227 154 bf black 1814 1230 227 154 bl 1 1 1 c 1814 1230 227 154 bf black 1814 1230 227 154 bl 227 154 m 1814 X s 459 191 m -37 Y s 509
 172 m -18 Y s 559 172 m -18 Y s 609 172 m -18 Y s 659 172 m -18 Y s 709 191 m -37 Y s 759 172 m -18 Y s 809 172 m -18 Y s 858 172 m -18 Y s 908 172 m -18 Y s 958 191 m -37 Y s 1008 172 m -18 Y s 1058 172 m -18 Y s 1108 172 m -18 Y s 1158 172 m -18 Y
 s 1208 191 m -37 Y s 1258 172 m -18 Y s 1308 172 m -18 Y s 1358 172 m -18 Y s 1408 172 m -18 Y s 1458 191 m -37 Y s 1508 172 m -18 Y s 1558 172 m -18 Y s 1608 172 m -18 Y s 1658 172 m -18 Y s 1708 191 m -37 Y s 1757 172 m -18 Y s 1807 172 m -18 Y s
 1857 172 m -18 Y s 1907 172 m -18 Y s 1957 191 m -37 Y s 459 191 m -37 Y s 409 172 m -18 Y s 359 172 m -18 Y s 309 172 m -18 Y s 259 172 m -18 Y s 1957 191 m -37 Y s 2007 172 m -18 Y s
 gsave  2268 1538 0 0 C 407.277 97.7464 t 0 r /Helvetica-Bold findfont 58.6478 sf 0 0 m (100) show NC gr 
 gsave  2268 1538 0 0 C 658.159 97.7464 t 0 r /Helvetica-Bold findfont 58.6478 sf 0 0 m (200) show NC gr 
 gsave  2268 1538 0 0 C 909.042 97.7464 t 0 r /Helvetica-Bold findfont 58.6478 sf 0 0 m (300) show NC gr 
 gsave  2268 1538 0 0 C 1156.67 97.7464 t 0 r /Helvetica-Bold findfont 58.6478 sf 0 0 m (400) show NC gr 
 gsave  2268 1538 0 0 C 1407.55 97.7464 t 0 r /Helvetica-Bold findfont 58.6478 sf 0 0 m (500) show NC gr 
 gsave  2268 1538 0 0 C 1658.43 97.7464 t 0 r /Helvetica-Bold findfont 58.6478 sf 0 0 m (600) show NC gr 
 gsave  2268 1538 0 0 C 1906.05 97.7464 t 0 r /Helvetica-Bold findfont 58.6478 sf 0 0 m (700) show NC gr  227 1384 m 1814 X s 459 1347 m 37 Y s 509 1366 m 18 Y s 559 1366 m 18 Y s 609 1366 m 18 Y s 659 1366 m 18 Y s 709 1347 m 37 Y s 759 1366 m 18 Y
 s 809 1366 m 18 Y s 858 1366 m 18 Y s 908 1366 m 18 Y s 958 1347 m 37 Y s 1008 1366 m 18 Y s 1058 1366 m 18 Y s 1108 1366 m 18 Y s 1158 1366 m 18 Y s 1208 1347 m 37 Y s 1258 1366 m 18 Y s 1308 1366 m 18 Y s 1358 1366 m 18 Y s 1408 1366 m 18 Y s 1458
 1347 m 37 Y s 1508 1366 m 18 Y s 1558 1366 m 18 Y s 1608 1366 m 18 Y s 1658 1366 m 18 Y s 1708 1347 m 37 Y s 1757 1366 m 18 Y s 1807 1366 m 18 Y s 1857 1366 m 18 Y s 1907 1366 m 18 Y s 1957 1347 m 37 Y s 459 1347 m 37 Y s 409 1366 m 18 Y s 359 1366
 m 18 Y s 309 1366 m 18 Y s 259 1366 m 18 Y s 1957 1347 m 37 Y s 2007 1366 m 18 Y s 227 154 m 1230 Y s 281 214 m -54 X s 254 247 m -27 X s 254 281 m -27 X s 254 314 m -27 X s 281 348 m -54 X s 254 381 m -27 X s 254 415 m -27 X s 254 448 m -27 X s 281
 481 m -54 X s 254 515 m -27 X s 254 548 m -27 X s 254 582 m -27 X s 281 615 m -54 X s 254 649 m -27 X s 254 682 m -27 X s 254 716 m -27 X s 281 749 m -54 X s 254 783 m -27 X s 254 816 m -27 X s 254 850 m -27 X s 281 883 m -54 X s 254 917 m -27 X s
 254 950 m -27 X s 254 984 m -27 X s 281 1017 m -54 X s 254 1051 m -27 X s 254 1084 m -27 X s 254 1118 m -27 X s 281 1151 m -54 X s 254 1185 m -27 X s 254 1218 m -27 X s 254 1252 m -27 X s 281 1285 m -54 X s 281 214 m -54 X s 254 180 m -27 X s 281
 1285 m -54 X s 254 1318 m -27 X s 254 1352 m -27 X s
 gsave  2268 1538 0 0 C 149.878 192.235 t 0 r /Helvetica-Bold findfont 58.6478 sf 0 0 m (80) show NC gr 
 gsave  2268 1538 0 0 C 117.296 325.821 t 0 r /Helvetica-Bold findfont 58.6478 sf 0 0 m (100) show NC gr 
 gsave  2268 1538 0 0 C 117.296 459.408 t 0 r /Helvetica-Bold findfont 58.6478 sf 0 0 m (120) show NC gr 
 gsave  2268 1538 0 0 C 117.296 592.995 t 0 r /Helvetica-Bold findfont 58.6478 sf 0 0 m (140) show NC gr 
 gsave  2268 1538 0 0 C 117.296 726.582 t 0 r /Helvetica-Bold findfont 58.6478 sf 0 0 m (160) show NC gr 
 gsave  2268 1538 0 0 C 117.296 863.427 t 0 r /Helvetica-Bold findfont 58.6478 sf 0 0 m (180) show NC gr 
 gsave  2268 1538 0 0 C 117.296 997.013 t 0 r /Helvetica-Bold findfont 58.6478 sf 0 0 m (200) show NC gr 
 gsave  2268 1538 0 0 C 117.296 1130.6 t 0 r /Helvetica-Bold findfont 58.6478 sf 0 0 m (220) show NC gr 
 gsave  2268 1538 0 0 C 117.296 1264.19 t 0 r /Helvetica-Bold findfont 58.6478 sf 0 0 m (240) show NC gr  2041 154 m 1230 Y s 1987 214 m 54 X s 2014 247 m 27 X s 2014 281 m 27 X s 2014 314 m 27 X s 1987 348 m 54 X s 2014 381 m 27 X s 2014 415 m 27 X
 s 2014 448 m 27 X s 1987 481 m 54 X s 2014 515 m 27 X s 2014 548 m 27 X s 2014 582 m 27 X s 1987 615 m 54 X s 2014 649 m 27 X s 2014 682 m 27 X s 2014 716 m 27 X s 1987 749 m 54 X s 2014 783 m 27 X s 2014 816 m 27 X s 2014 850 m 27 X s 1987 883 m 54
 X s 2014 917 m 27 X s 2014 950 m 27 X s 2014 984 m 27 X s 1987 1017 m 54 X s 2014 1051 m 27 X s 2014 1084 m 27 X s 2014 1118 m 27 X s 1987 1151 m 54 X s 2014 1185 m 27 X s 2014 1218 m 27 X s 2014 1252 m 27 X s 1987 1285 m 54 X s 1987 214 m 54 X s
 2014 180 m 27 X s 1987 1285 m 54 X s 2014 1318 m 27 X s 2014 1352 m 27 X s 309 990 m 60 Y s 303 1050 m 13 X s 309 990 m -59 Y s 303 931 m 13 X s 408 653 m 51 Y s 401 704 m 13 X s 408 653 m -51 Y s 401 602 m 13 X s 509 484 m 47 Y s 502 531 m 13 X s
 509 484 m -46 Y s 502 438 m 13 X s 614 235 m 39 Y s 607 274 m 13 X s 614 235 m -39 Y s 607 196 m 13 X s 715 409 m 44 Y s 708 453 m 13 X s 715 409 m -44 Y s 708 365 m 13 X s 804 412 m 44 Y s 798 456 m 13 X s 804 412 m -44 Y s 798 368 m 13 X s 933 406
 m 45 Y s 927 451 m 13 X s 933 406 m -44 Y s 927 362 m 13 X s 1026 396 m 44 Y s 1020 440 m 13 X s 1026 396 m -44 Y s 1020 352 m 13 X s 1119 417 m 45 Y s 1113 462 m 13 X s 1119 417 m -44 Y s 1113 373 m 13 X s 1227 484 m 47 Y s 1221 531 m 13 X s 1227
 484 m -46 Y s 1221 438 m 13 X s 1352 431 m 44 Y s 1346 475 m 13 X s 1352 431 m -45 Y s 1346 386 m 13 X s 1503 382 m 44 Y s 1496 426 m 13 X s 1503 382 m -43 Y s 1496 339 m 13 X s 1679 278 m 40 Y s 1672 318 m 13 X s 1679 278 m -40 Y s 1672 238 m 13 X
 s 1815 283 m 41 Y s 1808 324 m 13 X s 1815 283 m -40 Y s 1808 243 m 13 X s 1958 243 m 39 Y s 1952 282 m 13 X s 1958 243 m -39 Y s 1952 204 m 13 X s 1 1 1 c black 309 990 m 99 -337 d 101 -169 d 105 -249 d 101 174 d 89 3 d 129 -6 d 93 -10 d 93 21 d
 108 67 d 125 -53 d 151 -49 d 176 -104 d 136 5 d 143 -40 d s /w 2 def /w2 {w 2 div} def /w3 {w 3 div} def 309 990 408 653 509 484 614 235 715 409 804 412 933 406 1026 396 1119 417 1227 484 1352 431 1503 382 1679 278 1815 283 1958 243 15 { m20} R
 gsave  2268 1538 0 0 C 1326.09 1172.96 t 0 r /Helvetica-Bold findfont 58.6478 sf 0 0 m (Pixel Occupancies) show NC gr  1124 1192 m 167 X s 1208 1192 m20
 gr  gr showpage
end
%%EOF
