%!PS-Adobe-2.0 EPSF-2.0
%%BoundingBox:  0 0 567 384
%%Title: outputDir/pixel_occupancy/clus_pixdisk_mg.eps: c1_n14
%%Creator: ROOT Version 6.04/12
%%CreationDate: Mon Apr 25 16:02:06 2016
%%DocumentNeededResources: ProcSet (FontSetInit)
%%EndComments
%%BeginProlog
80 dict begin
/s {stroke} def /l {lineto} def /m {moveto} def /t {translate} def
/r {rotate} def /rl {roll}  def /R {repeat} def
/d {rlineto} def /rm {rmoveto} def /gr {grestore} def /f {eofill} def
/c {setrgbcolor} def /black {0 setgray} def /sd {setdash} def
/cl {closepath} def /sf {scalefont setfont} def /lw {setlinewidth} def
/box {m dup 0 exch d exch 0 d 0 exch neg d cl} def
/NC{systemdict begin initclip end}def/C{NC box clip newpath}def
/bl {box s} def /bf {gsave box gsave f grestore 1 lw [] 0 sd s grestore} def /Y { 0 exch d} def /X { 0 d} def 
/K {{pop pop 0 moveto} exch kshow} bind def
/ita {/ang 15 def gsave [1 0 ang dup sin exch cos div 1 0 0] concat} def 
/mp {newpath /y exch def /x exch def} def
/side {[w .77 mul w .23 mul] .385 w mul sd w 0 l currentpoint t -144 r} def
/mr {mp x y w2 0 360 arc} def /m24 {mr s} def /m20 {mr f} def
/mb {mp x y w2 add m w2 neg 0 d 0 w neg d w 0 d 0 w d cl} def
/mt {mp x y w2 add m w2 neg w neg d w 0 d cl} def
/m21 {mb f} def /m25 {mb s} def /m22 {mt f} def /m26{mt s} def
/m23 {mp x y w2 sub m w2 w d w neg 0 d cl f} def
/m27 {mp x y w2 add m w3 neg w2 neg d w3 w2 neg d w3 w2 d cl s} def
/m28 {mp x w2 sub y w2 sub w3 add m w3 0 d  0 w3 neg d w3 0 d 0 w3 d w3 0 d  0 w3 d w3 neg 0 d 0 w3 d w3 neg 0 d 0 w3 neg d w3 neg 0 d cl s } def
/m29 {mp gsave x w2 sub y w2 add w3 sub m currentpoint t 4 {side} repeat cl fill gr} def
/m30 {mp gsave x w2 sub y w2 add w3 sub m currentpoint t 4 {side} repeat cl s gr} def
/m31 {mp x y w2 sub m 0 w d x w2 sub y m w 0 d x w2 sub y w2 add m w w neg d x w2 sub y w2 sub m w w d s} def
/m32 {mp x y w2 sub m w2 w d w neg 0 d cl s} def
/m33 {mp x y w2 add m w3 neg w2 neg d w3 w2 neg d w3 w2 d cl f} def
/m34 {mp x w2 sub y w2 sub w3 add m w3 0 d  0 w3 neg d w3 0 d 0 w3 d w3 0 d  0 w3 d w3 neg 0 d 0 w3 d w3 neg 0 d 0 w3 neg d w3 neg 0 d cl f } def
/m2 {mp x y w2 sub m 0 w d x w2 sub y m w 0 d s} def
/m5 {mp x w2 sub y w2 sub m w w d x w2 sub y w2 add m w w neg d s} def
%%IncludeResource: ProcSet (FontSetInit)
%%IncludeResource: font Times-Roman
%%IncludeResource: font Times-Italic
%%IncludeResource: font Times-Bold
%%IncludeResource: font Times-BoldItalic
%%IncludeResource: font Helvetica
%%IncludeResource: font Helvetica-Oblique
%%IncludeResource: font Helvetica-Bold
%%IncludeResource: font Helvetica-BoldOblique
%%IncludeResource: font Courier
%%IncludeResource: font Courier-Oblique
%%IncludeResource: font Courier-Bold
%%IncludeResource: font Courier-BoldOblique
%%IncludeResource: font Symbol
%%IncludeResource: font ZapfDingbats
/reEncode {exch findfont dup length dict begin {1 index /FID eq  {pop pop} {def} ifelse } forall /Encoding exch def currentdict end dup /FontName get exch definefont pop } def [/Times-Bold /Times-Italic /Times-BoldItalic /Helvetica /Helvetica-Oblique
 /Helvetica-Bold /Helvetica-BoldOblique /Courier /Courier-Oblique /Courier-Bold /Courier-BoldOblique /Times-Roman /AvantGarde-Book /AvantGarde-BookOblique /AvantGarde-Demi /AvantGarde-DemiOblique /Bookman-Demi /Bookman-DemiItalic /Bookman-Light
 /Bookman-LightItalic /Helvetica-Narrow /Helvetica-Narrow-Bold /Helvetica-Narrow-BoldOblique /Helvetica-Narrow-Oblique /NewCenturySchlbk-Roman /NewCenturySchlbk-Bold /NewCenturySchlbk-BoldItalic /NewCenturySchlbk-Italic /Palatino-Bold
 /Palatino-BoldItalic /Palatino-Italic /Palatino-Roman ] {ISOLatin1Encoding reEncode } forall
%%EndProlog
%%BeginSetup
%%EndSetup
newpath  gsave  .25 .25 scale  gsave  0 0 t black[  ] 0 sd 3 lw 1 1 1 c 2268 1538 0 0 bf black 1 1 1 c 1814 1230 227 154 bf black 1814 1230 227 154 bl 1 1 1 c 1814 1230 227 154 bf black 1814 1230 227 154 bl 227 154 m 1814 X s
 gsave  2268 1538 0 0 C 1772.47 32.5821 t 0 r /Helvetica-Bold findfont 58.6478 sf 0 0 m (moduleID) show NC gr  309 191 m -37 Y s 364 172 m -18 Y s 419 172 m -18 Y s 474 172 m -18 Y s 529 172 m -18 Y s 584 191 m -37 Y s 639 172 m -18 Y s 694 172 m -18
 Y s 749 172 m -18 Y s 804 172 m -18 Y s 859 191 m -37 Y s 914 172 m -18 Y s 969 172 m -18 Y s 1024 172 m -18 Y s 1079 172 m -18 Y s 1134 191 m -37 Y s 1189 172 m -18 Y s 1244 172 m -18 Y s 1299 172 m -18 Y s 1354 172 m -18 Y s 1409 191 m -37 Y s
 1464 172 m -18 Y s 1519 172 m -18 Y s 1574 172 m -18 Y s 1629 172 m -18 Y s 1684 191 m -37 Y s 1739 172 m -18 Y s 1794 172 m -18 Y s 1849 172 m -18 Y s 1904 172 m -18 Y s 1958 191 m -37 Y s 309 191 m -37 Y s 254 172 m -18 Y s 1958 191 m -37 Y s 2013
 172 m -18 Y s
 gsave  2268 1538 0 0 C 289.981 97.7464 t 0 r /Helvetica-Bold findfont 58.6478 sf 0 0 m (0) show NC gr 
 gsave  2268 1538 0 0 C 540.863 97.7464 t 0 r /Helvetica-Bold findfont 58.6478 sf 0 0 m (0.5) show NC gr 
 gsave  2268 1538 0 0 C 843.877 97.7464 t 0 r /Helvetica-Bold findfont 58.6478 sf 0 0 m (1) show NC gr 
 gsave  2268 1538 0 0 C 1091.5 97.7464 t 0 r /Helvetica-Bold findfont 58.6478 sf 0 0 m (1.5) show NC gr 
 gsave  2268 1538 0 0 C 1391.26 97.7464 t 0 r /Helvetica-Bold findfont 58.6478 sf 0 0 m (2) show NC gr 
 gsave  2268 1538 0 0 C 1638.88 97.7464 t 0 r /Helvetica-Bold findfont 58.6478 sf 0 0 m (2.5) show NC gr 
 gsave  2268 1538 0 0 C 1941.9 97.7464 t 0 r /Helvetica-Bold findfont 58.6478 sf 0 0 m (3) show NC gr  227 1384 m 1814 X s 309 1347 m 37 Y s 364 1366 m 18 Y s 419 1366 m 18 Y s 474 1366 m 18 Y s 529 1366 m 18 Y s 584 1347 m 37 Y s 639 1366 m 18 Y s
 694 1366 m 18 Y s 749 1366 m 18 Y s 804 1366 m 18 Y s 859 1347 m 37 Y s 914 1366 m 18 Y s 969 1366 m 18 Y s 1024 1366 m 18 Y s 1079 1366 m 18 Y s 1134 1347 m 37 Y s 1189 1366 m 18 Y s 1244 1366 m 18 Y s 1299 1366 m 18 Y s 1354 1366 m 18 Y s 1409
 1347 m 37 Y s 1464 1366 m 18 Y s 1519 1366 m 18 Y s 1574 1366 m 18 Y s 1629 1366 m 18 Y s 1684 1347 m 37 Y s 1739 1366 m 18 Y s 1794 1366 m 18 Y s 1849 1366 m 18 Y s 1904 1366 m 18 Y s 1958 1347 m 37 Y s 309 1347 m 37 Y s 254 1366 m 18 Y s 1958 1347
 m 37 Y s 2013 1366 m 18 Y s 227 154 m 1230 Y s
 gsave  2268 1538 0 0 C 97.7464 710.291 t 90 r /Helvetica-Bold findfont 58.6478 sf 0 0 m (Cluster per etaModuleID) show NC gr  281 282 m -54 X s 254 336 m -27 X s 254 390 m -27 X s 254 444 m -27 X s 254 497 m -27 X s 281 551 m -54 X s 254 605 m -27 X
 s 254 659 m -27 X s 254 712 m -27 X s 254 766 m -27 X s 281 820 m -54 X s 254 874 m -27 X s 254 928 m -27 X s 254 981 m -27 X s 254 1035 m -27 X s 281 1089 m -54 X s 254 1143 m -27 X s 254 1196 m -27 X s 254 1250 m -27 X s 254 1304 m -27 X s 281
 1358 m -54 X s 281 282 m -54 X s 254 228 m -27 X s 254 175 m -27 X s 281 1358 m -54 X s
 gsave  2268 1538 0 0 C 149.878 260.657 t 0 r /Helvetica-Bold findfont 58.6478 sf 0 0 m (50) show NC gr 
 gsave  2268 1538 0 0 C 117.296 531.089 t 0 r /Helvetica-Bold findfont 58.6478 sf 0 0 m (100) show NC gr 
 gsave  2268 1538 0 0 C 117.296 798.262 t 0 r /Helvetica-Bold findfont 58.6478 sf 0 0 m (150) show NC gr 
 gsave  2268 1538 0 0 C 117.296 1068.69 t 0 r /Helvetica-Bold findfont 58.6478 sf 0 0 m (200) show NC gr 
 gsave  2268 1538 0 0 C 117.296 1335.87 t 0 r /Helvetica-Bold findfont 58.6478 sf 0 0 m (250) show NC gr  2041 154 m 1230 Y s 1987 282 m 54 X s 2014 336 m 27 X s 2014 390 m 27 X s 2014 444 m 27 X s 2014 497 m 27 X s 1987 551 m 54 X s 2014 605 m 27 X
 s 2014 659 m 27 X s 2014 712 m 27 X s 2014 766 m 27 X s 1987 820 m 54 X s 2014 874 m 27 X s 2014 928 m 27 X s 2014 981 m 27 X s 2014 1035 m 27 X s 1987 1089 m 54 X s 2014 1143 m 27 X s 2014 1196 m 27 X s 2014 1250 m 27 X s 2014 1304 m 27 X s 1987
 1358 m 54 X s 1987 282 m 54 X s 2014 228 m 27 X s 2014 175 m 27 X s 1987 1358 m 54 X s 309 878 m 30 Y s 303 908 m 13 X s 309 852 m -30 Y s 303 822 m 13 X s 859 872 m 29 Y s 852 901 m 13 X s 859 846 m -30 Y s 852 816 m 13 X s 1409 904 m 30 Y s 1402
 934 m 13 X s 1409 878 m -30 Y s 1402 848 m 13 X s 1958 814 m 28 Y s 1952 842 m 13 X s 1958 788 m -29 Y s 1952 759 m 13 X s 309 865 m 550 -6 d 550 32 d 549 -90 d s /w 26 def /w2 {w 2 div} def /w3 {w 3 div} def 309 865 859 859 1409 891 1958 801 4 {
 m20} R 1 0 0 c 309 463 m 18 Y s 303 481 m 13 X s 309 437 m -18 Y s 303 419 m 13 X s 859 469 m 18 Y s 852 487 m 13 X s 859 443 m -17 Y s 852 426 m 13 X s 1409 510 m 20 Y s 1402 530 m 13 X s 1409 484 m -19 Y s 1402 465 m 13 X s 1958 506 m 19 Y s 1952
 525 m 13 X s 1958 480 m -19 Y s 1952 461 m 13 X s black 1 0 0 c 309 450 m 550 6 d 550 41 d 549 -4 d s 309 450 859 456 1409 497 1958 493 4 { m20} R 0 1 0 c 309 345 m 13 Y s 303 358 m 13 X s 309 319 m -13 Y s 303 306 m 13 X s 859 340 m 13 Y s 852 353
 m 13 X s 859 314 m -13 Y s 852 301 m 13 X s 1409 373 m 14 Y s 1402 387 m 13 X s 1409 347 m -15 Y s 1402 332 m 13 X s 1958 381 m 15 Y s 1952 396 m 13 X s 1958 355 m -14 Y s 1952 341 m 13 X s black 0 1 0 c 309 332 m 550 -5 d 550 33 d 549 8 d s 309 332
 859 327 1409 360 1958 368 4 { m20} R 0 0 1 c 309 231 m 8 Y s 303 239 m 13 X s 309 205 m -8 Y s 303 197 m 13 X s 859 297 m 12 Y s 852 309 m 13 X s 859 271 m -11 Y s 852 260 m 13 X s 1409 267 m 10 Y s 1402 277 m 13 X s 1409 241 m -10 Y s 1402 231 m 13
 X s 1958 259 m 9 Y s 1952 268 m 13 X s 1958 233 m -10 Y s 1952 223 m 13 X s black 0 0 1 c 309 218 m 550 66 d 550 -30 d 549 -8 d s 309 218 859 284 1409 254 1958 246 4 { m20} R black[ 12 12] 0 sd 309 992 m 33 Y s 303 1025 m 13 X s 309 966 m -32 Y s
 303 934 m 13 X s 859 1022 m 34 Y s 852 1056 m 13 X s 859 996 m -33 Y s 852 963 m 13 X s 1409 1005 m 33 Y s 1402 1038 m 13 X s 1409 979 m -33 Y s 1402 946 m 13 X s 1958 1007 m 33 Y s 1952 1040 m 13 X s 1958 981 m -33 Y s 1952 948 m 13 X s 309 979 m
 550 30 d 550 -17 d 549 2 d s[  ] 0 sd 309 979 859 1009 1409 992 1958 994 4 { m21} R[ 12 12] 0 sd 1 0 0 c 309 476 m 18 Y s 303 494 m 13 X s 309 450 m -18 Y s 303 432 m 13 X s 859 454 m 18 Y s 852 472 m 13 X s 859 428 m -17 Y s 852 411 m 13 X s 1409
 452 m 18 Y s 1402 470 m 13 X s 1409 426 m -17 Y s 1402 409 m 13 X s 1958 454 m 18 Y s 1952 472 m 13 X s 1958 428 m -17 Y s 1952 411 m 13 X s black 1 0 0 c 309 463 m 550 -22 d 550 -2 d 549 2 d s[  ] 0 sd 309 463 859 441 1409 439 1958 441 4 { m21} R[
 12 12] 0 sd 0 1 0 c 309 312 m 12 Y s 303 324 m 13 X s 309 286 m -11 Y s 303 275 m 13 X s 859 306 m 12 Y s 852 318 m 13 X s 859 280 m -12 Y s 852 268 m 13 X s 1409 338 m 13 Y s 1402 351 m 13 X s 1409 312 m -13 Y s 1402 299 m 13 X s 1958 336 m 13 Y s
 1952 349 m 13 X s 1958 310 m -13 Y s 1952 297 m 13 X s black 0 1 0 c 309 299 m 550 -6 d 550 32 d 549 -2 d s[  ] 0 sd 309 299 859 293 1409 325 1958 323 4 { m21} R[ 12 12] 0 sd 0 0 1 c 309 274 m 10 Y s 303 284 m 13 X s 309 248 m -10 Y s 303 238 m 13 X
 s 859 257 m 9 Y s 852 266 m 13 X s 859 230 m -9 Y s 852 221 m 13 X s 1409 252 m 9 Y s 1402 261 m 13 X s 1409 226 m -9 Y s 1402 217 m 13 X s 1958 272 m 10 Y s 1952 282 m 13 X s 1958 246 m -10 Y s 1952 236 m 13 X s black 0 0 1 c 309 261 m 550 -17 d
 550 -5 d 549 20 d s[  ] 0 sd 309 261 859 244 1409 239 1958 259 4 { m21} R[ 12 12] 0 sd black
 gsave  2268 1538 0 0 C 325.821 1283.74 t 0 r /Helvetica-Bold findfont 58.6478 sf 0 0 m (Pixel Disk \(left\)) show NC gr 
 gsave  2268 1538 0 0 C 430.084 1205.54 t 0 r /Helvetica-Bold findfont 58.6478 sf 0 0 m (Disk 0) show NC gr [  ] 0 sd 334 1223 m 80 X s 374 1223 m20
 gsave  2268 1538 0 0 C 430.084 1130.6 t 0 r /Helvetica-Bold findfont 58.6478 sf 0 0 m (Disk 1) show NC gr  1 0 0 c 334 1146 m 80 X s 374 1146 m20 black
 gsave  2268 1538 0 0 C 430.084 1052.4 t 0 r /Helvetica-Bold findfont 58.6478 sf 0 0 m (Disk 2) show NC gr  0 1 0 c 334 1069 m 80 X s 374 1069 m20 black
 gsave  2268 1538 0 0 C 430.084 977.464 t 0 r /Helvetica-Bold findfont 58.6478 sf 0 0 m (Disk 3) show NC gr  0 0 1 c 334 992 m 80 X s 374 992 m20 black
 gsave  2268 1538 0 0 C 622.319 1283.74 t 0 r /Helvetica-Bold findfont 58.6478 sf 0 0 m (  \(right\)) show NC gr 
 gsave  2268 1538 0 0 C 723.323 1205.54 t 0 r /Helvetica-Bold findfont 58.6478 sf 0 0 m (Disk 0) show NC gr [ 12 12] 0 sd 629 1223 m 80 X s[  ] 0 sd 669 1223 m21[ 12 12] 0 sd
 gsave  2268 1538 0 0 C 723.323 1130.6 t 0 r /Helvetica-Bold findfont 58.6478 sf 0 0 m (Disk 1) show NC gr  1 0 0 c 629 1146 m 80 X s[  ] 0 sd 669 1146 m21[ 12 12] 0 sd black
 gsave  2268 1538 0 0 C 723.323 1052.4 t 0 r /Helvetica-Bold findfont 58.6478 sf 0 0 m (Disk 2) show NC gr  0 1 0 c 629 1069 m 80 X s[  ] 0 sd 669 1069 m21[ 12 12] 0 sd black
 gsave  2268 1538 0 0 C 723.323 977.464 t 0 r /Helvetica-Bold findfont 58.6478 sf 0 0 m (Disk 3) show NC gr  0 0 1 c 629 992 m 80 X s[  ] 0 sd 669 992 m21[ 12 12] 0 sd
 gr  gr showpage
end
%%EOF
