%!PS-Adobe-2.0 EPSF-2.0
%%BoundingBox:  0 0 567 384
%%Title: outputDir/pixel_occupancy/clus_pixlayer_mgz.eps: c1_n4
%%Creator: ROOT Version 6.04/12
%%CreationDate: Mon Apr 25 16:02:02 2016
%%DocumentNeededResources: ProcSet (FontSetInit)
%%EndComments
%%BeginProlog
80 dict begin
/s {stroke} def /l {lineto} def /m {moveto} def /t {translate} def
/r {rotate} def /rl {roll}  def /R {repeat} def
/d {rlineto} def /rm {rmoveto} def /gr {grestore} def /f {eofill} def
/c {setrgbcolor} def /black {0 setgray} def /sd {setdash} def
/cl {closepath} def /sf {scalefont setfont} def /lw {setlinewidth} def
/box {m dup 0 exch d exch 0 d 0 exch neg d cl} def
/NC{systemdict begin initclip end}def/C{NC box clip newpath}def
/bl {box s} def /bf {gsave box gsave f grestore 1 lw [] 0 sd s grestore} def /Y { 0 exch d} def /X { 0 d} def 
/K {{pop pop 0 moveto} exch kshow} bind def
/ita {/ang 15 def gsave [1 0 ang dup sin exch cos div 1 0 0] concat} def 
/mp {newpath /y exch def /x exch def} def
/side {[w .77 mul w .23 mul] .385 w mul sd w 0 l currentpoint t -144 r} def
/mr {mp x y w2 0 360 arc} def /m24 {mr s} def /m20 {mr f} def
/mb {mp x y w2 add m w2 neg 0 d 0 w neg d w 0 d 0 w d cl} def
/mt {mp x y w2 add m w2 neg w neg d w 0 d cl} def
/m21 {mb f} def /m25 {mb s} def /m22 {mt f} def /m26{mt s} def
/m23 {mp x y w2 sub m w2 w d w neg 0 d cl f} def
/m27 {mp x y w2 add m w3 neg w2 neg d w3 w2 neg d w3 w2 d cl s} def
/m28 {mp x w2 sub y w2 sub w3 add m w3 0 d  0 w3 neg d w3 0 d 0 w3 d w3 0 d  0 w3 d w3 neg 0 d 0 w3 d w3 neg 0 d 0 w3 neg d w3 neg 0 d cl s } def
/m29 {mp gsave x w2 sub y w2 add w3 sub m currentpoint t 4 {side} repeat cl fill gr} def
/m30 {mp gsave x w2 sub y w2 add w3 sub m currentpoint t 4 {side} repeat cl s gr} def
/m31 {mp x y w2 sub m 0 w d x w2 sub y m w 0 d x w2 sub y w2 add m w w neg d x w2 sub y w2 sub m w w d s} def
/m32 {mp x y w2 sub m w2 w d w neg 0 d cl s} def
/m33 {mp x y w2 add m w3 neg w2 neg d w3 w2 neg d w3 w2 d cl f} def
/m34 {mp x w2 sub y w2 sub w3 add m w3 0 d  0 w3 neg d w3 0 d 0 w3 d w3 0 d  0 w3 d w3 neg 0 d 0 w3 d w3 neg 0 d 0 w3 neg d w3 neg 0 d cl f } def
/m2 {mp x y w2 sub m 0 w d x w2 sub y m w 0 d s} def
/m5 {mp x w2 sub y w2 sub m w w d x w2 sub y w2 add m w w neg d s} def
%%IncludeResource: ProcSet (FontSetInit)
%%IncludeResource: font Times-Roman
%%IncludeResource: font Times-Italic
%%IncludeResource: font Times-Bold
%%IncludeResource: font Times-BoldItalic
%%IncludeResource: font Helvetica
%%IncludeResource: font Helvetica-Oblique
%%IncludeResource: font Helvetica-Bold
%%IncludeResource: font Helvetica-BoldOblique
%%IncludeResource: font Courier
%%IncludeResource: font Courier-Oblique
%%IncludeResource: font Courier-Bold
%%IncludeResource: font Courier-BoldOblique
%%IncludeResource: font Symbol
%%IncludeResource: font ZapfDingbats
/reEncode {exch findfont dup length dict begin {1 index /FID eq  {pop pop} {def} ifelse } forall /Encoding exch def currentdict end dup /FontName get exch definefont pop } def [/Times-Bold /Times-Italic /Times-BoldItalic /Helvetica /Helvetica-Oblique
 /Helvetica-Bold /Helvetica-BoldOblique /Courier /Courier-Oblique /Courier-Bold /Courier-BoldOblique /Times-Roman /AvantGarde-Book /AvantGarde-BookOblique /AvantGarde-Demi /AvantGarde-DemiOblique /Bookman-Demi /Bookman-DemiItalic /Bookman-Light
 /Bookman-LightItalic /Helvetica-Narrow /Helvetica-Narrow-Bold /Helvetica-Narrow-BoldOblique /Helvetica-Narrow-Oblique /NewCenturySchlbk-Roman /NewCenturySchlbk-Bold /NewCenturySchlbk-BoldItalic /NewCenturySchlbk-Italic /Palatino-Bold
 /Palatino-BoldItalic /Palatino-Italic /Palatino-Roman ] {ISOLatin1Encoding reEncode } forall
%%EndProlog
%%BeginSetup
%%EndSetup
newpath  gsave  .25 .25 scale  gsave  0 0 t black[  ] 0 sd 3 lw 1 1 1 c 2268 1538 0 0 bf black 1 1 1 c 1814 1230 227 154 bf black 1814 1230 227 154 bl 1 1 1 c 1814 1230 227 154 bf black 1814 1230 227 154 bl 227 154 m 1814 X s
 gsave  2268 1538 0 0 C 1853.92 35.8403 t 0 r /Helvetica-Bold findfont 58.6478 sf 0 0 m (z [mm]) show NC gr  428 191 m -37 Y s 486 172 m -18 Y s 545 172 m -18 Y s 604 172 m -18 Y s 663 191 m -37 Y s 722 172 m -18 Y s 781 172 m -18 Y s 840 172 m -18 Y
 s 898 191 m -37 Y s 957 172 m -18 Y s 1016 172 m -18 Y s 1075 172 m -18 Y s 1134 191 m -37 Y s 1193 172 m -18 Y s 1252 172 m -18 Y s 1310 172 m -18 Y s 1369 191 m -37 Y s 1428 172 m -18 Y s 1487 172 m -18 Y s 1546 172 m -18 Y s 1605 191 m -37 Y s
 1664 172 m -18 Y s 1722 172 m -18 Y s 1781 172 m -18 Y s 1840 191 m -37 Y s 428 191 m -37 Y s 369 172 m -18 Y s 310 172 m -18 Y s 251 172 m -18 Y s 1840 191 m -37 Y s 1899 172 m -18 Y s 1958 172 m -18 Y s 2017 172 m -18 Y s
 gsave  2268 1538 0 0 C 390.986 97.7464 t 0 r /Helvetica-Bold findfont 58.6478 sf 0 0 m (600) show NC gr 
 gsave  2268 1538 0 0 C 361.662 97.7464 t 0 r /Symbol findfont 58.6478 sf 0 0 m (-) show NC gr 
 gsave  2268 1538 0 0 C 625.577 97.7464 t 0 r /Helvetica-Bold findfont 58.6478 sf 0 0 m (400) show NC gr 
 gsave  2268 1538 0 0 C 596.253 97.7464 t 0 r /Symbol findfont 58.6478 sf 0 0 m (-) show NC gr 
 gsave  2268 1538 0 0 C 860.168 97.7464 t 0 r /Helvetica-Bold findfont 58.6478 sf 0 0 m (200) show NC gr 
 gsave  2268 1538 0 0 C 830.844 97.7464 t 0 r /Symbol findfont 58.6478 sf 0 0 m (-) show NC gr 
 gsave  2268 1538 0 0 C 1117.57 97.7464 t 0 r /Helvetica-Bold findfont 58.6478 sf 0 0 m (0) show NC gr 
 gsave  2268 1538 0 0 C 1319.58 97.7464 t 0 r /Helvetica-Bold findfont 58.6478 sf 0 0 m (200) show NC gr 
 gsave  2268 1538 0 0 C 1554.17 97.7464 t 0 r /Helvetica-Bold findfont 58.6478 sf 0 0 m (400) show NC gr 
 gsave  2268 1538 0 0 C 1788.76 97.7464 t 0 r /Helvetica-Bold findfont 58.6478 sf 0 0 m (600) show NC gr  227 1384 m 1814 X s 428 1347 m 37 Y s 486 1366 m 18 Y s 545 1366 m 18 Y s 604 1366 m 18 Y s 663 1347 m 37 Y s 722 1366 m 18 Y s 781 1366 m 18 Y
 s 840 1366 m 18 Y s 898 1347 m 37 Y s 957 1366 m 18 Y s 1016 1366 m 18 Y s 1075 1366 m 18 Y s 1134 1347 m 37 Y s 1193 1366 m 18 Y s 1252 1366 m 18 Y s 1310 1366 m 18 Y s 1369 1347 m 37 Y s 1428 1366 m 18 Y s 1487 1366 m 18 Y s 1546 1366 m 18 Y s
 1605 1347 m 37 Y s 1664 1366 m 18 Y s 1722 1366 m 18 Y s 1781 1366 m 18 Y s 1840 1347 m 37 Y s 428 1347 m 37 Y s 369 1366 m 18 Y s 310 1366 m 18 Y s 251 1366 m 18 Y s 1840 1347 m 37 Y s 1899 1366 m 18 Y s 1958 1366 m 18 Y s 2017 1366 m 18 Y s 227
 154 m 1230 Y s
 gsave  2268 1538 0 0 C 97.7464 710.291 t 90 r /Helvetica-Bold findfont 58.6478 sf 0 0 m (Cluster per etaModuleID) show NC gr  281 310 m -54 X s 254 356 m -27 X s 254 403 m -27 X s 254 449 m -27 X s 254 495 m -27 X s 281 541 m -54 X s 254 587 m -27 X
 s 254 633 m -27 X s 254 679 m -27 X s 254 725 m -27 X s 281 771 m -54 X s 254 818 m -27 X s 254 864 m -27 X s 254 910 m -27 X s 254 956 m -27 X s 281 1002 m -54 X s 254 1048 m -27 X s 254 1094 m -27 X s 254 1140 m -27 X s 254 1186 m -27 X s 281 1233
 m -54 X s 281 310 m -54 X s 254 264 m -27 X s 254 218 m -27 X s 254 172 m -27 X s 281 1233 m -54 X s 254 1279 m -27 X s 254 1325 m -27 X s 254 1371 m -27 X s
 gsave  2268 1538 0 0 C 149.878 289.981 t 0 r /Helvetica-Bold findfont 58.6478 sf 0 0 m (50) show NC gr 
 gsave  2268 1538 0 0 C 117.296 521.314 t 0 r /Helvetica-Bold findfont 58.6478 sf 0 0 m (100) show NC gr 
 gsave  2268 1538 0 0 C 117.296 749.389 t 0 r /Helvetica-Bold findfont 58.6478 sf 0 0 m (150) show NC gr 
 gsave  2268 1538 0 0 C 117.296 980.722 t 0 r /Helvetica-Bold findfont 58.6478 sf 0 0 m (200) show NC gr 
 gsave  2268 1538 0 0 C 117.296 1212.06 t 0 r /Helvetica-Bold findfont 58.6478 sf 0 0 m (250) show NC gr  2041 154 m 1230 Y s 1987 310 m 54 X s 2014 356 m 27 X s 2014 403 m 27 X s 2014 449 m 27 X s 2014 495 m 27 X s 1987 541 m 54 X s 2014 587 m 27 X
 s 2014 633 m 27 X s 2014 679 m 27 X s 2014 725 m 27 X s 1987 771 m 54 X s 2014 818 m 27 X s 2014 864 m 27 X s 2014 910 m 27 X s 2014 956 m 27 X s 1987 1002 m 54 X s 2014 1048 m 27 X s 2014 1094 m 27 X s 2014 1140 m 27 X s 2014 1186 m 27 X s 1987
 1233 m 54 X s 1987 310 m 54 X s 2014 264 m 27 X s 2014 218 m 27 X s 2014 172 m 27 X s 1987 1233 m 54 X s 2014 1279 m 27 X s 2014 1325 m 27 X s 2014 1371 m 27 X s 309 583 m 17 Y s 303 600 m 13 X s 309 557 m -17 Y s 303 540 m 13 X s 378 595 m 17 Y s
 371 612 m 13 X s 378 568 m -17 Y s 371 551 m 13 X s 441 617 m 18 Y s 434 635 m 13 X s 441 591 m -18 Y s 434 573 m 13 X s 524 541 m 16 Y s 517 557 m 13 X s 524 515 m -16 Y s 517 499 m 13 X s 594 541 m 16 Y s 588 557 m 13 X s 594 515 m -16 Y s 588 499
 m 13 X s 655 524 m 16 Y s 648 540 m 13 X s 655 498 m -15 Y s 648 483 m 13 X s 705 565 m 16 Y s 699 581 m 13 X s 705 539 m -17 Y s 699 522 m 13 X s 749 583 m 17 Y s 742 600 m 13 X s 749 557 m -17 Y s 742 540 m 13 X s 792 530 m 15 Y s 786 545 m 13 X s
 792 504 m -15 Y s 786 489 m 13 X s 853 565 m 16 Y s 847 581 m 13 X s 853 539 m -17 Y s 847 522 m 13 X s 896 554 m 16 Y s 890 570 m 13 X s 896 528 m -16 Y s 890 512 m 13 X s 944 500 m 15 Y s 938 515 m 13 X s 944 474 m -14 Y s 938 460 m 13 X s 990 689
 m 20 Y s 984 709 m 13 X s 990 663 m -21 Y s 984 642 m 13 X s 1040 867 m 25 Y s 1033 892 m 13 X s 1040 841 m -24 Y s 1033 817 m 13 X s 1086 965 m 27 Y s 1080 992 m 13 X s 1086 939 m -27 Y s 1080 912 m 13 X s 1181 997 m 27 Y s 1174 1024 m 14 X s 1181
 971 m -28 Y s 1174 943 m 14 X s 1227 764 m 22 Y s 1221 786 m 13 X s 1227 738 m -22 Y s 1221 716 m 13 X s 1275 648 m 19 Y s 1269 667 m 13 X s 1275 622 m -19 Y s 1269 603 m 13 X s 1325 476 m 14 Y s 1318 490 m 13 X s 1325 450 m -13 Y s 1318 437 m 13 X
 s 1372 596 m 18 Y s 1366 614 m 13 X s 1372 570 m -17 Y s 1366 553 m 13 X s 1414 598 m 18 Y s 1408 616 m 13 X s 1414 572 m -17 Y s 1408 555 m 13 X s 1475 595 m 17 Y s 1469 612 m 13 X s 1475 568 m -17 Y s 1469 551 m 13 X s 1519 587 m 17 Y s 1512 604 m
 13 X s 1519 561 m -17 Y s 1512 544 m 13 X s 1563 602 m 17 Y s 1556 619 m 13 X s 1563 576 m -18 Y s 1556 558 m 13 X s 1614 648 m 19 Y s 1607 667 m 13 X s 1614 622 m -19 Y s 1607 603 m 13 X s 1673 611 m 18 Y s 1666 629 m 13 X s 1673 585 m -18 Y s 1666
 567 m 13 X s 1744 578 m 17 Y s 1737 595 m 13 X s 1744 552 m -17 Y s 1737 535 m 13 X s 1827 506 m 15 Y s 1820 521 m 13 X s 1827 480 m -15 Y s 1820 465 m 13 X s 1891 510 m 14 Y s 1884 524 m 13 X s 1891 484 m -15 Y s 1884 469 m 13 X s 1958 482 m 14 Y s
 1952 496 m 13 X s 1958 456 m -14 Y s 1952 442 m 13 X s 309 570 m 69 11 d 63 23 d 83 -76 d 70 X 61 -17 d 50 41 d 44 18 d 43 -53 d 61 35 d 43 -11 d 48 -54 d 46 189 d 50 178 d 46 98 d 95 32 d 46 -233 d 48 -116 d 50 -172 d 47 120 d 42 2 d 61 -4 d 44 -7
 d 44 15 d 51 46 d 59 -37 d 71 -33 d 83 -72 d 64 4 d 67 -28 d s /w 26 def /w2 {w 2 div} def /w3 {w 3 div} def 309 570 378 581 441 604 524 528 594 528 655 511 705 552 749 570 792 517 853 552 896 541 944 487 990 676 1040 854 1086 952 1181 984 1227 751
 1275 635 1325 463 1372 583 1414 585 1475 581 1519 574 1563 589 1614 635 1673 598 1744 565 1827 493 1891 497 1958 469 30 { m20} R 1 0 0 c 368 353 m 9 Y s 362 362 m 13 X s 368 327 m -9 Y s 362 318 m 13 X s 423 357 m 9 Y s 416 366 m 13 X s 423 331 m -9
 Y s 416 322 m 13 X s 480 355 m 9 Y s 473 364 m 13 X s 480 329 m -9 Y s 473 320 m 13 X s 571 336 m 8 Y s 565 344 m 13 X s 571 310 m -8 Y s 565 302 m 13 X s 648 336 m 8 Y s 641 344 m 13 X s 648 310 m -8 Y s 641 302 m 13 X s 711 344 m 8 Y s 705 352 m
 13 X s 711 318 m -9 Y s 705 309 m 13 X s 765 371 m 10 Y s 759 381 m 13 X s 765 345 m -9 Y s 759 336 m 13 X s 809 377 m 10 Y s 802 387 m 13 X s 809 351 m -10 Y s 802 341 m 13 X s 846 368 m 9 Y s 839 377 m 13 X s 846 342 m -10 Y s 839 332 m 13 X s 877
 323 m 8 Y s 870 331 m 13 X s 877 297 m -7 Y s 870 290 m 13 X s 920 357 m 9 Y s 914 366 m 13 X s 920 331 m -9 Y s 914 322 m 13 X s 967 467 m 14 Y s 961 481 m 13 X s 967 441 m -13 Y s 961 428 m 13 X s 1013 528 m 15 Y s 1006 543 m 13 X s 1013 502 m -15
 Y s 1006 487 m 13 X s 1063 556 m 16 Y s 1056 572 m 13 X s 1063 530 m -16 Y s 1056 514 m 13 X s 1110 626 m 18 Y s 1104 644 m 13 X s 1110 600 m -19 Y s 1104 581 m 13 X s 1159 602 m 17 Y s 1152 619 m 13 X s 1159 576 m -18 Y s 1152 558 m 13 X s 1205 563
 m 17 Y s 1199 580 m 13 X s 1205 537 m -16 Y s 1199 521 m 13 X s 1252 552 m 16 Y s 1245 568 m 13 X s 1252 526 m -16 Y s 1245 510 m 13 X s 1300 489 m 14 Y s 1294 503 m 13 X s 1300 463 m -14 Y s 1294 449 m 13 X s 1349 392 m 10 Y s 1343 402 m 13 X s
 1349 366 m -11 Y s 1343 355 m 13 X s 1391 346 m 8 Y s 1384 354 m 13 X s 1391 319 m -8 Y s 1384 311 m 13 X s 1422 329 m 8 Y s 1416 337 m 13 X s 1422 303 m -8 Y s 1416 295 m 13 X s 1458 353 m 9 Y s 1452 362 m 13 X s 1458 327 m -9 Y s 1452 318 m 13 X s
 1503 360 m 9 Y s 1497 369 m 13 X s 1503 334 m -9 Y s 1497 325 m 13 X s 1557 334 m 9 Y s 1550 343 m 13 X s 1557 308 m -8 Y s 1550 300 m 13 X s 1621 370 m 9 Y s 1615 379 m 13 X s 1621 343 m -9 Y s 1615 334 m 13 X s 1696 384 m 10 Y s 1690 394 m 13 X s
 1696 358 m -10 Y s 1690 348 m 13 X s 1788 399 m 11 Y s 1782 410 m 13 X s 1788 373 m -11 Y s 1782 362 m 13 X s 1844 392 m 10 Y s 1838 402 m 13 X s 1844 366 m -11 Y s 1838 355 m 13 X s 1899 368 m 9 Y s 1893 377 m 13 X s 1899 342 m -10 Y s 1893 332 m
 13 X s black 1 0 0 c 368 340 m 55 4 d 57 -2 d 91 -19 d 77 X 63 8 d 54 27 d 44 6 d 37 -9 d 31 -45 d 43 34 d 47 110 d 46 61 d 50 28 d 47 70 d 49 -24 d 46 -39 d 47 -11 d 48 -63 d 49 -97 d 42 -46 d 31 -17 d 36 24 d 45 7 d 54 -26 d 64 35 d 75 15 d 92 15
 d 56 -7 d 55 -24 d s 368 340 423 344 480 342 571 323 648 323 711 331 765 358 809 364 846 355 877 310 920 344 967 454 1013 515 1063 543 1110 613 1159 589 1205 550 1252 539 1300 476 1349 379 1391 333 1422 316 1458 340 1503 347 1557 321 1621 356 1696
 371 1788 386 1844 379 1899 355 30 { m20} R 0 1 0 c 726 275 m 6 Y s 720 281 m 13 X s 726 249 m -5 Y s 720 244 m 13 X s 778 253 m 4 Y s 771 257 m 13 X s 778 227 m -4 Y s 771 223 m 13 X s 826 288 m 6 Y s 819 294 m 13 X s 826 262 m -6 Y s 819 256 m 13 X
 s 873 287 m 5 Y s 866 292 m 13 X s 873 260 m -5 Y s 866 255 m 13 X s 916 322 m 7 Y s 909 329 m 13 X s 916 295 m -7 Y s 909 288 m 13 X s 965 362 m 9 Y s 959 371 m 13 X s 965 336 m -9 Y s 959 327 m 13 X s 1017 368 m 9 Y s 1010 377 m 13 X s 1017 342 m
 -10 Y s 1010 332 m 13 X s 1064 368 m 9 Y s 1057 377 m 13 X s 1064 342 m -10 Y s 1057 332 m 13 X s 1109 427 m 11 Y s 1102 438 m 14 X s 1109 401 m -12 Y s 1102 389 m 14 X s 1158 447 m 12 Y s 1152 459 m 13 X s 1158 421 m -13 Y s 1152 408 m 13 X s 1207
 366 m 9 Y s 1200 375 m 13 X s 1207 340 m -10 Y s 1200 330 m 13 X s 1255 393 m 11 Y s 1248 404 m 13 X s 1255 367 m -10 Y s 1248 357 m 13 X s 1301 355 m 9 Y s 1294 364 m 13 X s 1301 329 m -9 Y s 1294 320 m 13 X s 1349 331 m 8 Y s 1343 339 m 13 X s
 1349 305 m -8 Y s 1343 297 m 13 X s 1397 349 m 9 Y s 1390 358 m 13 X s 1397 323 m -9 Y s 1390 314 m 13 X s 1444 272 m 5 Y s 1438 277 m 13 X s 1444 246 m -5 Y s 1438 241 m 13 X s 1492 279 m 6 Y s 1486 285 m 13 X s 1492 253 m -5 Y s 1486 248 m 13 X s
 1541 259 m 4 Y s 1534 263 m 13 X s 1541 233 m -5 Y s 1534 228 m 13 X s black 0 1 0 c 726 262 m 52 -22 d 48 35 d 47 -2 d 43 36 d 49 40 d 52 6 d 47 X 45 59 d 49 20 d 49 -81 d 48 27 d 46 -38 d 48 -24 d 48 18 d 47 -77 d 48 7 d 49 -20 d s 726 262 778 240
 826 275 873 273 916 309 965 349 1017 355 1064 355 1109 414 1158 434 1207 353 1255 380 1301 342 1349 318 1397 336 1444 259 1492 266 1541 246 18 { m20} R 0 0 1 c 727 235 m 3 Y s 720 238 m 13 X s 727 209 m -3 Y s 720 206 m 13 X s 777 270 m 5 Y s 770
 275 m 13 X s 777 244 m -5 Y s 770 239 m 13 X s 824 283 m 6 Y s 818 289 m 13 X s 824 257 m -6 Y s 818 251 m 13 X s 872 270 m 5 Y s 865 275 m 13 X s 872 244 m -5 Y s 865 239 m 13 X s 923 294 m 6 Y s 916 300 m 13 X s 923 268 m -6 Y s 916 262 m 13 X s
 965 287 m 5 Y s 959 292 m 13 X s 965 260 m -5 Y s 959 255 m 13 X s 1015 331 m 8 Y s 1009 339 m 13 X s 1015 305 m -8 Y s 1009 297 m 13 X s 1063 349 m 9 Y s 1057 358 m 13 X s 1063 323 m -9 Y s 1057 314 m 13 X s 1107 347 m 9 Y s 1101 356 m 13 X s 1107
 321 m -8 Y s 1101 313 m 13 X s 1158 357 m 9 Y s 1152 366 m 13 X s 1158 331 m -9 Y s 1152 322 m 13 X s 1205 296 m 6 Y s 1199 302 m 13 X s 1205 270 m -7 Y s 1199 263 m 13 X s 1252 327 m 8 Y s 1246 335 m 13 X s 1252 301 m -8 Y s 1246 293 m 13 X s 1304
 285 m 5 Y s 1298 290 m 13 X s 1304 259 m -6 Y s 1298 253 m 13 X s 1349 296 m 6 Y s 1342 302 m 13 X s 1349 270 m -7 Y s 1342 263 m 13 X s 1399 279 m 6 Y s 1393 285 m 13 X s 1399 253 m -5 Y s 1393 248 m 13 X s 1446 281 m 6 Y s 1440 287 m 13 X s 1446
 255 m -6 Y s 1440 249 m 13 X s 1492 301 m 7 Y s 1485 308 m 14 X s 1492 275 m -6 Y s 1485 269 m 14 X s 1540 288 m 6 Y s 1534 294 m 13 X s 1540 262 m -6 Y s 1534 256 m 13 X s black 0 0 1 c 727 222 m 50 35 d 47 13 d 48 -13 d 51 24 d 42 -8 d 50 45 d 48
 18 d 44 -2 d 51 10 d 47 -61 d 47 31 d 52 -42 d 45 11 d 50 -17 d 47 2 d 46 20 d 48 -13 d s 727 222 777 257 824 270 872 257 923 281 965 273 1015 318 1063 336 1107 334 1158 344 1205 283 1252 314 1304 272 1349 283 1399 266 1446 268 1492 288 1540 275 18
 { m20} R 1 1 0 c 727 242 m 4 Y s 720 246 m 13 X s 727 216 m -3 Y s 720 213 m 13 X s 775 235 m 3 Y s 768 238 m 13 X s 775 209 m -3 Y s 768 206 m 13 X s 823 224 m 2 Y s 816 226 m 13 X s 823 198 m -3 Y s 816 195 m 13 X s 872 257 m 4 Y s 865 261 m 14 X
 s 872 231 m -4 Y s 865 227 m 14 X s 920 253 m 4 Y s 913 257 m 13 X s 920 227 m -4 Y s 913 223 m 13 X s 970 259 m 4 Y s 963 263 m 13 X s 970 233 m -5 Y s 963 228 m 13 X s 1015 259 m 4 Y s 1009 263 m 13 X s 1015 233 m -5 Y s 1009 228 m 13 X s 1064 312
 m 7 Y s 1057 319 m 13 X s 1064 286 m -7 Y s 1057 279 m 13 X s 1109 298 m 6 Y s 1103 304 m 13 X s 1109 272 m -7 Y s 1103 265 m 13 X s 1157 288 m 6 Y s 1151 294 m 13 X s 1157 262 m -6 Y s 1151 256 m 13 X s 1206 275 m 6 Y s 1200 281 m 13 X s 1206 249 m
 -5 Y s 1200 244 m 13 X s 1254 301 m 7 Y s 1248 308 m 13 X s 1254 275 m -6 Y s 1248 269 m 13 X s 1299 270 m 5 Y s 1293 275 m 13 X s 1299 244 m -5 Y s 1293 239 m 13 X s 1350 263 m 4 Y s 1344 267 m 13 X s 1350 236 m -4 Y s 1344 232 m 13 X s 1398 290 m
 6 Y s 1392 296 m 13 X s 1398 264 m -6 Y s 1392 258 m 13 X s 1443 266 m 5 Y s 1437 271 m 13 X s 1443 240 m -5 Y s 1437 235 m 13 X s 1492 255 m 4 Y s 1486 259 m 13 X s 1492 229 m -4 Y s 1486 225 m 13 X s 1538 266 m 5 Y s 1532 271 m 13 X s 1538 240 m
 -5 Y s 1532 235 m 13 X s black 1 1 0 c 727 229 m 48 -7 d 48 -11 d 49 33 d 48 -4 d 50 6 d 45 X 49 53 d 45 -14 d 48 -10 d 49 -13 d 48 26 d 45 -31 d 51 -7 d 48 27 d 45 -24 d 49 -11 d 46 11 d s 727 229 775 222 823 211 872 244 920 240 970 246 1015 246
 1064 299 1109 285 1157 275 1206 262 1254 288 1299 257 1350 250 1398 277 1443 253 1492 242 1538 253 18 { m20} R black
 gsave  2268 1538 0 0 C 1531.36 1032.85 t 0 r /Helvetica-Bold findfont 58.6478 sf 0 0 m (Pixel Barrel) show NC gr 
 gsave  2268 1538 0 0 C 1648.66 967.689 t 0 r /Helvetica-Bold findfont 58.6478 sf 0 0 m (Layer 0) show NC gr  1539 980 m 91 X s 1585 980 m20
 gsave  2268 1538 0 0 C 1648.66 902.525 t 0 r /Helvetica-Bold findfont 58.6478 sf 0 0 m (Layer 1) show NC gr  1 0 0 c 1539 916 m 91 X s 1585 916 m20 black
 gsave  2268 1538 0 0 C 1648.66 840.619 t 0 r /Helvetica-Bold findfont 58.6478 sf 0 0 m (Layer 2) show NC gr  0 1 0 c 1539 852 m 91 X s 1585 852 m20 black
 gsave  2268 1538 0 0 C 1648.66 775.455 t 0 r /Helvetica-Bold findfont 58.6478 sf 0 0 m (Layer 3) show NC gr  0 0 1 c 1539 788 m 91 X s 1585 788 m20 black
 gsave  2268 1538 0 0 C 1648.66 710.291 t 0 r /Helvetica-Bold findfont 58.6478 sf 0 0 m (Layer 4) show NC gr  1 1 0 c 1539 724 m 91 X s 1585 724 m20
 gr  gr showpage
end
%%EOF
