%!PS-Adobe-2.0 EPSF-2.0
%%BoundingBox:  0 0 567 384
%%Title: outputDir/pixel_occupancy/clus_z_pixlayer_1_neg.eps: c1_n40
%%Creator: ROOT Version 6.04/12
%%CreationDate: Mon Apr 25 16:02:13 2016
%%DocumentNeededResources: ProcSet (FontSetInit)
%%EndComments
%%BeginProlog
80 dict begin
/s {stroke} def /l {lineto} def /m {moveto} def /t {translate} def
/r {rotate} def /rl {roll}  def /R {repeat} def
/d {rlineto} def /rm {rmoveto} def /gr {grestore} def /f {eofill} def
/c {setrgbcolor} def /black {0 setgray} def /sd {setdash} def
/cl {closepath} def /sf {scalefont setfont} def /lw {setlinewidth} def
/box {m dup 0 exch d exch 0 d 0 exch neg d cl} def
/NC{systemdict begin initclip end}def/C{NC box clip newpath}def
/bl {box s} def /bf {gsave box gsave f grestore 1 lw [] 0 sd s grestore} def /Y { 0 exch d} def /X { 0 d} def 
/K {{pop pop 0 moveto} exch kshow} bind def
/ita {/ang 15 def gsave [1 0 ang dup sin exch cos div 1 0 0] concat} def 
/mp {newpath /y exch def /x exch def} def
/side {[w .77 mul w .23 mul] .385 w mul sd w 0 l currentpoint t -144 r} def
/mr {mp x y w2 0 360 arc} def /m24 {mr s} def /m20 {mr f} def
/mb {mp x y w2 add m w2 neg 0 d 0 w neg d w 0 d 0 w d cl} def
/mt {mp x y w2 add m w2 neg w neg d w 0 d cl} def
/m21 {mb f} def /m25 {mb s} def /m22 {mt f} def /m26{mt s} def
/m23 {mp x y w2 sub m w2 w d w neg 0 d cl f} def
/m27 {mp x y w2 add m w3 neg w2 neg d w3 w2 neg d w3 w2 d cl s} def
/m28 {mp x w2 sub y w2 sub w3 add m w3 0 d  0 w3 neg d w3 0 d 0 w3 d w3 0 d  0 w3 d w3 neg 0 d 0 w3 d w3 neg 0 d 0 w3 neg d w3 neg 0 d cl s } def
/m29 {mp gsave x w2 sub y w2 add w3 sub m currentpoint t 4 {side} repeat cl fill gr} def
/m30 {mp gsave x w2 sub y w2 add w3 sub m currentpoint t 4 {side} repeat cl s gr} def
/m31 {mp x y w2 sub m 0 w d x w2 sub y m w 0 d x w2 sub y w2 add m w w neg d x w2 sub y w2 sub m w w d s} def
/m32 {mp x y w2 sub m w2 w d w neg 0 d cl s} def
/m33 {mp x y w2 add m w3 neg w2 neg d w3 w2 neg d w3 w2 d cl f} def
/m34 {mp x w2 sub y w2 sub w3 add m w3 0 d  0 w3 neg d w3 0 d 0 w3 d w3 0 d  0 w3 d w3 neg 0 d 0 w3 d w3 neg 0 d 0 w3 neg d w3 neg 0 d cl f } def
/m2 {mp x y w2 sub m 0 w d x w2 sub y m w 0 d s} def
/m5 {mp x w2 sub y w2 sub m w w d x w2 sub y w2 add m w w neg d s} def
%%IncludeResource: ProcSet (FontSetInit)
%%IncludeResource: font Times-Roman
%%IncludeResource: font Times-Italic
%%IncludeResource: font Times-Bold
%%IncludeResource: font Times-BoldItalic
%%IncludeResource: font Helvetica
%%IncludeResource: font Helvetica-Oblique
%%IncludeResource: font Helvetica-Bold
%%IncludeResource: font Helvetica-BoldOblique
%%IncludeResource: font Courier
%%IncludeResource: font Courier-Oblique
%%IncludeResource: font Courier-Bold
%%IncludeResource: font Courier-BoldOblique
%%IncludeResource: font Symbol
%%IncludeResource: font ZapfDingbats
/reEncode {exch findfont dup length dict begin {1 index /FID eq  {pop pop} {def} ifelse } forall /Encoding exch def currentdict end dup /FontName get exch definefont pop } def [/Times-Bold /Times-Italic /Times-BoldItalic /Helvetica /Helvetica-Oblique
 /Helvetica-Bold /Helvetica-BoldOblique /Courier /Courier-Oblique /Courier-Bold /Courier-BoldOblique /Times-Roman /AvantGarde-Book /AvantGarde-BookOblique /AvantGarde-Demi /AvantGarde-DemiOblique /Bookman-Demi /Bookman-DemiItalic /Bookman-Light
 /Bookman-LightItalic /Helvetica-Narrow /Helvetica-Narrow-Bold /Helvetica-Narrow-BoldOblique /Helvetica-Narrow-Oblique /NewCenturySchlbk-Roman /NewCenturySchlbk-Bold /NewCenturySchlbk-BoldItalic /NewCenturySchlbk-Italic /Palatino-Bold
 /Palatino-BoldItalic /Palatino-Italic /Palatino-Roman ] {ISOLatin1Encoding reEncode } forall
%%EndProlog
%%BeginSetup
%%EndSetup
newpath  gsave  .25 .25 scale  gsave  0 0 t black[  ] 0 sd 3 lw 1 1 1 c 2268 1538 0 0 bf black 1 1 1 c 1814 1230 227 154 bf black 1814 1230 227 154 bl 1 1 1 c 1814 1230 227 154 bf black 1814 1230 227 154 bl 227 154 m 1814 X s 257 191 m -37 Y s 309
 172 m -18 Y s 361 172 m -18 Y s 414 172 m -18 Y s 466 172 m -18 Y s 518 191 m -37 Y s 571 172 m -18 Y s 623 172 m -18 Y s 675 172 m -18 Y s 728 172 m -18 Y s 780 191 m -37 Y s 832 172 m -18 Y s 885 172 m -18 Y s 937 172 m -18 Y s 989 172 m -18 Y s
 1042 191 m -37 Y s 1094 172 m -18 Y s 1146 172 m -18 Y s 1199 172 m -18 Y s 1251 172 m -18 Y s 1303 191 m -37 Y s 1356 172 m -18 Y s 1408 172 m -18 Y s 1461 172 m -18 Y s 1513 172 m -18 Y s 1565 191 m -37 Y s 1618 172 m -18 Y s 1670 172 m -18 Y s
 1722 172 m -18 Y s 1775 172 m -18 Y s 1827 191 m -37 Y s 257 191 m -37 Y s 1827 191 m -37 Y s 1879 172 m -18 Y s 1932 172 m -18 Y s 1984 172 m -18 Y s 2036 172 m -18 Y s
 gsave  2268 1538 0 0 C 237.85 97.7464 t 0 r /Helvetica-Bold findfont 58.6478 sf 0 0 m (0) show NC gr 
 gsave  2268 1538 0 0 C 469.183 97.7464 t 0 r /Helvetica-Bold findfont 58.6478 sf 0 0 m (100) show NC gr 
 gsave  2268 1538 0 0 C 729.84 97.7464 t 0 r /Helvetica-Bold findfont 58.6478 sf 0 0 m (200) show NC gr 
 gsave  2268 1538 0 0 C 990.497 97.7464 t 0 r /Helvetica-Bold findfont 58.6478 sf 0 0 m (300) show NC gr 
 gsave  2268 1538 0 0 C 1254.41 97.7464 t 0 r /Helvetica-Bold findfont 58.6478 sf 0 0 m (400) show NC gr 
 gsave  2268 1538 0 0 C 1515.07 97.7464 t 0 r /Helvetica-Bold findfont 58.6478 sf 0 0 m (500) show NC gr 
 gsave  2268 1538 0 0 C 1775.73 97.7464 t 0 r /Helvetica-Bold findfont 58.6478 sf 0 0 m (600) show NC gr  227 1384 m 1814 X s 257 1347 m 37 Y s 309 1366 m 18 Y s 361 1366 m 18 Y s 414 1366 m 18 Y s 466 1366 m 18 Y s 518 1347 m 37 Y s 571 1366 m 18 Y
 s 623 1366 m 18 Y s 675 1366 m 18 Y s 728 1366 m 18 Y s 780 1347 m 37 Y s 832 1366 m 18 Y s 885 1366 m 18 Y s 937 1366 m 18 Y s 989 1366 m 18 Y s 1042 1347 m 37 Y s 1094 1366 m 18 Y s 1146 1366 m 18 Y s 1199 1366 m 18 Y s 1251 1366 m 18 Y s 1303
 1347 m 37 Y s 1356 1366 m 18 Y s 1408 1366 m 18 Y s 1461 1366 m 18 Y s 1513 1366 m 18 Y s 1565 1347 m 37 Y s 1618 1366 m 18 Y s 1670 1366 m 18 Y s 1722 1366 m 18 Y s 1775 1366 m 18 Y s 1827 1347 m 37 Y s 257 1347 m 37 Y s 1827 1347 m 37 Y s 1879
 1366 m 18 Y s 1932 1366 m 18 Y s 1984 1366 m 18 Y s 2036 1366 m 18 Y s 227 154 m 1230 Y s 281 361 m -54 X s 254 418 m -27 X s 254 475 m -27 X s 254 531 m -27 X s 281 588 m -54 X s 254 645 m -27 X s 254 701 m -27 X s 254 758 m -27 X s 281 814 m -54 X
 s 254 871 m -27 X s 254 928 m -27 X s 254 984 m -27 X s 281 1041 m -54 X s 254 1098 m -27 X s 254 1154 m -27 X s 254 1211 m -27 X s 281 1268 m -54 X s 281 361 m -54 X s 254 305 m -27 X s 254 248 m -27 X s 254 191 m -27 X s 281 1268 m -54 X s 254
 1324 m -27 X s 254 1381 m -27 X s
 gsave  2268 1538 0 0 C 149.878 338.854 t 0 r /Helvetica-Bold findfont 58.6478 sf 0 0 m (60) show NC gr 
 gsave  2268 1538 0 0 C 149.878 566.929 t 0 r /Helvetica-Bold findfont 58.6478 sf 0 0 m (80) show NC gr 
 gsave  2268 1538 0 0 C 117.296 791.746 t 0 r /Helvetica-Bold findfont 58.6478 sf 0 0 m (100) show NC gr 
 gsave  2268 1538 0 0 C 117.296 1019.82 t 0 r /Helvetica-Bold findfont 58.6478 sf 0 0 m (120) show NC gr 
 gsave  2268 1538 0 0 C 117.296 1247.9 t 0 r /Helvetica-Bold findfont 58.6478 sf 0 0 m (140) show NC gr  2041 154 m 1230 Y s 1987 361 m 54 X s 2014 418 m 27 X s 2014 475 m 27 X s 2014 531 m 27 X s 1987 588 m 54 X s 2014 645 m 27 X s 2014 701 m 27 X s
 2014 758 m 27 X s 1987 814 m 54 X s 2014 871 m 27 X s 2014 928 m 27 X s 2014 984 m 27 X s 1987 1041 m 54 X s 2014 1098 m 27 X s 2014 1154 m 27 X s 2014 1211 m 27 X s 1987 1268 m 54 X s 1987 361 m 54 X s 2014 305 m 27 X s 2014 248 m 27 X s 2014 191 m
 27 X s 1987 1268 m 54 X s 2014 1324 m 27 X s 2014 1381 m 27 X s 1958 321 m 53 Y s 1952 374 m 13 X s 1958 321 m -54 Y s 1952 267 m 13 X s 1837 330 m 54 Y s 1831 384 m 13 X s 1837 330 m -55 Y s 1831 275 m 13 X s 1711 325 m 54 Y s 1704 379 m 13 X s
 1711 325 m -54 Y s 1704 271 m 13 X s 1507 280 m 52 Y s 1501 332 m 13 X s 1507 280 m -52 Y s 1501 228 m 13 X s 1337 280 m 52 Y s 1330 332 m 13 X s 1337 280 m -52 Y s 1330 228 m 13 X s 1196 298 m 53 Y s 1190 351 m 13 X s 1196 298 m -53 Y s 1190 245 m
 13 X s 1077 366 m 56 Y s 1070 422 m 13 X s 1077 366 m -56 Y s 1070 310 m 13 X s 980 379 m 57 Y s 973 436 m 13 X s 980 379 m -56 Y s 973 323 m 13 X s 897 357 m 55 Y s 890 412 m 14 X s 897 357 m -56 Y s 890 301 m 14 X s 828 248 m 51 Y s 821 299 m 13 X
 s 828 248 m -51 Y s 821 197 m 13 X s 731 330 m 54 Y s 725 384 m 13 X s 731 330 m -55 Y s 725 275 m 13 X s 627 601 m 65 Y s 621 666 m 13 X s 627 601 m -64 Y s 621 537 m 13 X s 526 751 m 70 Y s 519 821 m 13 X s 526 751 m -70 Y s 519 681 m 13 X s 415
 819 m 72 Y s 408 891 m 13 X s 415 819 m -72 Y s 408 747 m 13 X s 309 991 m 77 Y s 303 1068 m 13 X s 309 991 m -77 Y s 303 914 m 13 X s 1 1 1 c black 1958 321 m -121 9 d -126 -5 d -204 -45 d -170 X -141 18 d -119 68 d -97 13 d -83 -22 d -69 -109 d
 -97 82 d -104 271 d -101 150 d -111 68 d -106 172 d s /w 2 def /w2 {w 2 div} def /w3 {w 3 div} def 1958 321 1837 330 1711 325 1507 280 1337 280 1196 298 1077 366 980 379 897 357 828 248 731 330 627 601 526 751 415 819 309 991 15 { m20} R
 gsave  2268 1538 0 0 C 1326.09 1172.96 t 0 r /Helvetica-Bold findfont 58.6478 sf 0 0 m (Pixel Occupancies) show NC gr  1124 1192 m 167 X s 1208 1192 m20
 gr  gr showpage
end
%%EOF
