%!PS-Adobe-2.0 EPSF-2.0
%%BoundingBox:  0 0 567 384
%%Title: outputDir/pixel_occupancy/clus_pixlayer_sides_mgz.eps: c1_n5
%%Creator: ROOT Version 6.04/12
%%CreationDate: Mon Apr 25 16:02:03 2016
%%DocumentNeededResources: ProcSet (FontSetInit)
%%EndComments
%%BeginProlog
80 dict begin
/s {stroke} def /l {lineto} def /m {moveto} def /t {translate} def
/r {rotate} def /rl {roll}  def /R {repeat} def
/d {rlineto} def /rm {rmoveto} def /gr {grestore} def /f {eofill} def
/c {setrgbcolor} def /black {0 setgray} def /sd {setdash} def
/cl {closepath} def /sf {scalefont setfont} def /lw {setlinewidth} def
/box {m dup 0 exch d exch 0 d 0 exch neg d cl} def
/NC{systemdict begin initclip end}def/C{NC box clip newpath}def
/bl {box s} def /bf {gsave box gsave f grestore 1 lw [] 0 sd s grestore} def /Y { 0 exch d} def /X { 0 d} def 
/K {{pop pop 0 moveto} exch kshow} bind def
/ita {/ang 15 def gsave [1 0 ang dup sin exch cos div 1 0 0] concat} def 
/mp {newpath /y exch def /x exch def} def
/side {[w .77 mul w .23 mul] .385 w mul sd w 0 l currentpoint t -144 r} def
/mr {mp x y w2 0 360 arc} def /m24 {mr s} def /m20 {mr f} def
/mb {mp x y w2 add m w2 neg 0 d 0 w neg d w 0 d 0 w d cl} def
/mt {mp x y w2 add m w2 neg w neg d w 0 d cl} def
/m21 {mb f} def /m25 {mb s} def /m22 {mt f} def /m26{mt s} def
/m23 {mp x y w2 sub m w2 w d w neg 0 d cl f} def
/m27 {mp x y w2 add m w3 neg w2 neg d w3 w2 neg d w3 w2 d cl s} def
/m28 {mp x w2 sub y w2 sub w3 add m w3 0 d  0 w3 neg d w3 0 d 0 w3 d w3 0 d  0 w3 d w3 neg 0 d 0 w3 d w3 neg 0 d 0 w3 neg d w3 neg 0 d cl s } def
/m29 {mp gsave x w2 sub y w2 add w3 sub m currentpoint t 4 {side} repeat cl fill gr} def
/m30 {mp gsave x w2 sub y w2 add w3 sub m currentpoint t 4 {side} repeat cl s gr} def
/m31 {mp x y w2 sub m 0 w d x w2 sub y m w 0 d x w2 sub y w2 add m w w neg d x w2 sub y w2 sub m w w d s} def
/m32 {mp x y w2 sub m w2 w d w neg 0 d cl s} def
/m33 {mp x y w2 add m w3 neg w2 neg d w3 w2 neg d w3 w2 d cl f} def
/m34 {mp x w2 sub y w2 sub w3 add m w3 0 d  0 w3 neg d w3 0 d 0 w3 d w3 0 d  0 w3 d w3 neg 0 d 0 w3 d w3 neg 0 d 0 w3 neg d w3 neg 0 d cl f } def
/m2 {mp x y w2 sub m 0 w d x w2 sub y m w 0 d s} def
/m5 {mp x w2 sub y w2 sub m w w d x w2 sub y w2 add m w w neg d s} def
%%IncludeResource: ProcSet (FontSetInit)
%%IncludeResource: font Times-Roman
%%IncludeResource: font Times-Italic
%%IncludeResource: font Times-Bold
%%IncludeResource: font Times-BoldItalic
%%IncludeResource: font Helvetica
%%IncludeResource: font Helvetica-Oblique
%%IncludeResource: font Helvetica-Bold
%%IncludeResource: font Helvetica-BoldOblique
%%IncludeResource: font Courier
%%IncludeResource: font Courier-Oblique
%%IncludeResource: font Courier-Bold
%%IncludeResource: font Courier-BoldOblique
%%IncludeResource: font Symbol
%%IncludeResource: font ZapfDingbats
/reEncode {exch findfont dup length dict begin {1 index /FID eq  {pop pop} {def} ifelse } forall /Encoding exch def currentdict end dup /FontName get exch definefont pop } def [/Times-Bold /Times-Italic /Times-BoldItalic /Helvetica /Helvetica-Oblique
 /Helvetica-Bold /Helvetica-BoldOblique /Courier /Courier-Oblique /Courier-Bold /Courier-BoldOblique /Times-Roman /AvantGarde-Book /AvantGarde-BookOblique /AvantGarde-Demi /AvantGarde-DemiOblique /Bookman-Demi /Bookman-DemiItalic /Bookman-Light
 /Bookman-LightItalic /Helvetica-Narrow /Helvetica-Narrow-Bold /Helvetica-Narrow-BoldOblique /Helvetica-Narrow-Oblique /NewCenturySchlbk-Roman /NewCenturySchlbk-Bold /NewCenturySchlbk-BoldItalic /NewCenturySchlbk-Italic /Palatino-Bold
 /Palatino-BoldItalic /Palatino-Italic /Palatino-Roman ] {ISOLatin1Encoding reEncode } forall
%%EndProlog
%%BeginSetup
%%EndSetup
newpath  gsave  .25 .25 scale  gsave  0 0 t black[  ] 0 sd 3 lw 1 1 1 c 2268 1538 0 0 bf black 1 1 1 c 1814 1230 227 154 bf black 1814 1230 227 154 bl 1 1 1 c 1814 1230 227 154 bf black 1814 1230 227 154 bl 227 154 m 1814 X s
 gsave  2268 1538 0 0 C 1853.92 35.8403 t 0 r /Helvetica-Bold findfont 58.6478 sf 0 0 m (z [mm]) show NC gr  261 191 m -37 Y s 309 172 m -18 Y s 358 172 m -18 Y s 406 172 m -18 Y s 455 172 m -18 Y s 503 191 m -37 Y s 552 172 m -18 Y s 600 172 m -18 Y
 s 649 172 m -18 Y s 697 172 m -18 Y s 746 191 m -37 Y s 794 172 m -18 Y s 843 172 m -18 Y s 891 172 m -18 Y s 939 172 m -18 Y s 988 191 m -37 Y s 1036 172 m -18 Y s 1085 172 m -18 Y s 1133 172 m -18 Y s 1182 172 m -18 Y s 1230 191 m -37 Y s 1279 172
 m -18 Y s 1327 172 m -18 Y s 1376 172 m -18 Y s 1424 172 m -18 Y s 1473 191 m -37 Y s 1521 172 m -18 Y s 1569 172 m -18 Y s 1618 172 m -18 Y s 1666 172 m -18 Y s 1715 191 m -37 Y s 1763 172 m -18 Y s 1812 172 m -18 Y s 1860 172 m -18 Y s 1909 172 m
 -18 Y s 1957 191 m -37 Y s 261 191 m -37 Y s 1957 191 m -37 Y s 2006 172 m -18 Y s
 gsave  2268 1538 0 0 C 244.366 97.7464 t 0 r /Helvetica-Bold findfont 58.6478 sf 0 0 m (0) show NC gr 
 gsave  2268 1538 0 0 C 452.892 97.7464 t 0 r /Helvetica-Bold findfont 58.6478 sf 0 0 m (100) show NC gr 
 gsave  2268 1538 0 0 C 693.999 97.7464 t 0 r /Helvetica-Bold findfont 58.6478 sf 0 0 m (200) show NC gr 
 gsave  2268 1538 0 0 C 938.365 97.7464 t 0 r /Helvetica-Bold findfont 58.6478 sf 0 0 m (300) show NC gr 
 gsave  2268 1538 0 0 C 1179.47 97.7464 t 0 r /Helvetica-Bold findfont 58.6478 sf 0 0 m (400) show NC gr 
 gsave  2268 1538 0 0 C 1420.58 97.7464 t 0 r /Helvetica-Bold findfont 58.6478 sf 0 0 m (500) show NC gr 
 gsave  2268 1538 0 0 C 1664.95 97.7464 t 0 r /Helvetica-Bold findfont 58.6478 sf 0 0 m (600) show NC gr 
 gsave  2268 1538 0 0 C 1906.05 97.7464 t 0 r /Helvetica-Bold findfont 58.6478 sf 0 0 m (700) show NC gr  227 1384 m 1814 X s 261 1347 m 37 Y s 309 1366 m 18 Y s 358 1366 m 18 Y s 406 1366 m 18 Y s 455 1366 m 18 Y s 503 1347 m 37 Y s 552 1366 m 18 Y
 s 600 1366 m 18 Y s 649 1366 m 18 Y s 697 1366 m 18 Y s 746 1347 m 37 Y s 794 1366 m 18 Y s 843 1366 m 18 Y s 891 1366 m 18 Y s 939 1366 m 18 Y s 988 1347 m 37 Y s 1036 1366 m 18 Y s 1085 1366 m 18 Y s 1133 1366 m 18 Y s 1182 1366 m 18 Y s 1230 1347
 m 37 Y s 1279 1366 m 18 Y s 1327 1366 m 18 Y s 1376 1366 m 18 Y s 1424 1366 m 18 Y s 1473 1347 m 37 Y s 1521 1366 m 18 Y s 1569 1366 m 18 Y s 1618 1366 m 18 Y s 1666 1366 m 18 Y s 1715 1347 m 37 Y s 1763 1366 m 18 Y s 1812 1366 m 18 Y s 1860 1366 m
 18 Y s 1909 1366 m 18 Y s 1957 1347 m 37 Y s 261 1347 m 37 Y s 1957 1347 m 37 Y s 2006 1366 m 18 Y s 227 154 m 1230 Y s
 gsave  2268 1538 0 0 C 97.7464 710.291 t 90 r /Helvetica-Bold findfont 58.6478 sf 0 0 m (Cluster per etaModuleID) show NC gr  281 310 m -54 X s 254 356 m -27 X s 254 403 m -27 X s 254 449 m -27 X s 254 495 m -27 X s 281 541 m -54 X s 254 587 m -27 X
 s 254 633 m -27 X s 254 679 m -27 X s 254 725 m -27 X s 281 771 m -54 X s 254 818 m -27 X s 254 864 m -27 X s 254 910 m -27 X s 254 956 m -27 X s 281 1002 m -54 X s 254 1048 m -27 X s 254 1094 m -27 X s 254 1140 m -27 X s 254 1186 m -27 X s 281 1233
 m -54 X s 281 310 m -54 X s 254 264 m -27 X s 254 218 m -27 X s 254 172 m -27 X s 281 1233 m -54 X s 254 1279 m -27 X s 254 1325 m -27 X s 254 1371 m -27 X s
 gsave  2268 1538 0 0 C 149.878 289.981 t 0 r /Helvetica-Bold findfont 58.6478 sf 0 0 m (50) show NC gr 
 gsave  2268 1538 0 0 C 117.296 521.314 t 0 r /Helvetica-Bold findfont 58.6478 sf 0 0 m (100) show NC gr 
 gsave  2268 1538 0 0 C 117.296 749.389 t 0 r /Helvetica-Bold findfont 58.6478 sf 0 0 m (150) show NC gr 
 gsave  2268 1538 0 0 C 117.296 980.722 t 0 r /Helvetica-Bold findfont 58.6478 sf 0 0 m (200) show NC gr 
 gsave  2268 1538 0 0 C 117.296 1212.06 t 0 r /Helvetica-Bold findfont 58.6478 sf 0 0 m (250) show NC gr  2041 154 m 1230 Y s 1987 310 m 54 X s 2014 356 m 27 X s 2014 403 m 27 X s 2014 449 m 27 X s 2014 495 m 27 X s 1987 541 m 54 X s 2014 587 m 27 X
 s 2014 633 m 27 X s 2014 679 m 27 X s 2014 725 m 27 X s 1987 771 m 54 X s 2014 818 m 27 X s 2014 864 m 27 X s 2014 910 m 27 X s 2014 956 m 27 X s 1987 1002 m 54 X s 2014 1048 m 27 X s 2014 1094 m 27 X s 2014 1140 m 27 X s 2014 1186 m 27 X s 1987
 1233 m 54 X s 1987 310 m 54 X s 2014 264 m 27 X s 2014 218 m 27 X s 2014 172 m 27 X s 1987 1233 m 54 X s 2014 1279 m 27 X s 2014 1325 m 27 X s 2014 1371 m 27 X s[ 12 12] 0 sd 358 997 m 27 Y s 352 1024 m 13 X s 358 971 m -28 Y s 352 943 m 13 X s 454
 764 m 22 Y s 447 786 m 13 X s 454 738 m -22 Y s 447 716 m 13 X s 552 648 m 19 Y s 545 667 m 13 X s 552 622 m -19 Y s 545 603 m 13 X s 654 476 m 14 Y s 647 490 m 13 X s 654 450 m -13 Y s 647 437 m 13 X s 752 596 m 18 Y s 745 614 m 13 X s 752 570 m
 -17 Y s 745 553 m 13 X s 838 598 m 18 Y s 832 616 m 13 X s 838 572 m -17 Y s 832 555 m 13 X s 963 595 m 17 Y s 957 612 m 13 X s 963 568 m -17 Y s 957 551 m 13 X s 1054 587 m 17 Y s 1047 604 m 13 X s 1054 561 m -17 Y s 1047 544 m 13 X s 1144 602 m 17
 Y s 1137 619 m 13 X s 1144 576 m -18 Y s 1137 558 m 13 X s 1249 648 m 19 Y s 1242 667 m 14 X s 1249 622 m -19 Y s 1242 603 m 14 X s 1370 611 m 18 Y s 1364 629 m 13 X s 1370 585 m -18 Y s 1364 567 m 13 X s 1516 578 m 17 Y s 1509 595 m 13 X s 1516 552
 m -17 Y s 1509 535 m 13 X s 1687 506 m 15 Y s 1681 521 m 13 X s 1687 480 m -15 Y s 1681 465 m 13 X s 1819 510 m 14 Y s 1812 524 m 13 X s 1819 484 m -15 Y s 1812 469 m 13 X s 1958 482 m 14 Y s 1952 496 m 13 X s 1958 456 m -14 Y s 1952 442 m 13 X s
 358 984 m 96 -233 d 98 -116 d 102 -172 d 98 120 d 86 2 d 125 -4 d 91 -7 d 90 15 d 105 46 d 121 -37 d 146 -33 d 171 -72 d 132 4 d 139 -28 d s[  ] 0 sd /w 26 def /w2 {w 2 div} def /w3 {w 3 div} def 358 984 454 751 552 635 654 463 752 583 838 585 963
 581 1054 574 1144 589 1249 635 1370 598 1516 565 1687 493 1819 497 1958 469 15 { m21} R[ 12 12] 0 sd[  ] 0 sd 1958 583 m 17 Y s 1952 600 m 13 X s 1958 557 m -17 Y s 1952 540 m 13 X s 1818 595 m 17 Y s 1811 612 m 13 X s 1818 568 m -17 Y s 1811 551 m
 13 X s 1688 617 m 18 Y s 1681 635 m 13 X s 1688 591 m -18 Y s 1681 573 m 13 X s 1516 541 m 16 Y s 1510 557 m 13 X s 1516 515 m -16 Y s 1510 499 m 13 X s 1372 541 m 16 Y s 1365 557 m 13 X s 1372 515 m -16 Y s 1365 499 m 13 X s 1248 524 m 16 Y s 1241
 540 m 13 X s 1248 498 m -15 Y s 1241 483 m 13 X s 1143 565 m 16 Y s 1137 581 m 13 X s 1143 539 m -17 Y s 1137 522 m 13 X s 1054 583 m 17 Y s 1047 600 m 13 X s 1054 557 m -17 Y s 1047 540 m 13 X s 964 530 m 15 Y s 958 545 m 13 X s 964 504 m -15 Y s
 958 489 m 13 X s 839 565 m 16 Y s 832 581 m 14 X s 839 539 m -17 Y s 832 522 m 14 X s 750 554 m 16 Y s 744 570 m 13 X s 750 528 m -16 Y s 744 512 m 13 X s 651 500 m 15 Y s 645 515 m 13 X s 651 474 m -14 Y s 645 460 m 13 X s 556 689 m 20 Y s 550 709
 m 13 X s 556 663 m -21 Y s 550 642 m 13 X s 455 867 m 25 Y s 449 892 m 13 X s 455 841 m -24 Y s 449 817 m 13 X s 359 965 m 27 Y s 353 992 m 13 X s 359 939 m -27 Y s 353 912 m 13 X s 1958 570 m -140 11 d -130 23 d -172 -76 d -144 X -124 -17 d -105 41
 d -89 18 d -90 -53 d -125 35 d -89 -11 d -99 -54 d -95 189 d -101 178 d -96 98 d s 1958 570 1818 581 1688 604 1516 528 1372 528 1248 511 1143 552 1054 570 964 517 839 552 750 541 651 487 556 676 455 854 359 952 15 { m20} R 1 0 0 c[ 12 12] 0 sd 312
 602 m 17 Y s 305 619 m 13 X s 312 576 m -18 Y s 305 558 m 13 X s 408 563 m 17 Y s 401 580 m 13 X s 408 537 m -16 Y s 401 521 m 13 X s 504 552 m 16 Y s 498 568 m 13 X s 504 526 m -16 Y s 498 510 m 13 X s 603 489 m 14 Y s 597 503 m 13 X s 603 463 m
 -14 Y s 597 449 m 13 X s 704 392 m 10 Y s 698 402 m 13 X s 704 366 m -11 Y s 698 355 m 13 X s 790 346 m 8 Y s 783 354 m 13 X s 790 319 m -8 Y s 783 311 m 13 X s 855 329 m 8 Y s 848 337 m 13 X s 855 303 m -8 Y s 848 295 m 13 X s 929 353 m 9 Y s 922
 362 m 13 X s 929 327 m -9 Y s 922 318 m 13 X s 1021 360 m 9 Y s 1015 369 m 13 X s 1021 334 m -9 Y s 1015 325 m 13 X s 1132 334 m 9 Y s 1125 343 m 13 X s 1132 308 m -8 Y s 1125 300 m 13 X s 1264 370 m 9 Y s 1258 379 m 13 X s 1264 343 m -9 Y s 1258
 334 m 13 X s 1418 384 m 10 Y s 1412 394 m 13 X s 1418 358 m -10 Y s 1412 348 m 13 X s 1608 399 m 11 Y s 1601 410 m 13 X s 1608 373 m -11 Y s 1601 362 m 13 X s 1723 392 m 10 Y s 1717 402 m 13 X s 1723 366 m -11 Y s 1717 355 m 13 X s 1837 368 m 9 Y s
 1830 377 m 13 X s 1837 342 m -10 Y s 1830 332 m 13 X s black 1 0 0 c 312 589 m 96 -39 d 96 -11 d 99 -63 d 101 -97 d 86 -46 d 65 -17 d 74 24 d 92 7 d 111 -26 d 132 35 d 154 15 d 190 15 d 115 -7 d 114 -24 d s[  ] 0 sd 312 589 408 550 504 539 603 476
 704 379 790 333 855 316 929 340 1021 347 1132 321 1264 356 1418 371 1608 386 1723 379 1837 355 15 { m21} R[ 12 12] 0 sd[  ] 0 sd 1837 353 m 9 Y s 1830 362 m 13 X s 1837 327 m -9 Y s 1830 318 m 13 X s 1724 357 m 9 Y s 1718 366 m 13 X s 1724 331 m -9
 Y s 1718 322 m 13 X s 1607 355 m 9 Y s 1601 364 m 13 X s 1607 329 m -9 Y s 1601 320 m 13 X s 1419 336 m 8 Y s 1412 344 m 13 X s 1419 310 m -8 Y s 1412 302 m 13 X s 1261 336 m 8 Y s 1255 344 m 13 X s 1261 310 m -8 Y s 1255 302 m 13 X s 1131 344 m 8 Y
 s 1124 352 m 13 X s 1131 318 m -9 Y s 1124 309 m 13 X s 1020 371 m 10 Y s 1014 381 m 13 X s 1020 345 m -9 Y s 1014 336 m 13 X s 931 377 m 10 Y s 924 387 m 13 X s 931 351 m -10 Y s 924 341 m 13 X s 854 368 m 9 Y s 847 377 m 13 X s 854 342 m -10 Y s
 847 332 m 13 X s 790 323 m 8 Y s 783 331 m 13 X s 790 297 m -7 Y s 783 290 m 13 X s 701 357 m 9 Y s 694 366 m 13 X s 701 331 m -9 Y s 694 322 m 13 X s 604 467 m 14 Y s 598 481 m 13 X s 604 441 m -13 Y s 598 428 m 13 X s 510 528 m 15 Y s 504 543 m 13
 X s 510 502 m -15 Y s 504 487 m 13 X s 407 556 m 16 Y s 401 572 m 13 X s 407 530 m -16 Y s 401 514 m 13 X s 310 626 m 18 Y s 303 644 m 13 X s 310 600 m -19 Y s 303 581 m 13 X s black 1 0 0 c 1837 340 m -113 4 d -117 -2 d -188 -19 d -158 X -130 8 d
 -111 27 d -89 6 d -77 -9 d -64 -45 d -89 34 d -97 110 d -94 61 d -103 28 d -97 70 d s 1837 340 1724 344 1607 342 1419 323 1261 323 1131 331 1020 358 931 364 854 355 790 310 701 344 604 454 510 515 407 543 310 613 15 { m20} R 0 1 0 c[ 12 12] 0 sd 312
 447 m 12 Y s 305 459 m 13 X s 312 421 m -13 Y s 305 408 m 13 X s 411 366 m 9 Y s 404 375 m 13 X s 411 340 m -10 Y s 404 330 m 13 X s 510 393 m 11 Y s 503 404 m 13 X s 510 367 m -10 Y s 503 357 m 13 X s 604 355 m 9 Y s 598 364 m 13 X s 604 329 m -9 Y
 s 598 320 m 13 X s 704 331 m 8 Y s 698 339 m 13 X s 704 305 m -8 Y s 698 297 m 13 X s 802 349 m 9 Y s 796 358 m 13 X s 802 323 m -9 Y s 796 314 m 13 X s 900 272 m 5 Y s 894 277 m 13 X s 900 246 m -5 Y s 894 241 m 13 X s 999 279 m 6 Y s 992 285 m 13
 X s 999 253 m -5 Y s 992 248 m 13 X s 1099 259 m 4 Y s 1092 263 m 13 X s 1099 233 m -5 Y s 1092 228 m 13 X s black 0 1 0 c 312 434 m 99 -81 d 99 27 d 94 -38 d 100 -24 d 98 18 d 98 -77 d 99 7 d 100 -20 d s[  ] 0 sd 312 434 411 353 510 380 604 342 704
 318 802 336 900 259 999 266 1099 246 9 { m21} R[ 12 12] 0 sd[  ] 0 sd 1100 275 m 6 Y s 1093 281 m 13 X s 1100 249 m -5 Y s 1093 244 m 13 X s 994 253 m 4 Y s 988 257 m 13 X s 994 227 m -4 Y s 988 223 m 13 X s 895 288 m 6 Y s 889 294 m 13 X s 895 262
 m -6 Y s 889 256 m 13 X s 798 287 m 5 Y s 792 292 m 13 X s 798 260 m -5 Y s 792 255 m 13 X s 710 322 m 7 Y s 704 329 m 13 X s 710 295 m -7 Y s 704 288 m 13 X s 608 362 m 9 Y s 601 371 m 13 X s 608 336 m -9 Y s 601 327 m 13 X s 503 368 m 9 Y s 496
 377 m 13 X s 503 342 m -10 Y s 496 332 m 13 X s 406 368 m 9 Y s 399 377 m 13 X s 406 342 m -10 Y s 399 332 m 13 X s 312 427 m 11 Y s 306 438 m 13 X s 312 401 m -12 Y s 306 389 m 13 X s black 0 1 0 c 1100 262 m -106 -22 d -99 35 d -97 -2 d -88 36 d
 -102 40 d -105 6 d -97 X -94 59 d s 1100 262 994 240 895 275 798 273 710 309 608 349 503 355 406 355 312 414 9 { m20} R 0 0 1 c[ 12 12] 0 sd 311 357 m 9 Y s 304 366 m 13 X s 311 331 m -9 Y s 304 322 m 13 X s 408 296 m 6 Y s 401 302 m 13 X s 408 270
 m -7 Y s 401 263 m 13 X s 505 327 m 8 Y s 498 335 m 13 X s 505 301 m -8 Y s 498 293 m 13 X s 612 285 m 5 Y s 605 290 m 13 X s 612 259 m -6 Y s 605 253 m 13 X s 703 296 m 6 Y s 697 302 m 13 X s 703 270 m -7 Y s 697 263 m 13 X s 807 279 m 6 Y s 801
 285 m 13 X s 807 253 m -5 Y s 801 248 m 13 X s 904 281 m 6 Y s 897 287 m 13 X s 904 255 m -6 Y s 897 249 m 13 X s 998 301 m 7 Y s 992 308 m 13 X s 998 275 m -6 Y s 992 269 m 13 X s 1097 288 m 6 Y s 1091 294 m 13 X s 1097 262 m -6 Y s 1091 256 m 13 X
 s black 0 0 1 c 311 344 m 97 -61 d 97 31 d 107 -42 d 91 11 d 104 -17 d 97 2 d 94 20 d 99 -13 d s[  ] 0 sd 311 344 408 283 505 314 612 272 703 283 807 266 904 268 998 288 1097 275 9 { m21} R[ 12 12] 0 sd[  ] 0 sd 1099 235 m 3 Y s 1092 238 m 13 X s
 1099 209 m -3 Y s 1092 206 m 13 X s 996 270 m 5 Y s 990 275 m 13 X s 996 244 m -5 Y s 990 239 m 13 X s 898 283 m 6 Y s 891 289 m 13 X s 898 257 m -6 Y s 891 251 m 13 X s 801 270 m 5 Y s 795 275 m 13 X s 801 244 m -5 Y s 795 239 m 13 X s 696 294 m 6
 Y s 689 300 m 13 X s 696 268 m -6 Y s 689 262 m 13 X s 608 287 m 5 Y s 602 292 m 13 X s 608 260 m -5 Y s 602 255 m 13 X s 505 331 m 8 Y s 499 339 m 13 X s 505 305 m -8 Y s 499 297 m 13 X s 406 349 m 9 Y s 400 358 m 13 X s 406 323 m -9 Y s 400 314 m
 13 X s 315 347 m 9 Y s 309 356 m 13 X s 315 321 m -8 Y s 309 313 m 13 X s black 0 0 1 c 1099 222 m -103 35 d -98 13 d -97 -13 d -105 24 d -88 -8 d -103 45 d -99 18 d -91 -2 d s 1099 222 996 257 898 270 801 257 696 281 608 273 505 318 406 336 315 334
 9 { m20} R 1 1 0 c[ 12 12] 0 sd 309 288 m 6 Y s 303 294 m 13 X s 309 262 m -6 Y s 303 256 m 13 X s 410 275 m 6 Y s 404 281 m 13 X s 410 249 m -5 Y s 404 244 m 13 X s 509 301 m 7 Y s 502 308 m 13 X s 509 275 m -6 Y s 502 269 m 13 X s 601 270 m 5 Y s
 595 275 m 13 X s 601 244 m -5 Y s 595 239 m 13 X s 706 263 m 4 Y s 700 267 m 13 X s 706 236 m -4 Y s 700 232 m 13 X s 806 290 m 6 Y s 799 296 m 13 X s 806 264 m -6 Y s 799 258 m 13 X s 897 266 m 5 Y s 891 271 m 13 X s 897 240 m -5 Y s 891 235 m 13 X
 s 999 255 m 4 Y s 992 259 m 13 X s 999 229 m -4 Y s 992 225 m 13 X s 1093 266 m 5 Y s 1087 271 m 13 X s 1093 240 m -5 Y s 1087 235 m 13 X s black 1 1 0 c 309 275 m 101 -13 d 99 26 d 92 -31 d 105 -7 d 100 27 d 91 -24 d 102 -11 d 94 11 d s[  ] 0 sd
 309 275 410 262 509 288 601 257 706 250 806 277 897 253 999 242 1093 253 9 { m21} R[ 12 12] 0 sd[  ] 0 sd 1100 242 m 4 Y s 1093 246 m 13 X s 1100 216 m -3 Y s 1093 213 m 13 X s 1001 235 m 3 Y s 994 238 m 13 X s 1001 209 m -3 Y s 994 206 m 13 X s 902
 224 m 2 Y s 895 226 m 13 X s 902 198 m -3 Y s 895 195 m 13 X s 800 257 m 4 Y s 794 261 m 13 X s 800 231 m -4 Y s 794 227 m 13 X s 702 253 m 4 Y s 696 257 m 13 X s 702 227 m -4 Y s 696 223 m 13 X s 599 259 m 4 Y s 592 263 m 13 X s 599 233 m -5 Y s
 592 228 m 13 X s 505 259 m 4 Y s 499 263 m 13 X s 505 233 m -5 Y s 499 228 m 13 X s 406 312 m 7 Y s 399 319 m 13 X s 406 286 m -7 Y s 399 279 m 13 X s 312 298 m 6 Y s 305 304 m 13 X s 312 272 m -7 Y s 305 265 m 13 X s black 1 1 0 c 1100 229 m -99 -7
 d -99 -11 d -102 33 d -98 -4 d -103 6 d -94 X -99 53 d -94 -14 d s 1100 229 1001 222 902 211 800 244 702 240 599 246 505 246 406 299 312 285 9 { m20} R black
 gsave  2268 1538 0 0 C 1531.36 1052.4 t 0 r /Helvetica-Bold findfont 58.6478 sf 0 0 m (Pixel Barrel) show NC gr 
 gsave  2268 1538 0 0 C 1648.66 1016.56 t 0 r /Helvetica-Bold findfont 58.6478 sf 0 0 m (Layer 0 \(z>0\)) show NC gr [ 12 12] 0 sd 1539 1024 m 91 X s[  ] 0 sd 1585 1024 m21[ 12 12] 0 sd
 gsave  2268 1538 0 0 C 1648.66 983.98 t 0 r /Helvetica-Bold findfont 58.6478 sf 0 0 m (Layer 0 \(z<0\)) show NC gr [  ] 0 sd 1539 989 m 91 X s 1585 989 m20
 gsave  2268 1538 0 0 C 1648.66 948.14 t 0 r /Helvetica-Bold findfont 58.6478 sf 0 0 m (Layer 1 \(z>0\)) show NC gr  1 0 0 c[ 12 12] 0 sd 1539 954 m 91 X s[  ] 0 sd 1585 954 m21[ 12 12] 0 sd black
 gsave  2268 1538 0 0 C 1648.66 912.3 t 0 r /Helvetica-Bold findfont 58.6478 sf 0 0 m (Layer 1 \(z<0\)) show NC gr  1 0 0 c[  ] 0 sd 1539 919 m 91 X s 1585 919 m20 black
 gsave  2268 1538 0 0 C 1648.66 876.459 t 0 r /Helvetica-Bold findfont 58.6478 sf 0 0 m (Layer 2 \(z>0\)) show NC gr  0 1 0 c[ 12 12] 0 sd 1539 884 m 91 X s[  ] 0 sd 1585 884 m21[ 12 12] 0 sd black
 gsave  2268 1538 0 0 C 1648.66 843.877 t 0 r /Helvetica-Bold findfont 58.6478 sf 0 0 m (Layer 2 \(z<0\)) show NC gr  0 1 0 c[  ] 0 sd 1539 849 m 91 X s 1585 849 m20 black
 gsave  2268 1538 0 0 C 1648.66 808.037 t 0 r /Helvetica-Bold findfont 58.6478 sf 0 0 m (Layer 3 \(z>0\)) show NC gr  0 0 1 c[ 12 12] 0 sd 1539 814 m 91 X s[  ] 0 sd 1585 814 m21[ 12 12] 0 sd black
 gsave  2268 1538 0 0 C 1648.66 772.197 t 0 r /Helvetica-Bold findfont 58.6478 sf 0 0 m (Layer 3 \(z<0\)) show NC gr  0 0 1 c[  ] 0 sd 1539 779 m 91 X s 1585 779 m20 black
 gsave  2268 1538 0 0 C 1648.66 739.614 t 0 r /Helvetica-Bold findfont 58.6478 sf 0 0 m (Layer 4 \(z>0\)) show NC gr  1 1 0 c[ 12 12] 0 sd 1539 744 m 91 X s[  ] 0 sd 1585 744 m21[ 12 12] 0 sd black
 gsave  2268 1538 0 0 C 1648.66 703.774 t 0 r /Helvetica-Bold findfont 58.6478 sf 0 0 m (Layer 4 \(z<0\)) show NC gr  1 1 0 c[  ] 0 sd 1539 710 m 91 X s 1585 710 m20
 gr  gr showpage
end
%%EOF
