%!PS-Adobe-2.0 EPSF-2.0
%%BoundingBox:  0 0 567 384
%%Title: outputDir/pixel_occupancy/clus_z_pixlayer_4_neg.eps: c1_n50
%%Creator: ROOT Version 6.04/12
%%CreationDate: Mon Apr 25 16:02:15 2016
%%DocumentNeededResources: ProcSet (FontSetInit)
%%EndComments
%%BeginProlog
80 dict begin
/s {stroke} def /l {lineto} def /m {moveto} def /t {translate} def
/r {rotate} def /rl {roll}  def /R {repeat} def
/d {rlineto} def /rm {rmoveto} def /gr {grestore} def /f {eofill} def
/c {setrgbcolor} def /black {0 setgray} def /sd {setdash} def
/cl {closepath} def /sf {scalefont setfont} def /lw {setlinewidth} def
/box {m dup 0 exch d exch 0 d 0 exch neg d cl} def
/NC{systemdict begin initclip end}def/C{NC box clip newpath}def
/bl {box s} def /bf {gsave box gsave f grestore 1 lw [] 0 sd s grestore} def /Y { 0 exch d} def /X { 0 d} def 
/K {{pop pop 0 moveto} exch kshow} bind def
/ita {/ang 15 def gsave [1 0 ang dup sin exch cos div 1 0 0] concat} def 
/mp {newpath /y exch def /x exch def} def
/side {[w .77 mul w .23 mul] .385 w mul sd w 0 l currentpoint t -144 r} def
/mr {mp x y w2 0 360 arc} def /m24 {mr s} def /m20 {mr f} def
/mb {mp x y w2 add m w2 neg 0 d 0 w neg d w 0 d 0 w d cl} def
/mt {mp x y w2 add m w2 neg w neg d w 0 d cl} def
/m21 {mb f} def /m25 {mb s} def /m22 {mt f} def /m26{mt s} def
/m23 {mp x y w2 sub m w2 w d w neg 0 d cl f} def
/m27 {mp x y w2 add m w3 neg w2 neg d w3 w2 neg d w3 w2 d cl s} def
/m28 {mp x w2 sub y w2 sub w3 add m w3 0 d  0 w3 neg d w3 0 d 0 w3 d w3 0 d  0 w3 d w3 neg 0 d 0 w3 d w3 neg 0 d 0 w3 neg d w3 neg 0 d cl s } def
/m29 {mp gsave x w2 sub y w2 add w3 sub m currentpoint t 4 {side} repeat cl fill gr} def
/m30 {mp gsave x w2 sub y w2 add w3 sub m currentpoint t 4 {side} repeat cl s gr} def
/m31 {mp x y w2 sub m 0 w d x w2 sub y m w 0 d x w2 sub y w2 add m w w neg d x w2 sub y w2 sub m w w d s} def
/m32 {mp x y w2 sub m w2 w d w neg 0 d cl s} def
/m33 {mp x y w2 add m w3 neg w2 neg d w3 w2 neg d w3 w2 d cl f} def
/m34 {mp x w2 sub y w2 sub w3 add m w3 0 d  0 w3 neg d w3 0 d 0 w3 d w3 0 d  0 w3 d w3 neg 0 d 0 w3 d w3 neg 0 d 0 w3 neg d w3 neg 0 d cl f } def
/m2 {mp x y w2 sub m 0 w d x w2 sub y m w 0 d s} def
/m5 {mp x w2 sub y w2 sub m w w d x w2 sub y w2 add m w w neg d s} def
%%IncludeResource: ProcSet (FontSetInit)
%%IncludeResource: font Times-Roman
%%IncludeResource: font Times-Italic
%%IncludeResource: font Times-Bold
%%IncludeResource: font Times-BoldItalic
%%IncludeResource: font Helvetica
%%IncludeResource: font Helvetica-Oblique
%%IncludeResource: font Helvetica-Bold
%%IncludeResource: font Helvetica-BoldOblique
%%IncludeResource: font Courier
%%IncludeResource: font Courier-Oblique
%%IncludeResource: font Courier-Bold
%%IncludeResource: font Courier-BoldOblique
%%IncludeResource: font Symbol
%%IncludeResource: font ZapfDingbats
/reEncode {exch findfont dup length dict begin {1 index /FID eq  {pop pop} {def} ifelse } forall /Encoding exch def currentdict end dup /FontName get exch definefont pop } def [/Times-Bold /Times-Italic /Times-BoldItalic /Helvetica /Helvetica-Oblique
 /Helvetica-Bold /Helvetica-BoldOblique /Courier /Courier-Oblique /Courier-Bold /Courier-BoldOblique /Times-Roman /AvantGarde-Book /AvantGarde-BookOblique /AvantGarde-Demi /AvantGarde-DemiOblique /Bookman-Demi /Bookman-DemiItalic /Bookman-Light
 /Bookman-LightItalic /Helvetica-Narrow /Helvetica-Narrow-Bold /Helvetica-Narrow-BoldOblique /Helvetica-Narrow-Oblique /NewCenturySchlbk-Roman /NewCenturySchlbk-Bold /NewCenturySchlbk-BoldItalic /NewCenturySchlbk-Italic /Palatino-Bold
 /Palatino-BoldItalic /Palatino-Italic /Palatino-Roman ] {ISOLatin1Encoding reEncode } forall
%%EndProlog
%%BeginSetup
%%EndSetup
newpath  gsave  .25 .25 scale  gsave  0 0 t black[  ] 0 sd 3 lw 1 1 1 c 2268 1538 0 0 bf black 1 1 1 c 1814 1230 227 154 bf black 1814 1230 227 154 bl 1 1 1 c 1814 1230 227 154 bf black 1814 1230 227 154 bl 227 154 m 1814 X s 457 191 m -37 Y s 508
 172 m -18 Y s 558 172 m -18 Y s 609 172 m -18 Y s 660 172 m -18 Y s 711 191 m -37 Y s 761 172 m -18 Y s 812 172 m -18 Y s 863 172 m -18 Y s 913 172 m -18 Y s 964 191 m -37 Y s 1015 172 m -18 Y s 1066 172 m -18 Y s 1116 172 m -18 Y s 1167 172 m -18 Y
 s 1218 191 m -37 Y s 1268 172 m -18 Y s 1319 172 m -18 Y s 1370 172 m -18 Y s 1421 172 m -18 Y s 1471 191 m -37 Y s 1522 172 m -18 Y s 1573 172 m -18 Y s 1623 172 m -18 Y s 1674 172 m -18 Y s 1725 191 m -37 Y s 1776 172 m -18 Y s 1826 172 m -18 Y s
 1877 172 m -18 Y s 1928 172 m -18 Y s 1978 191 m -37 Y s 457 191 m -37 Y s 406 172 m -18 Y s 355 172 m -18 Y s 305 172 m -18 Y s 254 172 m -18 Y s 1978 191 m -37 Y s 2029 172 m -18 Y s
 gsave  2268 1538 0 0 C 423.568 97.7464 t 0 r /Helvetica-Bold findfont 58.6478 sf 0 0 m (50) show NC gr 
 gsave  2268 1538 0 0 C 661.417 97.7464 t 0 r /Helvetica-Bold findfont 58.6478 sf 0 0 m (100) show NC gr 
 gsave  2268 1538 0 0 C 912.3 97.7464 t 0 r /Helvetica-Bold findfont 58.6478 sf 0 0 m (150) show NC gr 
 gsave  2268 1538 0 0 C 1166.44 97.7464 t 0 r /Helvetica-Bold findfont 58.6478 sf 0 0 m (200) show NC gr 
 gsave  2268 1538 0 0 C 1420.58 97.7464 t 0 r /Helvetica-Bold findfont 58.6478 sf 0 0 m (250) show NC gr 
 gsave  2268 1538 0 0 C 1674.72 97.7464 t 0 r /Helvetica-Bold findfont 58.6478 sf 0 0 m (300) show NC gr 
 gsave  2268 1538 0 0 C 1928.86 97.7464 t 0 r /Helvetica-Bold findfont 58.6478 sf 0 0 m (350) show NC gr  227 1384 m 1814 X s 457 1347 m 37 Y s 508 1366 m 18 Y s 558 1366 m 18 Y s 609 1366 m 18 Y s 660 1366 m 18 Y s 711 1347 m 37 Y s 761 1366 m 18 Y
 s 812 1366 m 18 Y s 863 1366 m 18 Y s 913 1366 m 18 Y s 964 1347 m 37 Y s 1015 1366 m 18 Y s 1066 1366 m 18 Y s 1116 1366 m 18 Y s 1167 1366 m 18 Y s 1218 1347 m 37 Y s 1268 1366 m 18 Y s 1319 1366 m 18 Y s 1370 1366 m 18 Y s 1421 1366 m 18 Y s 1471
 1347 m 37 Y s 1522 1366 m 18 Y s 1573 1366 m 18 Y s 1623 1366 m 18 Y s 1674 1366 m 18 Y s 1725 1347 m 37 Y s 1776 1366 m 18 Y s 1826 1366 m 18 Y s 1877 1366 m 18 Y s 1928 1366 m 18 Y s 1978 1347 m 37 Y s 457 1347 m 37 Y s 406 1366 m 18 Y s 355 1366
 m 18 Y s 305 1366 m 18 Y s 254 1366 m 18 Y s 1978 1347 m 37 Y s 2029 1366 m 18 Y s 227 154 m 1230 Y s 281 196 m -54 X s 254 228 m -27 X s 254 261 m -27 X s 254 293 m -27 X s 254 325 m -27 X s 281 357 m -54 X s 254 389 m -27 X s 254 422 m -27 X s 254
 454 m -27 X s 254 486 m -27 X s 281 518 m -54 X s 254 551 m -27 X s 254 583 m -27 X s 254 615 m -27 X s 254 647 m -27 X s 281 679 m -54 X s 254 712 m -27 X s 254 744 m -27 X s 254 776 m -27 X s 254 808 m -27 X s 281 840 m -54 X s 254 873 m -27 X s
 254 905 m -27 X s 254 937 m -27 X s 254 969 m -27 X s 281 1001 m -54 X s 254 1034 m -27 X s 254 1066 m -27 X s 254 1098 m -27 X s 254 1130 m -27 X s 281 1162 m -54 X s 254 1195 m -27 X s 254 1227 m -27 X s 254 1259 m -27 X s 254 1291 m -27 X s 281
 1324 m -54 X s 281 196 m -54 X s 254 164 m -27 X s 281 1324 m -54 X s 254 1356 m -27 X s
 gsave  2268 1538 0 0 C 149.878 175.944 t 0 r /Helvetica-Bold findfont 58.6478 sf 0 0 m (25) show NC gr 
 gsave  2268 1538 0 0 C 149.878 335.596 t 0 r /Helvetica-Bold findfont 58.6478 sf 0 0 m (30) show NC gr 
 gsave  2268 1538 0 0 C 149.878 498.507 t 0 r /Helvetica-Bold findfont 58.6478 sf 0 0 m (35) show NC gr 
 gsave  2268 1538 0 0 C 149.878 658.159 t 0 r /Helvetica-Bold findfont 58.6478 sf 0 0 m (40) show NC gr 
 gsave  2268 1538 0 0 C 149.878 817.812 t 0 r /Helvetica-Bold findfont 58.6478 sf 0 0 m (45) show NC gr 
 gsave  2268 1538 0 0 C 149.878 980.722 t 0 r /Helvetica-Bold findfont 58.6478 sf 0 0 m (50) show NC gr 
 gsave  2268 1538 0 0 C 149.878 1140.37 t 0 r /Helvetica-Bold findfont 58.6478 sf 0 0 m (55) show NC gr 
 gsave  2268 1538 0 0 C 149.878 1303.29 t 0 r /Helvetica-Bold findfont 58.6478 sf 0 0 m (60) show NC gr  2041 154 m 1230 Y s 1987 196 m 54 X s 2014 228 m 27 X s 2014 261 m 27 X s 2014 293 m 27 X s 2014 325 m 27 X s 1987 357 m 54 X s 2014 389 m 27 X s
 2014 422 m 27 X s 2014 454 m 27 X s 2014 486 m 27 X s 1987 518 m 54 X s 2014 551 m 27 X s 2014 583 m 27 X s 2014 615 m 27 X s 2014 647 m 27 X s 1987 679 m 54 X s 2014 712 m 27 X s 2014 744 m 27 X s 2014 776 m 27 X s 2014 808 m 27 X s 1987 840 m 54 X
 s 2014 873 m 27 X s 2014 905 m 27 X s 2014 937 m 27 X s 2014 969 m 27 X s 1987 1001 m 54 X s 2014 1034 m 27 X s 2014 1066 m 27 X s 2014 1098 m 27 X s 2014 1130 m 27 X s 1987 1162 m 54 X s 2014 1195 m 27 X s 2014 1227 m 27 X s 2014 1259 m 27 X s 2014
 1291 m 27 X s 1987 1324 m 54 X s 1987 196 m 54 X s 2014 164 m 27 X s 1987 1324 m 54 X s 2014 1356 m 27 X s 1958 435 m 116 Y s 1952 551 m 13 X s 1958 435 m -116 Y s 1952 319 m 13 X s 1752 383 m 113 Y s 1745 496 m 13 X s 1752 383 m -113 Y s 1745 270 m
 13 X s 1545 306 m 108 Y s 1538 414 m 13 X s 1545 306 m -109 Y s 1538 197 m 13 X s 1332 538 m 121 Y s 1325 659 m 13 X s 1332 538 m -122 Y s 1325 416 m 13 X s 1127 512 m 120 Y s 1120 632 m 13 X s 1127 512 m -120 Y s 1120 392 m 13 X s 911 551 m 122 Y s
 904 673 m 13 X s 911 551 m -123 Y s 904 428 m 13 X s 714 551 m 122 Y s 708 673 m 13 X s 714 551 m -123 Y s 708 428 m 13 X s 506 924 m 141 Y s 500 1065 m 13 X s 506 924 m -140 Y s 500 784 m 13 X s 309 821 m 136 Y s 303 957 m 13 X s 309 821 m -136 Y s
 303 685 m 13 X s 1 1 1 c black 1958 435 m -206 -52 d -207 -77 d -213 232 d -205 -26 d -216 39 d -197 X -208 373 d -197 -103 d s /w 2 def /w2 {w 2 div} def /w3 {w 3 div} def 1958 435 1752 383 1545 306 1332 538 1127 512 911 551 714 551 506 924 309 821
 9 { m20} R
 gsave  2268 1538 0 0 C 1326.09 1172.96 t 0 r /Helvetica-Bold findfont 58.6478 sf 0 0 m (Pixel Occupancies) show NC gr  1124 1192 m 167 X s 1208 1192 m20
 gr  gr showpage
end
%%EOF
