%!PS-Adobe-2.0 EPSF-2.0
%%BoundingBox:  0 0 567 384
%%Title: outputDir/pixel_occupancy/clus_z_pixlayer_2_neg.eps: c1_n46
%%Creator: ROOT Version 6.04/12
%%CreationDate: Mon Apr 25 16:02:14 2016
%%DocumentNeededResources: ProcSet (FontSetInit)
%%EndComments
%%BeginProlog
80 dict begin
/s {stroke} def /l {lineto} def /m {moveto} def /t {translate} def
/r {rotate} def /rl {roll}  def /R {repeat} def
/d {rlineto} def /rm {rmoveto} def /gr {grestore} def /f {eofill} def
/c {setrgbcolor} def /black {0 setgray} def /sd {setdash} def
/cl {closepath} def /sf {scalefont setfont} def /lw {setlinewidth} def
/box {m dup 0 exch d exch 0 d 0 exch neg d cl} def
/NC{systemdict begin initclip end}def/C{NC box clip newpath}def
/bl {box s} def /bf {gsave box gsave f grestore 1 lw [] 0 sd s grestore} def /Y { 0 exch d} def /X { 0 d} def 
/K {{pop pop 0 moveto} exch kshow} bind def
/ita {/ang 15 def gsave [1 0 ang dup sin exch cos div 1 0 0] concat} def 
/mp {newpath /y exch def /x exch def} def
/side {[w .77 mul w .23 mul] .385 w mul sd w 0 l currentpoint t -144 r} def
/mr {mp x y w2 0 360 arc} def /m24 {mr s} def /m20 {mr f} def
/mb {mp x y w2 add m w2 neg 0 d 0 w neg d w 0 d 0 w d cl} def
/mt {mp x y w2 add m w2 neg w neg d w 0 d cl} def
/m21 {mb f} def /m25 {mb s} def /m22 {mt f} def /m26{mt s} def
/m23 {mp x y w2 sub m w2 w d w neg 0 d cl f} def
/m27 {mp x y w2 add m w3 neg w2 neg d w3 w2 neg d w3 w2 d cl s} def
/m28 {mp x w2 sub y w2 sub w3 add m w3 0 d  0 w3 neg d w3 0 d 0 w3 d w3 0 d  0 w3 d w3 neg 0 d 0 w3 d w3 neg 0 d 0 w3 neg d w3 neg 0 d cl s } def
/m29 {mp gsave x w2 sub y w2 add w3 sub m currentpoint t 4 {side} repeat cl fill gr} def
/m30 {mp gsave x w2 sub y w2 add w3 sub m currentpoint t 4 {side} repeat cl s gr} def
/m31 {mp x y w2 sub m 0 w d x w2 sub y m w 0 d x w2 sub y w2 add m w w neg d x w2 sub y w2 sub m w w d s} def
/m32 {mp x y w2 sub m w2 w d w neg 0 d cl s} def
/m33 {mp x y w2 add m w3 neg w2 neg d w3 w2 neg d w3 w2 d cl f} def
/m34 {mp x w2 sub y w2 sub w3 add m w3 0 d  0 w3 neg d w3 0 d 0 w3 d w3 0 d  0 w3 d w3 neg 0 d 0 w3 d w3 neg 0 d 0 w3 neg d w3 neg 0 d cl f } def
/m2 {mp x y w2 sub m 0 w d x w2 sub y m w 0 d s} def
/m5 {mp x w2 sub y w2 sub m w w d x w2 sub y w2 add m w w neg d s} def
%%IncludeResource: ProcSet (FontSetInit)
%%IncludeResource: font Times-Roman
%%IncludeResource: font Times-Italic
%%IncludeResource: font Times-Bold
%%IncludeResource: font Times-BoldItalic
%%IncludeResource: font Helvetica
%%IncludeResource: font Helvetica-Oblique
%%IncludeResource: font Helvetica-Bold
%%IncludeResource: font Helvetica-BoldOblique
%%IncludeResource: font Courier
%%IncludeResource: font Courier-Oblique
%%IncludeResource: font Courier-Bold
%%IncludeResource: font Courier-BoldOblique
%%IncludeResource: font Symbol
%%IncludeResource: font ZapfDingbats
/reEncode {exch findfont dup length dict begin {1 index /FID eq  {pop pop} {def} ifelse } forall /Encoding exch def currentdict end dup /FontName get exch definefont pop } def [/Times-Bold /Times-Italic /Times-BoldItalic /Helvetica /Helvetica-Oblique
 /Helvetica-Bold /Helvetica-BoldOblique /Courier /Courier-Oblique /Courier-Bold /Courier-BoldOblique /Times-Roman /AvantGarde-Book /AvantGarde-BookOblique /AvantGarde-Demi /AvantGarde-DemiOblique /Bookman-Demi /Bookman-DemiItalic /Bookman-Light
 /Bookman-LightItalic /Helvetica-Narrow /Helvetica-Narrow-Bold /Helvetica-Narrow-BoldOblique /Helvetica-Narrow-Oblique /NewCenturySchlbk-Roman /NewCenturySchlbk-Bold /NewCenturySchlbk-BoldItalic /NewCenturySchlbk-Italic /Palatino-Bold
 /Palatino-BoldItalic /Palatino-Italic /Palatino-Roman ] {ISOLatin1Encoding reEncode } forall
%%EndProlog
%%BeginSetup
%%EndSetup
newpath  gsave  .25 .25 scale  gsave  0 0 t black[  ] 0 sd 3 lw 1 1 1 c 2268 1538 0 0 bf black 1 1 1 c 1814 1230 227 154 bf black 1814 1230 227 154 bl 1 1 1 c 1814 1230 227 154 bf black 1814 1230 227 154 bl 227 154 m 1814 X s 456 191 m -37 Y s 506
 172 m -18 Y s 557 172 m -18 Y s 608 172 m -18 Y s 659 172 m -18 Y s 709 191 m -37 Y s 760 172 m -18 Y s 811 172 m -18 Y s 862 172 m -18 Y s 912 172 m -18 Y s 963 191 m -37 Y s 1014 172 m -18 Y s 1065 172 m -18 Y s 1115 172 m -18 Y s 1166 172 m -18 Y
 s 1217 191 m -37 Y s 1268 172 m -18 Y s 1318 172 m -18 Y s 1369 172 m -18 Y s 1420 172 m -18 Y s 1471 191 m -37 Y s 1521 172 m -18 Y s 1572 172 m -18 Y s 1623 172 m -18 Y s 1674 172 m -18 Y s 1724 191 m -37 Y s 1775 172 m -18 Y s 1826 172 m -18 Y s
 1877 172 m -18 Y s 1927 172 m -18 Y s 1978 191 m -37 Y s 456 191 m -37 Y s 405 172 m -18 Y s 354 172 m -18 Y s 303 172 m -18 Y s 253 172 m -18 Y s 1978 191 m -37 Y s 2029 172 m -18 Y s
 gsave  2268 1538 0 0 C 420.31 97.7464 t 0 r /Helvetica-Bold findfont 58.6478 sf 0 0 m (50) show NC gr 
 gsave  2268 1538 0 0 C 658.159 97.7464 t 0 r /Helvetica-Bold findfont 58.6478 sf 0 0 m (100) show NC gr 
 gsave  2268 1538 0 0 C 912.3 97.7464 t 0 r /Helvetica-Bold findfont 58.6478 sf 0 0 m (150) show NC gr 
 gsave  2268 1538 0 0 C 1166.44 97.7464 t 0 r /Helvetica-Bold findfont 58.6478 sf 0 0 m (200) show NC gr 
 gsave  2268 1538 0 0 C 1420.58 97.7464 t 0 r /Helvetica-Bold findfont 58.6478 sf 0 0 m (250) show NC gr 
 gsave  2268 1538 0 0 C 1674.72 97.7464 t 0 r /Helvetica-Bold findfont 58.6478 sf 0 0 m (300) show NC gr 
 gsave  2268 1538 0 0 C 1928.86 97.7464 t 0 r /Helvetica-Bold findfont 58.6478 sf 0 0 m (350) show NC gr  227 1384 m 1814 X s 456 1347 m 37 Y s 506 1366 m 18 Y s 557 1366 m 18 Y s 608 1366 m 18 Y s 659 1366 m 18 Y s 709 1347 m 37 Y s 760 1366 m 18 Y
 s 811 1366 m 18 Y s 862 1366 m 18 Y s 912 1366 m 18 Y s 963 1347 m 37 Y s 1014 1366 m 18 Y s 1065 1366 m 18 Y s 1115 1366 m 18 Y s 1166 1366 m 18 Y s 1217 1347 m 37 Y s 1268 1366 m 18 Y s 1318 1366 m 18 Y s 1369 1366 m 18 Y s 1420 1366 m 18 Y s 1471
 1347 m 37 Y s 1521 1366 m 18 Y s 1572 1366 m 18 Y s 1623 1366 m 18 Y s 1674 1366 m 18 Y s 1724 1347 m 37 Y s 1775 1366 m 18 Y s 1826 1366 m 18 Y s 1877 1366 m 18 Y s 1927 1366 m 18 Y s 1978 1347 m 37 Y s 456 1347 m 37 Y s 405 1366 m 18 Y s 354 1366
 m 18 Y s 303 1366 m 18 Y s 253 1366 m 18 Y s 1978 1347 m 37 Y s 2029 1366 m 18 Y s 227 154 m 1230 Y s 281 178 m -54 X s 254 215 m -27 X s 254 253 m -27 X s 254 291 m -27 X s 254 328 m -27 X s 281 366 m -54 X s 254 403 m -27 X s 254 441 m -27 X s 254
 479 m -27 X s 254 516 m -27 X s 281 554 m -54 X s 254 592 m -27 X s 254 629 m -27 X s 254 667 m -27 X s 254 704 m -27 X s 281 742 m -54 X s 254 780 m -27 X s 254 817 m -27 X s 254 855 m -27 X s 254 893 m -27 X s 281 930 m -54 X s 254 968 m -27 X s
 254 1006 m -27 X s 254 1043 m -27 X s 254 1081 m -27 X s 281 1118 m -54 X s 254 1156 m -27 X s 254 1194 m -27 X s 254 1231 m -27 X s 254 1269 m -27 X s 281 1307 m -54 X s 281 178 m -54 X s 281 1307 m -54 X s 254 1344 m -27 X s 254 1382 m -27 X s
 gsave  2268 1538 0 0 C 149.878 156.394 t 0 r /Helvetica-Bold findfont 58.6478 sf 0 0 m (30) show NC gr 
 gsave  2268 1538 0 0 C 149.878 345.371 t 0 r /Helvetica-Bold findfont 58.6478 sf 0 0 m (40) show NC gr 
 gsave  2268 1538 0 0 C 149.878 534.347 t 0 r /Helvetica-Bold findfont 58.6478 sf 0 0 m (50) show NC gr 
 gsave  2268 1538 0 0 C 149.878 720.065 t 0 r /Helvetica-Bold findfont 58.6478 sf 0 0 m (60) show NC gr 
 gsave  2268 1538 0 0 C 149.878 909.042 t 0 r /Helvetica-Bold findfont 58.6478 sf 0 0 m (70) show NC gr 
 gsave  2268 1538 0 0 C 149.878 1098.02 t 0 r /Helvetica-Bold findfont 58.6478 sf 0 0 m (80) show NC gr 
 gsave  2268 1538 0 0 C 149.878 1286.99 t 0 r /Helvetica-Bold findfont 58.6478 sf 0 0 m (90) show NC gr  2041 154 m 1230 Y s 1987 178 m 54 X s 2014 215 m 27 X s 2014 253 m 27 X s 2014 291 m 27 X s 2014 328 m 27 X s 1987 366 m 54 X s 2014 403 m 27 X s
 2014 441 m 27 X s 2014 479 m 27 X s 2014 516 m 27 X s 1987 554 m 54 X s 2014 592 m 27 X s 2014 629 m 27 X s 2014 667 m 27 X s 2014 704 m 27 X s 1987 742 m 54 X s 2014 780 m 27 X s 2014 817 m 27 X s 2014 855 m 27 X s 2014 893 m 27 X s 1987 930 m 54 X
 s 2014 968 m 27 X s 2014 1006 m 27 X s 2014 1043 m 27 X s 2014 1081 m 27 X s 1987 1118 m 54 X s 2014 1156 m 27 X s 2014 1194 m 27 X s 2014 1231 m 27 X s 2014 1269 m 27 X s 1987 1307 m 54 X s 1987 178 m 54 X s 1987 1307 m 54 X s 2014 1344 m 27 X s
 2014 1382 m 27 X s 1958 358 m 75 Y s 1952 433 m 13 X s 1958 358 m -75 Y s 1952 283 m 13 X s 1738 268 m 70 Y s 1731 338 m 13 X s 1738 268 m -70 Y s 1731 198 m 13 X s 1530 411 m 77 Y s 1524 488 m 13 X s 1530 411 m -78 Y s 1524 333 m 13 X s 1327 403 m
 78 Y s 1320 481 m 13 X s 1327 403 m -77 Y s 1320 326 m 13 X s 1143 546 m 84 Y s 1136 630 m 14 X s 1143 546 m -83 Y s 1136 463 m 14 X s 929 712 m 91 Y s 922 803 m 13 X s 929 712 m -91 Y s 922 621 m 13 X s 708 735 m 91 Y s 702 826 m 13 X s 708 735 m
 -92 Y s 702 643 m 13 X s 505 735 m 91 Y s 498 826 m 13 X s 505 735 m -92 Y s 498 643 m 13 X s 309 975 m 102 Y s 303 1077 m 13 X s 309 975 m -101 Y s 303 874 m 13 X s 1 1 1 c black 1958 358 m -220 -90 d -208 143 d -203 -8 d -184 143 d -214 166 d -221
 23 d -203 X -196 240 d s /w 2 def /w2 {w 2 div} def /w3 {w 3 div} def 1958 358 1738 268 1530 411 1327 403 1143 546 929 712 708 735 505 735 309 975 9 { m20} R
 gsave  2268 1538 0 0 C 1326.09 1172.96 t 0 r /Helvetica-Bold findfont 58.6478 sf 0 0 m (Pixel Occupancies) show NC gr  1124 1192 m 167 X s 1208 1192 m20
 gr  gr showpage
end
%%EOF
