%!PS-Adobe-2.0 EPSF-2.0
%%BoundingBox:  0 0 567 384
%%Title: outputDir/pixel_occupancy/clus_z_pixlayer_0_neg.eps: c1_n48
%%Creator: ROOT Version 6.04/12
%%CreationDate: Mon Apr 25 16:02:14 2016
%%DocumentNeededResources: ProcSet (FontSetInit)
%%EndComments
%%BeginProlog
80 dict begin
/s {stroke} def /l {lineto} def /m {moveto} def /t {translate} def
/r {rotate} def /rl {roll}  def /R {repeat} def
/d {rlineto} def /rm {rmoveto} def /gr {grestore} def /f {eofill} def
/c {setrgbcolor} def /black {0 setgray} def /sd {setdash} def
/cl {closepath} def /sf {scalefont setfont} def /lw {setlinewidth} def
/box {m dup 0 exch d exch 0 d 0 exch neg d cl} def
/NC{systemdict begin initclip end}def/C{NC box clip newpath}def
/bl {box s} def /bf {gsave box gsave f grestore 1 lw [] 0 sd s grestore} def /Y { 0 exch d} def /X { 0 d} def 
/K {{pop pop 0 moveto} exch kshow} bind def
/ita {/ang 15 def gsave [1 0 ang dup sin exch cos div 1 0 0] concat} def 
/mp {newpath /y exch def /x exch def} def
/side {[w .77 mul w .23 mul] .385 w mul sd w 0 l currentpoint t -144 r} def
/mr {mp x y w2 0 360 arc} def /m24 {mr s} def /m20 {mr f} def
/mb {mp x y w2 add m w2 neg 0 d 0 w neg d w 0 d 0 w d cl} def
/mt {mp x y w2 add m w2 neg w neg d w 0 d cl} def
/m21 {mb f} def /m25 {mb s} def /m22 {mt f} def /m26{mt s} def
/m23 {mp x y w2 sub m w2 w d w neg 0 d cl f} def
/m27 {mp x y w2 add m w3 neg w2 neg d w3 w2 neg d w3 w2 d cl s} def
/m28 {mp x w2 sub y w2 sub w3 add m w3 0 d  0 w3 neg d w3 0 d 0 w3 d w3 0 d  0 w3 d w3 neg 0 d 0 w3 d w3 neg 0 d 0 w3 neg d w3 neg 0 d cl s } def
/m29 {mp gsave x w2 sub y w2 add w3 sub m currentpoint t 4 {side} repeat cl fill gr} def
/m30 {mp gsave x w2 sub y w2 add w3 sub m currentpoint t 4 {side} repeat cl s gr} def
/m31 {mp x y w2 sub m 0 w d x w2 sub y m w 0 d x w2 sub y w2 add m w w neg d x w2 sub y w2 sub m w w d s} def
/m32 {mp x y w2 sub m w2 w d w neg 0 d cl s} def
/m33 {mp x y w2 add m w3 neg w2 neg d w3 w2 neg d w3 w2 d cl f} def
/m34 {mp x w2 sub y w2 sub w3 add m w3 0 d  0 w3 neg d w3 0 d 0 w3 d w3 0 d  0 w3 d w3 neg 0 d 0 w3 d w3 neg 0 d 0 w3 neg d w3 neg 0 d cl f } def
/m2 {mp x y w2 sub m 0 w d x w2 sub y m w 0 d s} def
/m5 {mp x w2 sub y w2 sub m w w d x w2 sub y w2 add m w w neg d s} def
%%IncludeResource: ProcSet (FontSetInit)
%%IncludeResource: font Times-Roman
%%IncludeResource: font Times-Italic
%%IncludeResource: font Times-Bold
%%IncludeResource: font Times-BoldItalic
%%IncludeResource: font Helvetica
%%IncludeResource: font Helvetica-Oblique
%%IncludeResource: font Helvetica-Bold
%%IncludeResource: font Helvetica-BoldOblique
%%IncludeResource: font Courier
%%IncludeResource: font Courier-Oblique
%%IncludeResource: font Courier-Bold
%%IncludeResource: font Courier-BoldOblique
%%IncludeResource: font Symbol
%%IncludeResource: font ZapfDingbats
/reEncode {exch findfont dup length dict begin {1 index /FID eq  {pop pop} {def} ifelse } forall /Encoding exch def currentdict end dup /FontName get exch definefont pop } def [/Times-Bold /Times-Italic /Times-BoldItalic /Helvetica /Helvetica-Oblique
 /Helvetica-Bold /Helvetica-BoldOblique /Courier /Courier-Oblique /Courier-Bold /Courier-BoldOblique /Times-Roman /AvantGarde-Book /AvantGarde-BookOblique /AvantGarde-Demi /AvantGarde-DemiOblique /Bookman-Demi /Bookman-DemiItalic /Bookman-Light
 /Bookman-LightItalic /Helvetica-Narrow /Helvetica-Narrow-Bold /Helvetica-Narrow-BoldOblique /Helvetica-Narrow-Oblique /NewCenturySchlbk-Roman /NewCenturySchlbk-Bold /NewCenturySchlbk-BoldItalic /NewCenturySchlbk-Italic /Palatino-Bold
 /Palatino-BoldItalic /Palatino-Italic /Palatino-Roman ] {ISOLatin1Encoding reEncode } forall
%%EndProlog
%%BeginSetup
%%EndSetup
newpath  gsave  .25 .25 scale  gsave  0 0 t black[  ] 0 sd 3 lw 1 1 1 c 2268 1538 0 0 bf black 1 1 1 c 1814 1230 227 154 bf black 1814 1230 227 154 bl 1 1 1 c 1814 1230 227 154 bf black 1814 1230 227 154 bl 227 154 m 1814 X s 458 191 m -37 Y s 508
 172 m -18 Y s 558 172 m -18 Y s 608 172 m -18 Y s 658 172 m -18 Y s 708 191 m -37 Y s 758 172 m -18 Y s 808 172 m -18 Y s 858 172 m -18 Y s 907 172 m -18 Y s 957 191 m -37 Y s 1007 172 m -18 Y s 1057 172 m -18 Y s 1107 172 m -18 Y s 1157 172 m -18 Y
 s 1207 191 m -37 Y s 1257 172 m -18 Y s 1307 172 m -18 Y s 1357 172 m -18 Y s 1407 172 m -18 Y s 1457 191 m -37 Y s 1507 172 m -18 Y s 1557 172 m -18 Y s 1607 172 m -18 Y s 1657 172 m -18 Y s 1707 191 m -37 Y s 1757 172 m -18 Y s 1807 172 m -18 Y s
 1857 172 m -18 Y s 1907 172 m -18 Y s 1957 191 m -37 Y s 458 191 m -37 Y s 408 172 m -18 Y s 358 172 m -18 Y s 308 172 m -18 Y s 258 172 m -18 Y s 1957 191 m -37 Y s 2007 172 m -18 Y s
 gsave  2268 1538 0 0 C 407.277 97.7464 t 0 r /Helvetica-Bold findfont 58.6478 sf 0 0 m (100) show NC gr 
 gsave  2268 1538 0 0 C 658.159 97.7464 t 0 r /Helvetica-Bold findfont 58.6478 sf 0 0 m (200) show NC gr 
 gsave  2268 1538 0 0 C 905.783 97.7464 t 0 r /Helvetica-Bold findfont 58.6478 sf 0 0 m (300) show NC gr 
 gsave  2268 1538 0 0 C 1156.67 97.7464 t 0 r /Helvetica-Bold findfont 58.6478 sf 0 0 m (400) show NC gr 
 gsave  2268 1538 0 0 C 1407.55 97.7464 t 0 r /Helvetica-Bold findfont 58.6478 sf 0 0 m (500) show NC gr 
 gsave  2268 1538 0 0 C 1655.17 97.7464 t 0 r /Helvetica-Bold findfont 58.6478 sf 0 0 m (600) show NC gr 
 gsave  2268 1538 0 0 C 1906.05 97.7464 t 0 r /Helvetica-Bold findfont 58.6478 sf 0 0 m (700) show NC gr  227 1384 m 1814 X s 458 1347 m 37 Y s 508 1366 m 18 Y s 558 1366 m 18 Y s 608 1366 m 18 Y s 658 1366 m 18 Y s 708 1347 m 37 Y s 758 1366 m 18 Y
 s 808 1366 m 18 Y s 858 1366 m 18 Y s 907 1366 m 18 Y s 957 1347 m 37 Y s 1007 1366 m 18 Y s 1057 1366 m 18 Y s 1107 1366 m 18 Y s 1157 1366 m 18 Y s 1207 1347 m 37 Y s 1257 1366 m 18 Y s 1307 1366 m 18 Y s 1357 1366 m 18 Y s 1407 1366 m 18 Y s 1457
 1347 m 37 Y s 1507 1366 m 18 Y s 1557 1366 m 18 Y s 1607 1366 m 18 Y s 1657 1366 m 18 Y s 1707 1347 m 37 Y s 1757 1366 m 18 Y s 1807 1366 m 18 Y s 1857 1366 m 18 Y s 1907 1366 m 18 Y s 1957 1347 m 37 Y s 458 1347 m 37 Y s 408 1366 m 18 Y s 358 1366
 m 18 Y s 308 1366 m 18 Y s 258 1366 m 18 Y s 1957 1347 m 37 Y s 2007 1366 m 18 Y s 227 154 m 1230 Y s 281 178 m -54 X s 254 214 m -27 X s 254 251 m -27 X s 254 287 m -27 X s 281 323 m -54 X s 254 360 m -27 X s 254 396 m -27 X s 254 432 m -27 X s 281
 469 m -54 X s 254 505 m -27 X s 254 541 m -27 X s 254 578 m -27 X s 281 614 m -54 X s 254 650 m -27 X s 254 687 m -27 X s 254 723 m -27 X s 281 759 m -54 X s 254 796 m -27 X s 254 832 m -27 X s 254 868 m -27 X s 281 905 m -54 X s 254 941 m -27 X s
 254 977 m -27 X s 254 1014 m -27 X s 281 1050 m -54 X s 254 1086 m -27 X s 254 1123 m -27 X s 254 1159 m -27 X s 281 1195 m -54 X s 254 1232 m -27 X s 254 1268 m -27 X s 254 1304 m -27 X s 281 1341 m -54 X s 281 178 m -54 X s 281 1341 m -54 X s 254
 1377 m -27 X s
 gsave  2268 1538 0 0 C 149.878 156.394 t 0 r /Helvetica-Bold findfont 58.6478 sf 0 0 m (80) show NC gr 
 gsave  2268 1538 0 0 C 117.296 303.014 t 0 r /Helvetica-Bold findfont 58.6478 sf 0 0 m (100) show NC gr 
 gsave  2268 1538 0 0 C 117.296 446.375 t 0 r /Helvetica-Bold findfont 58.6478 sf 0 0 m (120) show NC gr 
 gsave  2268 1538 0 0 C 117.296 592.995 t 0 r /Helvetica-Bold findfont 58.6478 sf 0 0 m (140) show NC gr 
 gsave  2268 1538 0 0 C 117.296 739.614 t 0 r /Helvetica-Bold findfont 58.6478 sf 0 0 m (160) show NC gr 
 gsave  2268 1538 0 0 C 117.296 882.976 t 0 r /Helvetica-Bold findfont 58.6478 sf 0 0 m (180) show NC gr 
 gsave  2268 1538 0 0 C 117.296 1029.6 t 0 r /Helvetica-Bold findfont 58.6478 sf 0 0 m (200) show NC gr 
 gsave  2268 1538 0 0 C 117.296 1172.96 t 0 r /Helvetica-Bold findfont 58.6478 sf 0 0 m (220) show NC gr 
 gsave  2268 1538 0 0 C 117.296 1319.58 t 0 r /Helvetica-Bold findfont 58.6478 sf 0 0 m (240) show NC gr  2041 154 m 1230 Y s 1987 178 m 54 X s 2014 214 m 27 X s 2014 251 m 27 X s 2014 287 m 27 X s 1987 323 m 54 X s 2014 360 m 27 X s 2014 396 m 27 X
 s 2014 432 m 27 X s 1987 469 m 54 X s 2014 505 m 27 X s 2014 541 m 27 X s 2014 578 m 27 X s 1987 614 m 54 X s 2014 650 m 27 X s 2014 687 m 27 X s 2014 723 m 27 X s 1987 759 m 54 X s 2014 796 m 27 X s 2014 832 m 27 X s 2014 868 m 27 X s 1987 905 m 54
 X s 2014 941 m 27 X s 2014 977 m 27 X s 2014 1014 m 27 X s 1987 1050 m 54 X s 2014 1086 m 27 X s 2014 1123 m 27 X s 2014 1159 m 27 X s 1987 1195 m 54 X s 2014 1232 m 27 X s 2014 1268 m 27 X s 2014 1304 m 27 X s 1987 1341 m 54 X s 1987 178 m 54 X s
 1987 1341 m 54 X s 2014 1377 m 27 X s 1958 370 m 47 Y s 1952 417 m 13 X s 1958 370 m -48 Y s 1952 322 m 13 X s 1813 387 m 48 Y s 1807 435 m 13 X s 1813 387 m -48 Y s 1807 339 m 13 X s 1679 422 m 49 Y s 1673 471 m 13 X s 1679 422 m -49 Y s 1673 373 m
 13 X s 1503 303 m 45 Y s 1496 348 m 13 X s 1503 303 m -45 Y s 1496 258 m 13 X s 1353 303 m 45 Y s 1347 348 m 13 X s 1353 303 m -45 Y s 1347 258 m 13 X s 1225 277 m 44 Y s 1219 321 m 13 X s 1225 277 m -45 Y s 1219 232 m 13 X s 1117 341 m 46 Y s 1111
 387 m 13 X s 1117 341 m -47 Y s 1111 294 m 13 X s 1025 370 m 47 Y s 1019 417 m 13 X s 1025 370 m -48 Y s 1019 322 m 13 X s 933 285 m 45 Y s 927 330 m 13 X s 933 285 m -44 Y s 927 241 m 13 X s 804 341 m 46 Y s 797 387 m 13 X s 804 341 m -47 Y s 797
 294 m 13 X s 712 323 m 46 Y s 706 369 m 13 X s 712 323 m -46 Y s 706 277 m 13 X s 610 239 m 43 Y s 604 282 m 13 X s 610 239 m -43 Y s 604 196 m 13 X s 512 535 m 53 Y s 506 588 m 13 X s 512 535 m -52 Y s 506 483 m 13 X s 408 817 m 60 Y s 401 877 m 13
 X s 408 817 m -59 Y s 401 758 m 13 X s 309 972 m 63 Y s 303 1035 m 13 X s 309 972 m -64 Y s 303 908 m 13 X s 1 1 1 c black 1958 370 m -145 17 d -134 35 d -176 -119 d -150 X -128 -26 d -108 64 d -92 29 d -92 -85 d -129 56 d -92 -18 d -102 -84 d -98
 296 d -104 282 d -99 155 d s /w 2 def /w2 {w 2 div} def /w3 {w 3 div} def 1958 370 1813 387 1679 422 1503 303 1353 303 1225 277 1117 341 1025 370 933 285 804 341 712 323 610 239 512 535 408 817 309 972 15 { m20} R
 gsave  2268 1538 0 0 C 1326.09 1172.96 t 0 r /Helvetica-Bold findfont 58.6478 sf 0 0 m (Pixel Occupancies) show NC gr  1124 1192 m 167 X s 1208 1192 m20
 gr  gr showpage
end
%%EOF
