%!PS-Adobe-2.0 EPSF-2.0
%%BoundingBox:  0 0 567 384
%%Title: outputDir/pixel_occupancy/clus_pixdisk_mgr.eps: c1_n15
%%Creator: ROOT Version 6.04/12
%%CreationDate: Mon Apr 25 16:02:06 2016
%%DocumentNeededResources: ProcSet (FontSetInit)
%%EndComments
%%BeginProlog
80 dict begin
/s {stroke} def /l {lineto} def /m {moveto} def /t {translate} def
/r {rotate} def /rl {roll}  def /R {repeat} def
/d {rlineto} def /rm {rmoveto} def /gr {grestore} def /f {eofill} def
/c {setrgbcolor} def /black {0 setgray} def /sd {setdash} def
/cl {closepath} def /sf {scalefont setfont} def /lw {setlinewidth} def
/box {m dup 0 exch d exch 0 d 0 exch neg d cl} def
/NC{systemdict begin initclip end}def/C{NC box clip newpath}def
/bl {box s} def /bf {gsave box gsave f grestore 1 lw [] 0 sd s grestore} def /Y { 0 exch d} def /X { 0 d} def 
/K {{pop pop 0 moveto} exch kshow} bind def
/ita {/ang 15 def gsave [1 0 ang dup sin exch cos div 1 0 0] concat} def 
/mp {newpath /y exch def /x exch def} def
/side {[w .77 mul w .23 mul] .385 w mul sd w 0 l currentpoint t -144 r} def
/mr {mp x y w2 0 360 arc} def /m24 {mr s} def /m20 {mr f} def
/mb {mp x y w2 add m w2 neg 0 d 0 w neg d w 0 d 0 w d cl} def
/mt {mp x y w2 add m w2 neg w neg d w 0 d cl} def
/m21 {mb f} def /m25 {mb s} def /m22 {mt f} def /m26{mt s} def
/m23 {mp x y w2 sub m w2 w d w neg 0 d cl f} def
/m27 {mp x y w2 add m w3 neg w2 neg d w3 w2 neg d w3 w2 d cl s} def
/m28 {mp x w2 sub y w2 sub w3 add m w3 0 d  0 w3 neg d w3 0 d 0 w3 d w3 0 d  0 w3 d w3 neg 0 d 0 w3 d w3 neg 0 d 0 w3 neg d w3 neg 0 d cl s } def
/m29 {mp gsave x w2 sub y w2 add w3 sub m currentpoint t 4 {side} repeat cl fill gr} def
/m30 {mp gsave x w2 sub y w2 add w3 sub m currentpoint t 4 {side} repeat cl s gr} def
/m31 {mp x y w2 sub m 0 w d x w2 sub y m w 0 d x w2 sub y w2 add m w w neg d x w2 sub y w2 sub m w w d s} def
/m32 {mp x y w2 sub m w2 w d w neg 0 d cl s} def
/m33 {mp x y w2 add m w3 neg w2 neg d w3 w2 neg d w3 w2 d cl f} def
/m34 {mp x w2 sub y w2 sub w3 add m w3 0 d  0 w3 neg d w3 0 d 0 w3 d w3 0 d  0 w3 d w3 neg 0 d 0 w3 d w3 neg 0 d 0 w3 neg d w3 neg 0 d cl f } def
/m2 {mp x y w2 sub m 0 w d x w2 sub y m w 0 d s} def
/m5 {mp x w2 sub y w2 sub m w w d x w2 sub y w2 add m w w neg d s} def
%%IncludeResource: ProcSet (FontSetInit)
%%IncludeResource: font Times-Roman
%%IncludeResource: font Times-Italic
%%IncludeResource: font Times-Bold
%%IncludeResource: font Times-BoldItalic
%%IncludeResource: font Helvetica
%%IncludeResource: font Helvetica-Oblique
%%IncludeResource: font Helvetica-Bold
%%IncludeResource: font Helvetica-BoldOblique
%%IncludeResource: font Courier
%%IncludeResource: font Courier-Oblique
%%IncludeResource: font Courier-Bold
%%IncludeResource: font Courier-BoldOblique
%%IncludeResource: font Symbol
%%IncludeResource: font ZapfDingbats
/reEncode {exch findfont dup length dict begin {1 index /FID eq  {pop pop} {def} ifelse } forall /Encoding exch def currentdict end dup /FontName get exch definefont pop } def [/Times-Bold /Times-Italic /Times-BoldItalic /Helvetica /Helvetica-Oblique
 /Helvetica-Bold /Helvetica-BoldOblique /Courier /Courier-Oblique /Courier-Bold /Courier-BoldOblique /Times-Roman /AvantGarde-Book /AvantGarde-BookOblique /AvantGarde-Demi /AvantGarde-DemiOblique /Bookman-Demi /Bookman-DemiItalic /Bookman-Light
 /Bookman-LightItalic /Helvetica-Narrow /Helvetica-Narrow-Bold /Helvetica-Narrow-BoldOblique /Helvetica-Narrow-Oblique /NewCenturySchlbk-Roman /NewCenturySchlbk-Bold /NewCenturySchlbk-BoldItalic /NewCenturySchlbk-Italic /Palatino-Bold
 /Palatino-BoldItalic /Palatino-Italic /Palatino-Roman ] {ISOLatin1Encoding reEncode } forall
%%EndProlog
%%BeginSetup
%%EndSetup
newpath  gsave  .25 .25 scale  gsave  0 0 t black[  ] 0 sd 3 lw 1 1 1 c 2268 1538 0 0 bf black 1 1 1 c 1814 1230 227 154 bf black 1814 1230 227 154 bl 1 1 1 c 1814 1230 227 154 bf black 1814 1230 227 154 bl 227 154 m 1814 X s
 gsave  2268 1538 0 0 C 1860.44 35.8403 t 0 r /Helvetica-Bold findfont 58.6478 sf 0 0 m (r [mm]) show NC gr  333 191 m -37 Y s 415 172 m -18 Y s 498 172 m -18 Y s 580 172 m -18 Y s 662 172 m -18 Y s 745 191 m -37 Y s 827 172 m -18 Y s 909 172 m -18 Y
 s 992 172 m -18 Y s 1074 172 m -18 Y s 1156 191 m -37 Y s 1239 172 m -18 Y s 1321 172 m -18 Y s 1403 172 m -18 Y s 1486 172 m -18 Y s 1568 191 m -37 Y s 1650 172 m -18 Y s 1733 172 m -18 Y s 1815 172 m -18 Y s 1897 172 m -18 Y s 1980 191 m -37 Y s
 333 191 m -37 Y s 251 172 m -18 Y s 1980 191 m -37 Y s
 gsave  2268 1538 0 0 C 283.465 97.7464 t 0 r /Helvetica-Bold findfont 58.6478 sf 0 0 m (100) show NC gr 
 gsave  2268 1538 0 0 C 693.999 97.7464 t 0 r /Helvetica-Bold findfont 58.6478 sf 0 0 m (150) show NC gr 
 gsave  2268 1538 0 0 C 1104.53 97.7464 t 0 r /Helvetica-Bold findfont 58.6478 sf 0 0 m (200) show NC gr 
 gsave  2268 1538 0 0 C 1518.33 97.7464 t 0 r /Helvetica-Bold findfont 58.6478 sf 0 0 m (250) show NC gr 
 gsave  2268 1538 0 0 C 1928.86 97.7464 t 0 r /Helvetica-Bold findfont 58.6478 sf 0 0 m (300) show NC gr  227 1384 m 1814 X s 333 1347 m 37 Y s 415 1366 m 18 Y s 498 1366 m 18 Y s 580 1366 m 18 Y s 662 1366 m 18 Y s 745 1347 m 37 Y s 827 1366 m 18 Y
 s 909 1366 m 18 Y s 992 1366 m 18 Y s 1074 1366 m 18 Y s 1156 1347 m 37 Y s 1239 1366 m 18 Y s 1321 1366 m 18 Y s 1403 1366 m 18 Y s 1486 1366 m 18 Y s 1568 1347 m 37 Y s 1650 1366 m 18 Y s 1733 1366 m 18 Y s 1815 1366 m 18 Y s 1897 1366 m 18 Y s
 1980 1347 m 37 Y s 333 1347 m 37 Y s 251 1366 m 18 Y s 1980 1347 m 37 Y s 227 154 m 1230 Y s
 gsave  2268 1538 0 0 C 97.7464 710.291 t 90 r /Helvetica-Bold findfont 58.6478 sf 0 0 m (Cluster per etaModuleID) show NC gr  281 282 m -54 X s 254 336 m -27 X s 254 390 m -27 X s 254 444 m -27 X s 254 497 m -27 X s 281 551 m -54 X s 254 605 m -27 X
 s 254 659 m -27 X s 254 712 m -27 X s 254 766 m -27 X s 281 820 m -54 X s 254 874 m -27 X s 254 928 m -27 X s 254 981 m -27 X s 254 1035 m -27 X s 281 1089 m -54 X s 254 1143 m -27 X s 254 1196 m -27 X s 254 1250 m -27 X s 254 1304 m -27 X s 281
 1358 m -54 X s 281 282 m -54 X s 254 228 m -27 X s 254 175 m -27 X s 281 1358 m -54 X s
 gsave  2268 1538 0 0 C 149.878 260.657 t 0 r /Helvetica-Bold findfont 58.6478 sf 0 0 m (50) show NC gr 
 gsave  2268 1538 0 0 C 117.296 531.089 t 0 r /Helvetica-Bold findfont 58.6478 sf 0 0 m (100) show NC gr 
 gsave  2268 1538 0 0 C 117.296 798.262 t 0 r /Helvetica-Bold findfont 58.6478 sf 0 0 m (150) show NC gr 
 gsave  2268 1538 0 0 C 117.296 1068.69 t 0 r /Helvetica-Bold findfont 58.6478 sf 0 0 m (200) show NC gr 
 gsave  2268 1538 0 0 C 117.296 1335.87 t 0 r /Helvetica-Bold findfont 58.6478 sf 0 0 m (250) show NC gr  2041 154 m 1230 Y s 1987 282 m 54 X s 2014 336 m 27 X s 2014 390 m 27 X s 2014 444 m 27 X s 2014 497 m 27 X s 1987 551 m 54 X s 2014 605 m 27 X
 s 2014 659 m 27 X s 2014 712 m 27 X s 2014 766 m 27 X s 1987 820 m 54 X s 2014 874 m 27 X s 2014 928 m 27 X s 2014 981 m 27 X s 2014 1035 m 27 X s 1987 1089 m 54 X s 2014 1143 m 27 X s 2014 1196 m 27 X s 2014 1250 m 27 X s 2014 1304 m 27 X s 1987
 1358 m 54 X s 1987 282 m 54 X s 2014 228 m 27 X s 2014 175 m 27 X s 1987 1358 m 54 X s 309 878 m 30 Y s 303 908 m 13 X s 309 852 m -30 Y s 303 822 m 13 X s 318 872 m 29 Y s 311 901 m 13 X s 318 846 m -30 Y s 311 816 m 13 X s 321 904 m 30 Y s 314 934
 m 13 X s 321 878 m -30 Y s 314 848 m 13 X s 321 814 m 28 Y s 315 842 m 13 X s 321 788 m -29 Y s 315 759 m 13 X s 309 865 m 9 -6 d 3 32 d -90 Y s /w 26 def /w2 {w 2 div} def /w3 {w 3 div} def 309 865 318 859 321 891 321 801 4 { m20} R 1 0 0 c 895 463
 m 18 Y s 889 481 m 13 X s 895 437 m -18 Y s 889 419 m 13 X s 897 469 m 18 Y s 891 487 m 13 X s 897 443 m -17 Y s 891 426 m 13 X s 891 510 m 20 Y s 885 530 m 13 X s 891 484 m -19 Y s 885 465 m 13 X s 902 506 m 19 Y s 896 525 m 13 X s 902 480 m -19 Y
 s 896 461 m 13 X s black 1 0 0 c 895 450 m 2 6 d -6 41 d 11 -4 d s 895 450 897 456 891 497 902 493 4 { m20} R 0 1 0 c 1414 345 m 13 Y s 1407 358 m 13 X s 1414 319 m -13 Y s 1407 306 m 13 X s 1412 340 m 13 Y s 1405 353 m 13 X s 1412 314 m -13 Y s
 1405 301 m 13 X s 1412 373 m 14 Y s 1405 387 m 13 X s 1412 347 m -15 Y s 1405 332 m 13 X s 1425 381 m 15 Y s 1419 396 m 13 X s 1425 355 m -14 Y s 1419 341 m 13 X s black 0 1 0 c 1414 332 m -2 -5 d 33 Y 13 8 d s 1414 332 1412 327 1412 360 1425 368 4
 { m20} R 0 0 1 c 1945 231 m 8 Y s 1939 239 m 13 X s 1945 205 m -8 Y s 1939 197 m 13 X s 1933 297 m 12 Y s 1927 309 m 13 X s 1933 271 m -11 Y s 1927 260 m 13 X s 1933 267 m 10 Y s 1926 277 m 13 X s 1933 241 m -10 Y s 1926 231 m 13 X s 1922 259 m 9 Y
 s 1916 268 m 13 X s 1922 233 m -10 Y s 1916 223 m 13 X s black 0 0 1 c 1945 218 m -12 66 d -30 Y -11 -8 d s 1945 218 1933 284 1933 254 1922 246 4 { m20} R black[ 12 12] 0 sd 310 992 m 33 Y s 303 1025 m 14 X s 310 966 m -32 Y s 303 934 m 14 X s 316
 1022 m 34 Y s 309 1056 m 13 X s 316 996 m -33 Y s 309 963 m 13 X s 326 1005 m 33 Y s 319 1038 m 13 X s 326 979 m -33 Y s 319 946 m 13 X s 317 1007 m 33 Y s 311 1040 m 13 X s 317 981 m -33 Y s 311 948 m 13 X s 310 979 m 6 30 d 10 -17 d -9 2 d s[  ] 0
 sd 310 979 316 1009 326 992 317 994 4 { m21} R[ 12 12] 0 sd 1 0 0 c 894 476 m 18 Y s 887 494 m 13 X s 894 450 m -18 Y s 887 432 m 13 X s 911 454 m 18 Y s 905 472 m 13 X s 911 428 m -17 Y s 905 411 m 13 X s 896 452 m 18 Y s 890 470 m 13 X s 896 426 m
 -17 Y s 890 409 m 13 X s 904 454 m 18 Y s 897 472 m 13 X s 904 428 m -17 Y s 897 411 m 13 X s black 1 0 0 c 894 463 m 17 -22 d -15 -2 d 8 2 d s[  ] 0 sd 894 463 911 441 896 439 904 441 4 { m21} R[ 12 12] 0 sd 0 1 0 c 1410 312 m 12 Y s 1404 324 m 13
 X s 1410 286 m -11 Y s 1404 275 m 13 X s 1425 306 m 12 Y s 1418 318 m 13 X s 1425 280 m -12 Y s 1418 268 m 13 X s 1417 338 m 13 Y s 1411 351 m 13 X s 1417 312 m -13 Y s 1411 299 m 13 X s 1425 336 m 13 Y s 1419 349 m 13 X s 1425 310 m -13 Y s 1419
 297 m 13 X s black 0 1 0 c 1410 299 m 15 -6 d -8 32 d 8 -2 d s[  ] 0 sd 1410 299 1425 293 1417 325 1425 323 4 { m21} R[ 12 12] 0 sd 0 0 1 c 1915 274 m 10 Y s 1909 284 m 13 X s 1915 248 m -10 Y s 1909 238 m 13 X s 1958 257 m 9 Y s 1952 266 m 13 X s
 1958 230 m -9 Y s 1952 221 m 13 X s 1923 252 m 9 Y s 1917 261 m 13 X s 1923 226 m -9 Y s 1917 217 m 13 X s 1932 272 m 10 Y s 1925 282 m 13 X s 1932 246 m -10 Y s 1925 236 m 13 X s black 0 0 1 c 1915 261 m 43 -17 d -35 -5 d 9 20 d s[  ] 0 sd 1915 261
 1958 244 1923 239 1932 259 4 { m21} R[ 12 12] 0 sd black
 gsave  2268 1538 0 0 C 325.821 1283.74 t 0 r /Helvetica-Bold findfont 58.6478 sf 0 0 m (Pixel Disk \(left\)) show NC gr 
 gsave  2268 1538 0 0 C 430.084 1205.54 t 0 r /Helvetica-Bold findfont 58.6478 sf 0 0 m (Disk 0) show NC gr [  ] 0 sd 334 1223 m 80 X s 374 1223 m20
 gsave  2268 1538 0 0 C 430.084 1130.6 t 0 r /Helvetica-Bold findfont 58.6478 sf 0 0 m (Disk 1) show NC gr  1 0 0 c 334 1146 m 80 X s 374 1146 m20 black
 gsave  2268 1538 0 0 C 430.084 1052.4 t 0 r /Helvetica-Bold findfont 58.6478 sf 0 0 m (Disk 2) show NC gr  0 1 0 c 334 1069 m 80 X s 374 1069 m20 black
 gsave  2268 1538 0 0 C 430.084 977.464 t 0 r /Helvetica-Bold findfont 58.6478 sf 0 0 m (Disk 3) show NC gr  0 0 1 c 334 992 m 80 X s 374 992 m20 black
 gsave  2268 1538 0 0 C 622.319 1283.74 t 0 r /Helvetica-Bold findfont 58.6478 sf 0 0 m (  \(right\)) show NC gr 
 gsave  2268 1538 0 0 C 723.323 1205.54 t 0 r /Helvetica-Bold findfont 58.6478 sf 0 0 m (Disk 0) show NC gr [ 12 12] 0 sd 629 1223 m 80 X s[  ] 0 sd 669 1223 m21[ 12 12] 0 sd
 gsave  2268 1538 0 0 C 723.323 1130.6 t 0 r /Helvetica-Bold findfont 58.6478 sf 0 0 m (Disk 1) show NC gr  1 0 0 c 629 1146 m 80 X s[  ] 0 sd 669 1146 m21[ 12 12] 0 sd black
 gsave  2268 1538 0 0 C 723.323 1052.4 t 0 r /Helvetica-Bold findfont 58.6478 sf 0 0 m (Disk 2) show NC gr  0 1 0 c 629 1069 m 80 X s[  ] 0 sd 669 1069 m21[ 12 12] 0 sd black
 gsave  2268 1538 0 0 C 723.323 977.464 t 0 r /Helvetica-Bold findfont 58.6478 sf 0 0 m (Disk 3) show NC gr  0 0 1 c 629 992 m 80 X s[  ] 0 sd 669 992 m21[ 12 12] 0 sd
 gr  gr showpage
end
%%EOF
