%!PS-Adobe-2.0 EPSF-2.0
%%BoundingBox:  0 0 567 384
%%Title: outputDir/pixel_occupancy/clus_pixlayer_mg.eps: c1_n3
%%Creator: ROOT Version 6.04/12
%%CreationDate: Mon Apr 25 16:02:02 2016
%%DocumentNeededResources: ProcSet (FontSetInit)
%%EndComments
%%BeginProlog
80 dict begin
/s {stroke} def /l {lineto} def /m {moveto} def /t {translate} def
/r {rotate} def /rl {roll}  def /R {repeat} def
/d {rlineto} def /rm {rmoveto} def /gr {grestore} def /f {eofill} def
/c {setrgbcolor} def /black {0 setgray} def /sd {setdash} def
/cl {closepath} def /sf {scalefont setfont} def /lw {setlinewidth} def
/box {m dup 0 exch d exch 0 d 0 exch neg d cl} def
/NC{systemdict begin initclip end}def/C{NC box clip newpath}def
/bl {box s} def /bf {gsave box gsave f grestore 1 lw [] 0 sd s grestore} def /Y { 0 exch d} def /X { 0 d} def 
/K {{pop pop 0 moveto} exch kshow} bind def
/ita {/ang 15 def gsave [1 0 ang dup sin exch cos div 1 0 0] concat} def 
/mp {newpath /y exch def /x exch def} def
/side {[w .77 mul w .23 mul] .385 w mul sd w 0 l currentpoint t -144 r} def
/mr {mp x y w2 0 360 arc} def /m24 {mr s} def /m20 {mr f} def
/mb {mp x y w2 add m w2 neg 0 d 0 w neg d w 0 d 0 w d cl} def
/mt {mp x y w2 add m w2 neg w neg d w 0 d cl} def
/m21 {mb f} def /m25 {mb s} def /m22 {mt f} def /m26{mt s} def
/m23 {mp x y w2 sub m w2 w d w neg 0 d cl f} def
/m27 {mp x y w2 add m w3 neg w2 neg d w3 w2 neg d w3 w2 d cl s} def
/m28 {mp x w2 sub y w2 sub w3 add m w3 0 d  0 w3 neg d w3 0 d 0 w3 d w3 0 d  0 w3 d w3 neg 0 d 0 w3 d w3 neg 0 d 0 w3 neg d w3 neg 0 d cl s } def
/m29 {mp gsave x w2 sub y w2 add w3 sub m currentpoint t 4 {side} repeat cl fill gr} def
/m30 {mp gsave x w2 sub y w2 add w3 sub m currentpoint t 4 {side} repeat cl s gr} def
/m31 {mp x y w2 sub m 0 w d x w2 sub y m w 0 d x w2 sub y w2 add m w w neg d x w2 sub y w2 sub m w w d s} def
/m32 {mp x y w2 sub m w2 w d w neg 0 d cl s} def
/m33 {mp x y w2 add m w3 neg w2 neg d w3 w2 neg d w3 w2 d cl f} def
/m34 {mp x w2 sub y w2 sub w3 add m w3 0 d  0 w3 neg d w3 0 d 0 w3 d w3 0 d  0 w3 d w3 neg 0 d 0 w3 d w3 neg 0 d 0 w3 neg d w3 neg 0 d cl f } def
/m2 {mp x y w2 sub m 0 w d x w2 sub y m w 0 d s} def
/m5 {mp x w2 sub y w2 sub m w w d x w2 sub y w2 add m w w neg d s} def
%%IncludeResource: ProcSet (FontSetInit)
%%IncludeResource: font Times-Roman
%%IncludeResource: font Times-Italic
%%IncludeResource: font Times-Bold
%%IncludeResource: font Times-BoldItalic
%%IncludeResource: font Helvetica
%%IncludeResource: font Helvetica-Oblique
%%IncludeResource: font Helvetica-Bold
%%IncludeResource: font Helvetica-BoldOblique
%%IncludeResource: font Courier
%%IncludeResource: font Courier-Oblique
%%IncludeResource: font Courier-Bold
%%IncludeResource: font Courier-BoldOblique
%%IncludeResource: font Symbol
%%IncludeResource: font ZapfDingbats
/reEncode {exch findfont dup length dict begin {1 index /FID eq  {pop pop} {def} ifelse } forall /Encoding exch def currentdict end dup /FontName get exch definefont pop } def [/Times-Bold /Times-Italic /Times-BoldItalic /Helvetica /Helvetica-Oblique
 /Helvetica-Bold /Helvetica-BoldOblique /Courier /Courier-Oblique /Courier-Bold /Courier-BoldOblique /Times-Roman /AvantGarde-Book /AvantGarde-BookOblique /AvantGarde-Demi /AvantGarde-DemiOblique /Bookman-Demi /Bookman-DemiItalic /Bookman-Light
 /Bookman-LightItalic /Helvetica-Narrow /Helvetica-Narrow-Bold /Helvetica-Narrow-BoldOblique /Helvetica-Narrow-Oblique /NewCenturySchlbk-Roman /NewCenturySchlbk-Bold /NewCenturySchlbk-BoldItalic /NewCenturySchlbk-Italic /Palatino-Bold
 /Palatino-BoldItalic /Palatino-Italic /Palatino-Roman ] {ISOLatin1Encoding reEncode } forall
%%EndProlog
%%BeginSetup
%%EndSetup
newpath  gsave  .25 .25 scale  gsave  0 0 t black[  ] 0 sd 3 lw 1 1 1 c 2268 1538 0 0 bf black 1 1 1 c 1814 1230 227 154 bf black 1814 1230 227 154 bl 1 1 1 c 1814 1230 227 154 bf black 1814 1230 227 154 bl 227 154 m 1814 X s
 gsave  2268 1538 0 0 C 1772.47 32.5821 t 0 r /Helvetica-Bold findfont 58.6478 sf 0 0 m (moduleID) show NC gr  309 191 m -37 Y s 364 172 m -18 Y s 419 172 m -18 Y s 474 172 m -18 Y s 529 172 m -18 Y s 584 191 m -37 Y s 639 172 m -18 Y s 694 172 m -18
 Y s 749 172 m -18 Y s 804 172 m -18 Y s 859 191 m -37 Y s 914 172 m -18 Y s 969 172 m -18 Y s 1024 172 m -18 Y s 1079 172 m -18 Y s 1134 191 m -37 Y s 1189 172 m -18 Y s 1244 172 m -18 Y s 1299 172 m -18 Y s 1354 172 m -18 Y s 1409 191 m -37 Y s
 1464 172 m -18 Y s 1519 172 m -18 Y s 1574 172 m -18 Y s 1629 172 m -18 Y s 1684 191 m -37 Y s 1739 172 m -18 Y s 1794 172 m -18 Y s 1849 172 m -18 Y s 1904 172 m -18 Y s 1958 191 m -37 Y s 309 191 m -37 Y s 254 172 m -18 Y s 1958 191 m -37 Y s 2013
 172 m -18 Y s
 gsave  2268 1538 0 0 C 286.723 97.7464 t 0 r /Helvetica-Bold findfont 58.6478 sf 0 0 m (15) show NC gr 
 gsave  2268 1538 0 0 C 257.399 97.7464 t 0 r /Symbol findfont 58.6478 sf 0 0 m (-) show NC gr 
 gsave  2268 1538 0 0 C 563.671 97.7464 t 0 r /Helvetica-Bold findfont 58.6478 sf 0 0 m (10) show NC gr 
 gsave  2268 1538 0 0 C 534.347 97.7464 t 0 r /Symbol findfont 58.6478 sf 0 0 m (-) show NC gr 
 gsave  2268 1538 0 0 C 853.652 97.7464 t 0 r /Helvetica-Bold findfont 58.6478 sf 0 0 m (5) show NC gr 
 gsave  2268 1538 0 0 C 824.328 97.7464 t 0 r /Symbol findfont 58.6478 sf 0 0 m (-) show NC gr 
 gsave  2268 1538 0 0 C 1117.57 97.7464 t 0 r /Helvetica-Bold findfont 58.6478 sf 0 0 m (0) show NC gr 
 gsave  2268 1538 0 0 C 1391.26 97.7464 t 0 r /Helvetica-Bold findfont 58.6478 sf 0 0 m (5) show NC gr 
 gsave  2268 1538 0 0 C 1648.66 97.7464 t 0 r /Helvetica-Bold findfont 58.6478 sf 0 0 m (10) show NC gr 
 gsave  2268 1538 0 0 C 1925.6 97.7464 t 0 r /Helvetica-Bold findfont 58.6478 sf 0 0 m (15) show NC gr  227 1384 m 1814 X s 309 1347 m 37 Y s 364 1366 m 18 Y s 419 1366 m 18 Y s 474 1366 m 18 Y s 529 1366 m 18 Y s 584 1347 m 37 Y s 639 1366 m 18 Y s
 694 1366 m 18 Y s 749 1366 m 18 Y s 804 1366 m 18 Y s 859 1347 m 37 Y s 914 1366 m 18 Y s 969 1366 m 18 Y s 1024 1366 m 18 Y s 1079 1366 m 18 Y s 1134 1347 m 37 Y s 1189 1366 m 18 Y s 1244 1366 m 18 Y s 1299 1366 m 18 Y s 1354 1366 m 18 Y s 1409
 1347 m 37 Y s 1464 1366 m 18 Y s 1519 1366 m 18 Y s 1574 1366 m 18 Y s 1629 1366 m 18 Y s 1684 1347 m 37 Y s 1739 1366 m 18 Y s 1794 1366 m 18 Y s 1849 1366 m 18 Y s 1904 1366 m 18 Y s 1958 1347 m 37 Y s 309 1347 m 37 Y s 254 1366 m 18 Y s 1958 1347
 m 37 Y s 2013 1366 m 18 Y s 227 154 m 1230 Y s
 gsave  2268 1538 0 0 C 97.7464 710.291 t 90 r /Helvetica-Bold findfont 58.6478 sf 0 0 m (Cluster per etaModuleID) show NC gr  281 310 m -54 X s 254 356 m -27 X s 254 403 m -27 X s 254 449 m -27 X s 254 495 m -27 X s 281 541 m -54 X s 254 587 m -27 X
 s 254 633 m -27 X s 254 679 m -27 X s 254 725 m -27 X s 281 771 m -54 X s 254 818 m -27 X s 254 864 m -27 X s 254 910 m -27 X s 254 956 m -27 X s 281 1002 m -54 X s 254 1048 m -27 X s 254 1094 m -27 X s 254 1140 m -27 X s 254 1186 m -27 X s 281 1233
 m -54 X s 281 310 m -54 X s 254 264 m -27 X s 254 218 m -27 X s 254 172 m -27 X s 281 1233 m -54 X s 254 1279 m -27 X s 254 1325 m -27 X s 254 1371 m -27 X s
 gsave  2268 1538 0 0 C 149.878 289.981 t 0 r /Helvetica-Bold findfont 58.6478 sf 0 0 m (50) show NC gr 
 gsave  2268 1538 0 0 C 117.296 521.314 t 0 r /Helvetica-Bold findfont 58.6478 sf 0 0 m (100) show NC gr 
 gsave  2268 1538 0 0 C 117.296 749.389 t 0 r /Helvetica-Bold findfont 58.6478 sf 0 0 m (150) show NC gr 
 gsave  2268 1538 0 0 C 117.296 980.722 t 0 r /Helvetica-Bold findfont 58.6478 sf 0 0 m (200) show NC gr 
 gsave  2268 1538 0 0 C 117.296 1212.06 t 0 r /Helvetica-Bold findfont 58.6478 sf 0 0 m (250) show NC gr  2041 154 m 1230 Y s 1987 310 m 54 X s 2014 356 m 27 X s 2014 403 m 27 X s 2014 449 m 27 X s 2014 495 m 27 X s 1987 541 m 54 X s 2014 587 m 27 X
 s 2014 633 m 27 X s 2014 679 m 27 X s 2014 725 m 27 X s 1987 771 m 54 X s 2014 818 m 27 X s 2014 864 m 27 X s 2014 910 m 27 X s 2014 956 m 27 X s 1987 1002 m 54 X s 2014 1048 m 27 X s 2014 1094 m 27 X s 2014 1140 m 27 X s 2014 1186 m 27 X s 1987
 1233 m 54 X s 1987 310 m 54 X s 2014 264 m 27 X s 2014 218 m 27 X s 2014 172 m 27 X s 1987 1233 m 54 X s 2014 1279 m 27 X s 2014 1325 m 27 X s 2014 1371 m 27 X s 309 583 m 17 Y s 303 600 m 13 X s 309 557 m -17 Y s 303 540 m 13 X s 364 595 m 17 Y s
 358 612 m 13 X s 364 568 m -17 Y s 358 551 m 13 X s 419 617 m 18 Y s 413 635 m 13 X s 419 591 m -18 Y s 413 573 m 13 X s 474 541 m 16 Y s 468 557 m 13 X s 474 515 m -16 Y s 468 499 m 13 X s 529 541 m 16 Y s 523 557 m 13 X s 529 515 m -16 Y s 523 499
 m 13 X s 584 524 m 16 Y s 578 540 m 13 X s 584 498 m -15 Y s 578 483 m 13 X s 639 565 m 16 Y s 633 581 m 13 X s 639 539 m -17 Y s 633 522 m 13 X s 694 583 m 17 Y s 688 600 m 13 X s 694 557 m -17 Y s 688 540 m 13 X s 749 530 m 15 Y s 743 545 m 13 X s
 749 504 m -15 Y s 743 489 m 13 X s 804 565 m 16 Y s 797 581 m 14 X s 804 539 m -17 Y s 797 522 m 14 X s 859 554 m 16 Y s 852 570 m 13 X s 859 528 m -16 Y s 852 512 m 13 X s 914 500 m 15 Y s 907 515 m 13 X s 914 474 m -14 Y s 907 460 m 13 X s 969 689
 m 20 Y s 962 709 m 13 X s 969 663 m -21 Y s 962 642 m 13 X s 1024 867 m 25 Y s 1017 892 m 13 X s 1024 841 m -24 Y s 1017 817 m 13 X s 1079 965 m 27 Y s 1072 992 m 13 X s 1079 939 m -27 Y s 1072 912 m 13 X s 1189 997 m 27 Y s 1182 1024 m 13 X s 1189
 971 m -28 Y s 1182 943 m 13 X s 1244 764 m 22 Y s 1237 786 m 13 X s 1244 738 m -22 Y s 1237 716 m 13 X s 1299 648 m 19 Y s 1292 667 m 13 X s 1299 622 m -19 Y s 1292 603 m 13 X s 1354 476 m 14 Y s 1347 490 m 13 X s 1354 450 m -13 Y s 1347 437 m 13 X
 s 1409 596 m 18 Y s 1402 614 m 13 X s 1409 570 m -17 Y s 1402 553 m 13 X s 1464 598 m 18 Y s 1457 616 m 13 X s 1464 572 m -17 Y s 1457 555 m 13 X s 1519 595 m 17 Y s 1512 612 m 13 X s 1519 568 m -17 Y s 1512 551 m 13 X s 1574 587 m 17 Y s 1567 604 m
 13 X s 1574 561 m -17 Y s 1567 544 m 13 X s 1629 602 m 17 Y s 1622 619 m 13 X s 1629 576 m -18 Y s 1622 558 m 13 X s 1684 648 m 19 Y s 1677 667 m 13 X s 1684 622 m -19 Y s 1677 603 m 13 X s 1739 611 m 18 Y s 1732 629 m 13 X s 1739 585 m -18 Y s 1732
 567 m 13 X s 1794 578 m 17 Y s 1787 595 m 13 X s 1794 552 m -17 Y s 1787 535 m 13 X s 1849 506 m 15 Y s 1842 521 m 13 X s 1849 480 m -15 Y s 1842 465 m 13 X s 1904 510 m 14 Y s 1897 524 m 13 X s 1904 484 m -15 Y s 1897 469 m 13 X s 1958 482 m 14 Y s
 1952 496 m 13 X s 1958 456 m -14 Y s 1952 442 m 13 X s 309 570 m 55 11 d 55 23 d 55 -76 d 55 X 55 -17 d 55 41 d 55 18 d 55 -53 d 55 35 d 55 -11 d 55 -54 d 55 189 d 55 178 d 55 98 d 110 32 d 55 -233 d 55 -116 d 55 -172 d 55 120 d 55 2 d 55 -4 d 55 -7
 d 55 15 d 55 46 d 55 -37 d 55 -33 d 55 -72 d 55 4 d 54 -28 d s /w 26 def /w2 {w 2 div} def /w3 {w 3 div} def 309 570 364 581 419 604 474 528 529 528 584 511 639 552 694 570 749 517 804 552 859 541 914 487 969 676 1024 854 1079 952 1189 984 1244 751
 1299 635 1354 463 1409 583 1464 585 1519 581 1574 574 1629 589 1684 635 1739 598 1794 565 1849 493 1904 497 1958 469 30 { m20} R 1 0 0 c 309 353 m 9 Y s 303 362 m 13 X s 309 327 m -9 Y s 303 318 m 13 X s 364 357 m 9 Y s 358 366 m 13 X s 364 331 m -9
 Y s 358 322 m 13 X s 419 355 m 9 Y s 413 364 m 13 X s 419 329 m -9 Y s 413 320 m 13 X s 474 336 m 8 Y s 468 344 m 13 X s 474 310 m -8 Y s 468 302 m 13 X s 529 336 m 8 Y s 523 344 m 13 X s 529 310 m -8 Y s 523 302 m 13 X s 584 344 m 8 Y s 578 352 m
 13 X s 584 318 m -9 Y s 578 309 m 13 X s 639 371 m 10 Y s 633 381 m 13 X s 639 345 m -9 Y s 633 336 m 13 X s 694 377 m 10 Y s 688 387 m 13 X s 694 351 m -10 Y s 688 341 m 13 X s 749 368 m 9 Y s 743 377 m 13 X s 749 342 m -10 Y s 743 332 m 13 X s 804
 323 m 8 Y s 797 331 m 14 X s 804 297 m -7 Y s 797 290 m 14 X s 859 357 m 9 Y s 852 366 m 13 X s 859 331 m -9 Y s 852 322 m 13 X s 914 467 m 14 Y s 907 481 m 13 X s 914 441 m -13 Y s 907 428 m 13 X s 969 528 m 15 Y s 962 543 m 13 X s 969 502 m -15 Y
 s 962 487 m 13 X s 1024 556 m 16 Y s 1017 572 m 13 X s 1024 530 m -16 Y s 1017 514 m 13 X s 1079 626 m 18 Y s 1072 644 m 13 X s 1079 600 m -19 Y s 1072 581 m 13 X s 1189 602 m 17 Y s 1182 619 m 13 X s 1189 576 m -18 Y s 1182 558 m 13 X s 1244 563 m
 17 Y s 1237 580 m 13 X s 1244 537 m -16 Y s 1237 521 m 13 X s 1299 552 m 16 Y s 1292 568 m 13 X s 1299 526 m -16 Y s 1292 510 m 13 X s 1354 489 m 14 Y s 1347 503 m 13 X s 1354 463 m -14 Y s 1347 449 m 13 X s 1409 392 m 10 Y s 1402 402 m 13 X s 1409
 366 m -11 Y s 1402 355 m 13 X s 1464 346 m 8 Y s 1457 354 m 13 X s 1464 319 m -8 Y s 1457 311 m 13 X s 1519 329 m 8 Y s 1512 337 m 13 X s 1519 303 m -8 Y s 1512 295 m 13 X s 1574 353 m 9 Y s 1567 362 m 13 X s 1574 327 m -9 Y s 1567 318 m 13 X s 1629
 360 m 9 Y s 1622 369 m 13 X s 1629 334 m -9 Y s 1622 325 m 13 X s 1684 334 m 9 Y s 1677 343 m 13 X s 1684 308 m -8 Y s 1677 300 m 13 X s 1739 370 m 9 Y s 1732 379 m 13 X s 1739 343 m -9 Y s 1732 334 m 13 X s 1794 384 m 10 Y s 1787 394 m 13 X s 1794
 358 m -10 Y s 1787 348 m 13 X s 1849 399 m 11 Y s 1842 410 m 13 X s 1849 373 m -11 Y s 1842 362 m 13 X s 1904 392 m 10 Y s 1897 402 m 13 X s 1904 366 m -11 Y s 1897 355 m 13 X s 1958 368 m 9 Y s 1952 377 m 13 X s 1958 342 m -10 Y s 1952 332 m 13 X s
 black 1 0 0 c 309 340 m 55 4 d 55 -2 d 55 -19 d 55 X 55 8 d 55 27 d 55 6 d 55 -9 d 55 -45 d 55 34 d 55 110 d 55 61 d 55 28 d 55 70 d 110 -24 d 55 -39 d 55 -11 d 55 -63 d 55 -97 d 55 -46 d 55 -17 d 55 24 d 55 7 d 55 -26 d 55 35 d 55 15 d 55 15 d 55
 -7 d 54 -24 d s 309 340 364 344 419 342 474 323 529 323 584 331 639 358 694 364 749 355 804 310 859 344 914 454 969 515 1024 543 1079 613 1189 589 1244 550 1299 539 1354 476 1409 379 1464 333 1519 316 1574 340 1629 347 1684 321 1739 356 1794 371
 1849 386 1904 379 1958 355 30 { m20} R 0 1 0 c 639 275 m 6 Y s 633 281 m 13 X s 639 249 m -5 Y s 633 244 m 13 X s 694 253 m 4 Y s 688 257 m 13 X s 694 227 m -4 Y s 688 223 m 13 X s 749 288 m 6 Y s 743 294 m 13 X s 749 262 m -6 Y s 743 256 m 13 X s
 804 287 m 5 Y s 797 292 m 14 X s 804 260 m -5 Y s 797 255 m 14 X s 859 322 m 7 Y s 852 329 m 13 X s 859 295 m -7 Y s 852 288 m 13 X s 914 362 m 9 Y s 907 371 m 13 X s 914 336 m -9 Y s 907 327 m 13 X s 969 368 m 9 Y s 962 377 m 13 X s 969 342 m -10 Y
 s 962 332 m 13 X s 1024 368 m 9 Y s 1017 377 m 13 X s 1024 342 m -10 Y s 1017 332 m 13 X s 1079 427 m 11 Y s 1072 438 m 13 X s 1079 401 m -12 Y s 1072 389 m 13 X s 1189 447 m 12 Y s 1182 459 m 13 X s 1189 421 m -13 Y s 1182 408 m 13 X s 1244 366 m 9
 Y s 1237 375 m 13 X s 1244 340 m -10 Y s 1237 330 m 13 X s 1299 393 m 11 Y s 1292 404 m 13 X s 1299 367 m -10 Y s 1292 357 m 13 X s 1354 355 m 9 Y s 1347 364 m 13 X s 1354 329 m -9 Y s 1347 320 m 13 X s 1409 331 m 8 Y s 1402 339 m 13 X s 1409 305 m
 -8 Y s 1402 297 m 13 X s 1464 349 m 9 Y s 1457 358 m 13 X s 1464 323 m -9 Y s 1457 314 m 13 X s 1519 272 m 5 Y s 1512 277 m 13 X s 1519 246 m -5 Y s 1512 241 m 13 X s 1574 279 m 6 Y s 1567 285 m 13 X s 1574 253 m -5 Y s 1567 248 m 13 X s 1629 259 m
 4 Y s 1622 263 m 13 X s 1629 233 m -5 Y s 1622 228 m 13 X s black 0 1 0 c 639 262 m 55 -22 d 55 35 d 55 -2 d 55 36 d 55 40 d 55 6 d 55 X 55 59 d 110 20 d 55 -81 d 55 27 d 55 -38 d 55 -24 d 55 18 d 55 -77 d 55 7 d 55 -20 d s 639 262 694 240 749 275
 804 273 859 309 914 349 969 355 1024 355 1079 414 1189 434 1244 353 1299 380 1354 342 1409 318 1464 336 1519 259 1574 266 1629 246 18 { m20} R 0 0 1 c 639 235 m 3 Y s 633 238 m 13 X s 639 209 m -3 Y s 633 206 m 13 X s 694 270 m 5 Y s 688 275 m 13 X
 s 694 244 m -5 Y s 688 239 m 13 X s 749 283 m 6 Y s 743 289 m 13 X s 749 257 m -6 Y s 743 251 m 13 X s 804 270 m 5 Y s 797 275 m 14 X s 804 244 m -5 Y s 797 239 m 14 X s 859 294 m 6 Y s 852 300 m 13 X s 859 268 m -6 Y s 852 262 m 13 X s 914 287 m 5
 Y s 907 292 m 13 X s 914 260 m -5 Y s 907 255 m 13 X s 969 331 m 8 Y s 962 339 m 13 X s 969 305 m -8 Y s 962 297 m 13 X s 1024 349 m 9 Y s 1017 358 m 13 X s 1024 323 m -9 Y s 1017 314 m 13 X s 1079 347 m 9 Y s 1072 356 m 13 X s 1079 321 m -8 Y s
 1072 313 m 13 X s 1189 357 m 9 Y s 1182 366 m 13 X s 1189 331 m -9 Y s 1182 322 m 13 X s 1244 296 m 6 Y s 1237 302 m 13 X s 1244 270 m -7 Y s 1237 263 m 13 X s 1299 327 m 8 Y s 1292 335 m 13 X s 1299 301 m -8 Y s 1292 293 m 13 X s 1354 285 m 5 Y s
 1347 290 m 13 X s 1354 259 m -6 Y s 1347 253 m 13 X s 1409 296 m 6 Y s 1402 302 m 13 X s 1409 270 m -7 Y s 1402 263 m 13 X s 1464 279 m 6 Y s 1457 285 m 13 X s 1464 253 m -5 Y s 1457 248 m 13 X s 1519 281 m 6 Y s 1512 287 m 13 X s 1519 255 m -6 Y s
 1512 249 m 13 X s 1574 301 m 7 Y s 1567 308 m 13 X s 1574 275 m -6 Y s 1567 269 m 13 X s 1629 288 m 6 Y s 1622 294 m 13 X s 1629 262 m -6 Y s 1622 256 m 13 X s black 0 0 1 c 639 222 m 55 35 d 55 13 d 55 -13 d 55 24 d 55 -8 d 55 45 d 55 18 d 55 -2 d
 110 10 d 55 -61 d 55 31 d 55 -42 d 55 11 d 55 -17 d 55 2 d 55 20 d 55 -13 d s 639 222 694 257 749 270 804 257 859 281 914 273 969 318 1024 336 1079 334 1189 344 1244 283 1299 314 1354 272 1409 283 1464 266 1519 268 1574 288 1629 275 18 { m20} R 1 1
 0 c 639 242 m 4 Y s 633 246 m 13 X s 639 216 m -3 Y s 633 213 m 13 X s 694 235 m 3 Y s 688 238 m 13 X s 694 209 m -3 Y s 688 206 m 13 X s 749 224 m 2 Y s 743 226 m 13 X s 749 198 m -3 Y s 743 195 m 13 X s 804 257 m 4 Y s 797 261 m 14 X s 804 231 m
 -4 Y s 797 227 m 14 X s 859 253 m 4 Y s 852 257 m 13 X s 859 227 m -4 Y s 852 223 m 13 X s 914 259 m 4 Y s 907 263 m 13 X s 914 233 m -5 Y s 907 228 m 13 X s 969 259 m 4 Y s 962 263 m 13 X s 969 233 m -5 Y s 962 228 m 13 X s 1024 312 m 7 Y s 1017
 319 m 13 X s 1024 286 m -7 Y s 1017 279 m 13 X s 1079 298 m 6 Y s 1072 304 m 13 X s 1079 272 m -7 Y s 1072 265 m 13 X s 1189 288 m 6 Y s 1182 294 m 13 X s 1189 262 m -6 Y s 1182 256 m 13 X s 1244 275 m 6 Y s 1237 281 m 13 X s 1244 249 m -5 Y s 1237
 244 m 13 X s 1299 301 m 7 Y s 1292 308 m 13 X s 1299 275 m -6 Y s 1292 269 m 13 X s 1354 270 m 5 Y s 1347 275 m 13 X s 1354 244 m -5 Y s 1347 239 m 13 X s 1409 263 m 4 Y s 1402 267 m 13 X s 1409 236 m -4 Y s 1402 232 m 13 X s 1464 290 m 6 Y s 1457
 296 m 13 X s 1464 264 m -6 Y s 1457 258 m 13 X s 1519 266 m 5 Y s 1512 271 m 13 X s 1519 240 m -5 Y s 1512 235 m 13 X s 1574 255 m 4 Y s 1567 259 m 13 X s 1574 229 m -4 Y s 1567 225 m 13 X s 1629 266 m 5 Y s 1622 271 m 13 X s 1629 240 m -5 Y s 1622
 235 m 13 X s black 1 1 0 c 639 229 m 55 -7 d 55 -11 d 55 33 d 55 -4 d 55 6 d 55 X 55 53 d 55 -14 d 110 -10 d 55 -13 d 55 26 d 55 -31 d 55 -7 d 55 27 d 55 -24 d 55 -11 d 55 11 d s 639 229 694 222 749 211 804 244 859 240 914 246 969 246 1024 299 1079
 285 1189 275 1244 262 1299 288 1354 257 1409 250 1464 277 1519 253 1574 242 1629 253 18 { m20} R black
 gsave  2268 1538 0 0 C 1531.36 1032.85 t 0 r /Helvetica-Bold findfont 58.6478 sf 0 0 m (Pixel Barrel) show NC gr 
 gsave  2268 1538 0 0 C 1648.66 967.689 t 0 r /Helvetica-Bold findfont 58.6478 sf 0 0 m (Layer 0) show NC gr  1539 980 m 91 X s 1585 980 m20
 gsave  2268 1538 0 0 C 1648.66 902.525 t 0 r /Helvetica-Bold findfont 58.6478 sf 0 0 m (Layer 1) show NC gr  1 0 0 c 1539 916 m 91 X s 1585 916 m20 black
 gsave  2268 1538 0 0 C 1648.66 840.619 t 0 r /Helvetica-Bold findfont 58.6478 sf 0 0 m (Layer 2) show NC gr  0 1 0 c 1539 852 m 91 X s 1585 852 m20 black
 gsave  2268 1538 0 0 C 1648.66 775.455 t 0 r /Helvetica-Bold findfont 58.6478 sf 0 0 m (Layer 3) show NC gr  0 0 1 c 1539 788 m 91 X s 1585 788 m20 black
 gsave  2268 1538 0 0 C 1648.66 710.291 t 0 r /Helvetica-Bold findfont 58.6478 sf 0 0 m (Layer 4) show NC gr  1 1 0 c 1539 724 m 91 X s 1585 724 m20
 gr  gr showpage
end
%%EOF
