%!PS-Adobe-2.0 EPSF-2.0
%%BoundingBox:  0 0 567 384
%%Title: outputDir/pixel_occupancy/flu_pixlayer_mg.eps: c1_n8
%%Creator: ROOT Version 6.04/12
%%CreationDate: Mon Apr 25 16:02:03 2016
%%DocumentNeededResources: ProcSet (FontSetInit)
%%EndComments
%%BeginProlog
80 dict begin
/s {stroke} def /l {lineto} def /m {moveto} def /t {translate} def
/r {rotate} def /rl {roll}  def /R {repeat} def
/d {rlineto} def /rm {rmoveto} def /gr {grestore} def /f {eofill} def
/c {setrgbcolor} def /black {0 setgray} def /sd {setdash} def
/cl {closepath} def /sf {scalefont setfont} def /lw {setlinewidth} def
/box {m dup 0 exch d exch 0 d 0 exch neg d cl} def
/NC{systemdict begin initclip end}def/C{NC box clip newpath}def
/bl {box s} def /bf {gsave box gsave f grestore 1 lw [] 0 sd s grestore} def /Y { 0 exch d} def /X { 0 d} def 
/K {{pop pop 0 moveto} exch kshow} bind def
/ita {/ang 15 def gsave [1 0 ang dup sin exch cos div 1 0 0] concat} def 
/mp {newpath /y exch def /x exch def} def
/side {[w .77 mul w .23 mul] .385 w mul sd w 0 l currentpoint t -144 r} def
/mr {mp x y w2 0 360 arc} def /m24 {mr s} def /m20 {mr f} def
/mb {mp x y w2 add m w2 neg 0 d 0 w neg d w 0 d 0 w d cl} def
/mt {mp x y w2 add m w2 neg w neg d w 0 d cl} def
/m21 {mb f} def /m25 {mb s} def /m22 {mt f} def /m26{mt s} def
/m23 {mp x y w2 sub m w2 w d w neg 0 d cl f} def
/m27 {mp x y w2 add m w3 neg w2 neg d w3 w2 neg d w3 w2 d cl s} def
/m28 {mp x w2 sub y w2 sub w3 add m w3 0 d  0 w3 neg d w3 0 d 0 w3 d w3 0 d  0 w3 d w3 neg 0 d 0 w3 d w3 neg 0 d 0 w3 neg d w3 neg 0 d cl s } def
/m29 {mp gsave x w2 sub y w2 add w3 sub m currentpoint t 4 {side} repeat cl fill gr} def
/m30 {mp gsave x w2 sub y w2 add w3 sub m currentpoint t 4 {side} repeat cl s gr} def
/m31 {mp x y w2 sub m 0 w d x w2 sub y m w 0 d x w2 sub y w2 add m w w neg d x w2 sub y w2 sub m w w d s} def
/m32 {mp x y w2 sub m w2 w d w neg 0 d cl s} def
/m33 {mp x y w2 add m w3 neg w2 neg d w3 w2 neg d w3 w2 d cl f} def
/m34 {mp x w2 sub y w2 sub w3 add m w3 0 d  0 w3 neg d w3 0 d 0 w3 d w3 0 d  0 w3 d w3 neg 0 d 0 w3 d w3 neg 0 d 0 w3 neg d w3 neg 0 d cl f } def
/m2 {mp x y w2 sub m 0 w d x w2 sub y m w 0 d s} def
/m5 {mp x w2 sub y w2 sub m w w d x w2 sub y w2 add m w w neg d s} def
%%IncludeResource: ProcSet (FontSetInit)
%%IncludeResource: font Times-Roman
%%IncludeResource: font Times-Italic
%%IncludeResource: font Times-Bold
%%IncludeResource: font Times-BoldItalic
%%IncludeResource: font Helvetica
%%IncludeResource: font Helvetica-Oblique
%%IncludeResource: font Helvetica-Bold
%%IncludeResource: font Helvetica-BoldOblique
%%IncludeResource: font Courier
%%IncludeResource: font Courier-Oblique
%%IncludeResource: font Courier-Bold
%%IncludeResource: font Courier-BoldOblique
%%IncludeResource: font Symbol
%%IncludeResource: font ZapfDingbats
/reEncode {exch findfont dup length dict begin {1 index /FID eq  {pop pop} {def} ifelse } forall /Encoding exch def currentdict end dup /FontName get exch definefont pop } def [/Times-Bold /Times-Italic /Times-BoldItalic /Helvetica /Helvetica-Oblique
 /Helvetica-Bold /Helvetica-BoldOblique /Courier /Courier-Oblique /Courier-Bold /Courier-BoldOblique /Times-Roman /AvantGarde-Book /AvantGarde-BookOblique /AvantGarde-Demi /AvantGarde-DemiOblique /Bookman-Demi /Bookman-DemiItalic /Bookman-Light
 /Bookman-LightItalic /Helvetica-Narrow /Helvetica-Narrow-Bold /Helvetica-Narrow-BoldOblique /Helvetica-Narrow-Oblique /NewCenturySchlbk-Roman /NewCenturySchlbk-Bold /NewCenturySchlbk-BoldItalic /NewCenturySchlbk-Italic /Palatino-Bold
 /Palatino-BoldItalic /Palatino-Italic /Palatino-Roman ] {ISOLatin1Encoding reEncode } forall
%%EndProlog
%%BeginSetup
%%EndSetup
newpath  gsave  .25 .25 scale  gsave  0 0 t black[  ] 0 sd 3 lw 1 1 1 c 2268 1538 0 0 bf black 1 1 1 c 1814 1230 227 154 bf black 1814 1230 227 154 bl 1 1 1 c 1814 1230 227 154 bf black 1814 1230 227 154 bl 227 154 m 1814 X s
 gsave  2268 1538 0 0 C 1772.47 32.5821 t 0 r /Helvetica-Bold findfont 58.6478 sf 0 0 m (moduleID) show NC gr  309 191 m -37 Y s 364 172 m -18 Y s 419 172 m -18 Y s 474 172 m -18 Y s 529 172 m -18 Y s 584 191 m -37 Y s 639 172 m -18 Y s 694 172 m -18
 Y s 749 172 m -18 Y s 804 172 m -18 Y s 859 191 m -37 Y s 914 172 m -18 Y s 969 172 m -18 Y s 1024 172 m -18 Y s 1079 172 m -18 Y s 1134 191 m -37 Y s 1189 172 m -18 Y s 1244 172 m -18 Y s 1299 172 m -18 Y s 1354 172 m -18 Y s 1409 191 m -37 Y s
 1464 172 m -18 Y s 1519 172 m -18 Y s 1574 172 m -18 Y s 1629 172 m -18 Y s 1684 191 m -37 Y s 1739 172 m -18 Y s 1794 172 m -18 Y s 1849 172 m -18 Y s 1904 172 m -18 Y s 1958 191 m -37 Y s 309 191 m -37 Y s 254 172 m -18 Y s 1958 191 m -37 Y s 2013
 172 m -18 Y s
 gsave  2268 1538 0 0 C 286.723 97.7464 t 0 r /Helvetica-Bold findfont 58.6478 sf 0 0 m (15) show NC gr 
 gsave  2268 1538 0 0 C 257.399 97.7464 t 0 r /Symbol findfont 58.6478 sf 0 0 m (-) show NC gr 
 gsave  2268 1538 0 0 C 563.671 97.7464 t 0 r /Helvetica-Bold findfont 58.6478 sf 0 0 m (10) show NC gr 
 gsave  2268 1538 0 0 C 534.347 97.7464 t 0 r /Symbol findfont 58.6478 sf 0 0 m (-) show NC gr 
 gsave  2268 1538 0 0 C 853.652 97.7464 t 0 r /Helvetica-Bold findfont 58.6478 sf 0 0 m (5) show NC gr 
 gsave  2268 1538 0 0 C 824.328 97.7464 t 0 r /Symbol findfont 58.6478 sf 0 0 m (-) show NC gr 
 gsave  2268 1538 0 0 C 1117.57 97.7464 t 0 r /Helvetica-Bold findfont 58.6478 sf 0 0 m (0) show NC gr 
 gsave  2268 1538 0 0 C 1391.26 97.7464 t 0 r /Helvetica-Bold findfont 58.6478 sf 0 0 m (5) show NC gr 
 gsave  2268 1538 0 0 C 1648.66 97.7464 t 0 r /Helvetica-Bold findfont 58.6478 sf 0 0 m (10) show NC gr 
 gsave  2268 1538 0 0 C 1925.6 97.7464 t 0 r /Helvetica-Bold findfont 58.6478 sf 0 0 m (15) show NC gr  227 1384 m 1814 X s 309 1347 m 37 Y s 364 1366 m 18 Y s 419 1366 m 18 Y s 474 1366 m 18 Y s 529 1366 m 18 Y s 584 1347 m 37 Y s 639 1366 m 18 Y s
 694 1366 m 18 Y s 749 1366 m 18 Y s 804 1366 m 18 Y s 859 1347 m 37 Y s 914 1366 m 18 Y s 969 1366 m 18 Y s 1024 1366 m 18 Y s 1079 1366 m 18 Y s 1134 1347 m 37 Y s 1189 1366 m 18 Y s 1244 1366 m 18 Y s 1299 1366 m 18 Y s 1354 1366 m 18 Y s 1409
 1347 m 37 Y s 1464 1366 m 18 Y s 1519 1366 m 18 Y s 1574 1366 m 18 Y s 1629 1366 m 18 Y s 1684 1347 m 37 Y s 1739 1366 m 18 Y s 1794 1366 m 18 Y s 1849 1366 m 18 Y s 1904 1366 m 18 Y s 1958 1347 m 37 Y s 309 1347 m 37 Y s 254 1366 m 18 Y s 1958 1347
 m 37 Y s 2013 1366 m 18 Y s 227 154 m 1230 Y s
 gsave  2268 1538 0 0 C 78.1971 1361.93 t 90 r /Helvetica-Bold findfont 39.0986 sf 0 0 m (2) show NC gr 
 gsave  2268 1538 0 0 C 104.263 1026.34 t 90 r /Helvetica-Bold findfont 58.6478 sf 0 0 m (Hits per mm) show NC gr  281 154 m -54 X s 254 194 m -27 X s 254 234 m -27 X s 254 274 m -27 X s 254 314 m -27 X s 281 354 m -54 X s 254 394 m -27 X s 254 434 m
 -27 X s 254 474 m -27 X s 254 514 m -27 X s 281 554 m -54 X s 254 594 m -27 X s 254 634 m -27 X s 254 675 m -27 X s 254 715 m -27 X s 281 755 m -54 X s 254 795 m -27 X s 254 835 m -27 X s 254 875 m -27 X s 254 915 m -27 X s 281 955 m -54 X s 254 995
 m -27 X s 254 1035 m -27 X s 254 1075 m -27 X s 254 1115 m -27 X s 281 1155 m -54 X s 254 1195 m -27 X s 254 1235 m -27 X s 254 1275 m -27 X s 254 1315 m -27 X s 281 1355 m -54 X s 281 1355 m -54 X s
 gsave  2268 1538 0 0 C 182.46 133.587 t 0 r /Helvetica-Bold findfont 58.6478 sf 0 0 m (0) show NC gr 
 gsave  2268 1538 0 0 C 101.005 332.338 t 0 r /Helvetica-Bold findfont 58.6478 sf 0 0 m (0.05) show NC gr 
 gsave  2268 1538 0 0 C 143.361 534.347 t 0 r /Helvetica-Bold findfont 58.6478 sf 0 0 m (0.1) show NC gr 
 gsave  2268 1538 0 0 C 101.005 733.098 t 0 r /Helvetica-Bold findfont 58.6478 sf 0 0 m (0.15) show NC gr 
 gsave  2268 1538 0 0 C 133.587 935.107 t 0 r /Helvetica-Bold findfont 58.6478 sf 0 0 m (0.2) show NC gr 
 gsave  2268 1538 0 0 C 101.005 1133.86 t 0 r /Helvetica-Bold findfont 58.6478 sf 0 0 m (0.25) show NC gr 
 gsave  2268 1538 0 0 C 133.587 1335.87 t 0 r /Helvetica-Bold findfont 58.6478 sf 0 0 m (0.3) show NC gr  2041 154 m 1230 Y s 1987 154 m 54 X s 2014 194 m 27 X s 2014 234 m 27 X s 2014 274 m 27 X s 2014 314 m 27 X s 1987 354 m 54 X s 2014 394 m 27 X
 s 2014 434 m 27 X s 2014 474 m 27 X s 2014 514 m 27 X s 1987 554 m 54 X s 2014 594 m 27 X s 2014 634 m 27 X s 2014 675 m 27 X s 2014 715 m 27 X s 1987 755 m 54 X s 2014 795 m 27 X s 2014 835 m 27 X s 2014 875 m 27 X s 2014 915 m 27 X s 1987 955 m 54
 X s 2014 995 m 27 X s 2014 1035 m 27 X s 2014 1075 m 27 X s 2014 1115 m 27 X s 1987 1155 m 54 X s 2014 1195 m 27 X s 2014 1235 m 27 X s 2014 1275 m 27 X s 2014 1315 m 27 X s 1987 1355 m 54 X s 1987 1355 m 54 X s 309 421 m 55 -14 d 55 19 d 55 -51 d
 55 34 d 55 -47 d 55 19 d 55 10 d 55 -36 d 55 33 d 55 -26 d 55 546 d 55 124 d 55 -88 d 55 -137 d 110 86 d 55 30 d 55 65 d 55 13 d 55 -634 d 55 15 d 55 8 d 55 3 d 55 7 d 55 25 d 55 -10 d 55 -9 d 55 -43 d 55 15 d 54 -21 d s /w 26 def /w2 {w 2 div} def
 /w3 {w 3 div} def 309 421 364 407 419 426 474 375 529 409 584 362 639 381 694 391 749 355 804 388 859 362 914 908 969 1032 1024 944 1079 807 1189 893 1244 923 1299 988 1354 1001 1409 367 1464 382 1519 390 1574 393 1629 400 1684 425 1739 415 1794 406
 1849 363 1904 378 1958 357 30 { m20} R 1 0 0 c black 1 0 0 c 309 271 m 55 7 d 55 1 d 55 -15 d 55 -6 d 55 67 d 55 -45 d 55 -3 d 55 -15 d 55 -26 d 55 221 d 55 110 d 55 -95 d 55 -48 d 55 3 d 110 49 d 55 -21 d 55 73 d 55 13 d 55 21 d 55 -313 d 55 3 d 55
 -8 d 55 13 d 55 13 d 55 2 d 55 8 d 55 36 d 55 -9 d 54 -4 d s 309 271 364 278 419 279 474 264 529 258 584 325 639 280 694 277 749 262 804 236 859 457 914 567 969 472 1024 424 1079 427 1189 476 1244 455 1299 528 1354 541 1409 562 1464 249 1519 252
 1574 244 1629 257 1684 270 1739 272 1794 280 1849 316 1904 307 1958 303 30 { m20} R 0 1 0 c black 0 1 0 c 639 259 m 55 -6 d 55 12 d 55 -28 d 55 13 d 55 -10 d 55 -7 d 55 -16 d 55 6 d 110 7 d 55 -6 d 55 23 d 55 -3 d 55 11 d 55 15 d 55 -14 d 55 11 d 55
 -8 d s 639 259 694 253 749 265 804 237 859 250 914 240 969 233 1024 217 1079 223 1189 230 1244 224 1299 247 1354 244 1409 255 1464 270 1519 256 1574 267 1629 259 18 { m20} R 0 0 1 c black 0 0 1 c 639 201 m 55 16 d 55 -1 d 55 -10 d 55 -6 d 55 -5 d 55
 5 d 55 -6 d 55 -3 d 110 2 d 55 -7 d 55 14 d 55 -5 d 55 13 d 55 4 d 55 -2 d 55 13 d 55 1 d s 639 201 694 217 749 216 804 206 859 200 914 195 969 200 1024 194 1079 191 1189 193 1244 186 1299 200 1354 195 1409 208 1464 212 1519 210 1574 223 1629 224 18
 { m20} R 1 1 0 c black 1 1 0 c 639 191 m 55 -4 d 55 -7 d 55 3 d 55 -2 d 55 -1 d 55 X 55 8 d 55 -3 d 110 -5 d 55 -2 d 55 9 d 55 -3 d 55 8 d 55 2 d 55 2 d 55 1 d 55 8 d s 639 191 694 187 749 180 804 183 859 181 914 180 969 180 1024 188 1079 185 1189
 180 1244 178 1299 187 1354 184 1409 192 1464 194 1519 196 1574 197 1629 205 18 { m20} R black
 gsave  2268 1538 0 0 C 1531.36 1032.85 t 0 r /Helvetica-Bold findfont 58.6478 sf 0 0 m (Pixel Barrel) show NC gr 
 gsave  2268 1538 0 0 C 1648.66 967.689 t 0 r /Helvetica-Bold findfont 58.6478 sf 0 0 m (Layer 0) show NC gr  1539 980 m 91 X s 1585 980 m20
 gsave  2268 1538 0 0 C 1648.66 902.525 t 0 r /Helvetica-Bold findfont 58.6478 sf 0 0 m (Layer 1) show NC gr  1 0 0 c 1539 916 m 91 X s 1585 916 m20 black
 gsave  2268 1538 0 0 C 1648.66 840.619 t 0 r /Helvetica-Bold findfont 58.6478 sf 0 0 m (Layer 2) show NC gr  0 1 0 c 1539 852 m 91 X s 1585 852 m20 black
 gsave  2268 1538 0 0 C 1648.66 775.455 t 0 r /Helvetica-Bold findfont 58.6478 sf 0 0 m (Layer 3) show NC gr  0 0 1 c 1539 788 m 91 X s 1585 788 m20 black
 gsave  2268 1538 0 0 C 1648.66 710.291 t 0 r /Helvetica-Bold findfont 58.6478 sf 0 0 m (Layer 4) show NC gr  1 1 0 c 1539 724 m 91 X s 1585 724 m20
 gr  gr showpage
end
%%EOF
