%!PS-Adobe-2.0 EPSF-2.0
%%BoundingBox:  0 0 567 384
%%Title: outputDir/pixel_occupancy/flu_pixlayer_mgz.eps: c1_n9
%%Creator: ROOT Version 6.04/12
%%CreationDate: Mon Apr 25 16:02:04 2016
%%DocumentNeededResources: ProcSet (FontSetInit)
%%EndComments
%%BeginProlog
80 dict begin
/s {stroke} def /l {lineto} def /m {moveto} def /t {translate} def
/r {rotate} def /rl {roll}  def /R {repeat} def
/d {rlineto} def /rm {rmoveto} def /gr {grestore} def /f {eofill} def
/c {setrgbcolor} def /black {0 setgray} def /sd {setdash} def
/cl {closepath} def /sf {scalefont setfont} def /lw {setlinewidth} def
/box {m dup 0 exch d exch 0 d 0 exch neg d cl} def
/NC{systemdict begin initclip end}def/C{NC box clip newpath}def
/bl {box s} def /bf {gsave box gsave f grestore 1 lw [] 0 sd s grestore} def /Y { 0 exch d} def /X { 0 d} def 
/K {{pop pop 0 moveto} exch kshow} bind def
/ita {/ang 15 def gsave [1 0 ang dup sin exch cos div 1 0 0] concat} def 
/mp {newpath /y exch def /x exch def} def
/side {[w .77 mul w .23 mul] .385 w mul sd w 0 l currentpoint t -144 r} def
/mr {mp x y w2 0 360 arc} def /m24 {mr s} def /m20 {mr f} def
/mb {mp x y w2 add m w2 neg 0 d 0 w neg d w 0 d 0 w d cl} def
/mt {mp x y w2 add m w2 neg w neg d w 0 d cl} def
/m21 {mb f} def /m25 {mb s} def /m22 {mt f} def /m26{mt s} def
/m23 {mp x y w2 sub m w2 w d w neg 0 d cl f} def
/m27 {mp x y w2 add m w3 neg w2 neg d w3 w2 neg d w3 w2 d cl s} def
/m28 {mp x w2 sub y w2 sub w3 add m w3 0 d  0 w3 neg d w3 0 d 0 w3 d w3 0 d  0 w3 d w3 neg 0 d 0 w3 d w3 neg 0 d 0 w3 neg d w3 neg 0 d cl s } def
/m29 {mp gsave x w2 sub y w2 add w3 sub m currentpoint t 4 {side} repeat cl fill gr} def
/m30 {mp gsave x w2 sub y w2 add w3 sub m currentpoint t 4 {side} repeat cl s gr} def
/m31 {mp x y w2 sub m 0 w d x w2 sub y m w 0 d x w2 sub y w2 add m w w neg d x w2 sub y w2 sub m w w d s} def
/m32 {mp x y w2 sub m w2 w d w neg 0 d cl s} def
/m33 {mp x y w2 add m w3 neg w2 neg d w3 w2 neg d w3 w2 d cl f} def
/m34 {mp x w2 sub y w2 sub w3 add m w3 0 d  0 w3 neg d w3 0 d 0 w3 d w3 0 d  0 w3 d w3 neg 0 d 0 w3 d w3 neg 0 d 0 w3 neg d w3 neg 0 d cl f } def
/m2 {mp x y w2 sub m 0 w d x w2 sub y m w 0 d s} def
/m5 {mp x w2 sub y w2 sub m w w d x w2 sub y w2 add m w w neg d s} def
%%IncludeResource: ProcSet (FontSetInit)
%%IncludeResource: font Times-Roman
%%IncludeResource: font Times-Italic
%%IncludeResource: font Times-Bold
%%IncludeResource: font Times-BoldItalic
%%IncludeResource: font Helvetica
%%IncludeResource: font Helvetica-Oblique
%%IncludeResource: font Helvetica-Bold
%%IncludeResource: font Helvetica-BoldOblique
%%IncludeResource: font Courier
%%IncludeResource: font Courier-Oblique
%%IncludeResource: font Courier-Bold
%%IncludeResource: font Courier-BoldOblique
%%IncludeResource: font Symbol
%%IncludeResource: font ZapfDingbats
/reEncode {exch findfont dup length dict begin {1 index /FID eq  {pop pop} {def} ifelse } forall /Encoding exch def currentdict end dup /FontName get exch definefont pop } def [/Times-Bold /Times-Italic /Times-BoldItalic /Helvetica /Helvetica-Oblique
 /Helvetica-Bold /Helvetica-BoldOblique /Courier /Courier-Oblique /Courier-Bold /Courier-BoldOblique /Times-Roman /AvantGarde-Book /AvantGarde-BookOblique /AvantGarde-Demi /AvantGarde-DemiOblique /Bookman-Demi /Bookman-DemiItalic /Bookman-Light
 /Bookman-LightItalic /Helvetica-Narrow /Helvetica-Narrow-Bold /Helvetica-Narrow-BoldOblique /Helvetica-Narrow-Oblique /NewCenturySchlbk-Roman /NewCenturySchlbk-Bold /NewCenturySchlbk-BoldItalic /NewCenturySchlbk-Italic /Palatino-Bold
 /Palatino-BoldItalic /Palatino-Italic /Palatino-Roman ] {ISOLatin1Encoding reEncode } forall
%%EndProlog
%%BeginSetup
%%EndSetup
newpath  gsave  .25 .25 scale  gsave  0 0 t black[  ] 0 sd 3 lw 1 1 1 c 2268 1538 0 0 bf black 1 1 1 c 1814 1230 227 154 bf black 1814 1230 227 154 bl 1 1 1 c 1814 1230 227 154 bf black 1814 1230 227 154 bl 227 154 m 1814 X s
 gsave  2268 1538 0 0 C 1853.92 35.8403 t 0 r /Helvetica-Bold findfont 58.6478 sf 0 0 m (z [mm]) show NC gr  428 191 m -37 Y s 486 172 m -18 Y s 545 172 m -18 Y s 604 172 m -18 Y s 663 191 m -37 Y s 722 172 m -18 Y s 781 172 m -18 Y s 840 172 m -18 Y
 s 898 191 m -37 Y s 957 172 m -18 Y s 1016 172 m -18 Y s 1075 172 m -18 Y s 1134 191 m -37 Y s 1193 172 m -18 Y s 1252 172 m -18 Y s 1310 172 m -18 Y s 1369 191 m -37 Y s 1428 172 m -18 Y s 1487 172 m -18 Y s 1546 172 m -18 Y s 1605 191 m -37 Y s
 1664 172 m -18 Y s 1722 172 m -18 Y s 1781 172 m -18 Y s 1840 191 m -37 Y s 428 191 m -37 Y s 369 172 m -18 Y s 310 172 m -18 Y s 251 172 m -18 Y s 1840 191 m -37 Y s 1899 172 m -18 Y s 1958 172 m -18 Y s 2017 172 m -18 Y s
 gsave  2268 1538 0 0 C 390.986 97.7464 t 0 r /Helvetica-Bold findfont 58.6478 sf 0 0 m (600) show NC gr 
 gsave  2268 1538 0 0 C 361.662 97.7464 t 0 r /Symbol findfont 58.6478 sf 0 0 m (-) show NC gr 
 gsave  2268 1538 0 0 C 625.577 97.7464 t 0 r /Helvetica-Bold findfont 58.6478 sf 0 0 m (400) show NC gr 
 gsave  2268 1538 0 0 C 596.253 97.7464 t 0 r /Symbol findfont 58.6478 sf 0 0 m (-) show NC gr 
 gsave  2268 1538 0 0 C 860.168 97.7464 t 0 r /Helvetica-Bold findfont 58.6478 sf 0 0 m (200) show NC gr 
 gsave  2268 1538 0 0 C 830.844 97.7464 t 0 r /Symbol findfont 58.6478 sf 0 0 m (-) show NC gr 
 gsave  2268 1538 0 0 C 1117.57 97.7464 t 0 r /Helvetica-Bold findfont 58.6478 sf 0 0 m (0) show NC gr 
 gsave  2268 1538 0 0 C 1319.58 97.7464 t 0 r /Helvetica-Bold findfont 58.6478 sf 0 0 m (200) show NC gr 
 gsave  2268 1538 0 0 C 1554.17 97.7464 t 0 r /Helvetica-Bold findfont 58.6478 sf 0 0 m (400) show NC gr 
 gsave  2268 1538 0 0 C 1788.76 97.7464 t 0 r /Helvetica-Bold findfont 58.6478 sf 0 0 m (600) show NC gr  227 1384 m 1814 X s 428 1347 m 37 Y s 486 1366 m 18 Y s 545 1366 m 18 Y s 604 1366 m 18 Y s 663 1347 m 37 Y s 722 1366 m 18 Y s 781 1366 m 18 Y
 s 840 1366 m 18 Y s 898 1347 m 37 Y s 957 1366 m 18 Y s 1016 1366 m 18 Y s 1075 1366 m 18 Y s 1134 1347 m 37 Y s 1193 1366 m 18 Y s 1252 1366 m 18 Y s 1310 1366 m 18 Y s 1369 1347 m 37 Y s 1428 1366 m 18 Y s 1487 1366 m 18 Y s 1546 1366 m 18 Y s
 1605 1347 m 37 Y s 1664 1366 m 18 Y s 1722 1366 m 18 Y s 1781 1366 m 18 Y s 1840 1347 m 37 Y s 428 1347 m 37 Y s 369 1366 m 18 Y s 310 1366 m 18 Y s 251 1366 m 18 Y s 1840 1347 m 37 Y s 1899 1366 m 18 Y s 1958 1366 m 18 Y s 2017 1366 m 18 Y s 227
 154 m 1230 Y s
 gsave  2268 1538 0 0 C 78.1971 1361.93 t 90 r /Helvetica-Bold findfont 39.0986 sf 0 0 m (2) show NC gr 
 gsave  2268 1538 0 0 C 104.263 1026.34 t 90 r /Helvetica-Bold findfont 58.6478 sf 0 0 m (Hits per mm) show NC gr  281 154 m -54 X s 254 194 m -27 X s 254 234 m -27 X s 254 274 m -27 X s 254 314 m -27 X s 281 354 m -54 X s 254 394 m -27 X s 254 434 m
 -27 X s 254 474 m -27 X s 254 514 m -27 X s 281 554 m -54 X s 254 594 m -27 X s 254 634 m -27 X s 254 675 m -27 X s 254 715 m -27 X s 281 755 m -54 X s 254 795 m -27 X s 254 835 m -27 X s 254 875 m -27 X s 254 915 m -27 X s 281 955 m -54 X s 254 995
 m -27 X s 254 1035 m -27 X s 254 1075 m -27 X s 254 1115 m -27 X s 281 1155 m -54 X s 254 1195 m -27 X s 254 1235 m -27 X s 254 1275 m -27 X s 254 1315 m -27 X s 281 1355 m -54 X s 281 1355 m -54 X s
 gsave  2268 1538 0 0 C 182.46 133.587 t 0 r /Helvetica-Bold findfont 58.6478 sf 0 0 m (0) show NC gr 
 gsave  2268 1538 0 0 C 101.005 332.338 t 0 r /Helvetica-Bold findfont 58.6478 sf 0 0 m (0.05) show NC gr 
 gsave  2268 1538 0 0 C 143.361 534.347 t 0 r /Helvetica-Bold findfont 58.6478 sf 0 0 m (0.1) show NC gr 
 gsave  2268 1538 0 0 C 101.005 733.098 t 0 r /Helvetica-Bold findfont 58.6478 sf 0 0 m (0.15) show NC gr 
 gsave  2268 1538 0 0 C 133.587 935.107 t 0 r /Helvetica-Bold findfont 58.6478 sf 0 0 m (0.2) show NC gr 
 gsave  2268 1538 0 0 C 101.005 1133.86 t 0 r /Helvetica-Bold findfont 58.6478 sf 0 0 m (0.25) show NC gr 
 gsave  2268 1538 0 0 C 133.587 1335.87 t 0 r /Helvetica-Bold findfont 58.6478 sf 0 0 m (0.3) show NC gr  2041 154 m 1230 Y s 1987 154 m 54 X s 2014 194 m 27 X s 2014 234 m 27 X s 2014 274 m 27 X s 2014 314 m 27 X s 1987 354 m 54 X s 2014 394 m 27 X
 s 2014 434 m 27 X s 2014 474 m 27 X s 2014 514 m 27 X s 1987 554 m 54 X s 2014 594 m 27 X s 2014 634 m 27 X s 2014 675 m 27 X s 2014 715 m 27 X s 1987 755 m 54 X s 2014 795 m 27 X s 2014 835 m 27 X s 2014 875 m 27 X s 2014 915 m 27 X s 1987 955 m 54
 X s 2014 995 m 27 X s 2014 1035 m 27 X s 2014 1075 m 27 X s 2014 1115 m 27 X s 1987 1155 m 54 X s 2014 1195 m 27 X s 2014 1235 m 27 X s 2014 1275 m 27 X s 2014 1315 m 27 X s 1987 1355 m 54 X s 1987 1355 m 54 X s 309 421 m 69 -14 d 63 19 d 83 -51 d
 70 34 d 61 -47 d 50 19 d 44 10 d 43 -36 d 61 33 d 43 -26 d 48 546 d 46 124 d 50 -88 d 46 -137 d 95 86 d 46 30 d 48 65 d 50 13 d 47 -634 d 42 15 d 61 8 d 44 3 d 44 7 d 51 25 d 59 -10 d 71 -9 d 83 -43 d 64 15 d 67 -21 d s /w 26 def /w2 {w 2 div} def
 /w3 {w 3 div} def 309 421 378 407 441 426 524 375 594 409 655 362 705 381 749 391 792 355 853 388 896 362 944 908 990 1032 1040 944 1086 807 1181 893 1227 923 1275 988 1325 1001 1372 367 1414 382 1475 390 1519 393 1563 400 1614 425 1673 415 1744 406
 1827 363 1891 378 1958 357 30 { m20} R 1 0 0 c black 1 0 0 c 368 271 m 55 7 d 57 1 d 91 -15 d 77 -6 d 63 67 d 54 -45 d 44 -3 d 37 -15 d 31 -26 d 43 221 d 47 110 d 46 -95 d 50 -48 d 47 3 d 49 49 d 46 -21 d 47 73 d 48 13 d 49 21 d 42 -313 d 31 3 d 36
 -8 d 45 13 d 54 13 d 64 2 d 75 8 d 92 36 d 56 -9 d 55 -4 d s 368 271 423 278 480 279 571 264 648 258 711 325 765 280 809 277 846 262 877 236 920 457 967 567 1013 472 1063 424 1110 427 1159 476 1205 455 1252 528 1300 541 1349 562 1391 249 1422 252
 1458 244 1503 257 1557 270 1621 272 1696 280 1788 316 1844 307 1899 303 30 { m20} R 0 1 0 c black 0 1 0 c 726 259 m 52 -6 d 48 12 d 47 -28 d 43 13 d 49 -10 d 52 -7 d 47 -16 d 45 6 d 49 7 d 49 -6 d 48 23 d 46 -3 d 48 11 d 48 15 d 47 -14 d 48 11 d 49
 -8 d s 726 259 778 253 826 265 873 237 916 250 965 240 1017 233 1064 217 1109 223 1158 230 1207 224 1255 247 1301 244 1349 255 1397 270 1444 256 1492 267 1541 259 18 { m20} R 0 0 1 c black 0 0 1 c 727 201 m 50 16 d 47 -1 d 48 -10 d 51 -6 d 42 -5 d
 50 5 d 48 -6 d 44 -3 d 51 2 d 47 -7 d 47 14 d 52 -5 d 45 13 d 50 4 d 47 -2 d 46 13 d 48 1 d s 727 201 777 217 824 216 872 206 923 200 965 195 1015 200 1063 194 1107 191 1158 193 1205 186 1252 200 1304 195 1349 208 1399 212 1446 210 1492 223 1540 224
 18 { m20} R 1 1 0 c black 1 1 0 c 727 191 m 48 -4 d 48 -7 d 49 3 d 48 -2 d 50 -1 d 45 X 49 8 d 45 -3 d 48 -5 d 49 -2 d 48 9 d 45 -3 d 51 8 d 48 2 d 45 2 d 49 1 d 46 8 d s 727 191 775 187 823 180 872 183 920 181 970 180 1015 180 1064 188 1109 185
 1157 180 1206 178 1254 187 1299 184 1350 192 1398 194 1443 196 1492 197 1538 205 18 { m20} R black
 gsave  2268 1538 0 0 C 1531.36 1032.85 t 0 r /Helvetica-Bold findfont 58.6478 sf 0 0 m (Pixel Barrel) show NC gr 
 gsave  2268 1538 0 0 C 1648.66 967.689 t 0 r /Helvetica-Bold findfont 58.6478 sf 0 0 m (Layer 0) show NC gr  1539 980 m 91 X s 1585 980 m20
 gsave  2268 1538 0 0 C 1648.66 902.525 t 0 r /Helvetica-Bold findfont 58.6478 sf 0 0 m (Layer 1) show NC gr  1 0 0 c 1539 916 m 91 X s 1585 916 m20 black
 gsave  2268 1538 0 0 C 1648.66 840.619 t 0 r /Helvetica-Bold findfont 58.6478 sf 0 0 m (Layer 2) show NC gr  0 1 0 c 1539 852 m 91 X s 1585 852 m20 black
 gsave  2268 1538 0 0 C 1648.66 775.455 t 0 r /Helvetica-Bold findfont 58.6478 sf 0 0 m (Layer 3) show NC gr  0 0 1 c 1539 788 m 91 X s 1585 788 m20 black
 gsave  2268 1538 0 0 C 1648.66 710.291 t 0 r /Helvetica-Bold findfont 58.6478 sf 0 0 m (Layer 4) show NC gr  1 1 0 c 1539 724 m 91 X s 1585 724 m20
 gr  gr showpage
end
%%EOF
