%!PS-Adobe-2.0 EPSF-2.0
%%BoundingBox:  0 0 567 384
%%Title: outputDir/pixel_occupancy/hit_pixdisk_mgr.eps: c1_n17
%%Creator: ROOT Version 6.04/12
%%CreationDate: Mon Apr 25 16:02:07 2016
%%DocumentNeededResources: ProcSet (FontSetInit)
%%EndComments
%%BeginProlog
80 dict begin
/s {stroke} def /l {lineto} def /m {moveto} def /t {translate} def
/r {rotate} def /rl {roll}  def /R {repeat} def
/d {rlineto} def /rm {rmoveto} def /gr {grestore} def /f {eofill} def
/c {setrgbcolor} def /black {0 setgray} def /sd {setdash} def
/cl {closepath} def /sf {scalefont setfont} def /lw {setlinewidth} def
/box {m dup 0 exch d exch 0 d 0 exch neg d cl} def
/NC{systemdict begin initclip end}def/C{NC box clip newpath}def
/bl {box s} def /bf {gsave box gsave f grestore 1 lw [] 0 sd s grestore} def /Y { 0 exch d} def /X { 0 d} def 
/K {{pop pop 0 moveto} exch kshow} bind def
/ita {/ang 15 def gsave [1 0 ang dup sin exch cos div 1 0 0] concat} def 
/mp {newpath /y exch def /x exch def} def
/side {[w .77 mul w .23 mul] .385 w mul sd w 0 l currentpoint t -144 r} def
/mr {mp x y w2 0 360 arc} def /m24 {mr s} def /m20 {mr f} def
/mb {mp x y w2 add m w2 neg 0 d 0 w neg d w 0 d 0 w d cl} def
/mt {mp x y w2 add m w2 neg w neg d w 0 d cl} def
/m21 {mb f} def /m25 {mb s} def /m22 {mt f} def /m26{mt s} def
/m23 {mp x y w2 sub m w2 w d w neg 0 d cl f} def
/m27 {mp x y w2 add m w3 neg w2 neg d w3 w2 neg d w3 w2 d cl s} def
/m28 {mp x w2 sub y w2 sub w3 add m w3 0 d  0 w3 neg d w3 0 d 0 w3 d w3 0 d  0 w3 d w3 neg 0 d 0 w3 d w3 neg 0 d 0 w3 neg d w3 neg 0 d cl s } def
/m29 {mp gsave x w2 sub y w2 add w3 sub m currentpoint t 4 {side} repeat cl fill gr} def
/m30 {mp gsave x w2 sub y w2 add w3 sub m currentpoint t 4 {side} repeat cl s gr} def
/m31 {mp x y w2 sub m 0 w d x w2 sub y m w 0 d x w2 sub y w2 add m w w neg d x w2 sub y w2 sub m w w d s} def
/m32 {mp x y w2 sub m w2 w d w neg 0 d cl s} def
/m33 {mp x y w2 add m w3 neg w2 neg d w3 w2 neg d w3 w2 d cl f} def
/m34 {mp x w2 sub y w2 sub w3 add m w3 0 d  0 w3 neg d w3 0 d 0 w3 d w3 0 d  0 w3 d w3 neg 0 d 0 w3 d w3 neg 0 d 0 w3 neg d w3 neg 0 d cl f } def
/m2 {mp x y w2 sub m 0 w d x w2 sub y m w 0 d s} def
/m5 {mp x w2 sub y w2 sub m w w d x w2 sub y w2 add m w w neg d s} def
%%IncludeResource: ProcSet (FontSetInit)
%%IncludeResource: font Times-Roman
%%IncludeResource: font Times-Italic
%%IncludeResource: font Times-Bold
%%IncludeResource: font Times-BoldItalic
%%IncludeResource: font Helvetica
%%IncludeResource: font Helvetica-Oblique
%%IncludeResource: font Helvetica-Bold
%%IncludeResource: font Helvetica-BoldOblique
%%IncludeResource: font Courier
%%IncludeResource: font Courier-Oblique
%%IncludeResource: font Courier-Bold
%%IncludeResource: font Courier-BoldOblique
%%IncludeResource: font Symbol
%%IncludeResource: font ZapfDingbats
/reEncode {exch findfont dup length dict begin {1 index /FID eq  {pop pop} {def} ifelse } forall /Encoding exch def currentdict end dup /FontName get exch definefont pop } def [/Times-Bold /Times-Italic /Times-BoldItalic /Helvetica /Helvetica-Oblique
 /Helvetica-Bold /Helvetica-BoldOblique /Courier /Courier-Oblique /Courier-Bold /Courier-BoldOblique /Times-Roman /AvantGarde-Book /AvantGarde-BookOblique /AvantGarde-Demi /AvantGarde-DemiOblique /Bookman-Demi /Bookman-DemiItalic /Bookman-Light
 /Bookman-LightItalic /Helvetica-Narrow /Helvetica-Narrow-Bold /Helvetica-Narrow-BoldOblique /Helvetica-Narrow-Oblique /NewCenturySchlbk-Roman /NewCenturySchlbk-Bold /NewCenturySchlbk-BoldItalic /NewCenturySchlbk-Italic /Palatino-Bold
 /Palatino-BoldItalic /Palatino-Italic /Palatino-Roman ] {ISOLatin1Encoding reEncode } forall
%%EndProlog
%%BeginSetup
%%EndSetup
newpath  gsave  .25 .25 scale  gsave  0 0 t black[  ] 0 sd 3 lw 1 1 1 c 2268 1538 0 0 bf black 1 1 1 c 1814 1230 227 154 bf black 1814 1230 227 154 bl 1 1 1 c 1814 1230 227 154 bf black 1814 1230 227 154 bl 227 154 m 1814 X s
 gsave  2268 1538 0 0 C 1860.44 35.8403 t 0 r /Helvetica-Bold findfont 58.6478 sf 0 0 m (r [mm]) show NC gr  333 191 m -37 Y s 415 172 m -18 Y s 498 172 m -18 Y s 580 172 m -18 Y s 662 172 m -18 Y s 745 191 m -37 Y s 827 172 m -18 Y s 909 172 m -18 Y
 s 992 172 m -18 Y s 1074 172 m -18 Y s 1156 191 m -37 Y s 1239 172 m -18 Y s 1321 172 m -18 Y s 1403 172 m -18 Y s 1486 172 m -18 Y s 1568 191 m -37 Y s 1650 172 m -18 Y s 1733 172 m -18 Y s 1815 172 m -18 Y s 1897 172 m -18 Y s 1980 191 m -37 Y s
 333 191 m -37 Y s 251 172 m -18 Y s 1980 191 m -37 Y s
 gsave  2268 1538 0 0 C 283.465 97.7464 t 0 r /Helvetica-Bold findfont 58.6478 sf 0 0 m (100) show NC gr 
 gsave  2268 1538 0 0 C 693.999 97.7464 t 0 r /Helvetica-Bold findfont 58.6478 sf 0 0 m (150) show NC gr 
 gsave  2268 1538 0 0 C 1104.53 97.7464 t 0 r /Helvetica-Bold findfont 58.6478 sf 0 0 m (200) show NC gr 
 gsave  2268 1538 0 0 C 1518.33 97.7464 t 0 r /Helvetica-Bold findfont 58.6478 sf 0 0 m (250) show NC gr 
 gsave  2268 1538 0 0 C 1928.86 97.7464 t 0 r /Helvetica-Bold findfont 58.6478 sf 0 0 m (300) show NC gr  227 1384 m 1814 X s 333 1347 m 37 Y s 415 1366 m 18 Y s 498 1366 m 18 Y s 580 1366 m 18 Y s 662 1366 m 18 Y s 745 1347 m 37 Y s 827 1366 m 18 Y
 s 909 1366 m 18 Y s 992 1366 m 18 Y s 1074 1366 m 18 Y s 1156 1347 m 37 Y s 1239 1366 m 18 Y s 1321 1366 m 18 Y s 1403 1366 m 18 Y s 1486 1366 m 18 Y s 1568 1347 m 37 Y s 1650 1366 m 18 Y s 1733 1366 m 18 Y s 1815 1366 m 18 Y s 1897 1366 m 18 Y s
 1980 1347 m 37 Y s 333 1347 m 37 Y s 251 1366 m 18 Y s 1980 1347 m 37 Y s 227 154 m 1230 Y s
 gsave  2268 1538 0 0 C 97.7464 801.521 t 90 r /Helvetica-Bold findfont 58.6478 sf 0 0 m (Hits per etaModuleID) show NC gr  281 190 m -54 X s 254 218 m -27 X s 254 246 m -27 X s 254 274 m -27 X s 254 302 m -27 X s 281 330 m -54 X s 254 359 m -27 X s
 254 387 m -27 X s 254 415 m -27 X s 254 443 m -27 X s 281 471 m -54 X s 254 499 m -27 X s 254 527 m -27 X s 254 556 m -27 X s 254 584 m -27 X s 281 612 m -54 X s 254 640 m -27 X s 254 668 m -27 X s 254 696 m -27 X s 254 724 m -27 X s 281 753 m -54 X
 s 254 781 m -27 X s 254 809 m -27 X s 254 837 m -27 X s 254 865 m -27 X s 281 893 m -54 X s 254 921 m -27 X s 254 950 m -27 X s 254 978 m -27 X s 254 1006 m -27 X s 281 1034 m -54 X s 254 1062 m -27 X s 254 1090 m -27 X s 254 1118 m -27 X s 254 1147
 m -27 X s 281 1175 m -54 X s 254 1203 m -27 X s 254 1231 m -27 X s 254 1259 m -27 X s 254 1287 m -27 X s 281 1315 m -54 X s 281 190 m -54 X s 254 162 m -27 X s 281 1315 m -54 X s 254 1343 m -27 X s 254 1372 m -27 X s
 gsave  2268 1538 0 0 C 117.296 169.427 t 0 r /Helvetica-Bold findfont 58.6478 sf 0 0 m (100) show NC gr 
 gsave  2268 1538 0 0 C 117.296 309.53 t 0 r /Helvetica-Bold findfont 58.6478 sf 0 0 m (150) show NC gr 
 gsave  2268 1538 0 0 C 117.296 449.633 t 0 r /Helvetica-Bold findfont 58.6478 sf 0 0 m (200) show NC gr 
 gsave  2268 1538 0 0 C 117.296 589.737 t 0 r /Helvetica-Bold findfont 58.6478 sf 0 0 m (250) show NC gr 
 gsave  2268 1538 0 0 C 117.296 729.84 t 0 r /Helvetica-Bold findfont 58.6478 sf 0 0 m (300) show NC gr 
 gsave  2268 1538 0 0 C 117.296 873.201 t 0 r /Helvetica-Bold findfont 58.6478 sf 0 0 m (350) show NC gr 
 gsave  2268 1538 0 0 C 117.296 1013.3 t 0 r /Helvetica-Bold findfont 58.6478 sf 0 0 m (400) show NC gr 
 gsave  2268 1538 0 0 C 117.296 1153.41 t 0 r /Helvetica-Bold findfont 58.6478 sf 0 0 m (450) show NC gr 
 gsave  2268 1538 0 0 C 117.296 1293.51 t 0 r /Helvetica-Bold findfont 58.6478 sf 0 0 m (500) show NC gr  2041 154 m 1230 Y s 1987 190 m 54 X s 2014 218 m 27 X s 2014 246 m 27 X s 2014 274 m 27 X s 2014 302 m 27 X s 1987 330 m 54 X s 2014 359 m 27 X
 s 2014 387 m 27 X s 2014 415 m 27 X s 2014 443 m 27 X s 1987 471 m 54 X s 2014 499 m 27 X s 2014 527 m 27 X s 2014 556 m 27 X s 2014 584 m 27 X s 1987 612 m 54 X s 2014 640 m 27 X s 2014 668 m 27 X s 2014 696 m 27 X s 2014 724 m 27 X s 1987 753 m 54
 X s 2014 781 m 27 X s 2014 809 m 27 X s 2014 837 m 27 X s 2014 865 m 27 X s 1987 893 m 54 X s 2014 921 m 27 X s 2014 950 m 27 X s 2014 978 m 27 X s 2014 1006 m 27 X s 1987 1034 m 54 X s 2014 1062 m 27 X s 2014 1090 m 27 X s 2014 1118 m 27 X s 2014
 1147 m 27 X s 1987 1175 m 54 X s 2014 1203 m 27 X s 2014 1231 m 27 X s 2014 1259 m 27 X s 2014 1287 m 27 X s 1987 1315 m 54 X s 1987 190 m 54 X s 2014 162 m 27 X s 1987 1315 m 54 X s 2014 1343 m 27 X s 2014 1372 m 27 X s 309 858 m 67 Y s 303 925 m
 13 X s 309 832 m -67 Y s 303 765 m 13 X s 318 803 m 25 Y s 311 828 m 13 X s 318 777 m -26 Y s 311 751 m 13 X s 321 923 m 84 Y s 314 1007 m 13 X s 321 897 m -84 Y s 314 813 m 13 X s 321 681 m 11 Y s 315 692 m 13 X s 321 655 m -11 Y s 315 644 m 13 X s
 309 845 m 9 -55 d 3 120 d -242 Y s /w 26 def /w2 {w 2 div} def /w3 {w 3 div} def 309 845 318 790 321 910 321 668 4 { m20} R 1 0 0 c 895 429 m 10 Y s 889 439 m 13 X s 895 403 m -10 Y s 889 393 m 13 X s 897 484 m 34 Y s 891 518 m 13 X s 897 458 m -34
 Y s 891 424 m 13 X s 891 597 m 37 Y s 885 634 m 13 X s 891 571 m -37 Y s 885 534 m 13 X s 902 455 m 18 Y s 896 473 m 13 X s 902 429 m -18 Y s 896 411 m 13 X s black 1 0 0 c 895 416 m 2 55 d -6 113 d 11 -142 d s 895 416 897 471 891 584 902 442 4 {
 m20} R 0 1 0 c 1414 368 m 15 Y s 1407 383 m 13 X s 1414 342 m -14 Y s 1407 328 m 13 X s 1412 461 m 32 Y s 1405 493 m 13 X s 1412 435 m -33 Y s 1405 402 m 13 X s 1412 462 m 81 Y s 1405 543 m 13 X s 1412 436 m -82 Y s 1405 354 m 13 X s 1425 457 m 30 Y
 s 1419 487 m 13 X s 1425 431 m -29 Y s 1419 402 m 13 X s black 0 1 0 c 1414 355 m -2 93 d 1 Y 13 -5 d s 1414 355 1412 448 1412 449 1425 444 4 { m20} R 0 0 1 c 1945 246 m 9 Y s 1939 255 m 13 X s 1945 220 m -10 Y s 1939 210 m 13 X s 1933 376 m 25 Y s
 1927 401 m 13 X s 1933 350 m -25 Y s 1927 325 m 13 X s 1933 277 m 12 Y s 1926 289 m 13 X s 1933 251 m -11 Y s 1926 240 m 13 X s 1922 279 m 13 Y s 1916 292 m 13 X s 1922 253 m -12 Y s 1916 241 m 13 X s black 0 0 1 c 1945 233 m -12 130 d -99 Y -11 2 d
 s 1945 233 1933 363 1933 264 1922 266 4 { m20} R black[ 12 12] 0 sd 310 871 m 21 Y s 303 892 m 14 X s 310 845 m -21 Y s 303 824 m 14 X s 316 892 m 20 Y s 309 912 m 13 X s 316 866 m -20 Y s 309 846 m 13 X s 326 938 m 22 Y s 319 960 m 13 X s 326 912 m
 -22 Y s 319 890 m 13 X s 317 946 m 34 Y s 311 980 m 13 X s 317 920 m -35 Y s 311 885 m 13 X s 310 858 m 6 21 d 10 46 d -9 8 d s[  ] 0 sd 310 858 316 879 326 925 317 933 4 { m21} R[ 12 12] 0 sd 1 0 0 c 894 491 m 14 Y s 887 505 m 13 X s 894 465 m -14
 Y s 887 451 m 13 X s 911 479 m 33 Y s 905 512 m 13 X s 911 453 m -33 Y s 905 420 m 13 X s 896 455 m 31 Y s 890 486 m 13 X s 896 429 m -31 Y s 890 398 m 13 X s 904 429 m 15 Y s 897 444 m 13 X s 904 403 m -15 Y s 897 388 m 13 X s black 1 0 0 c 894 478
 m 17 -12 d -15 -24 d 8 -26 d s[  ] 0 sd 894 478 911 466 896 442 904 416 4 { m21} R[ 12 12] 0 sd 0 1 0 c 1410 310 m 7 Y s 1404 317 m 13 X s 1410 284 m -7 Y s 1404 277 m 13 X s 1425 281 m 12 Y s 1418 293 m 13 X s 1425 254 m -12 Y s 1418 242 m 13 X s
 1417 386 m 18 Y s 1411 404 m 13 X s 1417 360 m -17 Y s 1411 343 m 13 X s 1425 305 m 10 Y s 1419 315 m 13 X s 1425 279 m -9 Y s 1419 270 m 13 X s black 0 1 0 c 1410 297 m 15 -30 d -8 106 d 8 -81 d s[  ] 0 sd 1410 297 1425 267 1417 373 1425 292 4 {
 m21} R[ 12 12] 0 sd 0 0 1 c 1915 288 m 7 Y s 1909 295 m 13 X s 1915 262 m -6 Y s 1909 256 m 13 X s 1958 336 m 31 Y s 1952 367 m 13 X s 1958 310 m -32 Y s 1952 278 m 13 X s 1923 221 m s 1917 221 m 13 X s 1923 195 m -1 Y s 1917 194 m 13 X s 1932 294 m
 26 Y s 1925 320 m 13 X s 1932 268 m -26 Y s 1925 242 m 13 X s black 0 0 1 c 1915 275 m 43 48 d -35 -115 d 9 73 d s[  ] 0 sd 1915 275 1958 323 1923 208 1932 281 4 { m21} R[ 12 12] 0 sd black
 gsave  2268 1538 0 0 C 325.821 1283.74 t 0 r /Helvetica-Bold findfont 58.6478 sf 0 0 m (Pixel Disk \(left\)) show NC gr 
 gsave  2268 1538 0 0 C 430.084 1205.54 t 0 r /Helvetica-Bold findfont 58.6478 sf 0 0 m (Disk 0) show NC gr [  ] 0 sd 334 1223 m 80 X s 374 1223 m20
 gsave  2268 1538 0 0 C 430.084 1130.6 t 0 r /Helvetica-Bold findfont 58.6478 sf 0 0 m (Disk 1) show NC gr  1 0 0 c 334 1146 m 80 X s 374 1146 m20 black
 gsave  2268 1538 0 0 C 430.084 1052.4 t 0 r /Helvetica-Bold findfont 58.6478 sf 0 0 m (Disk 2) show NC gr  0 1 0 c 334 1069 m 80 X s 374 1069 m20 black
 gsave  2268 1538 0 0 C 430.084 977.464 t 0 r /Helvetica-Bold findfont 58.6478 sf 0 0 m (Disk 3) show NC gr  0 0 1 c 334 992 m 80 X s 374 992 m20 black
 gsave  2268 1538 0 0 C 622.319 1283.74 t 0 r /Helvetica-Bold findfont 58.6478 sf 0 0 m (  \(right\)) show NC gr 
 gsave  2268 1538 0 0 C 723.323 1205.54 t 0 r /Helvetica-Bold findfont 58.6478 sf 0 0 m (Disk 0) show NC gr [ 12 12] 0 sd 629 1223 m 80 X s[  ] 0 sd 669 1223 m21[ 12 12] 0 sd
 gsave  2268 1538 0 0 C 723.323 1130.6 t 0 r /Helvetica-Bold findfont 58.6478 sf 0 0 m (Disk 1) show NC gr  1 0 0 c 629 1146 m 80 X s[  ] 0 sd 669 1146 m21[ 12 12] 0 sd black
 gsave  2268 1538 0 0 C 723.323 1052.4 t 0 r /Helvetica-Bold findfont 58.6478 sf 0 0 m (Disk 2) show NC gr  0 1 0 c 629 1069 m 80 X s[  ] 0 sd 669 1069 m21[ 12 12] 0 sd black
 gsave  2268 1538 0 0 C 723.323 977.464 t 0 r /Helvetica-Bold findfont 58.6478 sf 0 0 m (Disk 3) show NC gr  0 0 1 c 629 992 m 80 X s[  ] 0 sd 669 992 m21[ 12 12] 0 sd
 gr  gr showpage
end
%%EOF
