%!PS-Adobe-2.0 EPSF-2.0
%%BoundingBox:  0 0 567 384
%%Title: outputDir/pixel_occupancy/size_pixdisk_mgr.eps: c1_n20
%%Creator: ROOT Version 6.04/12
%%CreationDate: Mon Apr 25 16:02:07 2016
%%DocumentNeededResources: ProcSet (FontSetInit)
%%EndComments
%%BeginProlog
80 dict begin
/s {stroke} def /l {lineto} def /m {moveto} def /t {translate} def
/r {rotate} def /rl {roll}  def /R {repeat} def
/d {rlineto} def /rm {rmoveto} def /gr {grestore} def /f {eofill} def
/c {setrgbcolor} def /black {0 setgray} def /sd {setdash} def
/cl {closepath} def /sf {scalefont setfont} def /lw {setlinewidth} def
/box {m dup 0 exch d exch 0 d 0 exch neg d cl} def
/NC{systemdict begin initclip end}def/C{NC box clip newpath}def
/bl {box s} def /bf {gsave box gsave f grestore 1 lw [] 0 sd s grestore} def /Y { 0 exch d} def /X { 0 d} def 
/K {{pop pop 0 moveto} exch kshow} bind def
/ita {/ang 15 def gsave [1 0 ang dup sin exch cos div 1 0 0] concat} def 
/mp {newpath /y exch def /x exch def} def
/side {[w .77 mul w .23 mul] .385 w mul sd w 0 l currentpoint t -144 r} def
/mr {mp x y w2 0 360 arc} def /m24 {mr s} def /m20 {mr f} def
/mb {mp x y w2 add m w2 neg 0 d 0 w neg d w 0 d 0 w d cl} def
/mt {mp x y w2 add m w2 neg w neg d w 0 d cl} def
/m21 {mb f} def /m25 {mb s} def /m22 {mt f} def /m26{mt s} def
/m23 {mp x y w2 sub m w2 w d w neg 0 d cl f} def
/m27 {mp x y w2 add m w3 neg w2 neg d w3 w2 neg d w3 w2 d cl s} def
/m28 {mp x w2 sub y w2 sub w3 add m w3 0 d  0 w3 neg d w3 0 d 0 w3 d w3 0 d  0 w3 d w3 neg 0 d 0 w3 d w3 neg 0 d 0 w3 neg d w3 neg 0 d cl s } def
/m29 {mp gsave x w2 sub y w2 add w3 sub m currentpoint t 4 {side} repeat cl fill gr} def
/m30 {mp gsave x w2 sub y w2 add w3 sub m currentpoint t 4 {side} repeat cl s gr} def
/m31 {mp x y w2 sub m 0 w d x w2 sub y m w 0 d x w2 sub y w2 add m w w neg d x w2 sub y w2 sub m w w d s} def
/m32 {mp x y w2 sub m w2 w d w neg 0 d cl s} def
/m33 {mp x y w2 add m w3 neg w2 neg d w3 w2 neg d w3 w2 d cl f} def
/m34 {mp x w2 sub y w2 sub w3 add m w3 0 d  0 w3 neg d w3 0 d 0 w3 d w3 0 d  0 w3 d w3 neg 0 d 0 w3 d w3 neg 0 d 0 w3 neg d w3 neg 0 d cl f } def
/m2 {mp x y w2 sub m 0 w d x w2 sub y m w 0 d s} def
/m5 {mp x w2 sub y w2 sub m w w d x w2 sub y w2 add m w w neg d s} def
%%IncludeResource: ProcSet (FontSetInit)
%%IncludeResource: font Times-Roman
%%IncludeResource: font Times-Italic
%%IncludeResource: font Times-Bold
%%IncludeResource: font Times-BoldItalic
%%IncludeResource: font Helvetica
%%IncludeResource: font Helvetica-Oblique
%%IncludeResource: font Helvetica-Bold
%%IncludeResource: font Helvetica-BoldOblique
%%IncludeResource: font Courier
%%IncludeResource: font Courier-Oblique
%%IncludeResource: font Courier-Bold
%%IncludeResource: font Courier-BoldOblique
%%IncludeResource: font Symbol
%%IncludeResource: font ZapfDingbats
/reEncode {exch findfont dup length dict begin {1 index /FID eq  {pop pop} {def} ifelse } forall /Encoding exch def currentdict end dup /FontName get exch definefont pop } def [/Times-Bold /Times-Italic /Times-BoldItalic /Helvetica /Helvetica-Oblique
 /Helvetica-Bold /Helvetica-BoldOblique /Courier /Courier-Oblique /Courier-Bold /Courier-BoldOblique /Times-Roman /AvantGarde-Book /AvantGarde-BookOblique /AvantGarde-Demi /AvantGarde-DemiOblique /Bookman-Demi /Bookman-DemiItalic /Bookman-Light
 /Bookman-LightItalic /Helvetica-Narrow /Helvetica-Narrow-Bold /Helvetica-Narrow-BoldOblique /Helvetica-Narrow-Oblique /NewCenturySchlbk-Roman /NewCenturySchlbk-Bold /NewCenturySchlbk-BoldItalic /NewCenturySchlbk-Italic /Palatino-Bold
 /Palatino-BoldItalic /Palatino-Italic /Palatino-Roman ] {ISOLatin1Encoding reEncode } forall
%%EndProlog
%%BeginSetup
%%EndSetup
newpath  gsave  .25 .25 scale  gsave  0 0 t black[  ] 0 sd 3 lw 1 1 1 c 2268 1538 0 0 bf black 1 1 1 c 1814 1230 227 154 bf black 1814 1230 227 154 bl 1 1 1 c 1814 1230 227 154 bf black 1814 1230 227 154 bl 227 154 m 1814 X s
 gsave  2268 1538 0 0 C 1860.44 35.8403 t 0 r /Helvetica-Bold findfont 58.6478 sf 0 0 m (r [mm]) show NC gr  333 191 m -37 Y s 415 172 m -18 Y s 498 172 m -18 Y s 580 172 m -18 Y s 662 172 m -18 Y s 745 191 m -37 Y s 827 172 m -18 Y s 909 172 m -18 Y
 s 992 172 m -18 Y s 1074 172 m -18 Y s 1156 191 m -37 Y s 1239 172 m -18 Y s 1321 172 m -18 Y s 1403 172 m -18 Y s 1486 172 m -18 Y s 1568 191 m -37 Y s 1650 172 m -18 Y s 1733 172 m -18 Y s 1815 172 m -18 Y s 1897 172 m -18 Y s 1980 191 m -37 Y s
 333 191 m -37 Y s 251 172 m -18 Y s 1980 191 m -37 Y s
 gsave  2268 1538 0 0 C 283.465 97.7464 t 0 r /Helvetica-Bold findfont 58.6478 sf 0 0 m (100) show NC gr 
 gsave  2268 1538 0 0 C 693.999 97.7464 t 0 r /Helvetica-Bold findfont 58.6478 sf 0 0 m (150) show NC gr 
 gsave  2268 1538 0 0 C 1104.53 97.7464 t 0 r /Helvetica-Bold findfont 58.6478 sf 0 0 m (200) show NC gr 
 gsave  2268 1538 0 0 C 1518.33 97.7464 t 0 r /Helvetica-Bold findfont 58.6478 sf 0 0 m (250) show NC gr 
 gsave  2268 1538 0 0 C 1928.86 97.7464 t 0 r /Helvetica-Bold findfont 58.6478 sf 0 0 m (300) show NC gr  227 1384 m 1814 X s 333 1347 m 37 Y s 415 1366 m 18 Y s 498 1366 m 18 Y s 580 1366 m 18 Y s 662 1366 m 18 Y s 745 1347 m 37 Y s 827 1366 m 18 Y
 s 909 1366 m 18 Y s 992 1366 m 18 Y s 1074 1366 m 18 Y s 1156 1347 m 37 Y s 1239 1366 m 18 Y s 1321 1366 m 18 Y s 1403 1366 m 18 Y s 1486 1366 m 18 Y s 1568 1347 m 37 Y s 1650 1366 m 18 Y s 1733 1366 m 18 Y s 1815 1366 m 18 Y s 1897 1366 m 18 Y s
 1980 1347 m 37 Y s 333 1347 m 37 Y s 251 1366 m 18 Y s 1980 1347 m 37 Y s 227 154 m 1230 Y s
 gsave  2268 1538 0 0 C 104.263 1055.66 t 90 r /Helvetica-Bold findfont 58.6478 sf 0 0 m (Cluster size) show NC gr  281 266 m -54 X s 254 302 m -27 X s 254 338 m -27 X s 254 373 m -27 X s 254 409 m -27 X s 281 445 m -54 X s 254 480 m -27 X s 254 516
 m -27 X s 254 552 m -27 X s 254 588 m -27 X s 281 623 m -54 X s 254 659 m -27 X s 254 695 m -27 X s 254 730 m -27 X s 254 766 m -27 X s 281 802 m -54 X s 254 837 m -27 X s 254 873 m -27 X s 254 909 m -27 X s 254 944 m -27 X s 281 980 m -54 X s 254
 1016 m -27 X s 254 1052 m -27 X s 254 1087 m -27 X s 254 1123 m -27 X s 281 1159 m -54 X s 254 1194 m -27 X s 254 1230 m -27 X s 254 1266 m -27 X s 254 1301 m -27 X s 281 1337 m -54 X s 281 266 m -54 X s 254 231 m -27 X s 254 195 m -27 X s 254 159 m
 -27 X s 281 1337 m -54 X s 254 1373 m -27 X s
 gsave  2268 1538 0 0 C 182.46 241.108 t 0 r /Helvetica-Bold findfont 58.6478 sf 0 0 m (2) show NC gr 
 gsave  2268 1538 0 0 C 133.587 423.568 t 0 r /Helvetica-Bold findfont 58.6478 sf 0 0 m (2.5) show NC gr 
 gsave  2268 1538 0 0 C 182.46 602.769 t 0 r /Helvetica-Bold findfont 58.6478 sf 0 0 m (3) show NC gr 
 gsave  2268 1538 0 0 C 133.587 781.971 t 0 r /Helvetica-Bold findfont 58.6478 sf 0 0 m (3.5) show NC gr 
 gsave  2268 1538 0 0 C 182.46 957.915 t 0 r /Helvetica-Bold findfont 58.6478 sf 0 0 m (4) show NC gr 
 gsave  2268 1538 0 0 C 133.587 1137.12 t 0 r /Helvetica-Bold findfont 58.6478 sf 0 0 m (4.5) show NC gr 
 gsave  2268 1538 0 0 C 182.46 1316.32 t 0 r /Helvetica-Bold findfont 58.6478 sf 0 0 m (5) show NC gr  2041 154 m 1230 Y s 1987 266 m 54 X s 2014 302 m 27 X s 2014 338 m 27 X s 2014 373 m 27 X s 2014 409 m 27 X s 1987 445 m 54 X s 2014 480 m 27 X s
 2014 516 m 27 X s 2014 552 m 27 X s 2014 588 m 27 X s 1987 623 m 54 X s 2014 659 m 27 X s 2014 695 m 27 X s 2014 730 m 27 X s 2014 766 m 27 X s 1987 802 m 54 X s 2014 837 m 27 X s 2014 873 m 27 X s 2014 909 m 27 X s 2014 944 m 27 X s 1987 980 m 54 X
 s 2014 1016 m 27 X s 2014 1052 m 27 X s 2014 1087 m 27 X s 2014 1123 m 27 X s 1987 1159 m 54 X s 2014 1194 m 27 X s 2014 1230 m 27 X s 2014 1266 m 27 X s 2014 1301 m 27 X s 1987 1337 m 54 X s 1987 266 m 54 X s 2014 231 m 27 X s 2014 195 m 27 X s
 2014 159 m 27 X s 1987 1337 m 54 X s 2014 1373 m 27 X s 309 315 m 52 Y s 303 367 m 13 X s 309 289 m -51 Y s 303 238 m 13 X s 318 277 m 18 Y s 311 295 m 13 X s 318 250 m -18 Y s 311 232 m 13 X s 321 344 m 62 Y s 314 406 m 13 X s 321 318 m -62 Y s 314
 256 m 13 X s 321 224 m 7 Y s 315 231 m 13 X s 321 198 m -8 Y s 315 190 m 13 X s 309 302 m 9 -38 d 3 67 d -120 Y s /w 26 def /w2 {w 2 div} def /w3 {w 3 div} def 309 302 318 264 321 331 321 211 4 { m20} R 1 0 0 c 895 358 m 23 Y s 889 381 m 13 X s 895
 332 m -23 Y s 889 309 m 13 X s 897 432 m 59 Y s 891 491 m 13 X s 897 406 m -60 Y s 891 346 m 13 X s 891 517 m 58 Y s 885 575 m 13 X s 891 491 m -57 Y s 885 434 m 13 X s 902 324 m 31 Y s 896 355 m 13 X s 902 298 m -31 Y s 896 267 m 13 X s black 1 0 0
 c 895 345 m 2 74 d -6 85 d 11 -193 d s 895 345 897 419 891 504 902 311 4 { m20} R 0 1 0 c 1414 523 m 46 Y s 1407 569 m 13 X s 1414 497 m -46 Y s 1407 451 m 13 X s 1412 736 m 86 Y s 1405 822 m 13 X s 1412 710 m -85 Y s 1405 625 m 13 X s 1412 630 m
 172 Y s 1405 802 m 13 X s 1412 604 m -173 Y s 1405 431 m 13 X s 1425 595 m 69 Y s 1419 664 m 13 X s 1425 569 m -68 Y s 1419 501 m 13 X s black 0 1 0 c 1414 510 m -2 213 d -106 Y 13 -35 d s 1414 510 1412 723 1412 617 1425 582 4 { m20} R 0 0 1 c 1945
 648 m 61 Y s 1939 709 m 13 X s 1945 621 m -61 Y s 1939 560 m 13 X s 1933 710 m 83 Y s 1927 793 m 13 X s 1933 684 m -83 Y s 1927 601 m 13 X s 1933 572 m 57 Y s 1926 629 m 13 X s 1933 546 m -56 Y s 1926 490 m 13 X s 1922 616 m 62 Y s 1916 678 m 13 X s
 1922 590 m -61 Y s 1916 529 m 13 X s black 0 0 1 c 1945 634 m -12 63 d -138 Y -11 44 d s 1945 634 1933 697 1933 559 1922 603 4 { m20} R black[ 12 12] 0 sd 310 236 m 11 Y s 303 247 m 14 X s 310 210 m -11 Y s 303 199 m 14 X s 316 230 m 10 Y s 309 240
 m 13 X s 316 204 m -10 Y s 309 194 m 13 X s 326 274 m 11 Y s 319 285 m 13 X s 326 248 m -12 Y s 319 236 m 13 X s 317 278 m 20 Y s 311 298 m 13 X s 317 252 m -20 Y s 311 232 m 13 X s 310 223 m 6 -6 d 10 44 d -9 4 d s[  ] 0 sd 310 223 316 217 326 261
 317 265 4 { m21} R[ 12 12] 0 sd 1 0 0 c 894 430 m 27 Y s 887 457 m 13 X s 894 404 m -28 Y s 887 376 m 13 X s 911 453 m 61 Y s 905 514 m 13 X s 911 427 m -60 Y s 905 367 m 13 X s 896 420 m 57 Y s 890 477 m 13 X s 896 394 m -58 Y s 890 336 m 13 X s
 904 374 m 31 Y s 897 405 m 13 X s 904 348 m -31 Y s 897 317 m 13 X s black 1 0 0 c 894 417 m 17 23 d -15 -33 d 8 -46 d s[  ] 0 sd 894 417 911 440 896 407 904 361 4 { m21} R[ 12 12] 0 sd 0 1 0 c 1410 491 m 35 Y s 1404 526 m 13 X s 1410 465 m -35 Y s
 1404 430 m 13 X s 1425 441 m 49 Y s 1418 490 m 13 X s 1425 415 m -49 Y s 1418 366 m 13 X s 1417 582 m 54 Y s 1411 636 m 13 X s 1417 556 m -54 Y s 1411 502 m 13 X s 1425 411 m 36 Y s 1419 447 m 13 X s 1425 385 m -36 Y s 1419 349 m 13 X s black 0 1 0
 c 1410 478 m 15 -50 d -8 141 d 8 -171 d s[  ] 0 sd 1410 478 1425 428 1417 569 1425 398 4 { m21} R[ 12 12] 0 sd 0 0 1 c 1915 577 m 41 Y s 1909 618 m 13 X s 1915 551 m -41 Y s 1909 510 m 13 X s 1958 793 m 119 Y s 1952 912 m 13 X s 1958 767 m -119 Y s
 1952 648 m 13 X s 1923 470 m 27 Y s 1917 497 m 13 X s 1923 444 m -28 Y s 1917 416 m 13 X s 1932 602 m 94 Y s 1925 696 m 13 X s 1932 576 m -95 Y s 1925 481 m 13 X s black 0 0 1 c 1915 564 m 43 216 d -35 -323 d 9 132 d s[  ] 0 sd 1915 564 1958 780
 1923 457 1932 589 4 { m21} R[ 12 12] 0 sd black
 gsave  2268 1538 0 0 C 325.821 1283.74 t 0 r /Helvetica-Bold findfont 58.6478 sf 0 0 m (Pixel Disk \(left\)) show NC gr 
 gsave  2268 1538 0 0 C 430.084 1205.54 t 0 r /Helvetica-Bold findfont 58.6478 sf 0 0 m (Disk 0) show NC gr [  ] 0 sd 334 1223 m 80 X s 374 1223 m20
 gsave  2268 1538 0 0 C 430.084 1130.6 t 0 r /Helvetica-Bold findfont 58.6478 sf 0 0 m (Disk 1) show NC gr  1 0 0 c 334 1146 m 80 X s 374 1146 m20 black
 gsave  2268 1538 0 0 C 430.084 1052.4 t 0 r /Helvetica-Bold findfont 58.6478 sf 0 0 m (Disk 2) show NC gr  0 1 0 c 334 1069 m 80 X s 374 1069 m20 black
 gsave  2268 1538 0 0 C 430.084 977.464 t 0 r /Helvetica-Bold findfont 58.6478 sf 0 0 m (Disk 3) show NC gr  0 0 1 c 334 992 m 80 X s 374 992 m20 black
 gsave  2268 1538 0 0 C 622.319 1283.74 t 0 r /Helvetica-Bold findfont 58.6478 sf 0 0 m (  \(right\)) show NC gr 
 gsave  2268 1538 0 0 C 723.323 1205.54 t 0 r /Helvetica-Bold findfont 58.6478 sf 0 0 m (Disk 0) show NC gr [ 12 12] 0 sd 629 1223 m 80 X s[  ] 0 sd 669 1223 m21[ 12 12] 0 sd
 gsave  2268 1538 0 0 C 723.323 1130.6 t 0 r /Helvetica-Bold findfont 58.6478 sf 0 0 m (Disk 1) show NC gr  1 0 0 c 629 1146 m 80 X s[  ] 0 sd 669 1146 m21[ 12 12] 0 sd black
 gsave  2268 1538 0 0 C 723.323 1052.4 t 0 r /Helvetica-Bold findfont 58.6478 sf 0 0 m (Disk 2) show NC gr  0 1 0 c 629 1069 m 80 X s[  ] 0 sd 669 1069 m21[ 12 12] 0 sd black
 gsave  2268 1538 0 0 C 723.323 977.464 t 0 r /Helvetica-Bold findfont 58.6478 sf 0 0 m (Disk 3) show NC gr  0 0 1 c 629 992 m 80 X s[  ] 0 sd 669 992 m21[ 12 12] 0 sd
 gr  gr showpage
end
%%EOF
