%!PS-Adobe-2.0 EPSF-2.0
%%BoundingBox:  0 0 567 384
%%Title: outputDir/pixel_occupancy/size_pixlayer_mg.eps: c1_n10
%%Creator: ROOT Version 6.04/12
%%CreationDate: Mon Apr 25 16:02:04 2016
%%DocumentNeededResources: ProcSet (FontSetInit)
%%EndComments
%%BeginProlog
80 dict begin
/s {stroke} def /l {lineto} def /m {moveto} def /t {translate} def
/r {rotate} def /rl {roll}  def /R {repeat} def
/d {rlineto} def /rm {rmoveto} def /gr {grestore} def /f {eofill} def
/c {setrgbcolor} def /black {0 setgray} def /sd {setdash} def
/cl {closepath} def /sf {scalefont setfont} def /lw {setlinewidth} def
/box {m dup 0 exch d exch 0 d 0 exch neg d cl} def
/NC{systemdict begin initclip end}def/C{NC box clip newpath}def
/bl {box s} def /bf {gsave box gsave f grestore 1 lw [] 0 sd s grestore} def /Y { 0 exch d} def /X { 0 d} def 
/K {{pop pop 0 moveto} exch kshow} bind def
/ita {/ang 15 def gsave [1 0 ang dup sin exch cos div 1 0 0] concat} def 
/mp {newpath /y exch def /x exch def} def
/side {[w .77 mul w .23 mul] .385 w mul sd w 0 l currentpoint t -144 r} def
/mr {mp x y w2 0 360 arc} def /m24 {mr s} def /m20 {mr f} def
/mb {mp x y w2 add m w2 neg 0 d 0 w neg d w 0 d 0 w d cl} def
/mt {mp x y w2 add m w2 neg w neg d w 0 d cl} def
/m21 {mb f} def /m25 {mb s} def /m22 {mt f} def /m26{mt s} def
/m23 {mp x y w2 sub m w2 w d w neg 0 d cl f} def
/m27 {mp x y w2 add m w3 neg w2 neg d w3 w2 neg d w3 w2 d cl s} def
/m28 {mp x w2 sub y w2 sub w3 add m w3 0 d  0 w3 neg d w3 0 d 0 w3 d w3 0 d  0 w3 d w3 neg 0 d 0 w3 d w3 neg 0 d 0 w3 neg d w3 neg 0 d cl s } def
/m29 {mp gsave x w2 sub y w2 add w3 sub m currentpoint t 4 {side} repeat cl fill gr} def
/m30 {mp gsave x w2 sub y w2 add w3 sub m currentpoint t 4 {side} repeat cl s gr} def
/m31 {mp x y w2 sub m 0 w d x w2 sub y m w 0 d x w2 sub y w2 add m w w neg d x w2 sub y w2 sub m w w d s} def
/m32 {mp x y w2 sub m w2 w d w neg 0 d cl s} def
/m33 {mp x y w2 add m w3 neg w2 neg d w3 w2 neg d w3 w2 d cl f} def
/m34 {mp x w2 sub y w2 sub w3 add m w3 0 d  0 w3 neg d w3 0 d 0 w3 d w3 0 d  0 w3 d w3 neg 0 d 0 w3 d w3 neg 0 d 0 w3 neg d w3 neg 0 d cl f } def
/m2 {mp x y w2 sub m 0 w d x w2 sub y m w 0 d s} def
/m5 {mp x w2 sub y w2 sub m w w d x w2 sub y w2 add m w w neg d s} def
%%IncludeResource: ProcSet (FontSetInit)
%%IncludeResource: font Times-Roman
%%IncludeResource: font Times-Italic
%%IncludeResource: font Times-Bold
%%IncludeResource: font Times-BoldItalic
%%IncludeResource: font Helvetica
%%IncludeResource: font Helvetica-Oblique
%%IncludeResource: font Helvetica-Bold
%%IncludeResource: font Helvetica-BoldOblique
%%IncludeResource: font Courier
%%IncludeResource: font Courier-Oblique
%%IncludeResource: font Courier-Bold
%%IncludeResource: font Courier-BoldOblique
%%IncludeResource: font Symbol
%%IncludeResource: font ZapfDingbats
/reEncode {exch findfont dup length dict begin {1 index /FID eq  {pop pop} {def} ifelse } forall /Encoding exch def currentdict end dup /FontName get exch definefont pop } def [/Times-Bold /Times-Italic /Times-BoldItalic /Helvetica /Helvetica-Oblique
 /Helvetica-Bold /Helvetica-BoldOblique /Courier /Courier-Oblique /Courier-Bold /Courier-BoldOblique /Times-Roman /AvantGarde-Book /AvantGarde-BookOblique /AvantGarde-Demi /AvantGarde-DemiOblique /Bookman-Demi /Bookman-DemiItalic /Bookman-Light
 /Bookman-LightItalic /Helvetica-Narrow /Helvetica-Narrow-Bold /Helvetica-Narrow-BoldOblique /Helvetica-Narrow-Oblique /NewCenturySchlbk-Roman /NewCenturySchlbk-Bold /NewCenturySchlbk-BoldItalic /NewCenturySchlbk-Italic /Palatino-Bold
 /Palatino-BoldItalic /Palatino-Italic /Palatino-Roman ] {ISOLatin1Encoding reEncode } forall
%%EndProlog
%%BeginSetup
%%EndSetup
newpath  gsave  .25 .25 scale  gsave  0 0 t black[  ] 0 sd 3 lw 1 1 1 c 2268 1538 0 0 bf black 1 1 1 c 1814 1230 227 154 bf black 1814 1230 227 154 bl 1 1 1 c 1814 1230 227 154 bf black 1814 1230 227 154 bl 227 154 m 1814 X s
 gsave  2268 1538 0 0 C 1772.47 32.5821 t 0 r /Helvetica-Bold findfont 58.6478 sf 0 0 m (moduleID) show NC gr  309 191 m -37 Y s 364 172 m -18 Y s 419 172 m -18 Y s 474 172 m -18 Y s 529 172 m -18 Y s 584 191 m -37 Y s 639 172 m -18 Y s 694 172 m -18
 Y s 749 172 m -18 Y s 804 172 m -18 Y s 859 191 m -37 Y s 914 172 m -18 Y s 969 172 m -18 Y s 1024 172 m -18 Y s 1079 172 m -18 Y s 1134 191 m -37 Y s 1189 172 m -18 Y s 1244 172 m -18 Y s 1299 172 m -18 Y s 1354 172 m -18 Y s 1409 191 m -37 Y s
 1464 172 m -18 Y s 1519 172 m -18 Y s 1574 172 m -18 Y s 1629 172 m -18 Y s 1684 191 m -37 Y s 1739 172 m -18 Y s 1794 172 m -18 Y s 1849 172 m -18 Y s 1904 172 m -18 Y s 1958 191 m -37 Y s 309 191 m -37 Y s 254 172 m -18 Y s 1958 191 m -37 Y s 2013
 172 m -18 Y s
 gsave  2268 1538 0 0 C 286.723 97.7464 t 0 r /Helvetica-Bold findfont 58.6478 sf 0 0 m (15) show NC gr 
 gsave  2268 1538 0 0 C 257.399 97.7464 t 0 r /Symbol findfont 58.6478 sf 0 0 m (-) show NC gr 
 gsave  2268 1538 0 0 C 563.671 97.7464 t 0 r /Helvetica-Bold findfont 58.6478 sf 0 0 m (10) show NC gr 
 gsave  2268 1538 0 0 C 534.347 97.7464 t 0 r /Symbol findfont 58.6478 sf 0 0 m (-) show NC gr 
 gsave  2268 1538 0 0 C 853.652 97.7464 t 0 r /Helvetica-Bold findfont 58.6478 sf 0 0 m (5) show NC gr 
 gsave  2268 1538 0 0 C 824.328 97.7464 t 0 r /Symbol findfont 58.6478 sf 0 0 m (-) show NC gr 
 gsave  2268 1538 0 0 C 1117.57 97.7464 t 0 r /Helvetica-Bold findfont 58.6478 sf 0 0 m (0) show NC gr 
 gsave  2268 1538 0 0 C 1391.26 97.7464 t 0 r /Helvetica-Bold findfont 58.6478 sf 0 0 m (5) show NC gr 
 gsave  2268 1538 0 0 C 1648.66 97.7464 t 0 r /Helvetica-Bold findfont 58.6478 sf 0 0 m (10) show NC gr 
 gsave  2268 1538 0 0 C 1925.6 97.7464 t 0 r /Helvetica-Bold findfont 58.6478 sf 0 0 m (15) show NC gr  227 1384 m 1814 X s 309 1347 m 37 Y s 364 1366 m 18 Y s 419 1366 m 18 Y s 474 1366 m 18 Y s 529 1366 m 18 Y s 584 1347 m 37 Y s 639 1366 m 18 Y s
 694 1366 m 18 Y s 749 1366 m 18 Y s 804 1366 m 18 Y s 859 1347 m 37 Y s 914 1366 m 18 Y s 969 1366 m 18 Y s 1024 1366 m 18 Y s 1079 1366 m 18 Y s 1134 1347 m 37 Y s 1189 1366 m 18 Y s 1244 1366 m 18 Y s 1299 1366 m 18 Y s 1354 1366 m 18 Y s 1409
 1347 m 37 Y s 1464 1366 m 18 Y s 1519 1366 m 18 Y s 1574 1366 m 18 Y s 1629 1366 m 18 Y s 1684 1347 m 37 Y s 1739 1366 m 18 Y s 1794 1366 m 18 Y s 1849 1366 m 18 Y s 1904 1366 m 18 Y s 1958 1347 m 37 Y s 309 1347 m 37 Y s 254 1366 m 18 Y s 1958 1347
 m 37 Y s 2013 1366 m 18 Y s 227 154 m 1230 Y s
 gsave  2268 1538 0 0 C 104.263 1055.66 t 90 r /Helvetica-Bold findfont 58.6478 sf 0 0 m (Cluster size) show NC gr  281 189 m -54 X s 254 223 m -27 X s 254 256 m -27 X s 254 290 m -27 X s 281 323 m -54 X s 254 356 m -27 X s 254 390 m -27 X s 254 423
 m -27 X s 281 457 m -54 X s 254 490 m -27 X s 254 523 m -27 X s 254 557 m -27 X s 281 590 m -54 X s 254 624 m -27 X s 254 657 m -27 X s 254 690 m -27 X s 281 724 m -54 X s 254 757 m -27 X s 254 791 m -27 X s 254 824 m -27 X s 281 857 m -54 X s 254
 891 m -27 X s 254 924 m -27 X s 254 958 m -27 X s 281 991 m -54 X s 254 1024 m -27 X s 254 1058 m -27 X s 254 1091 m -27 X s 281 1125 m -54 X s 254 1158 m -27 X s 254 1191 m -27 X s 254 1225 m -27 X s 281 1258 m -54 X s 281 189 m -54 X s 254 156 m
 -27 X s 281 1258 m -54 X s 254 1291 m -27 X s 254 1325 m -27 X s 254 1358 m -27 X s
 gsave  2268 1538 0 0 C 182.46 166.169 t 0 r /Helvetica-Bold findfont 58.6478 sf 0 0 m (2) show NC gr 
 gsave  2268 1538 0 0 C 182.46 303.014 t 0 r /Helvetica-Bold findfont 58.6478 sf 0 0 m (4) show NC gr 
 gsave  2268 1538 0 0 C 182.46 436.601 t 0 r /Helvetica-Bold findfont 58.6478 sf 0 0 m (6) show NC gr 
 gsave  2268 1538 0 0 C 182.46 570.187 t 0 r /Helvetica-Bold findfont 58.6478 sf 0 0 m (8) show NC gr 
 gsave  2268 1538 0 0 C 149.878 703.774 t 0 r /Helvetica-Bold findfont 58.6478 sf 0 0 m (10) show NC gr 
 gsave  2268 1538 0 0 C 149.878 834.103 t 0 r /Helvetica-Bold findfont 58.6478 sf 0 0 m (12) show NC gr 
 gsave  2268 1538 0 0 C 149.878 970.948 t 0 r /Helvetica-Bold findfont 58.6478 sf 0 0 m (14) show NC gr 
 gsave  2268 1538 0 0 C 149.878 1104.53 t 0 r /Helvetica-Bold findfont 58.6478 sf 0 0 m (16) show NC gr 
 gsave  2268 1538 0 0 C 149.878 1238.12 t 0 r /Helvetica-Bold findfont 58.6478 sf 0 0 m (18) show NC gr  2041 154 m 1230 Y s 1987 189 m 54 X s 2014 223 m 27 X s 2014 256 m 27 X s 2014 290 m 27 X s 1987 323 m 54 X s 2014 356 m 27 X s 2014 390 m 27 X s
 2014 423 m 27 X s 1987 457 m 54 X s 2014 490 m 27 X s 2014 523 m 27 X s 2014 557 m 27 X s 1987 590 m 54 X s 2014 624 m 27 X s 2014 657 m 27 X s 2014 690 m 27 X s 1987 724 m 54 X s 2014 757 m 27 X s 2014 791 m 27 X s 2014 824 m 27 X s 1987 857 m 54 X
 s 2014 891 m 27 X s 2014 924 m 27 X s 2014 958 m 27 X s 1987 991 m 54 X s 2014 1024 m 27 X s 2014 1058 m 27 X s 2014 1091 m 27 X s 1987 1125 m 54 X s 2014 1158 m 27 X s 2014 1191 m 27 X s 2014 1225 m 27 X s 1987 1258 m 54 X s 1987 189 m 54 X s 2014
 156 m 27 X s 1987 1258 m 54 X s 2014 1291 m 27 X s 2014 1325 m 27 X s 2014 1358 m 27 X s 529 304 m 1 Y s 523 305 m 13 X s 529 278 m -1 Y s 523 277 m 13 X s 914 833 m 16 Y s 907 849 m 13 X s 914 807 m -16 Y s 907 791 m 13 X s 969 678 m 6 Y s 962 684
 m 13 X s 969 652 m -5 Y s 962 647 m 13 X s 1024 490 m 1 Y s 1017 491 m 13 X s 1024 464 m -1 Y s 1017 463 m 13 X s 1244 543 m 3 Y s 1237 546 m 13 X s 1244 517 m -3 Y s 1237 514 m 13 X s 1299 690 m 8 Y s 1292 698 m 13 X s 1299 664 m -8 Y s 1292 656 m
 13 X s 1354 981 m 19 Y s 1347 1000 m 13 X s 1354 955 m -18 Y s 1347 937 m 13 X s 309 280 m 55 -16 d 55 7 d 55 -11 d 55 31 d 55 -36 d 110 X 55 -9 d 55 15 d 55 -19 d 55 578 d 55 -155 d 55 -188 d 55 -112 d 110 29 d 55 136 d 55 147 d 55 291 d 55 -737 d
 55 12 d 55 7 d 55 6 d 55 -1 d 55 3 d 55 6 d 55 7 d 55 -6 d 55 13 d 54 -6 d s /w 26 def /w2 {w 2 div} def /w3 {w 3 div} def 309 280 364 264 419 271 474 260 529 291 584 255 639 255 694 255 749 246 804 261 859 242 914 820 969 665 1024 477 1079 365 1189
 394 1244 530 1299 677 1354 968 1409 231 1464 243 1519 250 1574 256 1629 255 1684 258 1739 264 1794 271 1849 265 1904 278 1958 272 30 { m20} R 1 0 0 c 584 351 m 56 Y s 578 407 m 13 X s 584 325 m -57 Y s 578 268 m 13 X s 639 256 m 4 Y s 633 260 m 13 X
 s 639 230 m -5 Y s 633 225 m 13 X s 694 248 m 2 Y s 688 250 m 13 X s 694 222 m -1 Y s 688 221 m 13 X s 749 232 m s 743 232 m 13 X s 749 206 m s 743 206 m 13 X s 859 544 m 4 Y s 852 548 m 13 X s 859 518 m -3 Y s 852 515 m 13 X s 914 525 m 40 Y s 907
 565 m 13 X s 914 499 m -39 Y s 907 460 m 13 X s 1189 331 m 24 Y s 1182 355 m 13 X s 1189 305 m -25 Y s 1182 280 m 13 X s 1409 634 m 31 Y s 1402 665 m 13 X s 1409 608 m -31 Y s 1402 577 m 13 X s 1519 240 m 1 Y s 1512 241 m 13 X s 1519 214 m -1 Y s
 1512 213 m 13 X s 1849 288 m 13 Y s 1842 301 m 13 X s 1849 262 m -13 Y s 1842 249 m 13 X s 1904 281 m 2 Y s 1897 283 m 13 X s 1904 255 m -2 Y s 1897 253 m 13 X s black 1 0 0 c 309 241 m 55 10 d 55 2 d 55 -11 d 55 -10 d 55 106 d 55 -95 d 55 -8 d 55
 -16 d 55 -16 d 55 328 d 55 -19 d 55 -154 d 55 -61 d 55 -29 d 110 50 d 55 3 d 55 72 d 55 66 d 55 162 d 55 -409 d 55 15 d 55 -27 d 55 16 d 55 39 d 55 -22 d 55 1 d 55 41 d 55 -7 d 54 11 d s 309 241 364 251 419 253 474 242 529 232 584 338 639 243 694
 235 749 219 804 203 859 531 914 512 969 358 1024 297 1079 268 1189 318 1244 321 1299 393 1354 459 1409 621 1464 212 1519 227 1574 200 1629 216 1684 255 1739 233 1794 234 1849 275 1904 268 1958 279 30 { m20} R 0 1 0 c 639 546 m 9 Y s 633 555 m 13 X s
 639 520 m -10 Y s 633 510 m 13 X s 694 581 m 11 Y s 688 592 m 13 X s 694 555 m -11 Y s 688 544 m 13 X s 749 540 m 2 Y s 743 542 m 13 X s 749 513 m -2 Y s 743 511 m 13 X s 804 425 m 2 Y s 797 427 m 14 X s 804 399 m -2 Y s 797 397 m 14 X s 859 416 m 1
 Y s 852 417 m 13 X s 859 390 m -1 Y s 852 389 m 13 X s 1299 325 m 2 Y s 1292 327 m 13 X s 1299 299 m -2 Y s 1292 297 m 13 X s 1409 421 m 7 Y s 1402 428 m 13 X s 1409 395 m -6 Y s 1402 389 m 13 X s 1519 542 m 7 Y s 1512 549 m 13 X s 1519 516 m -8 Y s
 1512 508 m 13 X s 1574 570 m 9 Y s 1567 579 m 13 X s 1574 544 m -9 Y s 1567 535 m 13 X s 1629 591 m 14 Y s 1622 605 m 13 X s 1629 565 m -13 Y s 1622 552 m 13 X s black 0 1 0 c 639 533 m 55 35 d 55 -42 d 55 -114 d 55 -9 d 55 -83 d 55 -25 d 55 -48 d
 55 -20 d 110 7 d 55 33 d 55 45 d 55 27 d 55 69 d 55 23 d 55 98 d 55 28 d 55 21 d s 639 533 694 568 749 526 804 412 859 403 914 320 969 295 1024 247 1079 227 1189 234 1244 267 1299 312 1354 339 1409 408 1464 431 1519 529 1574 557 1629 578 18 { m20} R
 0 0 1 c 639 445 m 4 Y s 633 449 m 13 X s 639 419 m -4 Y s 633 415 m 13 X s 694 473 m 11 Y s 688 484 m 13 X s 694 447 m -11 Y s 688 436 m 13 X s 749 442 m 21 Y s 743 463 m 13 X s 749 416 m -21 Y s 743 395 m 13 X s 804 402 m 6 Y s 797 408 m 14 X s 804
 376 m -6 Y s 797 370 m 14 X s 914 309 m 1 Y s 907 310 m 13 X s 914 283 m -2 Y s 907 281 m 13 X s 969 288 m 6 Y s 962 294 m 13 X s 969 262 m -6 Y s 962 256 m 13 X s 1299 293 m 1 Y s 1292 294 m 13 X s 1299 267 m s 1292 267 m 13 X s 1409 371 m 2 Y s
 1402 373 m 13 X s 1409 345 m -3 Y s 1402 342 m 13 X s 1464 423 m 11 Y s 1457 434 m 13 X s 1464 397 m -11 Y s 1457 386 m 13 X s 1574 446 m 2 Y s 1567 448 m 13 X s 1574 420 m -2 Y s 1567 418 m 13 X s 1629 476 m 7 Y s 1622 483 m 13 X s 1629 450 m -7 Y
 s 1622 443 m 13 X s black 0 0 1 c 639 432 m 55 28 d 55 -31 d 55 -40 d 55 -69 d 55 -24 d 55 -21 d 55 -41 d 55 -11 d 110 X 55 15 d 55 42 d 55 19 d 55 59 d 55 52 d 55 -17 d 55 40 d 55 30 d s 639 432 694 460 749 429 804 389 859 320 914 296 969 275 1024
 234 1079 223 1189 223 1244 238 1299 280 1354 299 1409 358 1464 410 1519 393 1574 433 1629 463 18 { m20} R 1 1 0 c 639 412 m 2 Y s 633 414 m 13 X s 639 386 m -2 Y s 633 384 m 13 X s 694 395 m 1 Y s 688 396 m 13 X s 694 369 m -1 Y s 688 368 m 13 X s
 1024 289 m 23 Y s 1017 312 m 13 X s 1024 263 m -23 Y s 1017 240 m 13 X s 1079 281 m 22 Y s 1072 303 m 13 X s 1079 255 m -23 Y s 1072 232 m 13 X s 1189 257 m 5 Y s 1182 262 m 13 X s 1189 231 m -5 Y s 1182 226 m 13 X s 1244 254 m 1 Y s 1237 255 m 13 X
 s 1244 228 m -1 Y s 1237 227 m 13 X s 1299 294 m 1 Y s 1292 295 m 13 X s 1299 268 m -1 Y s 1292 267 m 13 X s 1354 303 m 2 Y s 1347 305 m 13 X s 1354 277 m -1 Y s 1347 276 m 13 X s 1409 382 m 21 Y s 1402 403 m 13 X s 1409 356 m -21 Y s 1402 335 m 13
 X s 1464 356 m s 1457 356 m 13 X s 1464 330 m -1 Y s 1457 329 m 13 X s 1519 411 m 11 Y s 1512 422 m 13 X s 1519 385 m -12 Y s 1512 373 m 13 X s 1574 436 m 11 Y s 1567 447 m 13 X s 1574 410 m -11 Y s 1567 399 m 13 X s 1629 481 m 38 Y s 1622 519 m 13
 X s 1629 455 m -38 Y s 1622 417 m 13 X s black 1 1 0 c 639 399 m 55 -17 d 55 -43 d 55 -35 d 55 -13 d 55 -16 d 55 -2 d 55 3 d 55 -8 d 110 -24 d 55 -3 d 55 40 d 55 9 d 55 79 d 55 -26 d 55 55 d 55 25 d 55 45 d s 639 399 694 382 749 339 804 304 859 291
 914 275 969 273 1024 276 1079 268 1189 244 1244 241 1299 281 1354 290 1409 369 1464 343 1519 398 1574 423 1629 468 18 { m20} R black
 gsave  2268 1538 0 0 C 1394.52 1280.48 t 0 r /Helvetica-Bold findfont 58.6478 sf 0 0 m (Pixel Barrel) show NC gr 
 gsave  2268 1538 0 0 C 1495.52 1241.38 t 0 r /Helvetica-Bold findfont 58.6478 sf 0 0 m (Layer 0) show NC gr  1400 1250 m 80 X s 1440 1250 m20
 gsave  2268 1538 0 0 C 1495.52 1205.54 t 0 r /Helvetica-Bold findfont 58.6478 sf 0 0 m (Layer 1) show NC gr  1 0 0 c 1400 1211 m 80 X s 1440 1211 m20 black
 gsave  2268 1538 0 0 C 1495.52 1166.44 t 0 r /Helvetica-Bold findfont 58.6478 sf 0 0 m (Layer 2) show NC gr  0 1 0 c 1400 1173 m 80 X s 1440 1173 m20 black
 gsave  2268 1538 0 0 C 1495.52 1127.34 t 0 r /Helvetica-Bold findfont 58.6478 sf 0 0 m (Layer 3) show NC gr  0 0 1 c 1400 1134 m 80 X s 1440 1134 m20 black
 gsave  2268 1538 0 0 C 1495.52 1088.24 t 0 r /Helvetica-Bold findfont 58.6478 sf 0 0 m (Layer 4) show NC gr  1 1 0 c 1400 1096 m 80 X s 1440 1096 m20
 gr  gr showpage
end
%%EOF
