%!PS-Adobe-2.0 EPSF-2.0
%%BoundingBox:  0 0 567 384
%%Title: outputDir/pixel_occupancy/size_pixdisk_mg.eps: c1_n42
%%Creator: ROOT Version 6.04/12
%%CreationDate: Mon Apr 25 16:02:13 2016
%%DocumentNeededResources: ProcSet (FontSetInit)
%%EndComments
%%BeginProlog
80 dict begin
/s {stroke} def /l {lineto} def /m {moveto} def /t {translate} def
/r {rotate} def /rl {roll}  def /R {repeat} def
/d {rlineto} def /rm {rmoveto} def /gr {grestore} def /f {eofill} def
/c {setrgbcolor} def /black {0 setgray} def /sd {setdash} def
/cl {closepath} def /sf {scalefont setfont} def /lw {setlinewidth} def
/box {m dup 0 exch d exch 0 d 0 exch neg d cl} def
/NC{systemdict begin initclip end}def/C{NC box clip newpath}def
/bl {box s} def /bf {gsave box gsave f grestore 1 lw [] 0 sd s grestore} def /Y { 0 exch d} def /X { 0 d} def 
/K {{pop pop 0 moveto} exch kshow} bind def
/ita {/ang 15 def gsave [1 0 ang dup sin exch cos div 1 0 0] concat} def 
/mp {newpath /y exch def /x exch def} def
/side {[w .77 mul w .23 mul] .385 w mul sd w 0 l currentpoint t -144 r} def
/mr {mp x y w2 0 360 arc} def /m24 {mr s} def /m20 {mr f} def
/mb {mp x y w2 add m w2 neg 0 d 0 w neg d w 0 d 0 w d cl} def
/mt {mp x y w2 add m w2 neg w neg d w 0 d cl} def
/m21 {mb f} def /m25 {mb s} def /m22 {mt f} def /m26{mt s} def
/m23 {mp x y w2 sub m w2 w d w neg 0 d cl f} def
/m27 {mp x y w2 add m w3 neg w2 neg d w3 w2 neg d w3 w2 d cl s} def
/m28 {mp x w2 sub y w2 sub w3 add m w3 0 d  0 w3 neg d w3 0 d 0 w3 d w3 0 d  0 w3 d w3 neg 0 d 0 w3 d w3 neg 0 d 0 w3 neg d w3 neg 0 d cl s } def
/m29 {mp gsave x w2 sub y w2 add w3 sub m currentpoint t 4 {side} repeat cl fill gr} def
/m30 {mp gsave x w2 sub y w2 add w3 sub m currentpoint t 4 {side} repeat cl s gr} def
/m31 {mp x y w2 sub m 0 w d x w2 sub y m w 0 d x w2 sub y w2 add m w w neg d x w2 sub y w2 sub m w w d s} def
/m32 {mp x y w2 sub m w2 w d w neg 0 d cl s} def
/m33 {mp x y w2 add m w3 neg w2 neg d w3 w2 neg d w3 w2 d cl f} def
/m34 {mp x w2 sub y w2 sub w3 add m w3 0 d  0 w3 neg d w3 0 d 0 w3 d w3 0 d  0 w3 d w3 neg 0 d 0 w3 d w3 neg 0 d 0 w3 neg d w3 neg 0 d cl f } def
/m2 {mp x y w2 sub m 0 w d x w2 sub y m w 0 d s} def
/m5 {mp x w2 sub y w2 sub m w w d x w2 sub y w2 add m w w neg d s} def
%%IncludeResource: ProcSet (FontSetInit)
%%IncludeResource: font Times-Roman
%%IncludeResource: font Times-Italic
%%IncludeResource: font Times-Bold
%%IncludeResource: font Times-BoldItalic
%%IncludeResource: font Helvetica
%%IncludeResource: font Helvetica-Oblique
%%IncludeResource: font Helvetica-Bold
%%IncludeResource: font Helvetica-BoldOblique
%%IncludeResource: font Courier
%%IncludeResource: font Courier-Oblique
%%IncludeResource: font Courier-Bold
%%IncludeResource: font Courier-BoldOblique
%%IncludeResource: font Symbol
%%IncludeResource: font ZapfDingbats
/reEncode {exch findfont dup length dict begin {1 index /FID eq  {pop pop} {def} ifelse } forall /Encoding exch def currentdict end dup /FontName get exch definefont pop } def [/Times-Bold /Times-Italic /Times-BoldItalic /Helvetica /Helvetica-Oblique
 /Helvetica-Bold /Helvetica-BoldOblique /Courier /Courier-Oblique /Courier-Bold /Courier-BoldOblique /Times-Roman /AvantGarde-Book /AvantGarde-BookOblique /AvantGarde-Demi /AvantGarde-DemiOblique /Bookman-Demi /Bookman-DemiItalic /Bookman-Light
 /Bookman-LightItalic /Helvetica-Narrow /Helvetica-Narrow-Bold /Helvetica-Narrow-BoldOblique /Helvetica-Narrow-Oblique /NewCenturySchlbk-Roman /NewCenturySchlbk-Bold /NewCenturySchlbk-BoldItalic /NewCenturySchlbk-Italic /Palatino-Bold
 /Palatino-BoldItalic /Palatino-Italic /Palatino-Roman ] {ISOLatin1Encoding reEncode } forall
%%EndProlog
%%BeginSetup
%%EndSetup
newpath  gsave  .25 .25 scale  gsave  0 0 t black[  ] 0 sd 3 lw 1 1 1 c 2268 1538 0 0 bf black 1 1 1 c 1814 1230 227 154 bf black 1814 1230 227 154 bl 1 1 1 c 1814 1230 227 154 bf black 1814 1230 227 154 bl 227 154 m 1814 X s 309 191 m -37 Y s 364
 172 m -18 Y s 419 172 m -18 Y s 474 172 m -18 Y s 529 172 m -18 Y s 584 191 m -37 Y s 639 172 m -18 Y s 694 172 m -18 Y s 749 172 m -18 Y s 804 172 m -18 Y s 859 191 m -37 Y s 914 172 m -18 Y s 969 172 m -18 Y s 1024 172 m -18 Y s 1079 172 m -18 Y s
 1134 191 m -37 Y s 1189 172 m -18 Y s 1244 172 m -18 Y s 1299 172 m -18 Y s 1354 172 m -18 Y s 1409 191 m -37 Y s 1464 172 m -18 Y s 1519 172 m -18 Y s 1574 172 m -18 Y s 1629 172 m -18 Y s 1684 191 m -37 Y s 1739 172 m -18 Y s 1794 172 m -18 Y s
 1849 172 m -18 Y s 1904 172 m -18 Y s 1958 191 m -37 Y s 309 191 m -37 Y s 254 172 m -18 Y s 1958 191 m -37 Y s 2013 172 m -18 Y s
 gsave  2268 1538 0 0 C 289.981 97.7464 t 0 r /Helvetica-Bold findfont 58.6478 sf 0 0 m (0) show NC gr 
 gsave  2268 1538 0 0 C 540.863 97.7464 t 0 r /Helvetica-Bold findfont 58.6478 sf 0 0 m (0.5) show NC gr 
 gsave  2268 1538 0 0 C 843.877 97.7464 t 0 r /Helvetica-Bold findfont 58.6478 sf 0 0 m (1) show NC gr 
 gsave  2268 1538 0 0 C 1091.5 97.7464 t 0 r /Helvetica-Bold findfont 58.6478 sf 0 0 m (1.5) show NC gr 
 gsave  2268 1538 0 0 C 1391.26 97.7464 t 0 r /Helvetica-Bold findfont 58.6478 sf 0 0 m (2) show NC gr 
 gsave  2268 1538 0 0 C 1638.88 97.7464 t 0 r /Helvetica-Bold findfont 58.6478 sf 0 0 m (2.5) show NC gr 
 gsave  2268 1538 0 0 C 1941.9 97.7464 t 0 r /Helvetica-Bold findfont 58.6478 sf 0 0 m (3) show NC gr  227 1384 m 1814 X s 309 1347 m 37 Y s 364 1366 m 18 Y s 419 1366 m 18 Y s 474 1366 m 18 Y s 529 1366 m 18 Y s 584 1347 m 37 Y s 639 1366 m 18 Y s
 694 1366 m 18 Y s 749 1366 m 18 Y s 804 1366 m 18 Y s 859 1347 m 37 Y s 914 1366 m 18 Y s 969 1366 m 18 Y s 1024 1366 m 18 Y s 1079 1366 m 18 Y s 1134 1347 m 37 Y s 1189 1366 m 18 Y s 1244 1366 m 18 Y s 1299 1366 m 18 Y s 1354 1366 m 18 Y s 1409
 1347 m 37 Y s 1464 1366 m 18 Y s 1519 1366 m 18 Y s 1574 1366 m 18 Y s 1629 1366 m 18 Y s 1684 1347 m 37 Y s 1739 1366 m 18 Y s 1794 1366 m 18 Y s 1849 1366 m 18 Y s 1904 1366 m 18 Y s 1958 1347 m 37 Y s 309 1347 m 37 Y s 254 1366 m 18 Y s 1958 1347
 m 37 Y s 2013 1366 m 18 Y s 227 154 m 1230 Y s 281 266 m -54 X s 254 302 m -27 X s 254 338 m -27 X s 254 373 m -27 X s 254 409 m -27 X s 281 445 m -54 X s 254 480 m -27 X s 254 516 m -27 X s 254 552 m -27 X s 254 588 m -27 X s 281 623 m -54 X s 254
 659 m -27 X s 254 695 m -27 X s 254 730 m -27 X s 254 766 m -27 X s 281 802 m -54 X s 254 837 m -27 X s 254 873 m -27 X s 254 909 m -27 X s 254 944 m -27 X s 281 980 m -54 X s 254 1016 m -27 X s 254 1052 m -27 X s 254 1087 m -27 X s 254 1123 m -27 X
 s 281 1159 m -54 X s 254 1194 m -27 X s 254 1230 m -27 X s 254 1266 m -27 X s 254 1301 m -27 X s 281 1337 m -54 X s 281 266 m -54 X s 254 231 m -27 X s 254 195 m -27 X s 254 159 m -27 X s 281 1337 m -54 X s 254 1373 m -27 X s
 gsave  2268 1538 0 0 C 182.46 241.108 t 0 r /Helvetica-Bold findfont 58.6478 sf 0 0 m (2) show NC gr 
 gsave  2268 1538 0 0 C 133.587 423.568 t 0 r /Helvetica-Bold findfont 58.6478 sf 0 0 m (2.5) show NC gr 
 gsave  2268 1538 0 0 C 182.46 602.769 t 0 r /Helvetica-Bold findfont 58.6478 sf 0 0 m (3) show NC gr 
 gsave  2268 1538 0 0 C 133.587 781.971 t 0 r /Helvetica-Bold findfont 58.6478 sf 0 0 m (3.5) show NC gr 
 gsave  2268 1538 0 0 C 182.46 957.915 t 0 r /Helvetica-Bold findfont 58.6478 sf 0 0 m (4) show NC gr 
 gsave  2268 1538 0 0 C 133.587 1137.12 t 0 r /Helvetica-Bold findfont 58.6478 sf 0 0 m (4.5) show NC gr 
 gsave  2268 1538 0 0 C 182.46 1316.32 t 0 r /Helvetica-Bold findfont 58.6478 sf 0 0 m (5) show NC gr  2041 154 m 1230 Y s 1987 266 m 54 X s 2014 302 m 27 X s 2014 338 m 27 X s 2014 373 m 27 X s 2014 409 m 27 X s 1987 445 m 54 X s 2014 480 m 27 X s
 2014 516 m 27 X s 2014 552 m 27 X s 2014 588 m 27 X s 1987 623 m 54 X s 2014 659 m 27 X s 2014 695 m 27 X s 2014 730 m 27 X s 2014 766 m 27 X s 1987 802 m 54 X s 2014 837 m 27 X s 2014 873 m 27 X s 2014 909 m 27 X s 2014 944 m 27 X s 1987 980 m 54 X
 s 2014 1016 m 27 X s 2014 1052 m 27 X s 2014 1087 m 27 X s 2014 1123 m 27 X s 1987 1159 m 54 X s 2014 1194 m 27 X s 2014 1230 m 27 X s 2014 1266 m 27 X s 2014 1301 m 27 X s 1987 1337 m 54 X s 1987 266 m 54 X s 2014 231 m 27 X s 2014 195 m 27 X s
 2014 159 m 27 X s 1987 1337 m 54 X s 2014 1373 m 27 X s 309 315 m 52 Y s 303 367 m 13 X s 309 289 m -51 Y s 303 238 m 13 X s 859 277 m 18 Y s 852 295 m 13 X s 859 250 m -18 Y s 852 232 m 13 X s 1409 344 m 62 Y s 1402 406 m 13 X s 1409 318 m -62 Y s
 1402 256 m 13 X s 1958 224 m 7 Y s 1952 231 m 13 X s 1958 198 m -8 Y s 1952 190 m 13 X s 309 302 m 550 -38 d 550 67 d 549 -120 d s /w 26 def /w2 {w 2 div} def /w3 {w 3 div} def 309 302 859 264 1409 331 1958 211 4 { m20} R 1 0 0 c 309 358 m 23 Y s
 303 381 m 13 X s 309 332 m -23 Y s 303 309 m 13 X s 859 432 m 59 Y s 852 491 m 13 X s 859 406 m -60 Y s 852 346 m 13 X s 1409 517 m 58 Y s 1402 575 m 13 X s 1409 491 m -57 Y s 1402 434 m 13 X s 1958 324 m 31 Y s 1952 355 m 13 X s 1958 298 m -31 Y s
 1952 267 m 13 X s black 1 0 0 c 309 345 m 550 74 d 550 85 d 549 -193 d s 309 345 859 419 1409 504 1958 311 4 { m20} R 0 1 0 c 309 523 m 46 Y s 303 569 m 13 X s 309 497 m -46 Y s 303 451 m 13 X s 859 736 m 86 Y s 852 822 m 13 X s 859 710 m -85 Y s
 852 625 m 13 X s 1409 630 m 172 Y s 1402 802 m 13 X s 1409 604 m -173 Y s 1402 431 m 13 X s 1958 595 m 69 Y s 1952 664 m 13 X s 1958 569 m -68 Y s 1952 501 m 13 X s black 0 1 0 c 309 510 m 550 213 d 550 -106 d 549 -35 d s 309 510 859 723 1409 617
 1958 582 4 { m20} R 0 0 1 c 309 648 m 61 Y s 303 709 m 13 X s 309 621 m -61 Y s 303 560 m 13 X s 859 710 m 83 Y s 852 793 m 13 X s 859 684 m -83 Y s 852 601 m 13 X s 1409 572 m 57 Y s 1402 629 m 13 X s 1409 546 m -56 Y s 1402 490 m 13 X s 1958 616 m
 62 Y s 1952 678 m 13 X s 1958 590 m -61 Y s 1952 529 m 13 X s black 0 0 1 c 309 634 m 550 63 d 550 -138 d 549 44 d s 309 634 859 697 1409 559 1958 603 4 { m20} R black[ 12 12] 0 sd 309 236 m 11 Y s 303 247 m 13 X s 309 210 m -11 Y s 303 199 m 13 X s
 859 230 m 10 Y s 852 240 m 13 X s 859 204 m -10 Y s 852 194 m 13 X s 1409 274 m 11 Y s 1402 285 m 13 X s 1409 248 m -12 Y s 1402 236 m 13 X s 1958 278 m 20 Y s 1952 298 m 13 X s 1958 252 m -20 Y s 1952 232 m 13 X s 309 223 m 550 -6 d 550 44 d 549 4
 d s[  ] 0 sd 309 223 859 217 1409 261 1958 265 4 { m21} R[ 12 12] 0 sd 1 0 0 c 309 430 m 27 Y s 303 457 m 13 X s 309 404 m -28 Y s 303 376 m 13 X s 859 453 m 61 Y s 852 514 m 13 X s 859 427 m -60 Y s 852 367 m 13 X s 1409 420 m 57 Y s 1402 477 m 13
 X s 1409 394 m -58 Y s 1402 336 m 13 X s 1958 374 m 31 Y s 1952 405 m 13 X s 1958 348 m -31 Y s 1952 317 m 13 X s black 1 0 0 c 309 417 m 550 23 d 550 -33 d 549 -46 d s[  ] 0 sd 309 417 859 440 1409 407 1958 361 4 { m21} R[ 12 12] 0 sd 0 1 0 c 309
 491 m 35 Y s 303 526 m 13 X s 309 465 m -35 Y s 303 430 m 13 X s 859 441 m 49 Y s 852 490 m 13 X s 859 415 m -49 Y s 852 366 m 13 X s 1409 582 m 54 Y s 1402 636 m 13 X s 1409 556 m -54 Y s 1402 502 m 13 X s 1958 411 m 36 Y s 1952 447 m 13 X s 1958
 385 m -36 Y s 1952 349 m 13 X s black 0 1 0 c 309 478 m 550 -50 d 550 141 d 549 -171 d s[  ] 0 sd 309 478 859 428 1409 569 1958 398 4 { m21} R[ 12 12] 0 sd 0 0 1 c 309 577 m 41 Y s 303 618 m 13 X s 309 551 m -41 Y s 303 510 m 13 X s 859 793 m 119 Y
 s 852 912 m 13 X s 859 767 m -119 Y s 852 648 m 13 X s 1409 470 m 27 Y s 1402 497 m 13 X s 1409 444 m -28 Y s 1402 416 m 13 X s 1958 602 m 94 Y s 1952 696 m 13 X s 1958 576 m -95 Y s 1952 481 m 13 X s black 0 0 1 c 309 564 m 550 216 d 550 -323 d 549
 132 d s[  ] 0 sd 309 564 859 780 1409 457 1958 589 4 { m21} R[ 12 12] 0 sd black
 gsave  2268 1538 0 0 C 1326.09 1352.16 t 0 r /Helvetica-Bold findfont 58.6478 sf 0 0 m (Disk 0) show NC gr [  ] 0 sd 1124 1360 m 167 X s 1208 1360 m20
 gsave  2268 1538 0 0 C 1326.09 1303.29 t 0 r /Helvetica-Bold findfont 58.6478 sf 0 0 m (Disk 1) show NC gr  1 0 0 c 1124 1312 m 167 X s 1208 1312 m20 black
 gsave  2268 1538 0 0 C 1326.09 1254.41 t 0 r /Helvetica-Bold findfont 58.6478 sf 0 0 m (Disk 2) show NC gr  0 1 0 c 1124 1264 m 167 X s 1208 1264 m20 black
 gsave  2268 1538 0 0 C 1326.09 1205.54 t 0 r /Helvetica-Bold findfont 58.6478 sf 0 0 m (Disk 3) show NC gr  0 0 1 c 1124 1216 m 167 X s 1208 1216 m20 black
 gsave  2268 1538 0 0 C 1326.09 1159.92 t 0 r /Helvetica-Bold findfont 58.6478 sf 0 0 m (Disk 0) show NC gr [ 12 12] 0 sd 1124 1168 m 167 X s[  ] 0 sd 1208 1168 m21[ 12 12] 0 sd
 gsave  2268 1538 0 0 C 1326.09 1111.05 t 0 r /Helvetica-Bold findfont 58.6478 sf 0 0 m (Disk 1) show NC gr  1 0 0 c 1124 1120 m 167 X s[  ] 0 sd 1208 1120 m21[ 12 12] 0 sd black
 gsave  2268 1538 0 0 C 1326.09 1062.18 t 0 r /Helvetica-Bold findfont 58.6478 sf 0 0 m (Disk 2) show NC gr  0 1 0 c 1124 1072 m 167 X s[  ] 0 sd 1208 1072 m21[ 12 12] 0 sd black
 gsave  2268 1538 0 0 C 1326.09 1013.3 t 0 r /Helvetica-Bold findfont 58.6478 sf 0 0 m (Disk 3) show NC gr  0 0 1 c 1124 1024 m 167 X s[  ] 0 sd 1208 1024 m21[ 12 12] 0 sd
 gr  gr showpage
end
%%EOF
