%!PS-Adobe-2.0 EPSF-2.0
%%BoundingBox:  0 0 567 384
%%Title: outputDir/pixel_occupancy/size_pixlayer_mgz.eps: c1_n11
%%Creator: ROOT Version 6.04/12
%%CreationDate: Mon Apr 25 16:02:04 2016
%%DocumentNeededResources: ProcSet (FontSetInit)
%%EndComments
%%BeginProlog
80 dict begin
/s {stroke} def /l {lineto} def /m {moveto} def /t {translate} def
/r {rotate} def /rl {roll}  def /R {repeat} def
/d {rlineto} def /rm {rmoveto} def /gr {grestore} def /f {eofill} def
/c {setrgbcolor} def /black {0 setgray} def /sd {setdash} def
/cl {closepath} def /sf {scalefont setfont} def /lw {setlinewidth} def
/box {m dup 0 exch d exch 0 d 0 exch neg d cl} def
/NC{systemdict begin initclip end}def/C{NC box clip newpath}def
/bl {box s} def /bf {gsave box gsave f grestore 1 lw [] 0 sd s grestore} def /Y { 0 exch d} def /X { 0 d} def 
/K {{pop pop 0 moveto} exch kshow} bind def
/ita {/ang 15 def gsave [1 0 ang dup sin exch cos div 1 0 0] concat} def 
/mp {newpath /y exch def /x exch def} def
/side {[w .77 mul w .23 mul] .385 w mul sd w 0 l currentpoint t -144 r} def
/mr {mp x y w2 0 360 arc} def /m24 {mr s} def /m20 {mr f} def
/mb {mp x y w2 add m w2 neg 0 d 0 w neg d w 0 d 0 w d cl} def
/mt {mp x y w2 add m w2 neg w neg d w 0 d cl} def
/m21 {mb f} def /m25 {mb s} def /m22 {mt f} def /m26{mt s} def
/m23 {mp x y w2 sub m w2 w d w neg 0 d cl f} def
/m27 {mp x y w2 add m w3 neg w2 neg d w3 w2 neg d w3 w2 d cl s} def
/m28 {mp x w2 sub y w2 sub w3 add m w3 0 d  0 w3 neg d w3 0 d 0 w3 d w3 0 d  0 w3 d w3 neg 0 d 0 w3 d w3 neg 0 d 0 w3 neg d w3 neg 0 d cl s } def
/m29 {mp gsave x w2 sub y w2 add w3 sub m currentpoint t 4 {side} repeat cl fill gr} def
/m30 {mp gsave x w2 sub y w2 add w3 sub m currentpoint t 4 {side} repeat cl s gr} def
/m31 {mp x y w2 sub m 0 w d x w2 sub y m w 0 d x w2 sub y w2 add m w w neg d x w2 sub y w2 sub m w w d s} def
/m32 {mp x y w2 sub m w2 w d w neg 0 d cl s} def
/m33 {mp x y w2 add m w3 neg w2 neg d w3 w2 neg d w3 w2 d cl f} def
/m34 {mp x w2 sub y w2 sub w3 add m w3 0 d  0 w3 neg d w3 0 d 0 w3 d w3 0 d  0 w3 d w3 neg 0 d 0 w3 d w3 neg 0 d 0 w3 neg d w3 neg 0 d cl f } def
/m2 {mp x y w2 sub m 0 w d x w2 sub y m w 0 d s} def
/m5 {mp x w2 sub y w2 sub m w w d x w2 sub y w2 add m w w neg d s} def
%%IncludeResource: ProcSet (FontSetInit)
%%IncludeResource: font Times-Roman
%%IncludeResource: font Times-Italic
%%IncludeResource: font Times-Bold
%%IncludeResource: font Times-BoldItalic
%%IncludeResource: font Helvetica
%%IncludeResource: font Helvetica-Oblique
%%IncludeResource: font Helvetica-Bold
%%IncludeResource: font Helvetica-BoldOblique
%%IncludeResource: font Courier
%%IncludeResource: font Courier-Oblique
%%IncludeResource: font Courier-Bold
%%IncludeResource: font Courier-BoldOblique
%%IncludeResource: font Symbol
%%IncludeResource: font ZapfDingbats
/reEncode {exch findfont dup length dict begin {1 index /FID eq  {pop pop} {def} ifelse } forall /Encoding exch def currentdict end dup /FontName get exch definefont pop } def [/Times-Bold /Times-Italic /Times-BoldItalic /Helvetica /Helvetica-Oblique
 /Helvetica-Bold /Helvetica-BoldOblique /Courier /Courier-Oblique /Courier-Bold /Courier-BoldOblique /Times-Roman /AvantGarde-Book /AvantGarde-BookOblique /AvantGarde-Demi /AvantGarde-DemiOblique /Bookman-Demi /Bookman-DemiItalic /Bookman-Light
 /Bookman-LightItalic /Helvetica-Narrow /Helvetica-Narrow-Bold /Helvetica-Narrow-BoldOblique /Helvetica-Narrow-Oblique /NewCenturySchlbk-Roman /NewCenturySchlbk-Bold /NewCenturySchlbk-BoldItalic /NewCenturySchlbk-Italic /Palatino-Bold
 /Palatino-BoldItalic /Palatino-Italic /Palatino-Roman ] {ISOLatin1Encoding reEncode } forall
%%EndProlog
%%BeginSetup
%%EndSetup
newpath  gsave  .25 .25 scale  gsave  0 0 t black[  ] 0 sd 3 lw 1 1 1 c 2268 1538 0 0 bf black 1 1 1 c 1814 1230 227 154 bf black 1814 1230 227 154 bl 1 1 1 c 1814 1230 227 154 bf black 1814 1230 227 154 bl 227 154 m 1814 X s
 gsave  2268 1538 0 0 C 1853.92 35.8403 t 0 r /Helvetica-Bold findfont 58.6478 sf 0 0 m (z [mm]) show NC gr  428 191 m -37 Y s 486 172 m -18 Y s 545 172 m -18 Y s 604 172 m -18 Y s 663 191 m -37 Y s 722 172 m -18 Y s 781 172 m -18 Y s 840 172 m -18 Y
 s 898 191 m -37 Y s 957 172 m -18 Y s 1016 172 m -18 Y s 1075 172 m -18 Y s 1134 191 m -37 Y s 1193 172 m -18 Y s 1252 172 m -18 Y s 1310 172 m -18 Y s 1369 191 m -37 Y s 1428 172 m -18 Y s 1487 172 m -18 Y s 1546 172 m -18 Y s 1605 191 m -37 Y s
 1664 172 m -18 Y s 1722 172 m -18 Y s 1781 172 m -18 Y s 1840 191 m -37 Y s 428 191 m -37 Y s 369 172 m -18 Y s 310 172 m -18 Y s 251 172 m -18 Y s 1840 191 m -37 Y s 1899 172 m -18 Y s 1958 172 m -18 Y s 2017 172 m -18 Y s
 gsave  2268 1538 0 0 C 390.986 97.7464 t 0 r /Helvetica-Bold findfont 58.6478 sf 0 0 m (600) show NC gr 
 gsave  2268 1538 0 0 C 361.662 97.7464 t 0 r /Symbol findfont 58.6478 sf 0 0 m (-) show NC gr 
 gsave  2268 1538 0 0 C 625.577 97.7464 t 0 r /Helvetica-Bold findfont 58.6478 sf 0 0 m (400) show NC gr 
 gsave  2268 1538 0 0 C 596.253 97.7464 t 0 r /Symbol findfont 58.6478 sf 0 0 m (-) show NC gr 
 gsave  2268 1538 0 0 C 860.168 97.7464 t 0 r /Helvetica-Bold findfont 58.6478 sf 0 0 m (200) show NC gr 
 gsave  2268 1538 0 0 C 830.844 97.7464 t 0 r /Symbol findfont 58.6478 sf 0 0 m (-) show NC gr 
 gsave  2268 1538 0 0 C 1117.57 97.7464 t 0 r /Helvetica-Bold findfont 58.6478 sf 0 0 m (0) show NC gr 
 gsave  2268 1538 0 0 C 1319.58 97.7464 t 0 r /Helvetica-Bold findfont 58.6478 sf 0 0 m (200) show NC gr 
 gsave  2268 1538 0 0 C 1554.17 97.7464 t 0 r /Helvetica-Bold findfont 58.6478 sf 0 0 m (400) show NC gr 
 gsave  2268 1538 0 0 C 1788.76 97.7464 t 0 r /Helvetica-Bold findfont 58.6478 sf 0 0 m (600) show NC gr  227 1384 m 1814 X s 428 1347 m 37 Y s 486 1366 m 18 Y s 545 1366 m 18 Y s 604 1366 m 18 Y s 663 1347 m 37 Y s 722 1366 m 18 Y s 781 1366 m 18 Y
 s 840 1366 m 18 Y s 898 1347 m 37 Y s 957 1366 m 18 Y s 1016 1366 m 18 Y s 1075 1366 m 18 Y s 1134 1347 m 37 Y s 1193 1366 m 18 Y s 1252 1366 m 18 Y s 1310 1366 m 18 Y s 1369 1347 m 37 Y s 1428 1366 m 18 Y s 1487 1366 m 18 Y s 1546 1366 m 18 Y s
 1605 1347 m 37 Y s 1664 1366 m 18 Y s 1722 1366 m 18 Y s 1781 1366 m 18 Y s 1840 1347 m 37 Y s 428 1347 m 37 Y s 369 1366 m 18 Y s 310 1366 m 18 Y s 251 1366 m 18 Y s 1840 1347 m 37 Y s 1899 1366 m 18 Y s 1958 1366 m 18 Y s 2017 1366 m 18 Y s 227
 154 m 1230 Y s
 gsave  2268 1538 0 0 C 104.263 1055.66 t 90 r /Helvetica-Bold findfont 58.6478 sf 0 0 m (Cluster size) show NC gr  281 189 m -54 X s 254 223 m -27 X s 254 256 m -27 X s 254 290 m -27 X s 281 323 m -54 X s 254 356 m -27 X s 254 390 m -27 X s 254 423
 m -27 X s 281 457 m -54 X s 254 490 m -27 X s 254 523 m -27 X s 254 557 m -27 X s 281 590 m -54 X s 254 624 m -27 X s 254 657 m -27 X s 254 690 m -27 X s 281 724 m -54 X s 254 757 m -27 X s 254 791 m -27 X s 254 824 m -27 X s 281 857 m -54 X s 254
 891 m -27 X s 254 924 m -27 X s 254 958 m -27 X s 281 991 m -54 X s 254 1024 m -27 X s 254 1058 m -27 X s 254 1091 m -27 X s 281 1125 m -54 X s 254 1158 m -27 X s 254 1191 m -27 X s 254 1225 m -27 X s 281 1258 m -54 X s 281 189 m -54 X s 254 156 m
 -27 X s 281 1258 m -54 X s 254 1291 m -27 X s 254 1325 m -27 X s 254 1358 m -27 X s
 gsave  2268 1538 0 0 C 182.46 166.169 t 0 r /Helvetica-Bold findfont 58.6478 sf 0 0 m (2) show NC gr 
 gsave  2268 1538 0 0 C 182.46 303.014 t 0 r /Helvetica-Bold findfont 58.6478 sf 0 0 m (4) show NC gr 
 gsave  2268 1538 0 0 C 182.46 436.601 t 0 r /Helvetica-Bold findfont 58.6478 sf 0 0 m (6) show NC gr 
 gsave  2268 1538 0 0 C 182.46 570.187 t 0 r /Helvetica-Bold findfont 58.6478 sf 0 0 m (8) show NC gr 
 gsave  2268 1538 0 0 C 149.878 703.774 t 0 r /Helvetica-Bold findfont 58.6478 sf 0 0 m (10) show NC gr 
 gsave  2268 1538 0 0 C 149.878 834.103 t 0 r /Helvetica-Bold findfont 58.6478 sf 0 0 m (12) show NC gr 
 gsave  2268 1538 0 0 C 149.878 970.948 t 0 r /Helvetica-Bold findfont 58.6478 sf 0 0 m (14) show NC gr 
 gsave  2268 1538 0 0 C 149.878 1104.53 t 0 r /Helvetica-Bold findfont 58.6478 sf 0 0 m (16) show NC gr 
 gsave  2268 1538 0 0 C 149.878 1238.12 t 0 r /Helvetica-Bold findfont 58.6478 sf 0 0 m (18) show NC gr  2041 154 m 1230 Y s 1987 189 m 54 X s 2014 223 m 27 X s 2014 256 m 27 X s 2014 290 m 27 X s 1987 323 m 54 X s 2014 356 m 27 X s 2014 390 m 27 X s
 2014 423 m 27 X s 1987 457 m 54 X s 2014 490 m 27 X s 2014 523 m 27 X s 2014 557 m 27 X s 1987 590 m 54 X s 2014 624 m 27 X s 2014 657 m 27 X s 2014 690 m 27 X s 1987 724 m 54 X s 2014 757 m 27 X s 2014 791 m 27 X s 2014 824 m 27 X s 1987 857 m 54 X
 s 2014 891 m 27 X s 2014 924 m 27 X s 2014 958 m 27 X s 1987 991 m 54 X s 2014 1024 m 27 X s 2014 1058 m 27 X s 2014 1091 m 27 X s 1987 1125 m 54 X s 2014 1158 m 27 X s 2014 1191 m 27 X s 2014 1225 m 27 X s 1987 1258 m 54 X s 1987 189 m 54 X s 2014
 156 m 27 X s 1987 1258 m 54 X s 2014 1291 m 27 X s 2014 1325 m 27 X s 2014 1358 m 27 X s 594 304 m 1 Y s 588 305 m 13 X s 594 278 m -1 Y s 588 277 m 13 X s 944 833 m 16 Y s 938 849 m 13 X s 944 807 m -16 Y s 938 791 m 13 X s 990 678 m 6 Y s 984 684
 m 13 X s 990 652 m -5 Y s 984 647 m 13 X s 1040 490 m 1 Y s 1033 491 m 13 X s 1040 464 m -1 Y s 1033 463 m 13 X s 1227 543 m 3 Y s 1221 546 m 13 X s 1227 517 m -3 Y s 1221 514 m 13 X s 1275 690 m 8 Y s 1269 698 m 13 X s 1275 664 m -8 Y s 1269 656 m
 13 X s 1325 981 m 19 Y s 1318 1000 m 13 X s 1325 955 m -18 Y s 1318 937 m 13 X s 309 280 m 69 -16 d 63 7 d 83 -11 d 70 31 d 61 -36 d 94 X 43 -9 d 61 15 d 43 -19 d 48 578 d 46 -155 d 50 -188 d 46 -112 d 95 29 d 46 136 d 48 147 d 50 291 d 47 -737 d 42
 12 d 61 7 d 44 6 d 44 -1 d 51 3 d 59 6 d 71 7 d 83 -6 d 64 13 d 67 -6 d s /w 26 def /w2 {w 2 div} def /w3 {w 3 div} def 309 280 378 264 441 271 524 260 594 291 655 255 705 255 749 255 792 246 853 261 896 242 944 820 990 665 1040 477 1086 365 1181
 394 1227 530 1275 677 1325 968 1372 231 1414 243 1475 250 1519 256 1563 255 1614 258 1673 264 1744 271 1827 265 1891 278 1958 272 30 { m20} R 1 0 0 c 711 351 m 56 Y s 705 407 m 13 X s 711 325 m -57 Y s 705 268 m 13 X s 765 256 m 4 Y s 759 260 m 13 X
 s 765 230 m -5 Y s 759 225 m 13 X s 809 248 m 2 Y s 802 250 m 13 X s 809 222 m -1 Y s 802 221 m 13 X s 846 232 m s 839 232 m 13 X s 846 206 m s 839 206 m 13 X s 920 544 m 4 Y s 914 548 m 13 X s 920 518 m -3 Y s 914 515 m 13 X s 967 525 m 40 Y s 961
 565 m 13 X s 967 499 m -39 Y s 961 460 m 13 X s 1159 331 m 24 Y s 1152 355 m 13 X s 1159 305 m -25 Y s 1152 280 m 13 X s 1349 634 m 31 Y s 1343 665 m 13 X s 1349 608 m -31 Y s 1343 577 m 13 X s 1422 240 m 1 Y s 1416 241 m 13 X s 1422 214 m -1 Y s
 1416 213 m 13 X s 1788 288 m 13 Y s 1782 301 m 13 X s 1788 262 m -13 Y s 1782 249 m 13 X s 1844 281 m 2 Y s 1838 283 m 13 X s 1844 255 m -2 Y s 1838 253 m 13 X s black 1 0 0 c 368 241 m 55 10 d 57 2 d 91 -11 d 77 -10 d 63 106 d 54 -95 d 44 -8 d 37
 -16 d 31 -16 d 43 328 d 47 -19 d 46 -154 d 50 -61 d 47 -29 d 49 50 d 46 3 d 47 72 d 48 66 d 49 162 d 42 -409 d 31 15 d 36 -27 d 45 16 d 54 39 d 64 -22 d 75 1 d 92 41 d 56 -7 d 55 11 d s 368 241 423 251 480 253 571 242 648 232 711 338 765 243 809 235
 846 219 877 203 920 531 967 512 1013 358 1063 297 1110 268 1159 318 1205 321 1252 393 1300 459 1349 621 1391 212 1422 227 1458 200 1503 216 1557 255 1621 233 1696 234 1788 275 1844 268 1899 279 30 { m20} R 0 1 0 c 726 546 m 9 Y s 720 555 m 13 X s
 726 520 m -10 Y s 720 510 m 13 X s 778 581 m 11 Y s 771 592 m 13 X s 778 555 m -11 Y s 771 544 m 13 X s 826 540 m 2 Y s 819 542 m 13 X s 826 513 m -2 Y s 819 511 m 13 X s 873 425 m 2 Y s 866 427 m 13 X s 873 399 m -2 Y s 866 397 m 13 X s 916 416 m 1
 Y s 909 417 m 13 X s 916 390 m -1 Y s 909 389 m 13 X s 1255 325 m 2 Y s 1248 327 m 13 X s 1255 299 m -2 Y s 1248 297 m 13 X s 1349 421 m 7 Y s 1343 428 m 13 X s 1349 395 m -6 Y s 1343 389 m 13 X s 1444 542 m 7 Y s 1438 549 m 13 X s 1444 516 m -8 Y s
 1438 508 m 13 X s 1492 570 m 9 Y s 1486 579 m 13 X s 1492 544 m -9 Y s 1486 535 m 13 X s 1541 591 m 14 Y s 1534 605 m 13 X s 1541 565 m -13 Y s 1534 552 m 13 X s black 0 1 0 c 726 533 m 52 35 d 48 -42 d 47 -114 d 43 -9 d 49 -83 d 52 -25 d 47 -48 d
 45 -20 d 49 7 d 49 33 d 48 45 d 46 27 d 48 69 d 48 23 d 47 98 d 48 28 d 49 21 d s 726 533 778 568 826 526 873 412 916 403 965 320 1017 295 1064 247 1109 227 1158 234 1207 267 1255 312 1301 339 1349 408 1397 431 1444 529 1492 557 1541 578 18 { m20} R
 0 0 1 c 727 445 m 4 Y s 720 449 m 13 X s 727 419 m -4 Y s 720 415 m 13 X s 777 473 m 11 Y s 770 484 m 13 X s 777 447 m -11 Y s 770 436 m 13 X s 824 442 m 21 Y s 818 463 m 13 X s 824 416 m -21 Y s 818 395 m 13 X s 872 402 m 6 Y s 865 408 m 13 X s 872
 376 m -6 Y s 865 370 m 13 X s 965 309 m 1 Y s 959 310 m 13 X s 965 283 m -2 Y s 959 281 m 13 X s 1015 288 m 6 Y s 1009 294 m 13 X s 1015 262 m -6 Y s 1009 256 m 13 X s 1252 293 m 1 Y s 1246 294 m 13 X s 1252 267 m s 1246 267 m 13 X s 1349 371 m 2 Y
 s 1342 373 m 13 X s 1349 345 m -3 Y s 1342 342 m 13 X s 1399 423 m 11 Y s 1393 434 m 13 X s 1399 397 m -11 Y s 1393 386 m 13 X s 1492 446 m 2 Y s 1485 448 m 14 X s 1492 420 m -2 Y s 1485 418 m 14 X s 1540 476 m 7 Y s 1534 483 m 13 X s 1540 450 m -7
 Y s 1534 443 m 13 X s black 0 0 1 c 727 432 m 50 28 d 47 -31 d 48 -40 d 51 -69 d 42 -24 d 50 -21 d 48 -41 d 44 -11 d 51 X 47 15 d 47 42 d 52 19 d 45 59 d 50 52 d 47 -17 d 46 40 d 48 30 d s 727 432 777 460 824 429 872 389 923 320 965 296 1015 275
 1063 234 1107 223 1158 223 1205 238 1252 280 1304 299 1349 358 1399 410 1446 393 1492 433 1540 463 18 { m20} R 1 1 0 c 727 412 m 2 Y s 720 414 m 13 X s 727 386 m -2 Y s 720 384 m 13 X s 775 395 m 1 Y s 768 396 m 13 X s 775 369 m -1 Y s 768 368 m 13
 X s 1064 289 m 23 Y s 1057 312 m 13 X s 1064 263 m -23 Y s 1057 240 m 13 X s 1109 281 m 22 Y s 1103 303 m 13 X s 1109 255 m -23 Y s 1103 232 m 13 X s 1157 257 m 5 Y s 1151 262 m 13 X s 1157 231 m -5 Y s 1151 226 m 13 X s 1206 254 m 1 Y s 1200 255 m
 13 X s 1206 228 m -1 Y s 1200 227 m 13 X s 1254 294 m 1 Y s 1248 295 m 13 X s 1254 268 m -1 Y s 1248 267 m 13 X s 1299 303 m 2 Y s 1293 305 m 13 X s 1299 277 m -1 Y s 1293 276 m 13 X s 1350 382 m 21 Y s 1344 403 m 13 X s 1350 356 m -21 Y s 1344 335
 m 13 X s 1398 356 m s 1392 356 m 13 X s 1398 330 m -1 Y s 1392 329 m 13 X s 1443 411 m 11 Y s 1437 422 m 13 X s 1443 385 m -12 Y s 1437 373 m 13 X s 1492 436 m 11 Y s 1486 447 m 13 X s 1492 410 m -11 Y s 1486 399 m 13 X s 1538 481 m 38 Y s 1532 519
 m 13 X s 1538 455 m -38 Y s 1532 417 m 13 X s black 1 1 0 c 727 399 m 48 -17 d 48 -43 d 49 -35 d 48 -13 d 50 -16 d 45 -2 d 49 3 d 45 -8 d 48 -24 d 49 -3 d 48 40 d 45 9 d 51 79 d 48 -26 d 45 55 d 49 25 d 46 45 d s 727 399 775 382 823 339 872 304 920
 291 970 275 1015 273 1064 276 1109 268 1157 244 1206 241 1254 281 1299 290 1350 369 1398 343 1443 398 1492 423 1538 468 18 { m20} R black
 gsave  2268 1538 0 0 C 1394.52 1280.48 t 0 r /Helvetica-Bold findfont 58.6478 sf 0 0 m (Pixel Barrel) show NC gr 
 gsave  2268 1538 0 0 C 1495.52 1241.38 t 0 r /Helvetica-Bold findfont 58.6478 sf 0 0 m (Layer 0) show NC gr  1400 1250 m 80 X s 1440 1250 m20
 gsave  2268 1538 0 0 C 1495.52 1205.54 t 0 r /Helvetica-Bold findfont 58.6478 sf 0 0 m (Layer 1) show NC gr  1 0 0 c 1400 1211 m 80 X s 1440 1211 m20 black
 gsave  2268 1538 0 0 C 1495.52 1166.44 t 0 r /Helvetica-Bold findfont 58.6478 sf 0 0 m (Layer 2) show NC gr  0 1 0 c 1400 1173 m 80 X s 1440 1173 m20 black
 gsave  2268 1538 0 0 C 1495.52 1127.34 t 0 r /Helvetica-Bold findfont 58.6478 sf 0 0 m (Layer 3) show NC gr  0 0 1 c 1400 1134 m 80 X s 1440 1134 m20 black
 gsave  2268 1538 0 0 C 1495.52 1088.24 t 0 r /Helvetica-Bold findfont 58.6478 sf 0 0 m (Layer 4) show NC gr  1 1 0 c 1400 1096 m 80 X s 1440 1096 m20
 gr  gr showpage
end
%%EOF
