%!PS-Adobe-2.0 EPSF-2.0
%%BoundingBox:  0 0 567 384
%%Title: d3pdDirr/pixHits_negZ/pixClus_r.eps: c1_n74
%%Creator: ROOT Version 6.04/12
%%CreationDate: Tue Apr 26 00:12:48 2016
%%DocumentNeededResources: ProcSet (FontSetInit)
%%EndComments
%%BeginProlog
80 dict begin
/s {stroke} def /l {lineto} def /m {moveto} def /t {translate} def
/r {rotate} def /rl {roll}  def /R {repeat} def
/d {rlineto} def /rm {rmoveto} def /gr {grestore} def /f {eofill} def
/c {setrgbcolor} def /black {0 setgray} def /sd {setdash} def
/cl {closepath} def /sf {scalefont setfont} def /lw {setlinewidth} def
/box {m dup 0 exch d exch 0 d 0 exch neg d cl} def
/NC{systemdict begin initclip end}def/C{NC box clip newpath}def
/bl {box s} def /bf {gsave box gsave f grestore 1 lw [] 0 sd s grestore} def /Y { 0 exch d} def /X { 0 d} def 
/K {{pop pop 0 moveto} exch kshow} bind def
/ita {/ang 15 def gsave [1 0 ang dup sin exch cos div 1 0 0] concat} def 
/mp {newpath /y exch def /x exch def} def
/side {[w .77 mul w .23 mul] .385 w mul sd w 0 l currentpoint t -144 r} def
/mr {mp x y w2 0 360 arc} def /m24 {mr s} def /m20 {mr f} def
/mb {mp x y w2 add m w2 neg 0 d 0 w neg d w 0 d 0 w d cl} def
/mt {mp x y w2 add m w2 neg w neg d w 0 d cl} def
/m21 {mb f} def /m25 {mb s} def /m22 {mt f} def /m26{mt s} def
/m23 {mp x y w2 sub m w2 w d w neg 0 d cl f} def
/m27 {mp x y w2 add m w3 neg w2 neg d w3 w2 neg d w3 w2 d cl s} def
/m28 {mp x w2 sub y w2 sub w3 add m w3 0 d  0 w3 neg d w3 0 d 0 w3 d w3 0 d  0 w3 d w3 neg 0 d 0 w3 d w3 neg 0 d 0 w3 neg d w3 neg 0 d cl s } def
/m29 {mp gsave x w2 sub y w2 add w3 sub m currentpoint t 4 {side} repeat cl fill gr} def
/m30 {mp gsave x w2 sub y w2 add w3 sub m currentpoint t 4 {side} repeat cl s gr} def
/m31 {mp x y w2 sub m 0 w d x w2 sub y m w 0 d x w2 sub y w2 add m w w neg d x w2 sub y w2 sub m w w d s} def
/m32 {mp x y w2 sub m w2 w d w neg 0 d cl s} def
/m33 {mp x y w2 add m w3 neg w2 neg d w3 w2 neg d w3 w2 d cl f} def
/m34 {mp x w2 sub y w2 sub w3 add m w3 0 d  0 w3 neg d w3 0 d 0 w3 d w3 0 d  0 w3 d w3 neg 0 d 0 w3 d w3 neg 0 d 0 w3 neg d w3 neg 0 d cl f } def
/m2 {mp x y w2 sub m 0 w d x w2 sub y m w 0 d s} def
/m5 {mp x w2 sub y w2 sub m w w d x w2 sub y w2 add m w w neg d s} def
%%IncludeResource: ProcSet (FontSetInit)
%%IncludeResource: font Times-Roman
%%IncludeResource: font Times-Italic
%%IncludeResource: font Times-Bold
%%IncludeResource: font Times-BoldItalic
%%IncludeResource: font Helvetica
%%IncludeResource: font Helvetica-Oblique
%%IncludeResource: font Helvetica-Bold
%%IncludeResource: font Helvetica-BoldOblique
%%IncludeResource: font Courier
%%IncludeResource: font Courier-Oblique
%%IncludeResource: font Courier-Bold
%%IncludeResource: font Courier-BoldOblique
%%IncludeResource: font Symbol
%%IncludeResource: font ZapfDingbats
/reEncode {exch findfont dup length dict begin {1 index /FID eq  {pop pop} {def} ifelse } forall /Encoding exch def currentdict end dup /FontName get exch definefont pop } def [/Times-Bold /Times-Italic /Times-BoldItalic /Helvetica /Helvetica-Oblique
 /Helvetica-Bold /Helvetica-BoldOblique /Courier /Courier-Oblique /Courier-Bold /Courier-BoldOblique /Times-Roman /AvantGarde-Book /AvantGarde-BookOblique /AvantGarde-Demi /AvantGarde-DemiOblique /Bookman-Demi /Bookman-DemiItalic /Bookman-Light
 /Bookman-LightItalic /Helvetica-Narrow /Helvetica-Narrow-Bold /Helvetica-Narrow-BoldOblique /Helvetica-Narrow-Oblique /NewCenturySchlbk-Roman /NewCenturySchlbk-Bold /NewCenturySchlbk-BoldItalic /NewCenturySchlbk-Italic /Palatino-Bold
 /Palatino-BoldItalic /Palatino-Italic /Palatino-Roman ] {ISOLatin1Encoding reEncode } forall
%%EndProlog
%%BeginSetup
%%EndSetup
newpath  gsave  .25 .25 scale  gsave  0 0 t black[  ] 0 sd 3 lw 1 1 1 c 2268 1538 0 0 bf black 1 1 1 c 1814 1307 227 154 bf black 1814 1307 227 154 bl 1 1 1 c 1814 1307 227 154 bf black 1814 1307 227 154 bl 1 1 1 c black 227 154 m 777 X 251 Y 5 X 690
 Y 6 X -45 Y 5 X 124 Y 5 X -61 Y 5 X 70 Y 5 X -119 Y 6 X -72 Y 5 X 130 Y 5 X -18 Y 5 X -31 Y 5 X 112 Y 5 X -175 Y 6 X -83 Y 5 X 123 Y 5 X 5 Y 5 X -32 Y 5 X -144 Y 6 X 77 Y 5 X 15 Y 5 X -35 Y 5 X 101 Y 5 X 141 Y 5 X -9 Y 6 X 25 Y 5 X 36 Y 5 X -50 Y 5
 X -123 Y 5 X 36 Y 6 X -5 Y 5 X 27 Y 5 X -56 Y 5 X -13 Y 5 X 78 Y 6 X -119 Y 5 X -9 Y 5 X 77 Y 5 X -36 Y 5 X -52 Y 5 X -67 Y 6 X 42 Y 5 X -429 Y 5 X 432 Y 5 X 262 Y 5 X 9 Y 6 X -130 Y 5 X -124 Y 5 X 129 Y 5 X 26 Y 5 X -130 Y 5 X 234 Y 6 X -61 Y 5 X 5
 Y 5 X -137 Y 5 X -54 Y 5 X 105 Y 6 X -161 Y 5 X 182 Y 5 X -108 Y 5 X 24 Y 5 X -83 Y 5 X -72 Y 6 X 52 Y 5 X 151 Y 5 X -5 Y 5 X 193 Y 5 X -135 Y 6 X 117 Y 5 X -105 Y 5 X -23 Y 5 X 27 Y 5 X 52 Y 5 X -108 Y 6 X 124 Y 5 X -52 Y 5 X -38 Y 5 X 213 Y 5 X
 -296 Y 6 X -52 Y 5 X 20 Y 5 X 178 Y 5 X -209 Y 5 X 78 Y 5 X 23 Y 6 X -155 Y 5 X 132 Y 5 X -22 Y 5 X -72 Y 5 X -43 Y 6 X 39 Y 5 X 4 Y 5 X 79 Y 5 X 27 Y 5 X -122 Y 6 X 54 Y 5 X -96 Y 5 X 56 Y 5 X 42 Y 5 X -47 Y 5 X 18 Y 6 X -42 Y 5 X 2 Y 5 X 63 Y 5 X
 -654 Y 5 X 305 Y 6 X 560 Y 5 X -216 Y 5 X 146 Y 5 X 36 Y 5 X -67 Y 5 X 22 Y 6 X -175 Y 5 X 119 Y 5 X -38 Y 5 X -45 Y 5 X 25 Y 6 X 45 Y 5 X -34 Y 5 X 74 Y 5 X -25 Y 5 X 12 Y 5 X -59 Y 6 X -52 Y 5 X 81 Y 5 X -6 Y 5 X 4 Y 5 X -139 Y 6 X 159 Y 5 X -218
 Y 5 X 7 Y 5 X 36 Y 5 X 16 Y 5 X -115 Y 6 X 38 Y 5 X 66 Y 5 X -25 Y 5 X 87 Y 5 X -130 Y 6 X 43 Y 5 X 108 Y 5 X -54 Y 5 X -29 Y 5 X 123 Y 5 X -150 Y 6 X -115 Y 5 X 9 Y 5 X 121 Y 5 X 108 Y 5 X -258 Y 6 X 108 Y 5 X 31 Y 5 X -13 Y 5 X 2 Y 5 X -56 Y 6 X
 -68 Y 5 X 128 Y 5 X 18 Y 5 X -83 Y 5 X -49 Y 5 X -108 Y 6 X 155 Y 5 X 13 Y 5 X 45 Y 5 X -45 Y 5 X -69 Y 6 X -389 Y 5 X -213 Y 176 X s 227 154 m 1814 X s 227 191 m -37 Y s 279 172 m -18 Y s 330 172 m -18 Y s 382 172 m -18 Y s 434 172 m -18 Y s 486
 191 m -37 Y s 538 172 m -18 Y s 590 172 m -18 Y s 641 172 m -18 Y s 693 172 m -18 Y s 745 191 m -37 Y s 797 172 m -18 Y s 849 172 m -18 Y s 901 172 m -18 Y s 952 172 m -18 Y s 1004 191 m -37 Y s 1056 172 m -18 Y s 1108 172 m -18 Y s 1160 172 m -18 Y
 s 1212 172 m -18 Y s 1263 191 m -37 Y s 1315 172 m -18 Y s 1367 172 m -18 Y s 1419 172 m -18 Y s 1471 172 m -18 Y s 1523 191 m -37 Y s 1574 172 m -18 Y s 1626 172 m -18 Y s 1678 172 m -18 Y s 1730 172 m -18 Y s 1782 191 m -37 Y s 1834 172 m -18 Y s
 1885 172 m -18 Y s 1937 172 m -18 Y s 1989 172 m -18 Y s 2041 191 m -37 Y s
 gsave  2268 1538 0 0 C 208.526 97.7464 t 0 r /Helvetica-Bold findfont 58.6478 sf 0 0 m (0) show NC gr 
 gsave  2268 1538 0 0 C 452.892 97.7464 t 0 r /Helvetica-Bold findfont 58.6478 sf 0 0 m (50) show NC gr 
 gsave  2268 1538 0 0 C 693.999 97.7464 t 0 r /Helvetica-Bold findfont 58.6478 sf 0 0 m (100) show NC gr 
 gsave  2268 1538 0 0 C 954.657 97.7464 t 0 r /Helvetica-Bold findfont 58.6478 sf 0 0 m (150) show NC gr 
 gsave  2268 1538 0 0 C 1212.06 97.7464 t 0 r /Helvetica-Bold findfont 58.6478 sf 0 0 m (200) show NC gr 
 gsave  2268 1538 0 0 C 1472.71 97.7464 t 0 r /Helvetica-Bold findfont 58.6478 sf 0 0 m (250) show NC gr 
 gsave  2268 1538 0 0 C 1730.11 97.7464 t 0 r /Helvetica-Bold findfont 58.6478 sf 0 0 m (300) show NC gr 
 gsave  2268 1538 0 0 C 1990.77 97.7464 t 0 r /Helvetica-Bold findfont 58.6478 sf 0 0 m (350) show NC gr  227 1461 m 1814 X s 227 1424 m 37 Y s 279 1443 m 18 Y s 330 1443 m 18 Y s 382 1443 m 18 Y s 434 1443 m 18 Y s 486 1424 m 37 Y s 538 1443 m 18 Y
 s 590 1443 m 18 Y s 641 1443 m 18 Y s 693 1443 m 18 Y s 745 1424 m 37 Y s 797 1443 m 18 Y s 849 1443 m 18 Y s 901 1443 m 18 Y s 952 1443 m 18 Y s 1004 1424 m 37 Y s 1056 1443 m 18 Y s 1108 1443 m 18 Y s 1160 1443 m 18 Y s 1212 1443 m 18 Y s 1263
 1424 m 37 Y s 1315 1443 m 18 Y s 1367 1443 m 18 Y s 1419 1443 m 18 Y s 1471 1443 m 18 Y s 1523 1424 m 37 Y s 1574 1443 m 18 Y s 1626 1443 m 18 Y s 1678 1443 m 18 Y s 1730 1443 m 18 Y s 1782 1424 m 37 Y s 1834 1443 m 18 Y s 1885 1443 m 18 Y s 1937
 1443 m 18 Y s 1989 1443 m 18 Y s 2041 1424 m 37 Y s 227 154 m 1307 Y s 285 154 m -58 X s 256 199 m -29 X s 256 244 m -29 X s 256 289 m -29 X s 256 334 m -29 X s 285 378 m -58 X s 256 423 m -29 X s 256 468 m -29 X s 256 513 m -29 X s 256 558 m -29 X
 s 285 603 m -58 X s 256 648 m -29 X s 256 693 m -29 X s 256 738 m -29 X s 256 783 m -29 X s 285 828 m -58 X s 256 873 m -29 X s 256 918 m -29 X s 256 963 m -29 X s 256 1007 m -29 X s 285 1052 m -58 X s 256 1097 m -29 X s 256 1142 m -29 X s 256 1187
 m -29 X s 256 1232 m -29 X s 285 1277 m -58 X s 285 1277 m -58 X s 256 1322 m -29 X s 256 1367 m -29 X s 256 1412 m -29 X s 256 1457 m -29 X s
 gsave  2268 1538 0 0 C 182.46 133.587 t 0 r /Helvetica-Bold findfont 58.6478 sf 0 0 m (0) show NC gr 
 gsave  2268 1538 0 0 C 117.296 358.403 t 0 r /Helvetica-Bold findfont 58.6478 sf 0 0 m (100) show NC gr 
 gsave  2268 1538 0 0 C 117.296 583.22 t 0 r /Helvetica-Bold findfont 58.6478 sf 0 0 m (200) show NC gr 
 gsave  2268 1538 0 0 C 117.296 808.037 t 0 r /Helvetica-Bold findfont 58.6478 sf 0 0 m (300) show NC gr 
 gsave  2268 1538 0 0 C 117.296 1029.6 t 0 r /Helvetica-Bold findfont 58.6478 sf 0 0 m (400) show NC gr 
 gsave  2268 1538 0 0 C 117.296 1254.41 t 0 r /Helvetica-Bold findfont 58.6478 sf 0 0 m (500) show NC gr  2041 154 m 1307 Y s 1983 154 m 58 X s 2012 199 m 29 X s 2012 244 m 29 X s 2012 289 m 29 X s 2012 334 m 29 X s 1983 378 m 58 X s 2012 423 m 29 X
 s 2012 468 m 29 X s 2012 513 m 29 X s 2012 558 m 29 X s 1983 603 m 58 X s 2012 648 m 29 X s 2012 693 m 29 X s 2012 738 m 29 X s 2012 783 m 29 X s 1983 828 m 58 X s 2012 873 m 29 X s 2012 918 m 29 X s 2012 963 m 29 X s 2012 1007 m 29 X s 1983 1052 m
 58 X s 2012 1097 m 29 X s 2012 1142 m 29 X s 2012 1187 m 29 X s 2012 1232 m 29 X s 1983 1277 m 58 X s 1983 1277 m 58 X s 2012 1322 m 29 X s 2012 1367 m 29 X s 2012 1412 m 29 X s 2012 1457 m 29 X s
 gsave  2268 1538 0 0 C 1326.09 1172.96 t 0 r /Helvetica-Bold findfont 58.6478 sf 0 0 m (Pixel Occupancies) show NC gr  1124 1192 m 167 X s
 gr  gr showpage
end
%%EOF
