%!PS-Adobe-2.0 EPSF-2.0
%%BoundingBox:  0 0 567 384
%%Title: d3pdDirr/pixHits_posZ/pixClus_x.eps: c1_n70
%%Creator: ROOT Version 6.04/12
%%CreationDate: Tue Apr 26 00:12:48 2016
%%DocumentNeededResources: ProcSet (FontSetInit)
%%EndComments
%%BeginProlog
80 dict begin
/s {stroke} def /l {lineto} def /m {moveto} def /t {translate} def
/r {rotate} def /rl {roll}  def /R {repeat} def
/d {rlineto} def /rm {rmoveto} def /gr {grestore} def /f {eofill} def
/c {setrgbcolor} def /black {0 setgray} def /sd {setdash} def
/cl {closepath} def /sf {scalefont setfont} def /lw {setlinewidth} def
/box {m dup 0 exch d exch 0 d 0 exch neg d cl} def
/NC{systemdict begin initclip end}def/C{NC box clip newpath}def
/bl {box s} def /bf {gsave box gsave f grestore 1 lw [] 0 sd s grestore} def /Y { 0 exch d} def /X { 0 d} def 
/K {{pop pop 0 moveto} exch kshow} bind def
/ita {/ang 15 def gsave [1 0 ang dup sin exch cos div 1 0 0] concat} def 
/mp {newpath /y exch def /x exch def} def
/side {[w .77 mul w .23 mul] .385 w mul sd w 0 l currentpoint t -144 r} def
/mr {mp x y w2 0 360 arc} def /m24 {mr s} def /m20 {mr f} def
/mb {mp x y w2 add m w2 neg 0 d 0 w neg d w 0 d 0 w d cl} def
/mt {mp x y w2 add m w2 neg w neg d w 0 d cl} def
/m21 {mb f} def /m25 {mb s} def /m22 {mt f} def /m26{mt s} def
/m23 {mp x y w2 sub m w2 w d w neg 0 d cl f} def
/m27 {mp x y w2 add m w3 neg w2 neg d w3 w2 neg d w3 w2 d cl s} def
/m28 {mp x w2 sub y w2 sub w3 add m w3 0 d  0 w3 neg d w3 0 d 0 w3 d w3 0 d  0 w3 d w3 neg 0 d 0 w3 d w3 neg 0 d 0 w3 neg d w3 neg 0 d cl s } def
/m29 {mp gsave x w2 sub y w2 add w3 sub m currentpoint t 4 {side} repeat cl fill gr} def
/m30 {mp gsave x w2 sub y w2 add w3 sub m currentpoint t 4 {side} repeat cl s gr} def
/m31 {mp x y w2 sub m 0 w d x w2 sub y m w 0 d x w2 sub y w2 add m w w neg d x w2 sub y w2 sub m w w d s} def
/m32 {mp x y w2 sub m w2 w d w neg 0 d cl s} def
/m33 {mp x y w2 add m w3 neg w2 neg d w3 w2 neg d w3 w2 d cl f} def
/m34 {mp x w2 sub y w2 sub w3 add m w3 0 d  0 w3 neg d w3 0 d 0 w3 d w3 0 d  0 w3 d w3 neg 0 d 0 w3 d w3 neg 0 d 0 w3 neg d w3 neg 0 d cl f } def
/m2 {mp x y w2 sub m 0 w d x w2 sub y m w 0 d s} def
/m5 {mp x w2 sub y w2 sub m w w d x w2 sub y w2 add m w w neg d s} def
%%IncludeResource: ProcSet (FontSetInit)
%%IncludeResource: font Times-Roman
%%IncludeResource: font Times-Italic
%%IncludeResource: font Times-Bold
%%IncludeResource: font Times-BoldItalic
%%IncludeResource: font Helvetica
%%IncludeResource: font Helvetica-Oblique
%%IncludeResource: font Helvetica-Bold
%%IncludeResource: font Helvetica-BoldOblique
%%IncludeResource: font Courier
%%IncludeResource: font Courier-Oblique
%%IncludeResource: font Courier-Bold
%%IncludeResource: font Courier-BoldOblique
%%IncludeResource: font Symbol
%%IncludeResource: font ZapfDingbats
/reEncode {exch findfont dup length dict begin {1 index /FID eq  {pop pop} {def} ifelse } forall /Encoding exch def currentdict end dup /FontName get exch definefont pop } def [/Times-Bold /Times-Italic /Times-BoldItalic /Helvetica /Helvetica-Oblique
 /Helvetica-Bold /Helvetica-BoldOblique /Courier /Courier-Oblique /Courier-Bold /Courier-BoldOblique /Times-Roman /AvantGarde-Book /AvantGarde-BookOblique /AvantGarde-Demi /AvantGarde-DemiOblique /Bookman-Demi /Bookman-DemiItalic /Bookman-Light
 /Bookman-LightItalic /Helvetica-Narrow /Helvetica-Narrow-Bold /Helvetica-Narrow-BoldOblique /Helvetica-Narrow-Oblique /NewCenturySchlbk-Roman /NewCenturySchlbk-Bold /NewCenturySchlbk-BoldItalic /NewCenturySchlbk-Italic /Palatino-Bold
 /Palatino-BoldItalic /Palatino-Italic /Palatino-Roman ] {ISOLatin1Encoding reEncode } forall
%%EndProlog
%%BeginSetup
%%EndSetup
newpath  gsave  .25 .25 scale  gsave  0 0 t black[  ] 0 sd 3 lw 1 1 1 c 2268 1538 0 0 bf black 1 1 1 c 1814 1307 227 154 bf black 1814 1307 227 154 bl 1 1 1 c 1814 1307 227 154 bf black 1814 1307 227 154 bl 1 1 1 c black 227 1046 m 5 X -318 Y 5 X 73
 Y 5 X -195 Y 6 X 39 Y 5 X 61 Y 5 X -50 Y 5 X -106 Y 5 X 117 Y 5 X -223 Y 6 X 173 Y 5 X -95 Y 5 X -28 Y 5 X 145 Y 5 X -22 Y 6 X 95 Y 5 X -223 Y 5 X 150 Y 5 X -106 Y 5 X 78 Y 5 X -61 Y 6 X 56 Y 5 X 5 Y 5 X -28 Y 5 X 106 Y 5 X 106 Y 6 X -217 Y 5 X 323
 Y 5 X -50 Y 5 X -39 Y 5 X -56 Y 5 X -22 Y 6 X -28 Y 5 X -111 Y 5 X -12 Y 5 X -11 Y 5 X -72 Y 6 X 150 Y 5 X 73 Y 5 X -45 Y 10 X -56 Y 5 X 168 Y 6 X -134 Y 5 X 22 Y 5 X -39 Y 5 X 22 Y 5 X 157 Y 6 X -78 Y 5 X -6 Y 5 X -11 Y 5 X -11 Y 5 X 262 Y 5 X -167
 Y 6 X -179 Y 5 X 251 Y 5 X -240 Y 5 X 184 Y 5 X -201 Y 6 X 84 Y 5 X 22 Y 5 X -106 Y 5 X -33 Y 5 X 151 Y 6 X 11 Y 5 X -17 Y 5 X -78 Y 10 X 67 Y 5 X 11 Y 6 X -123 Y 5 X -28 Y 5 X 45 Y 5 X 139 Y 5 X 246 Y 6 X -240 Y 5 X -84 Y 5 X 134 Y 5 X -128 Y 5 X
 201 Y 5 X -106 Y 6 X -151 Y 5 X -39 Y 5 X 106 Y 5 X 56 Y 5 X 89 Y 6 X -67 Y 5 X 6 Y 5 X 134 Y 5 X -101 Y 5 X -5 Y 5 X -95 Y 6 X 28 Y 5 X -196 Y 5 X 168 Y 5 X -117 Y 5 X -11 Y 6 X 44 Y 5 X 50 Y 5 X 123 Y 5 X -89 Y 5 X 229 Y 5 X -62 Y 6 X -128 Y 5 X
 -22 Y 5 X 61 Y 5 X 39 Y 5 X -73 Y 6 X 129 Y 5 X -140 Y 5 X -39 Y 5 X 95 Y 5 X -178 Y 5 X 184 Y 6 X -11 Y 5 X -23 Y 5 X 39 Y 5 X -28 Y 5 X 17 Y 6 X -100 Y 5 X 161 Y 5 X -72 Y 5 X 78 Y 5 X 78 Y 6 X -5 Y 5 X -224 Y 5 X 296 Y 5 X -268 Y 5 X 45 Y 5 X -45
 Y 6 X 129 Y 5 X -162 Y 5 X 162 Y 5 X 161 Y 5 X -106 Y 6 X -195 Y 5 X 229 Y 5 X -123 Y 5 X 123 Y 5 X 17 Y 5 X -162 Y 6 X 441 Y 5 X -346 Y 5 X -45 Y 5 X -100 Y 5 X 201 Y 6 X -56 Y 5 X 106 Y 5 X -39 Y 5 X 150 Y 5 X 78 Y 5 X 123 Y 6 X -195 Y 5 X -28 Y 5
 X 134 Y 5 X 17 Y 5 X -106 Y 6 X -162 Y 5 X 212 Y 5 X -195 Y 5 X 5 Y 5 X 195 Y 5 X -200 Y 6 X 89 Y 5 X -223 Y 5 X 89 Y 5 X 50 Y 5 X 17 Y 6 X -45 Y 5 X -229 Y 5 X 240 Y 5 X -94 Y 5 X 195 Y 5 X -140 Y 6 X -11 Y 5 X 117 Y 5 X -318 Y 5 X 90 Y 5 X 173 Y 6
 X -196 Y 5 X 78 Y 5 X -122 Y 5 X 67 Y 5 X 340 Y 6 X -279 Y 5 X 50 Y 5 X -84 Y 5 X 34 Y 5 X -45 Y 5 X 151 Y 6 X -45 Y 5 X -167 Y 5 X -56 Y 5 X 67 Y 5 X 61 Y 6 X 190 Y 5 X -212 Y 5 X 39 Y 5 X -150 Y 5 X 251 Y 5 X -118 Y 6 X 56 Y 5 X -111 Y 10 X -78 Y
 11 X 117 Y 5 X -39 Y 5 X 89 Y 5 X -218 Y 5 X 357 Y 5 X -184 Y 6 X -117 Y 5 X -72 Y 5 X 161 Y 5 X -78 Y 5 X 34 Y 6 X 106 Y 5 X -34 Y 5 X -100 Y 5 X -78 Y 5 X -62 Y 5 X 112 Y 6 X 73 Y 5 X -207 Y 5 X 140 Y 5 X -56 Y 5 X 95 Y 6 X -218 Y 5 X 268 Y 5 X
 -374 Y 5 X 474 Y 5 X 23 Y 5 X -179 Y 6 X -84 Y 5 X 12 Y 5 X -17 Y 5 X -23 Y 5 X 12 Y 6 X 50 Y 5 X -62 Y 5 X -117 Y 5 X 235 Y 5 X -67 Y 6 X -106 Y 5 X -34 Y 5 X -50 Y 5 X 89 Y 5 X -72 Y 5 X 156 Y 6 X -117 Y 5 X 11 Y 5 X 39 Y 5 X 39 Y 5 X -84 Y 6 X 45
 Y 5 X -6 Y 5 X 6 Y 5 X -84 Y 10 X 95 Y 6 X -67 Y 5 X 56 Y 5 X -56 Y 5 X -106 Y 5 X -28 Y 6 X -128 Y 5 X 262 Y 5 X -33 Y 5 X -56 Y 5 X -106 Y 5 X 117 Y 6 X 39 Y 5 X -150 Y 5 X 206 Y 5 X -134 Y 5 X -45 Y 6 X 6 Y 5 X -128 Y 5 X 178 Y 5 X -61 Y 10 X 128
 Y 6 X 28 Y 5 X -84 Y 5 X 12 Y 5 X -162 Y 5 X 44 Y 6 X 73 Y 5 X -89 Y 5 X 50 Y 5 X -95 Y 5 X 22 Y 5 X 140 Y 6 X -140 Y 10 X -28 Y 5 X 129 Y 5 X -151 Y 6 X 22 Y 5 X 23 Y 5 X -56 Y 5 X 17 Y 5 X 28 Y 6 X -73 Y 5 X 50 Y 5 X -22 Y 5 X 33 Y 5 X -89 Y 5 X
 -22 Y 6 X 39 Y 5 X -22 Y 5 X -23 Y 5 X 23 Y 11 X -56 Y 181 X s 227 154 m 1814 X s 227 191 m -37 Y s 279 172 m -18 Y s 330 172 m -18 Y s 382 172 m -18 Y s 434 172 m -18 Y s 486 191 m -37 Y s 538 172 m -18 Y s 590 172 m -18 Y s 641 172 m -18 Y s 693
 172 m -18 Y s 745 191 m -37 Y s 797 172 m -18 Y s 849 172 m -18 Y s 901 172 m -18 Y s 952 172 m -18 Y s 1004 191 m -37 Y s 1056 172 m -18 Y s 1108 172 m -18 Y s 1160 172 m -18 Y s 1212 172 m -18 Y s 1263 191 m -37 Y s 1315 172 m -18 Y s 1367 172 m
 -18 Y s 1419 172 m -18 Y s 1471 172 m -18 Y s 1523 191 m -37 Y s 1574 172 m -18 Y s 1626 172 m -18 Y s 1678 172 m -18 Y s 1730 172 m -18 Y s 1782 191 m -37 Y s 1834 172 m -18 Y s 1885 172 m -18 Y s 1937 172 m -18 Y s 1989 172 m -18 Y s 2041 191 m
 -37 Y s
 gsave  2268 1538 0 0 C 208.526 97.7464 t 0 r /Helvetica-Bold findfont 58.6478 sf 0 0 m (0) show NC gr 
 gsave  2268 1538 0 0 C 452.892 97.7464 t 0 r /Helvetica-Bold findfont 58.6478 sf 0 0 m (50) show NC gr 
 gsave  2268 1538 0 0 C 693.999 97.7464 t 0 r /Helvetica-Bold findfont 58.6478 sf 0 0 m (100) show NC gr 
 gsave  2268 1538 0 0 C 954.657 97.7464 t 0 r /Helvetica-Bold findfont 58.6478 sf 0 0 m (150) show NC gr 
 gsave  2268 1538 0 0 C 1212.06 97.7464 t 0 r /Helvetica-Bold findfont 58.6478 sf 0 0 m (200) show NC gr 
 gsave  2268 1538 0 0 C 1472.71 97.7464 t 0 r /Helvetica-Bold findfont 58.6478 sf 0 0 m (250) show NC gr 
 gsave  2268 1538 0 0 C 1730.11 97.7464 t 0 r /Helvetica-Bold findfont 58.6478 sf 0 0 m (300) show NC gr 
 gsave  2268 1538 0 0 C 1990.77 97.7464 t 0 r /Helvetica-Bold findfont 58.6478 sf 0 0 m (350) show NC gr  227 1461 m 1814 X s 227 1424 m 37 Y s 279 1443 m 18 Y s 330 1443 m 18 Y s 382 1443 m 18 Y s 434 1443 m 18 Y s 486 1424 m 37 Y s 538 1443 m 18 Y
 s 590 1443 m 18 Y s 641 1443 m 18 Y s 693 1443 m 18 Y s 745 1424 m 37 Y s 797 1443 m 18 Y s 849 1443 m 18 Y s 901 1443 m 18 Y s 952 1443 m 18 Y s 1004 1424 m 37 Y s 1056 1443 m 18 Y s 1108 1443 m 18 Y s 1160 1443 m 18 Y s 1212 1443 m 18 Y s 1263
 1424 m 37 Y s 1315 1443 m 18 Y s 1367 1443 m 18 Y s 1419 1443 m 18 Y s 1471 1443 m 18 Y s 1523 1424 m 37 Y s 1574 1443 m 18 Y s 1626 1443 m 18 Y s 1678 1443 m 18 Y s 1730 1443 m 18 Y s 1782 1424 m 37 Y s 1834 1443 m 18 Y s 1885 1443 m 18 Y s 1937
 1443 m 18 Y s 1989 1443 m 18 Y s 2041 1424 m 37 Y s 227 154 m 1307 Y s 285 154 m -58 X s 256 182 m -29 X s 256 210 m -29 X s 256 237 m -29 X s 285 265 m -58 X s 256 293 m -29 X s 256 321 m -29 X s 256 349 m -29 X s 285 377 m -58 X s 256 405 m -29 X
 s 256 433 m -29 X s 256 461 m -29 X s 285 489 m -58 X s 256 516 m -29 X s 256 544 m -29 X s 256 572 m -29 X s 285 600 m -58 X s 256 628 m -29 X s 256 656 m -29 X s 256 684 m -29 X s 285 712 m -58 X s 256 740 m -29 X s 256 767 m -29 X s 256 795 m -29
 X s 285 823 m -58 X s 256 851 m -29 X s 256 879 m -29 X s 256 907 m -29 X s 285 935 m -58 X s 256 963 m -29 X s 256 991 m -29 X s 256 1019 m -29 X s 285 1046 m -58 X s 256 1074 m -29 X s 256 1102 m -29 X s 256 1130 m -29 X s 285 1158 m -58 X s 256
 1186 m -29 X s 256 1214 m -29 X s 256 1242 m -29 X s 285 1270 m -58 X s 256 1298 m -29 X s 256 1325 m -29 X s 256 1353 m -29 X s 285 1381 m -58 X s 285 1381 m -58 X s 256 1409 m -29 X s 256 1437 m -29 X s
 gsave  2268 1538 0 0 C 182.46 133.587 t 0 r /Helvetica-Bold findfont 58.6478 sf 0 0 m (0) show NC gr 
 gsave  2268 1538 0 0 C 149.878 244.366 t 0 r /Helvetica-Bold findfont 58.6478 sf 0 0 m (20) show NC gr 
 gsave  2268 1538 0 0 C 149.878 355.145 t 0 r /Helvetica-Bold findfont 58.6478 sf 0 0 m (40) show NC gr 
 gsave  2268 1538 0 0 C 149.878 465.924 t 0 r /Helvetica-Bold findfont 58.6478 sf 0 0 m (60) show NC gr 
 gsave  2268 1538 0 0 C 149.878 579.962 t 0 r /Helvetica-Bold findfont 58.6478 sf 0 0 m (80) show NC gr 
 gsave  2268 1538 0 0 C 117.296 690.741 t 0 r /Helvetica-Bold findfont 58.6478 sf 0 0 m (100) show NC gr 
 gsave  2268 1538 0 0 C 117.296 801.521 t 0 r /Helvetica-Bold findfont 58.6478 sf 0 0 m (120) show NC gr 
 gsave  2268 1538 0 0 C 117.296 912.3 t 0 r /Helvetica-Bold findfont 58.6478 sf 0 0 m (140) show NC gr 
 gsave  2268 1538 0 0 C 117.296 1026.34 t 0 r /Helvetica-Bold findfont 58.6478 sf 0 0 m (160) show NC gr 
 gsave  2268 1538 0 0 C 117.296 1137.12 t 0 r /Helvetica-Bold findfont 58.6478 sf 0 0 m (180) show NC gr 
 gsave  2268 1538 0 0 C 117.296 1247.9 t 0 r /Helvetica-Bold findfont 58.6478 sf 0 0 m (200) show NC gr 
 gsave  2268 1538 0 0 C 117.296 1358.67 t 0 r /Helvetica-Bold findfont 58.6478 sf 0 0 m (220) show NC gr  2041 154 m 1307 Y s 1983 154 m 58 X s 2012 182 m 29 X s 2012 210 m 29 X s 2012 237 m 29 X s 1983 265 m 58 X s 2012 293 m 29 X s 2012 321 m 29 X
 s 2012 349 m 29 X s 1983 377 m 58 X s 2012 405 m 29 X s 2012 433 m 29 X s 2012 461 m 29 X s 1983 489 m 58 X s 2012 516 m 29 X s 2012 544 m 29 X s 2012 572 m 29 X s 1983 600 m 58 X s 2012 628 m 29 X s 2012 656 m 29 X s 2012 684 m 29 X s 1983 712 m 58
 X s 2012 740 m 29 X s 2012 767 m 29 X s 2012 795 m 29 X s 1983 823 m 58 X s 2012 851 m 29 X s 2012 879 m 29 X s 2012 907 m 29 X s 1983 935 m 58 X s 2012 963 m 29 X s 2012 991 m 29 X s 2012 1019 m 29 X s 1983 1046 m 58 X s 2012 1074 m 29 X s 2012
 1102 m 29 X s 2012 1130 m 29 X s 1983 1158 m 58 X s 2012 1186 m 29 X s 2012 1214 m 29 X s 2012 1242 m 29 X s 1983 1270 m 58 X s 2012 1298 m 29 X s 2012 1325 m 29 X s 2012 1353 m 29 X s 1983 1381 m 58 X s 1983 1381 m 58 X s 2012 1409 m 29 X s 2012
 1437 m 29 X s
 gsave  2268 1538 0 0 C 1326.09 1172.96 t 0 r /Helvetica-Bold findfont 58.6478 sf 0 0 m (Pixel Occupancies) show NC gr  1124 1192 m 167 X s
 gr  gr showpage
end
%%EOF
