%!PS-Adobe-2.0 EPSF-2.0
%%BoundingBox:  0 0 567 384
%%Title: d3pdDirr/pixHits_posZ/pixClus_r.eps: c1_n66
%%Creator: ROOT Version 6.04/12
%%CreationDate: Tue Apr 26 00:12:47 2016
%%DocumentNeededResources: ProcSet (FontSetInit)
%%EndComments
%%BeginProlog
80 dict begin
/s {stroke} def /l {lineto} def /m {moveto} def /t {translate} def
/r {rotate} def /rl {roll}  def /R {repeat} def
/d {rlineto} def /rm {rmoveto} def /gr {grestore} def /f {eofill} def
/c {setrgbcolor} def /black {0 setgray} def /sd {setdash} def
/cl {closepath} def /sf {scalefont setfont} def /lw {setlinewidth} def
/box {m dup 0 exch d exch 0 d 0 exch neg d cl} def
/NC{systemdict begin initclip end}def/C{NC box clip newpath}def
/bl {box s} def /bf {gsave box gsave f grestore 1 lw [] 0 sd s grestore} def /Y { 0 exch d} def /X { 0 d} def 
/K {{pop pop 0 moveto} exch kshow} bind def
/ita {/ang 15 def gsave [1 0 ang dup sin exch cos div 1 0 0] concat} def 
/mp {newpath /y exch def /x exch def} def
/side {[w .77 mul w .23 mul] .385 w mul sd w 0 l currentpoint t -144 r} def
/mr {mp x y w2 0 360 arc} def /m24 {mr s} def /m20 {mr f} def
/mb {mp x y w2 add m w2 neg 0 d 0 w neg d w 0 d 0 w d cl} def
/mt {mp x y w2 add m w2 neg w neg d w 0 d cl} def
/m21 {mb f} def /m25 {mb s} def /m22 {mt f} def /m26{mt s} def
/m23 {mp x y w2 sub m w2 w d w neg 0 d cl f} def
/m27 {mp x y w2 add m w3 neg w2 neg d w3 w2 neg d w3 w2 d cl s} def
/m28 {mp x w2 sub y w2 sub w3 add m w3 0 d  0 w3 neg d w3 0 d 0 w3 d w3 0 d  0 w3 d w3 neg 0 d 0 w3 d w3 neg 0 d 0 w3 neg d w3 neg 0 d cl s } def
/m29 {mp gsave x w2 sub y w2 add w3 sub m currentpoint t 4 {side} repeat cl fill gr} def
/m30 {mp gsave x w2 sub y w2 add w3 sub m currentpoint t 4 {side} repeat cl s gr} def
/m31 {mp x y w2 sub m 0 w d x w2 sub y m w 0 d x w2 sub y w2 add m w w neg d x w2 sub y w2 sub m w w d s} def
/m32 {mp x y w2 sub m w2 w d w neg 0 d cl s} def
/m33 {mp x y w2 add m w3 neg w2 neg d w3 w2 neg d w3 w2 d cl f} def
/m34 {mp x w2 sub y w2 sub w3 add m w3 0 d  0 w3 neg d w3 0 d 0 w3 d w3 0 d  0 w3 d w3 neg 0 d 0 w3 d w3 neg 0 d 0 w3 neg d w3 neg 0 d cl f } def
/m2 {mp x y w2 sub m 0 w d x w2 sub y m w 0 d s} def
/m5 {mp x w2 sub y w2 sub m w w d x w2 sub y w2 add m w w neg d s} def
%%IncludeResource: ProcSet (FontSetInit)
%%IncludeResource: font Times-Roman
%%IncludeResource: font Times-Italic
%%IncludeResource: font Times-Bold
%%IncludeResource: font Times-BoldItalic
%%IncludeResource: font Helvetica
%%IncludeResource: font Helvetica-Oblique
%%IncludeResource: font Helvetica-Bold
%%IncludeResource: font Helvetica-BoldOblique
%%IncludeResource: font Courier
%%IncludeResource: font Courier-Oblique
%%IncludeResource: font Courier-Bold
%%IncludeResource: font Courier-BoldOblique
%%IncludeResource: font Symbol
%%IncludeResource: font ZapfDingbats
/reEncode {exch findfont dup length dict begin {1 index /FID eq  {pop pop} {def} ifelse } forall /Encoding exch def currentdict end dup /FontName get exch definefont pop } def [/Times-Bold /Times-Italic /Times-BoldItalic /Helvetica /Helvetica-Oblique
 /Helvetica-Bold /Helvetica-BoldOblique /Courier /Courier-Oblique /Courier-Bold /Courier-BoldOblique /Times-Roman /AvantGarde-Book /AvantGarde-BookOblique /AvantGarde-Demi /AvantGarde-DemiOblique /Bookman-Demi /Bookman-DemiItalic /Bookman-Light
 /Bookman-LightItalic /Helvetica-Narrow /Helvetica-Narrow-Bold /Helvetica-Narrow-BoldOblique /Helvetica-Narrow-Oblique /NewCenturySchlbk-Roman /NewCenturySchlbk-Bold /NewCenturySchlbk-BoldItalic /NewCenturySchlbk-Italic /Palatino-Bold
 /Palatino-BoldItalic /Palatino-Italic /Palatino-Roman ] {ISOLatin1Encoding reEncode } forall
%%EndProlog
%%BeginSetup
%%EndSetup
newpath  gsave  .25 .25 scale  gsave  0 0 t black[  ] 0 sd 3 lw 1 1 1 c 2268 1538 0 0 bf black 1 1 1 c 1814 1307 227 154 bf black 1814 1307 227 154 bl 1 1 1 c 1814 1307 227 154 bf black 1814 1307 227 154 bl 1 1 1 c black 227 154 m 777 X 241 Y 5 X 776
 Y 6 X 55 Y 5 X -143 Y 5 X 118 Y 5 X -91 Y 5 X 105 Y 6 X -23 Y 5 X -107 Y 5 X -67 Y 5 X 113 Y 5 X 84 Y 5 X -49 Y 6 X -215 Y 5 X 222 Y 5 X 56 Y 5 X -128 Y 5 X -183 Y 6 X 114 Y 5 X -176 Y 5 X 67 Y 5 X 67 Y 5 X 299 Y 5 X -70 Y 6 X 12 Y 5 X -23 Y 5 X
 -183 Y 5 X 285 Y 5 X -132 Y 6 X -116 Y 5 X -28 Y 5 X 158 Y 5 X -151 Y 5 X 188 Y 6 X -132 Y 5 X 16 Y 5 X -21 Y 5 X -88 Y 5 X 100 Y 5 X -5 Y 6 X 125 Y 5 X -746 Y 5 X 533 Y 5 X 174 Y 5 X 83 Y 6 X -202 Y 5 X 142 Y 5 X 69 Y 5 X -106 Y 5 X -42 Y 5 X 5 Y 6
 X -81 Y 5 X 4 Y 5 X -67 Y 5 X 167 Y 5 X -40 Y 6 X 5 Y 5 X -44 Y 5 X -9 Y 5 X -9 Y 5 X 48 Y 5 X -194 Y 11 X 428 Y 5 X -53 Y 5 X -67 Y 5 X -63 Y 6 X -116 Y 5 X 156 Y 5 X -26 Y 5 X -16 Y 5 X 18 Y 5 X 7 Y 6 X -41 Y 5 X -5 Y 5 X -23 Y 5 X 125 Y 5 X -155
 Y 6 X 132 Y 5 X 32 Y 5 X -130 Y 5 X -64 Y 5 X 192 Y 5 X -227 Y 6 X 88 Y 5 X 62 Y 5 X -169 Y 5 X 162 Y 5 X 3 Y 6 X -155 Y 5 X 122 Y 5 X -220 Y 5 X 179 Y 5 X -44 Y 6 X -19 Y 5 X -65 Y 5 X 23 Y 5 X -46 Y 5 X -39 Y 5 X 69 Y 6 X 47 Y 5 X -47 Y 5 X 65 Y 5
 X -723 Y 5 X 292 Y 6 X 415 Y 5 X 241 Y 5 X -218 Y 5 X 114 Y 5 X 134 Y 5 X -183 Y 6 X -79 Y 5 X 123 Y 5 X -33 Y 5 X -16 Y 5 X -32 Y 6 X 141 Y 5 X 5 Y 5 X -151 Y 5 X 202 Y 5 X -376 Y 5 X 174 Y 6 X 12 Y 5 X 23 Y 5 X -42 Y 5 X -90 Y 5 X 55 Y 6 X -67 Y 5
 X 49 Y 5 X -51 Y 5 X 97 Y 5 X -2 Y 5 X -118 Y 6 X 48 Y 5 X 49 Y 5 X -53 Y 5 X 11 Y 5 X 31 Y 6 X -128 Y 5 X 7 Y 5 X -30 Y 5 X 81 Y 5 X -46 Y 5 X 104 Y 6 X -90 Y 5 X 113 Y 5 X -134 Y 5 X -42 Y 5 X -2 Y 6 X 141 Y 5 X -118 Y 5 X 81 Y 5 X -5 Y 5 X -227 Y
 6 X 105 Y 5 X 78 Y 5 X -83 Y 5 X 132 Y 5 X -111 Y 5 X -58 Y 6 X 97 Y 5 X -127 Y 5 X 46 Y 5 X -28 Y 5 X 23 Y 6 X -433 Y 5 X -208 Y 176 X s 227 154 m 1814 X s 227 191 m -37 Y s 279 172 m -18 Y s 330 172 m -18 Y s 382 172 m -18 Y s 434 172 m -18 Y s
 486 191 m -37 Y s 538 172 m -18 Y s 590 172 m -18 Y s 641 172 m -18 Y s 693 172 m -18 Y s 745 191 m -37 Y s 797 172 m -18 Y s 849 172 m -18 Y s 901 172 m -18 Y s 952 172 m -18 Y s 1004 191 m -37 Y s 1056 172 m -18 Y s 1108 172 m -18 Y s 1160 172 m
 -18 Y s 1212 172 m -18 Y s 1263 191 m -37 Y s 1315 172 m -18 Y s 1367 172 m -18 Y s 1419 172 m -18 Y s 1471 172 m -18 Y s 1523 191 m -37 Y s 1574 172 m -18 Y s 1626 172 m -18 Y s 1678 172 m -18 Y s 1730 172 m -18 Y s 1782 191 m -37 Y s 1834 172 m
 -18 Y s 1885 172 m -18 Y s 1937 172 m -18 Y s 1989 172 m -18 Y s 2041 191 m -37 Y s
 gsave  2268 1538 0 0 C 208.526 97.7464 t 0 r /Helvetica-Bold findfont 58.6478 sf 0 0 m (0) show NC gr 
 gsave  2268 1538 0 0 C 452.892 97.7464 t 0 r /Helvetica-Bold findfont 58.6478 sf 0 0 m (50) show NC gr 
 gsave  2268 1538 0 0 C 693.999 97.7464 t 0 r /Helvetica-Bold findfont 58.6478 sf 0 0 m (100) show NC gr 
 gsave  2268 1538 0 0 C 954.657 97.7464 t 0 r /Helvetica-Bold findfont 58.6478 sf 0 0 m (150) show NC gr 
 gsave  2268 1538 0 0 C 1212.06 97.7464 t 0 r /Helvetica-Bold findfont 58.6478 sf 0 0 m (200) show NC gr 
 gsave  2268 1538 0 0 C 1472.71 97.7464 t 0 r /Helvetica-Bold findfont 58.6478 sf 0 0 m (250) show NC gr 
 gsave  2268 1538 0 0 C 1730.11 97.7464 t 0 r /Helvetica-Bold findfont 58.6478 sf 0 0 m (300) show NC gr 
 gsave  2268 1538 0 0 C 1990.77 97.7464 t 0 r /Helvetica-Bold findfont 58.6478 sf 0 0 m (350) show NC gr  227 1461 m 1814 X s 227 1424 m 37 Y s 279 1443 m 18 Y s 330 1443 m 18 Y s 382 1443 m 18 Y s 434 1443 m 18 Y s 486 1424 m 37 Y s 538 1443 m 18 Y
 s 590 1443 m 18 Y s 641 1443 m 18 Y s 693 1443 m 18 Y s 745 1424 m 37 Y s 797 1443 m 18 Y s 849 1443 m 18 Y s 901 1443 m 18 Y s 952 1443 m 18 Y s 1004 1424 m 37 Y s 1056 1443 m 18 Y s 1108 1443 m 18 Y s 1160 1443 m 18 Y s 1212 1443 m 18 Y s 1263
 1424 m 37 Y s 1315 1443 m 18 Y s 1367 1443 m 18 Y s 1419 1443 m 18 Y s 1471 1443 m 18 Y s 1523 1424 m 37 Y s 1574 1443 m 18 Y s 1626 1443 m 18 Y s 1678 1443 m 18 Y s 1730 1443 m 18 Y s 1782 1424 m 37 Y s 1834 1443 m 18 Y s 1885 1443 m 18 Y s 1937
 1443 m 18 Y s 1989 1443 m 18 Y s 2041 1424 m 37 Y s 227 154 m 1307 Y s 285 154 m -58 X s 256 200 m -29 X s 256 246 m -29 X s 256 293 m -29 X s 256 339 m -29 X s 285 385 m -58 X s 256 432 m -29 X s 256 478 m -29 X s 256 524 m -29 X s 256 571 m -29 X
 s 285 617 m -58 X s 256 663 m -29 X s 256 710 m -29 X s 256 756 m -29 X s 256 802 m -29 X s 285 849 m -58 X s 256 895 m -29 X s 256 941 m -29 X s 256 988 m -29 X s 256 1034 m -29 X s 285 1080 m -58 X s 256 1127 m -29 X s 256 1173 m -29 X s 256 1219
 m -29 X s 256 1266 m -29 X s 285 1312 m -58 X s 285 1312 m -58 X s 256 1358 m -29 X s 256 1405 m -29 X s 256 1451 m -29 X s
 gsave  2268 1538 0 0 C 182.46 133.587 t 0 r /Helvetica-Bold findfont 58.6478 sf 0 0 m (0) show NC gr 
 gsave  2268 1538 0 0 C 117.296 364.92 t 0 r /Helvetica-Bold findfont 58.6478 sf 0 0 m (100) show NC gr 
 gsave  2268 1538 0 0 C 117.296 596.253 t 0 r /Helvetica-Bold findfont 58.6478 sf 0 0 m (200) show NC gr 
 gsave  2268 1538 0 0 C 117.296 827.586 t 0 r /Helvetica-Bold findfont 58.6478 sf 0 0 m (300) show NC gr 
 gsave  2268 1538 0 0 C 117.296 1058.92 t 0 r /Helvetica-Bold findfont 58.6478 sf 0 0 m (400) show NC gr 
 gsave  2268 1538 0 0 C 117.296 1290.25 t 0 r /Helvetica-Bold findfont 58.6478 sf 0 0 m (500) show NC gr  2041 154 m 1307 Y s 1983 154 m 58 X s 2012 200 m 29 X s 2012 246 m 29 X s 2012 293 m 29 X s 2012 339 m 29 X s 1983 385 m 58 X s 2012 432 m 29 X
 s 2012 478 m 29 X s 2012 524 m 29 X s 2012 571 m 29 X s 1983 617 m 58 X s 2012 663 m 29 X s 2012 710 m 29 X s 2012 756 m 29 X s 2012 802 m 29 X s 1983 849 m 58 X s 2012 895 m 29 X s 2012 941 m 29 X s 2012 988 m 29 X s 2012 1034 m 29 X s 1983 1080 m
 58 X s 2012 1127 m 29 X s 2012 1173 m 29 X s 2012 1219 m 29 X s 2012 1266 m 29 X s 1983 1312 m 58 X s 1983 1312 m 58 X s 2012 1358 m 29 X s 2012 1405 m 29 X s 2012 1451 m 29 X s
 gsave  2268 1538 0 0 C 1326.09 1172.96 t 0 r /Helvetica-Bold findfont 58.6478 sf 0 0 m (Pixel Occupancies) show NC gr  1124 1192 m 167 X s
 gr  gr showpage
end
%%EOF
