%!PS-Adobe-2.0 EPSF-2.0
%%BoundingBox:  0 0 567 384
%%Title: d3pdDirr/pixHits_posZ/pixClus_y.eps: c1_n71
%%Creator: ROOT Version 6.04/12
%%CreationDate: Tue Apr 26 00:12:48 2016
%%DocumentNeededResources: ProcSet (FontSetInit)
%%EndComments
%%BeginProlog
80 dict begin
/s {stroke} def /l {lineto} def /m {moveto} def /t {translate} def
/r {rotate} def /rl {roll}  def /R {repeat} def
/d {rlineto} def /rm {rmoveto} def /gr {grestore} def /f {eofill} def
/c {setrgbcolor} def /black {0 setgray} def /sd {setdash} def
/cl {closepath} def /sf {scalefont setfont} def /lw {setlinewidth} def
/box {m dup 0 exch d exch 0 d 0 exch neg d cl} def
/NC{systemdict begin initclip end}def/C{NC box clip newpath}def
/bl {box s} def /bf {gsave box gsave f grestore 1 lw [] 0 sd s grestore} def /Y { 0 exch d} def /X { 0 d} def 
/K {{pop pop 0 moveto} exch kshow} bind def
/ita {/ang 15 def gsave [1 0 ang dup sin exch cos div 1 0 0] concat} def 
/mp {newpath /y exch def /x exch def} def
/side {[w .77 mul w .23 mul] .385 w mul sd w 0 l currentpoint t -144 r} def
/mr {mp x y w2 0 360 arc} def /m24 {mr s} def /m20 {mr f} def
/mb {mp x y w2 add m w2 neg 0 d 0 w neg d w 0 d 0 w d cl} def
/mt {mp x y w2 add m w2 neg w neg d w 0 d cl} def
/m21 {mb f} def /m25 {mb s} def /m22 {mt f} def /m26{mt s} def
/m23 {mp x y w2 sub m w2 w d w neg 0 d cl f} def
/m27 {mp x y w2 add m w3 neg w2 neg d w3 w2 neg d w3 w2 d cl s} def
/m28 {mp x w2 sub y w2 sub w3 add m w3 0 d  0 w3 neg d w3 0 d 0 w3 d w3 0 d  0 w3 d w3 neg 0 d 0 w3 d w3 neg 0 d 0 w3 neg d w3 neg 0 d cl s } def
/m29 {mp gsave x w2 sub y w2 add w3 sub m currentpoint t 4 {side} repeat cl fill gr} def
/m30 {mp gsave x w2 sub y w2 add w3 sub m currentpoint t 4 {side} repeat cl s gr} def
/m31 {mp x y w2 sub m 0 w d x w2 sub y m w 0 d x w2 sub y w2 add m w w neg d x w2 sub y w2 sub m w w d s} def
/m32 {mp x y w2 sub m w2 w d w neg 0 d cl s} def
/m33 {mp x y w2 add m w3 neg w2 neg d w3 w2 neg d w3 w2 d cl f} def
/m34 {mp x w2 sub y w2 sub w3 add m w3 0 d  0 w3 neg d w3 0 d 0 w3 d w3 0 d  0 w3 d w3 neg 0 d 0 w3 d w3 neg 0 d 0 w3 neg d w3 neg 0 d cl f } def
/m2 {mp x y w2 sub m 0 w d x w2 sub y m w 0 d s} def
/m5 {mp x w2 sub y w2 sub m w w d x w2 sub y w2 add m w w neg d s} def
%%IncludeResource: ProcSet (FontSetInit)
%%IncludeResource: font Times-Roman
%%IncludeResource: font Times-Italic
%%IncludeResource: font Times-Bold
%%IncludeResource: font Times-BoldItalic
%%IncludeResource: font Helvetica
%%IncludeResource: font Helvetica-Oblique
%%IncludeResource: font Helvetica-Bold
%%IncludeResource: font Helvetica-BoldOblique
%%IncludeResource: font Courier
%%IncludeResource: font Courier-Oblique
%%IncludeResource: font Courier-Bold
%%IncludeResource: font Courier-BoldOblique
%%IncludeResource: font Symbol
%%IncludeResource: font ZapfDingbats
/reEncode {exch findfont dup length dict begin {1 index /FID eq  {pop pop} {def} ifelse } forall /Encoding exch def currentdict end dup /FontName get exch definefont pop } def [/Times-Bold /Times-Italic /Times-BoldItalic /Helvetica /Helvetica-Oblique
 /Helvetica-Bold /Helvetica-BoldOblique /Courier /Courier-Oblique /Courier-Bold /Courier-BoldOblique /Times-Roman /AvantGarde-Book /AvantGarde-BookOblique /AvantGarde-Demi /AvantGarde-DemiOblique /Bookman-Demi /Bookman-DemiItalic /Bookman-Light
 /Bookman-LightItalic /Helvetica-Narrow /Helvetica-Narrow-Bold /Helvetica-Narrow-BoldOblique /Helvetica-Narrow-Oblique /NewCenturySchlbk-Roman /NewCenturySchlbk-Bold /NewCenturySchlbk-BoldItalic /NewCenturySchlbk-Italic /Palatino-Bold
 /Palatino-BoldItalic /Palatino-Italic /Palatino-Roman ] {ISOLatin1Encoding reEncode } forall
%%EndProlog
%%BeginSetup
%%EndSetup
newpath  gsave  .25 .25 scale  gsave  0 0 t black[  ] 0 sd 3 lw 1 1 1 c 2268 1538 0 0 bf black 1 1 1 c 1814 1307 227 154 bf black 1814 1307 227 154 bl 1 1 1 c 1814 1307 227 154 bf black 1814 1307 227 154 bl 1 1 1 c black 227 959 m 5 X -225 Y 5 X 17 Y
 5 X -192 Y 6 X 66 Y 5 X -39 Y 5 X -131 Y 5 X 71 Y 5 X -44 Y 5 X 176 Y 6 X -154 Y 5 X 170 Y 5 X -148 Y 5 X 219 Y 5 X -60 Y 6 X 11 Y 5 X -115 Y 5 X -16 Y 5 X -6 Y 5 X 93 Y 5 X -71 Y 6 X 66 Y 5 X -61 Y 10 X 83 Y 5 X 147 Y 6 X 44 Y 5 X -235 Y 5 X 312 Y
 5 X 93 Y 5 X -427 Y 5 X 22 Y 6 X 76 Y 5 X 22 Y 5 X -164 Y 5 X 16 Y 5 X -21 Y 11 X 11 Y 5 X 49 Y 5 X 76 Y 5 X -43 Y 5 X 87 Y 6 X -11 Y 5 X -142 Y 5 X 49 Y 5 X 137 Y 5 X -137 Y 6 X 71 Y 5 X -104 Y 5 X 50 Y 5 X 11 Y 5 X 82 Y 5 X 11 Y 6 X 213 Y 5 X -230
 Y 5 X 126 Y 5 X -27 Y 5 X -137 Y 6 X -99 Y 5 X 230 Y 5 X 66 Y 5 X -208 Y 5 X 99 Y 6 X -274 Y 5 X 142 Y 5 X 60 Y 5 X -120 Y 5 X 22 Y 5 X -93 Y 6 X 213 Y 5 X -301 Y 5 X 214 Y 5 X 87 Y 5 X -230 Y 6 X 291 Y 5 X -165 Y 5 X 22 Y 5 X -66 Y 5 X 115 Y 5 X
 241 Y 6 X -224 Y 5 X -17 Y 10 X 17 Y 5 X 33 Y 6 X -44 Y 5 X -99 Y 5 X 214 Y 5 X -44 Y 5 X -93 Y 5 X -27 Y 6 X 60 Y 5 X -38 Y 5 X 43 Y 5 X -109 Y 5 X 137 Y 6 X -115 Y 5 X 82 Y 5 X 5 Y 5 X 104 Y 5 X -147 Y 5 X 158 Y 6 X -33 Y 5 X -202 Y 5 X 60 Y 5 X
 38 Y 5 X 66 Y 6 X -22 Y 5 X -22 Y 5 X 88 Y 5 X 11 Y 10 X 5 Y 6 X 93 Y 5 X 11 Y 5 X -262 Y 5 X 416 Y 5 X -334 Y 11 X -44 Y 5 X -88 Y 5 X 345 Y 5 X -148 Y 6 X -16 Y 5 X 77 Y 5 X -187 Y 5 X 170 Y 5 X -71 Y 5 X 49 Y 6 X 61 Y 5 X -121 Y 5 X 159 Y 5 X -49
 Y 5 X -187 Y 6 X 39 Y 5 X 71 Y 5 X -22 Y 5 X 181 Y 5 X -6 Y 5 X -290 Y 6 X 460 Y 5 X -137 Y 5 X -33 Y 5 X -76 Y 5 X 137 Y 6 X -50 Y 5 X -5 Y 5 X 82 Y 5 X -110 Y 5 X 50 Y 5 X 16 Y 6 X -192 Y 5 X 356 Y 5 X -11 Y 5 X 121 Y 5 X -290 Y 6 X 180 Y 5 X -191
 Y 5 X 361 Y 5 X -137 Y 5 X -126 Y 5 X -27 Y 6 X -115 Y 5 X 109 Y 5 X -93 Y 5 X 82 Y 5 X -60 Y 6 X -109 Y 5 X 263 Y 5 X -50 Y 5 X -131 Y 5 X 109 Y 5 X -213 Y 6 X 66 Y 5 X 87 Y 5 X 49 Y 5 X -98 Y 5 X 55 Y 6 X 54 Y 5 X 66 Y 5 X -126 Y 5 X 44 Y 5 X 11 Y
 6 X -214 Y 5 X 93 Y 5 X -65 Y 5 X -22 Y 5 X 66 Y 5 X -44 Y 6 X 16 Y 5 X 6 Y 5 X 93 Y 5 X -148 Y 5 X 268 Y 6 X -290 Y 5 X 109 Y 5 X -224 Y 5 X 268 Y 5 X -317 Y 5 X 76 Y 6 X 285 Y 5 X -175 Y 5 X 38 Y 5 X 93 Y 5 X -295 Y 6 X 202 Y 5 X -104 Y 5 X 181 Y
 5 X -77 Y 5 X -191 Y 5 X 213 Y 6 X 181 Y 5 X -225 Y 5 X 6 Y 5 X -77 Y 5 X 33 Y 6 X 131 Y 5 X -153 Y 5 X -16 Y 5 X -72 Y 5 X -27 Y 5 X 49 Y 6 X 61 Y 5 X -33 Y 5 X -88 Y 5 X 88 Y 5 X -28 Y 6 X 28 Y 5 X -99 Y 5 X 153 Y 5 X -323 Y 5 X 334 Y 5 X -21 Y 6
 X -181 Y 5 X 137 Y 5 X -110 Y 5 X 126 Y 5 X -87 Y 6 X 16 Y 5 X -137 Y 5 X -11 Y 5 X 126 Y 5 X -115 Y 6 X -5 Y 5 X 38 Y 5 X 5 Y 5 X 50 Y 5 X -99 Y 5 X -11 Y 6 X 60 Y 5 X 77 Y 5 X -93 Y 5 X -93 Y 5 X 27 Y 6 X 104 Y 5 X 71 Y 5 X -175 Y 5 X 148 Y 5 X
 -219 Y 5 X 71 Y 6 X -5 Y 5 X 208 Y 5 X -258 Y 5 X 61 Y 5 X 27 Y 6 X 17 Y 5 X -99 Y 5 X 71 Y 5 X 33 Y 5 X 60 Y 11 X -197 Y 5 X 110 Y 5 X -66 Y 5 X 38 Y 5 X -76 Y 6 X 93 Y 5 X -77 Y 5 X 88 Y 5 X -219 Y 5 X 11 Y 11 X 43 Y 5 X 126 Y 5 X -115 Y 5 X 39 Y
 5 X -44 Y 6 X 60 Y 5 X -60 Y 5 X -77 Y 5 X 82 Y 5 X -54 Y 5 X -22 Y 6 X -11 Y 5 X 76 Y 5 X -98 Y 5 X 49 Y 5 X 126 Y 6 X -181 Y 5 X -27 Y 5 X 44 Y 5 X 115 Y 5 X -66 Y 6 X -99 Y 5 X -27 Y 5 X 82 Y 5 X -27 Y 5 X -28 Y 5 X -21 Y 6 X 21 Y 5 X -54 Y 5 X
 43 Y 5 X -38 Y 5 X -38 Y 187 X s 227 154 m 1814 X s 227 191 m -37 Y s 279 172 m -18 Y s 330 172 m -18 Y s 382 172 m -18 Y s 434 172 m -18 Y s 486 191 m -37 Y s 538 172 m -18 Y s 590 172 m -18 Y s 641 172 m -18 Y s 693 172 m -18 Y s 745 191 m -37 Y s
 797 172 m -18 Y s 849 172 m -18 Y s 901 172 m -18 Y s 952 172 m -18 Y s 1004 191 m -37 Y s 1056 172 m -18 Y s 1108 172 m -18 Y s 1160 172 m -18 Y s 1212 172 m -18 Y s 1263 191 m -37 Y s 1315 172 m -18 Y s 1367 172 m -18 Y s 1419 172 m -18 Y s 1471
 172 m -18 Y s 1523 191 m -37 Y s 1574 172 m -18 Y s 1626 172 m -18 Y s 1678 172 m -18 Y s 1730 172 m -18 Y s 1782 191 m -37 Y s 1834 172 m -18 Y s 1885 172 m -18 Y s 1937 172 m -18 Y s 1989 172 m -18 Y s 2041 191 m -37 Y s
 gsave  2268 1538 0 0 C 208.526 97.7464 t 0 r /Helvetica-Bold findfont 58.6478 sf 0 0 m (0) show NC gr 
 gsave  2268 1538 0 0 C 452.892 97.7464 t 0 r /Helvetica-Bold findfont 58.6478 sf 0 0 m (50) show NC gr 
 gsave  2268 1538 0 0 C 693.999 97.7464 t 0 r /Helvetica-Bold findfont 58.6478 sf 0 0 m (100) show NC gr 
 gsave  2268 1538 0 0 C 954.657 97.7464 t 0 r /Helvetica-Bold findfont 58.6478 sf 0 0 m (150) show NC gr 
 gsave  2268 1538 0 0 C 1212.06 97.7464 t 0 r /Helvetica-Bold findfont 58.6478 sf 0 0 m (200) show NC gr 
 gsave  2268 1538 0 0 C 1472.71 97.7464 t 0 r /Helvetica-Bold findfont 58.6478 sf 0 0 m (250) show NC gr 
 gsave  2268 1538 0 0 C 1730.11 97.7464 t 0 r /Helvetica-Bold findfont 58.6478 sf 0 0 m (300) show NC gr 
 gsave  2268 1538 0 0 C 1990.77 97.7464 t 0 r /Helvetica-Bold findfont 58.6478 sf 0 0 m (350) show NC gr  227 1461 m 1814 X s 227 1424 m 37 Y s 279 1443 m 18 Y s 330 1443 m 18 Y s 382 1443 m 18 Y s 434 1443 m 18 Y s 486 1424 m 37 Y s 538 1443 m 18 Y
 s 590 1443 m 18 Y s 641 1443 m 18 Y s 693 1443 m 18 Y s 745 1424 m 37 Y s 797 1443 m 18 Y s 849 1443 m 18 Y s 901 1443 m 18 Y s 952 1443 m 18 Y s 1004 1424 m 37 Y s 1056 1443 m 18 Y s 1108 1443 m 18 Y s 1160 1443 m 18 Y s 1212 1443 m 18 Y s 1263
 1424 m 37 Y s 1315 1443 m 18 Y s 1367 1443 m 18 Y s 1419 1443 m 18 Y s 1471 1443 m 18 Y s 1523 1424 m 37 Y s 1574 1443 m 18 Y s 1626 1443 m 18 Y s 1678 1443 m 18 Y s 1730 1443 m 18 Y s 1782 1424 m 37 Y s 1834 1443 m 18 Y s 1885 1443 m 18 Y s 1937
 1443 m 18 Y s 1989 1443 m 18 Y s 2041 1424 m 37 Y s 227 154 m 1307 Y s 285 154 m -58 X s 256 181 m -29 X s 256 209 m -29 X s 256 236 m -29 X s 285 263 m -58 X s 256 291 m -29 X s 256 318 m -29 X s 256 345 m -29 X s 285 373 m -58 X s 256 400 m -29 X
 s 256 428 m -29 X s 256 455 m -29 X s 285 482 m -58 X s 256 510 m -29 X s 256 537 m -29 X s 256 565 m -29 X s 285 592 m -58 X s 256 619 m -29 X s 256 647 m -29 X s 256 674 m -29 X s 285 701 m -58 X s 256 729 m -29 X s 256 756 m -29 X s 256 784 m -29
 X s 285 811 m -58 X s 256 838 m -29 X s 256 866 m -29 X s 256 893 m -29 X s 285 920 m -58 X s 256 948 m -29 X s 256 975 m -29 X s 256 1003 m -29 X s 285 1030 m -58 X s 256 1057 m -29 X s 256 1085 m -29 X s 256 1112 m -29 X s 285 1140 m -58 X s 256
 1167 m -29 X s 256 1194 m -29 X s 256 1222 m -29 X s 285 1249 m -58 X s 256 1276 m -29 X s 256 1304 m -29 X s 256 1331 m -29 X s 285 1359 m -58 X s 285 1359 m -58 X s 256 1386 m -29 X s 256 1413 m -29 X s 256 1441 m -29 X s
 gsave  2268 1538 0 0 C 182.46 133.587 t 0 r /Helvetica-Bold findfont 58.6478 sf 0 0 m (0) show NC gr 
 gsave  2268 1538 0 0 C 149.878 241.108 t 0 r /Helvetica-Bold findfont 58.6478 sf 0 0 m (20) show NC gr 
 gsave  2268 1538 0 0 C 149.878 351.887 t 0 r /Helvetica-Bold findfont 58.6478 sf 0 0 m (40) show NC gr 
 gsave  2268 1538 0 0 C 149.878 462.666 t 0 r /Helvetica-Bold findfont 58.6478 sf 0 0 m (60) show NC gr 
 gsave  2268 1538 0 0 C 149.878 570.187 t 0 r /Helvetica-Bold findfont 58.6478 sf 0 0 m (80) show NC gr 
 gsave  2268 1538 0 0 C 117.296 680.967 t 0 r /Helvetica-Bold findfont 58.6478 sf 0 0 m (100) show NC gr 
 gsave  2268 1538 0 0 C 117.296 788.488 t 0 r /Helvetica-Bold findfont 58.6478 sf 0 0 m (120) show NC gr 
 gsave  2268 1538 0 0 C 117.296 899.267 t 0 r /Helvetica-Bold findfont 58.6478 sf 0 0 m (140) show NC gr 
 gsave  2268 1538 0 0 C 117.296 1010.05 t 0 r /Helvetica-Bold findfont 58.6478 sf 0 0 m (160) show NC gr 
 gsave  2268 1538 0 0 C 117.296 1117.57 t 0 r /Helvetica-Bold findfont 58.6478 sf 0 0 m (180) show NC gr 
 gsave  2268 1538 0 0 C 117.296 1228.35 t 0 r /Helvetica-Bold findfont 58.6478 sf 0 0 m (200) show NC gr 
 gsave  2268 1538 0 0 C 117.296 1335.87 t 0 r /Helvetica-Bold findfont 58.6478 sf 0 0 m (220) show NC gr  2041 154 m 1307 Y s 1983 154 m 58 X s 2012 181 m 29 X s 2012 209 m 29 X s 2012 236 m 29 X s 1983 263 m 58 X s 2012 291 m 29 X s 2012 318 m 29 X
 s 2012 345 m 29 X s 1983 373 m 58 X s 2012 400 m 29 X s 2012 428 m 29 X s 2012 455 m 29 X s 1983 482 m 58 X s 2012 510 m 29 X s 2012 537 m 29 X s 2012 565 m 29 X s 1983 592 m 58 X s 2012 619 m 29 X s 2012 647 m 29 X s 2012 674 m 29 X s 1983 701 m 58
 X s 2012 729 m 29 X s 2012 756 m 29 X s 2012 784 m 29 X s 1983 811 m 58 X s 2012 838 m 29 X s 2012 866 m 29 X s 2012 893 m 29 X s 1983 920 m 58 X s 2012 948 m 29 X s 2012 975 m 29 X s 2012 1003 m 29 X s 1983 1030 m 58 X s 2012 1057 m 29 X s 2012
 1085 m 29 X s 2012 1112 m 29 X s 1983 1140 m 58 X s 2012 1167 m 29 X s 2012 1194 m 29 X s 2012 1222 m 29 X s 1983 1249 m 58 X s 2012 1276 m 29 X s 2012 1304 m 29 X s 2012 1331 m 29 X s 1983 1359 m 58 X s 1983 1359 m 58 X s 2012 1386 m 29 X s 2012
 1413 m 29 X s 2012 1441 m 29 X s
 gsave  2268 1538 0 0 C 1326.09 1172.96 t 0 r /Helvetica-Bold findfont 58.6478 sf 0 0 m (Pixel Occupancies) show NC gr  1124 1192 m 167 X s
 gr  gr showpage
end
%%EOF
