root://eosatlas//eos//atlas/atlascerngroupdisk/det-slhc/SCOPING/group.det-slhc.mc12_14TeV.147807.PowhegPythia8_AU2CT10_Zmumu.recon.ESD.e1564_s1762_s1777_r6284.v26.trkD3PD_EXT0.34934835/group.det-slhc.5956391.EXT0._000002.D3PD.root
root://eosatlas//eos//atlas/atlascerngroupdisk/det-slhc/SCOPING/group.det-slhc.mc12_14TeV.147807.PowhegPythia8_AU2CT10_Zmumu.recon.ESD.e1564_s1762_s1777_r6284.v26.trkD3PD_EXT0.34934835/group.det-slhc.5956391.EXT0._000003.D3PD.root
root://eosatlas//eos//atlas/atlascerngroupdisk/det-slhc/SCOPING/group.det-slhc.mc12_14TeV.147807.PowhegPythia8_AU2CT10_Zmumu.recon.ESD.e1564_s1762_s1777_r6284.v26.trkD3PD_EXT0.34934835/group.det-slhc.5956391.EXT0._000005.D3PD.root
root://eosatlas//eos//atlas/atlascerngroupdisk/det-slhc/SCOPING/group.det-slhc.mc12_14TeV.147807.PowhegPythia8_AU2CT10_Zmumu.recon.ESD.e1564_s1762_s1777_r6284.v26.trkD3PD_EXT0.34934835/group.det-slhc.5956391.EXT0._000006.D3PD.root
root://eosatlas//eos//atlas/atlascerngroupdisk/det-slhc/SCOPING/group.det-slhc.mc12_14TeV.147807.PowhegPythia8_AU2CT10_Zmumu.recon.ESD.e1564_s1762_s1777_r6284.v26.trkD3PD_EXT0.34934835/group.det-slhc.5956391.EXT0._000007.D3PD.root
root://eosatlas//eos//atlas/atlascerngroupdisk/det-slhc/SCOPING/group.det-slhc.mc12_14TeV.147807.PowhegPythia8_AU2CT10_Zmumu.recon.ESD.e1564_s1762_s1777_r6284.v26.trkD3PD_EXT0.34934835/group.det-slhc.5956391.EXT0._000008.D3PD.root
root://eosatlas//eos//atlas/atlascerngroupdisk/det-slhc/SCOPING/group.det-slhc.mc12_14TeV.147807.PowhegPythia8_AU2CT10_Zmumu.recon.ESD.e1564_s1762_s1777_r6284.v26.trkD3PD_EXT0.34934835/group.det-slhc.5956391.EXT0._000009.D3PD.root
root://eosatlas//eos//atlas/atlascerngroupdisk/det-slhc/SCOPING/group.det-slhc.mc12_14TeV.147807.PowhegPythia8_AU2CT10_Zmumu.recon.ESD.e1564_s1762_s1777_r6284.v26.trkD3PD_EXT0.34934835/group.det-slhc.5956391.EXT0._000010.D3PD.root
root://eosatlas//eos//atlas/atlascerngroupdisk/det-slhc/SCOPING/group.det-slhc.mc12_14TeV.147807.PowhegPythia8_AU2CT10_Zmumu.recon.ESD.e1564_s1762_s1777_r6284.v26.trkD3PD_EXT0.34934835/group.det-slhc.5956391.EXT0._000011.D3PD.root
root://eosatlas//eos//atlas/atlascerngroupdisk/det-slhc/SCOPING/group.det-slhc.mc12_14TeV.147807.PowhegPythia8_AU2CT10_Zmumu.recon.ESD.e1564_s1762_s1777_r6284.v26.trkD3PD_EXT0.34934835/group.det-slhc.5956391.EXT0._000012.D3PD.root
root://eosatlas//eos//atlas/atlascerngroupdisk/det-slhc/SCOPING/group.det-slhc.mc12_14TeV.147807.PowhegPythia8_AU2CT10_Zmumu.recon.ESD.e1564_s1762_s1777_r6284.v26.trkD3PD_EXT0.34934835/group.det-slhc.5956391.EXT0._000013.D3PD.root
root://eosatlas//eos//atlas/atlascerngroupdisk/det-slhc/SCOPING/group.det-slhc.mc12_14TeV.147807.PowhegPythia8_AU2CT10_Zmumu.recon.ESD.e1564_s1762_s1777_r6284.v26.trkD3PD_EXT0.34934835/group.det-slhc.5956391.EXT0._000014.D3PD.root
root://eosatlas//eos//atlas/atlascerngroupdisk/det-slhc/SCOPING/group.det-slhc.mc12_14TeV.147807.PowhegPythia8_AU2CT10_Zmumu.recon.ESD.e1564_s1762_s1777_r6284.v26.trkD3PD_EXT0.34934835/group.det-slhc.5956391.EXT0._000015.D3PD.root
root://eosatlas//eos//atlas/atlascerngroupdisk/det-slhc/SCOPING/group.det-slhc.mc12_14TeV.147807.PowhegPythia8_AU2CT10_Zmumu.recon.ESD.e1564_s1762_s1777_r6284.v26.trkD3PD_EXT0.34934835/group.det-slhc.5956391.EXT0._000016.D3PD.root
root://eosatlas//eos//atlas/atlascerngroupdisk/det-slhc/SCOPING/group.det-slhc.mc12_14TeV.147807.PowhegPythia8_AU2CT10_Zmumu.recon.ESD.e1564_s1762_s1777_r6284.v26.trkD3PD_EXT0.34934835/group.det-slhc.5956391.EXT0._000017.D3PD.root
root://eosatlas//eos//atlas/atlascerngroupdisk/det-slhc/SCOPING/group.det-slhc.mc12_14TeV.147807.PowhegPythia8_AU2CT10_Zmumu.recon.ESD.e1564_s1762_s1777_r6284.v26.trkD3PD_EXT0.34934835/group.det-slhc.5956391.EXT0._000018.D3PD.root
root://eosatlas//eos//atlas/atlascerngroupdisk/det-slhc/SCOPING/group.det-slhc.mc12_14TeV.147807.PowhegPythia8_AU2CT10_Zmumu.recon.ESD.e1564_s1762_s1777_r6284.v26.trkD3PD_EXT0.34934835/group.det-slhc.5956391.EXT0._000019.D3PD.root
root://eosatlas//eos//atlas/atlascerngroupdisk/det-slhc/SCOPING/group.det-slhc.mc12_14TeV.147807.PowhegPythia8_AU2CT10_Zmumu.recon.ESD.e1564_s1762_s1777_r6284.v26.trkD3PD_EXT0.34934835/group.det-slhc.5956391.EXT0._000021.D3PD.root
root://eosatlas//eos//atlas/atlascerngroupdisk/det-slhc/SCOPING/group.det-slhc.mc12_14TeV.147807.PowhegPythia8_AU2CT10_Zmumu.recon.ESD.e1564_s1762_s1777_r6284.v26.trkD3PD_EXT0.34934835/group.det-slhc.5956391.EXT0._000023.D3PD.root
root://eosatlas//eos//atlas/atlascerngroupdisk/det-slhc/SCOPING/group.det-slhc.mc12_14TeV.147807.PowhegPythia8_AU2CT10_Zmumu.recon.ESD.e1564_s1762_s1777_r6284.v26.trkD3PD_EXT0.34934835/group.det-slhc.5956391.EXT0._000025.D3PD.root
root://eosatlas//eos//atlas/atlascerngroupdisk/det-slhc/SCOPING/group.det-slhc.mc12_14TeV.147807.PowhegPythia8_AU2CT10_Zmumu.recon.ESD.e1564_s1762_s1777_r6284.v26.trkD3PD_EXT0.34934835/group.det-slhc.5956391.EXT0._000026.D3PD.root
root://eosatlas//eos//atlas/atlascerngroupdisk/det-slhc/SCOPING/group.det-slhc.mc12_14TeV.147807.PowhegPythia8_AU2CT10_Zmumu.recon.ESD.e1564_s1762_s1777_r6284.v26.trkD3PD_EXT0.34934835/group.det-slhc.5956391.EXT0._000027.D3PD.root
root://eosatlas//eos//atlas/atlascerngroupdisk/det-slhc/SCOPING/group.det-slhc.mc12_14TeV.147807.PowhegPythia8_AU2CT10_Zmumu.recon.ESD.e1564_s1762_s1777_r6284.v26.trkD3PD_EXT0.34934835/group.det-slhc.5956391.EXT0._000029.D3PD.root
root://eosatlas//eos//atlas/atlascerngroupdisk/det-slhc/SCOPING/group.det-slhc.mc12_14TeV.147807.PowhegPythia8_AU2CT10_Zmumu.recon.ESD.e1564_s1762_s1777_r6284.v26.trkD3PD_EXT0.34934835/group.det-slhc.5956391.EXT0._000030.D3PD.root
root://eosatlas//eos//atlas/atlascerngroupdisk/det-slhc/SCOPING/group.det-slhc.mc12_14TeV.147807.PowhegPythia8_AU2CT10_Zmumu.recon.ESD.e1564_s1762_s1777_r6284.v26.trkD3PD_EXT0.34934835/group.det-slhc.5956391.EXT0._000032.D3PD.root
root://eosatlas//eos//atlas/atlascerngroupdisk/det-slhc/SCOPING/group.det-slhc.mc12_14TeV.147807.PowhegPythia8_AU2CT10_Zmumu.recon.ESD.e1564_s1762_s1777_r6284.v26.trkD3PD_EXT0.34934835/group.det-slhc.5956391.EXT0._000035.D3PD.root
root://eosatlas//eos//atlas/atlascerngroupdisk/det-slhc/SCOPING/group.det-slhc.mc12_14TeV.147807.PowhegPythia8_AU2CT10_Zmumu.recon.ESD.e1564_s1762_s1777_r6284.v26.trkD3PD_EXT0.34934835/group.det-slhc.5956391.EXT0._000036.D3PD.root
root://eosatlas//eos//atlas/atlascerngroupdisk/det-slhc/SCOPING/group.det-slhc.mc12_14TeV.147807.PowhegPythia8_AU2CT10_Zmumu.recon.ESD.e1564_s1762_s1777_r6284.v26.trkD3PD_EXT0.34934835/group.det-slhc.5956391.EXT0._000037.D3PD.root
root://eosatlas//eos//atlas/atlascerngroupdisk/det-slhc/SCOPING/group.det-slhc.mc12_14TeV.147807.PowhegPythia8_AU2CT10_Zmumu.recon.ESD.e1564_s1762_s1777_r6284.v26.trkD3PD_EXT0.34934835/group.det-slhc.5956391.EXT0._000040.D3PD.root
root://eosatlas//eos//atlas/atlascerngroupdisk/det-slhc/SCOPING/group.det-slhc.mc12_14TeV.147807.PowhegPythia8_AU2CT10_Zmumu.recon.ESD.e1564_s1762_s1777_r6284.v26.trkD3PD_EXT0.34934835/group.det-slhc.5956391.EXT0._000041.D3PD.root
root://eosatlas//eos//atlas/atlascerngroupdisk/det-slhc/SCOPING/group.det-slhc.mc12_14TeV.147807.PowhegPythia8_AU2CT10_Zmumu.recon.ESD.e1564_s1762_s1777_r6284.v26.trkD3PD_EXT0.34934835/group.det-slhc.5956391.EXT0._000042.D3PD.root
root://eosatlas//eos//atlas/atlascerngroupdisk/det-slhc/SCOPING/group.det-slhc.mc12_14TeV.147807.PowhegPythia8_AU2CT10_Zmumu.recon.ESD.e1564_s1762_s1777_r6284.v26.trkD3PD_EXT0.34934835/group.det-slhc.5956391.EXT0._000043.D3PD.root
root://eosatlas//eos//atlas/atlascerngroupdisk/det-slhc/SCOPING/group.det-slhc.mc12_14TeV.147807.PowhegPythia8_AU2CT10_Zmumu.recon.ESD.e1564_s1762_s1777_r6284.v26.trkD3PD_EXT0.34934835/group.det-slhc.5956391.EXT0._000044.D3PD.root
root://eosatlas//eos//atlas/atlascerngroupdisk/det-slhc/SCOPING/group.det-slhc.mc12_14TeV.147807.PowhegPythia8_AU2CT10_Zmumu.recon.ESD.e1564_s1762_s1777_r6284.v26.trkD3PD_EXT0.34934835/group.det-slhc.5956391.EXT0._000045.D3PD.root
root://eosatlas//eos//atlas/atlascerngroupdisk/det-slhc/SCOPING/group.det-slhc.mc12_14TeV.147807.PowhegPythia8_AU2CT10_Zmumu.recon.ESD.e1564_s1762_s1777_r6284.v26.trkD3PD_EXT0.34934835/group.det-slhc.5956391.EXT0._000046.D3PD.root
root://eosatlas//eos//atlas/atlascerngroupdisk/det-slhc/SCOPING/group.det-slhc.mc12_14TeV.147807.PowhegPythia8_AU2CT10_Zmumu.recon.ESD.e1564_s1762_s1777_r6284.v26.trkD3PD_EXT0.34934835/group.det-slhc.5956391.EXT0._000047.D3PD.root
root://eosatlas//eos//atlas/atlascerngroupdisk/det-slhc/SCOPING/group.det-slhc.mc12_14TeV.147807.PowhegPythia8_AU2CT10_Zmumu.recon.ESD.e1564_s1762_s1777_r6284.v26.trkD3PD_EXT0.34934835/group.det-slhc.5956391.EXT0._000048.D3PD.root
root://eosatlas//eos//atlas/atlascerngroupdisk/det-slhc/SCOPING/group.det-slhc.mc12_14TeV.147807.PowhegPythia8_AU2CT10_Zmumu.recon.ESD.e1564_s1762_s1777_r6284.v26.trkD3PD_EXT0.34934835/group.det-slhc.5956391.EXT0._000049.D3PD.root
root://eosatlas//eos//atlas/atlascerngroupdisk/det-slhc/SCOPING/group.det-slhc.mc12_14TeV.147807.PowhegPythia8_AU2CT10_Zmumu.recon.ESD.e1564_s1762_s1777_r6284.v26.trkD3PD_EXT0.34934835/group.det-slhc.5956391.EXT0._000051.D3PD.root
root://eosatlas//eos//atlas/atlascerngroupdisk/det-slhc/SCOPING/group.det-slhc.mc12_14TeV.147807.PowhegPythia8_AU2CT10_Zmumu.recon.ESD.e1564_s1762_s1777_r6284.v26.trkD3PD_EXT0.34934835/group.det-slhc.5956391.EXT0._000052.D3PD.root
root://eosatlas//eos//atlas/atlascerngroupdisk/det-slhc/SCOPING/group.det-slhc.mc12_14TeV.147807.PowhegPythia8_AU2CT10_Zmumu.recon.ESD.e1564_s1762_s1777_r6284.v26.trkD3PD_EXT0.34934835/group.det-slhc.5956391.EXT0._000054.D3PD.root
root://eosatlas//eos//atlas/atlascerngroupdisk/det-slhc/SCOPING/group.det-slhc.mc12_14TeV.147807.PowhegPythia8_AU2CT10_Zmumu.recon.ESD.e1564_s1762_s1777_r6284.v26.trkD3PD_EXT0.34934835/group.det-slhc.5956391.EXT0._000056.D3PD.root
root://eosatlas//eos//atlas/atlascerngroupdisk/det-slhc/SCOPING/group.det-slhc.mc12_14TeV.147807.PowhegPythia8_AU2CT10_Zmumu.recon.ESD.e1564_s1762_s1777_r6284.v26.trkD3PD_EXT0.34934835/group.det-slhc.5956391.EXT0._000057.D3PD.root
root://eosatlas//eos//atlas/atlascerngroupdisk/det-slhc/SCOPING/group.det-slhc.mc12_14TeV.147807.PowhegPythia8_AU2CT10_Zmumu.recon.ESD.e1564_s1762_s1777_r6284.v26.trkD3PD_EXT0.34934835/group.det-slhc.5956391.EXT0._000059.D3PD.root
root://eosatlas//eos//atlas/atlascerngroupdisk/det-slhc/SCOPING/group.det-slhc.mc12_14TeV.147807.PowhegPythia8_AU2CT10_Zmumu.recon.ESD.e1564_s1762_s1777_r6284.v26.trkD3PD_EXT0.34934835/group.det-slhc.5956391.EXT0._000060.D3PD.root
root://eosatlas//eos//atlas/atlascerngroupdisk/det-slhc/SCOPING/group.det-slhc.mc12_14TeV.147807.PowhegPythia8_AU2CT10_Zmumu.recon.ESD.e1564_s1762_s1777_r6284.v26.trkD3PD_EXT0.34934835/group.det-slhc.5956391.EXT0._000061.D3PD.root
root://eosatlas//eos//atlas/atlascerngroupdisk/det-slhc/SCOPING/group.det-slhc.mc12_14TeV.147807.PowhegPythia8_AU2CT10_Zmumu.recon.ESD.e1564_s1762_s1777_r6284.v26.trkD3PD_EXT0.34934835/group.det-slhc.5956391.EXT0._000062.D3PD.root
root://eosatlas//eos//atlas/atlascerngroupdisk/det-slhc/SCOPING/group.det-slhc.mc12_14TeV.147807.PowhegPythia8_AU2CT10_Zmumu.recon.ESD.e1564_s1762_s1777_r6284.v26.trkD3PD_EXT0.34934835/group.det-slhc.5956391.EXT0._000063.D3PD.root
root://eosatlas//eos//atlas/atlascerngroupdisk/det-slhc/SCOPING/group.det-slhc.mc12_14TeV.147807.PowhegPythia8_AU2CT10_Zmumu.recon.ESD.e1564_s1762_s1777_r6284.v26.trkD3PD_EXT0.34934835/group.det-slhc.5956391.EXT0._000064.D3PD.root
root://eosatlas//eos//atlas/atlascerngroupdisk/det-slhc/SCOPING/group.det-slhc.mc12_14TeV.147807.PowhegPythia8_AU2CT10_Zmumu.recon.ESD.e1564_s1762_s1777_r6284.v26.trkD3PD_EXT0.34934835/group.det-slhc.5956391.EXT0._000065.D3PD.root
root://eosatlas//eos//atlas/atlascerngroupdisk/det-slhc/SCOPING/group.det-slhc.mc12_14TeV.147807.PowhegPythia8_AU2CT10_Zmumu.recon.ESD.e1564_s1762_s1777_r6284.v26.trkD3PD_EXT0.34934835/group.det-slhc.5956391.EXT0._000066.D3PD.root
root://eosatlas//eos//atlas/atlascerngroupdisk/det-slhc/SCOPING/group.det-slhc.mc12_14TeV.147807.PowhegPythia8_AU2CT10_Zmumu.recon.ESD.e1564_s1762_s1777_r6284.v26.trkD3PD_EXT0.34934835/group.det-slhc.5956391.EXT0._000067.D3PD.root
root://eosatlas//eos//atlas/atlascerngroupdisk/det-slhc/SCOPING/group.det-slhc.mc12_14TeV.147807.PowhegPythia8_AU2CT10_Zmumu.recon.ESD.e1564_s1762_s1777_r6284.v26.trkD3PD_EXT0.34934835/group.det-slhc.5956391.EXT0._000068.D3PD.root
root://eosatlas//eos//atlas/atlascerngroupdisk/det-slhc/SCOPING/group.det-slhc.mc12_14TeV.147807.PowhegPythia8_AU2CT10_Zmumu.recon.ESD.e1564_s1762_s1777_r6284.v26.trkD3PD_EXT0.34934835/group.det-slhc.5956391.EXT0._000069.D3PD.root
root://eosatlas//eos//atlas/atlascerngroupdisk/det-slhc/SCOPING/group.det-slhc.mc12_14TeV.147807.PowhegPythia8_AU2CT10_Zmumu.recon.ESD.e1564_s1762_s1777_r6284.v26.trkD3PD_EXT0.34934835/group.det-slhc.5956391.EXT0._000070.D3PD.root
root://eosatlas//eos//atlas/atlascerngroupdisk/det-slhc/SCOPING/group.det-slhc.mc12_14TeV.147807.PowhegPythia8_AU2CT10_Zmumu.recon.ESD.e1564_s1762_s1777_r6284.v26.trkD3PD_EXT0.34934835/group.det-slhc.5956391.EXT0._000071.D3PD.root
root://eosatlas//eos//atlas/atlascerngroupdisk/det-slhc/SCOPING/group.det-slhc.mc12_14TeV.147807.PowhegPythia8_AU2CT10_Zmumu.recon.ESD.e1564_s1762_s1777_r6284.v26.trkD3PD_EXT0.34934835/group.det-slhc.5956391.EXT0._000073.D3PD.root
root://eosatlas//eos//atlas/atlascerngroupdisk/det-slhc/SCOPING/group.det-slhc.mc12_14TeV.147807.PowhegPythia8_AU2CT10_Zmumu.recon.ESD.e1564_s1762_s1777_r6284.v26.trkD3PD_EXT0.34934835/group.det-slhc.5956391.EXT0._000075.D3PD.root
root://eosatlas//eos//atlas/atlascerngroupdisk/det-slhc/SCOPING/group.det-slhc.mc12_14TeV.147807.PowhegPythia8_AU2CT10_Zmumu.recon.ESD.e1564_s1762_s1777_r6284.v26.trkD3PD_EXT0.34934835/group.det-slhc.5956391.EXT0._000076.D3PD.root
root://eosatlas//eos//atlas/atlascerngroupdisk/det-slhc/SCOPING/group.det-slhc.mc12_14TeV.147807.PowhegPythia8_AU2CT10_Zmumu.recon.ESD.e1564_s1762_s1777_r6284.v26.trkD3PD_EXT0.34934835/group.det-slhc.5956391.EXT0._000077.D3PD.root
root://eosatlas//eos//atlas/atlascerngroupdisk/det-slhc/SCOPING/group.det-slhc.mc12_14TeV.147807.PowhegPythia8_AU2CT10_Zmumu.recon.ESD.e1564_s1762_s1777_r6284.v26.trkD3PD_EXT0.34934835/group.det-slhc.5956391.EXT0._000078.D3PD.root
root://eosatlas//eos//atlas/atlascerngroupdisk/det-slhc/SCOPING/group.det-slhc.mc12_14TeV.147807.PowhegPythia8_AU2CT10_Zmumu.recon.ESD.e1564_s1762_s1777_r6284.v26.trkD3PD_EXT0.34934835/group.det-slhc.5956391.EXT0._000079.D3PD.root
root://eosatlas//eos//atlas/atlascerngroupdisk/det-slhc/SCOPING/group.det-slhc.mc12_14TeV.147807.PowhegPythia8_AU2CT10_Zmumu.recon.ESD.e1564_s1762_s1777_r6284.v26.trkD3PD_EXT0.34934835/group.det-slhc.5956391.EXT0._000080.D3PD.root
root://eosatlas//eos//atlas/atlascerngroupdisk/det-slhc/SCOPING/group.det-slhc.mc12_14TeV.147807.PowhegPythia8_AU2CT10_Zmumu.recon.ESD.e1564_s1762_s1777_r6284.v26.trkD3PD_EXT0.34934835/group.det-slhc.5956391.EXT0._000081.D3PD.root
root://eosatlas//eos//atlas/atlascerngroupdisk/det-slhc/SCOPING/group.det-slhc.mc12_14TeV.147807.PowhegPythia8_AU2CT10_Zmumu.recon.ESD.e1564_s1762_s1777_r6284.v26.trkD3PD_EXT0.34934835/group.det-slhc.5956391.EXT0._000082.D3PD.root
root://eosatlas//eos//atlas/atlascerngroupdisk/det-slhc/SCOPING/group.det-slhc.mc12_14TeV.147807.PowhegPythia8_AU2CT10_Zmumu.recon.ESD.e1564_s1762_s1777_r6284.v26.trkD3PD_EXT0.34934835/group.det-slhc.5956391.EXT0._000083.D3PD.root
root://eosatlas//eos//atlas/atlascerngroupdisk/det-slhc/SCOPING/group.det-slhc.mc12_14TeV.147807.PowhegPythia8_AU2CT10_Zmumu.recon.ESD.e1564_s1762_s1777_r6284.v26.trkD3PD_EXT0.34934835/group.det-slhc.5956391.EXT0._000085.D3PD.root
root://eosatlas//eos//atlas/atlascerngroupdisk/det-slhc/SCOPING/group.det-slhc.mc12_14TeV.147807.PowhegPythia8_AU2CT10_Zmumu.recon.ESD.e1564_s1762_s1777_r6284.v26.trkD3PD_EXT0.34934835/group.det-slhc.5956391.EXT0._000086.D3PD.root
root://eosatlas//eos//atlas/atlascerngroupdisk/det-slhc/SCOPING/group.det-slhc.mc12_14TeV.147807.PowhegPythia8_AU2CT10_Zmumu.recon.ESD.e1564_s1762_s1777_r6284.v26.trkD3PD_EXT0.34934835/group.det-slhc.5956391.EXT0._000087.D3PD.root
root://eosatlas//eos//atlas/atlascerngroupdisk/det-slhc/SCOPING/group.det-slhc.mc12_14TeV.147807.PowhegPythia8_AU2CT10_Zmumu.recon.ESD.e1564_s1762_s1777_r6284.v26.trkD3PD_EXT0.34934835/group.det-slhc.5956391.EXT0._000089.D3PD.root
root://eosatlas//eos//atlas/atlascerngroupdisk/det-slhc/SCOPING/group.det-slhc.mc12_14TeV.147807.PowhegPythia8_AU2CT10_Zmumu.recon.ESD.e1564_s1762_s1777_r6284.v26.trkD3PD_EXT0.34934835/group.det-slhc.5956391.EXT0._000091.D3PD.root
root://eosatlas//eos//atlas/atlascerngroupdisk/det-slhc/SCOPING/group.det-slhc.mc12_14TeV.147807.PowhegPythia8_AU2CT10_Zmumu.recon.ESD.e1564_s1762_s1777_r6284.v26.trkD3PD_EXT0.34934835/group.det-slhc.5956391.EXT0._000092.D3PD.root
root://eosatlas//eos//atlas/atlascerngroupdisk/det-slhc/SCOPING/group.det-slhc.mc12_14TeV.147807.PowhegPythia8_AU2CT10_Zmumu.recon.ESD.e1564_s1762_s1777_r6284.v26.trkD3PD_EXT0.34934835/group.det-slhc.5956391.EXT0._000094.D3PD.root
root://eosatlas//eos//atlas/atlascerngroupdisk/det-slhc/SCOPING/group.det-slhc.mc12_14TeV.147807.PowhegPythia8_AU2CT10_Zmumu.recon.ESD.e1564_s1762_s1777_r6284.v26.trkD3PD_EXT0.34934835/group.det-slhc.5956391.EXT0._000096.D3PD.root
root://eosatlas//eos//atlas/atlascerngroupdisk/det-slhc/SCOPING/group.det-slhc.mc12_14TeV.147807.PowhegPythia8_AU2CT10_Zmumu.recon.ESD.e1564_s1762_s1777_r6284.v26.trkD3PD_EXT0.34934835/group.det-slhc.5956391.EXT0._000097.D3PD.root
root://eosatlas//eos//atlas/atlascerngroupdisk/det-slhc/SCOPING/group.det-slhc.mc12_14TeV.147807.PowhegPythia8_AU2CT10_Zmumu.recon.ESD.e1564_s1762_s1777_r6284.v26.trkD3PD_EXT0.34934835/group.det-slhc.5956391.EXT0._000098.D3PD.root
root://eosatlas//eos//atlas/atlascerngroupdisk/det-slhc/SCOPING/group.det-slhc.mc12_14TeV.147807.PowhegPythia8_AU2CT10_Zmumu.recon.ESD.e1564_s1762_s1777_r6284.v26.trkD3PD_EXT0.34934835/group.det-slhc.5956391.EXT0._000100.D3PD.root
root://eosatlas//eos//atlas/atlascerngroupdisk/det-slhc/SCOPING/group.det-slhc.mc12_14TeV.147807.PowhegPythia8_AU2CT10_Zmumu.recon.ESD.e1564_s1762_s1777_r6284.v26.trkD3PD_EXT0.34934835/group.det-slhc.5956391.EXT0._000101.D3PD.root
root://eosatlas//eos//atlas/atlascerngroupdisk/det-slhc/SCOPING/group.det-slhc.mc12_14TeV.147807.PowhegPythia8_AU2CT10_Zmumu.recon.ESD.e1564_s1762_s1777_r6284.v26.trkD3PD_EXT0.34934835/group.det-slhc.5956391.EXT0._000102.D3PD.root
root://eosatlas//eos//atlas/atlascerngroupdisk/det-slhc/SCOPING/group.det-slhc.mc12_14TeV.147807.PowhegPythia8_AU2CT10_Zmumu.recon.ESD.e1564_s1762_s1777_r6284.v26.trkD3PD_EXT0.34934835/group.det-slhc.5956391.EXT0._000103.D3PD.root
root://eosatlas//eos//atlas/atlascerngroupdisk/det-slhc/SCOPING/group.det-slhc.mc12_14TeV.147807.PowhegPythia8_AU2CT10_Zmumu.recon.ESD.e1564_s1762_s1777_r6284.v26.trkD3PD_EXT0.34934835/group.det-slhc.5956391.EXT0._000104.D3PD.root
root://eosatlas//eos//atlas/atlascerngroupdisk/det-slhc/SCOPING/group.det-slhc.mc12_14TeV.147807.PowhegPythia8_AU2CT10_Zmumu.recon.ESD.e1564_s1762_s1777_r6284.v26.trkD3PD_EXT0.34934835/group.det-slhc.5956391.EXT0._000105.D3PD.root
root://eosatlas//eos//atlas/atlascerngroupdisk/det-slhc/SCOPING/group.det-slhc.mc12_14TeV.147807.PowhegPythia8_AU2CT10_Zmumu.recon.ESD.e1564_s1762_s1777_r6284.v26.trkD3PD_EXT0.34934835/group.det-slhc.5956391.EXT0._000106.D3PD.root
root://eosatlas//eos//atlas/atlascerngroupdisk/det-slhc/SCOPING/group.det-slhc.mc12_14TeV.147807.PowhegPythia8_AU2CT10_Zmumu.recon.ESD.e1564_s1762_s1777_r6284.v26.trkD3PD_EXT0.34934835/group.det-slhc.5956391.EXT0._000107.D3PD.root
root://eosatlas//eos//atlas/atlascerngroupdisk/det-slhc/SCOPING/group.det-slhc.mc12_14TeV.147807.PowhegPythia8_AU2CT10_Zmumu.recon.ESD.e1564_s1762_s1777_r6284.v26.trkD3PD_EXT0.34934835/group.det-slhc.5956391.EXT0._000108.D3PD.root
root://eosatlas//eos//atlas/atlascerngroupdisk/det-slhc/SCOPING/group.det-slhc.mc12_14TeV.147807.PowhegPythia8_AU2CT10_Zmumu.recon.ESD.e1564_s1762_s1777_r6284.v26.trkD3PD_EXT0.34934835/group.det-slhc.5956391.EXT0._000111.D3PD.root
root://eosatlas//eos//atlas/atlascerngroupdisk/det-slhc/SCOPING/group.det-slhc.mc12_14TeV.147807.PowhegPythia8_AU2CT10_Zmumu.recon.ESD.e1564_s1762_s1777_r6284.v26.trkD3PD_EXT0.34934835/group.det-slhc.5956391.EXT0._000112.D3PD.root
root://eosatlas//eos//atlas/atlascerngroupdisk/det-slhc/SCOPING/group.det-slhc.mc12_14TeV.147807.PowhegPythia8_AU2CT10_Zmumu.recon.ESD.e1564_s1762_s1777_r6284.v26.trkD3PD_EXT0.34934835/group.det-slhc.5956391.EXT0._000113.D3PD.root
root://eosatlas//eos//atlas/atlascerngroupdisk/det-slhc/SCOPING/group.det-slhc.mc12_14TeV.147807.PowhegPythia8_AU2CT10_Zmumu.recon.ESD.e1564_s1762_s1777_r6284.v26.trkD3PD_EXT0.34934835/group.det-slhc.5956391.EXT0._000114.D3PD.root
root://eosatlas//eos//atlas/atlascerngroupdisk/det-slhc/SCOPING/group.det-slhc.mc12_14TeV.147807.PowhegPythia8_AU2CT10_Zmumu.recon.ESD.e1564_s1762_s1777_r6284.v26.trkD3PD_EXT0.34934835/group.det-slhc.5956391.EXT0._000115.D3PD.root
root://eosatlas//eos//atlas/atlascerngroupdisk/det-slhc/SCOPING/group.det-slhc.mc12_14TeV.147807.PowhegPythia8_AU2CT10_Zmumu.recon.ESD.e1564_s1762_s1777_r6284.v26.trkD3PD_EXT0.34934835/group.det-slhc.5956391.EXT0._000116.D3PD.root
root://eosatlas//eos//atlas/atlascerngroupdisk/det-slhc/SCOPING/group.det-slhc.mc12_14TeV.147807.PowhegPythia8_AU2CT10_Zmumu.recon.ESD.e1564_s1762_s1777_r6284.v26.trkD3PD_EXT0.34934835/group.det-slhc.5956391.EXT0._000117.D3PD.root
root://eosatlas//eos//atlas/atlascerngroupdisk/det-slhc/SCOPING/group.det-slhc.mc12_14TeV.147807.PowhegPythia8_AU2CT10_Zmumu.recon.ESD.e1564_s1762_s1777_r6284.v26.trkD3PD_EXT0.34934835/group.det-slhc.5956391.EXT0._000118.D3PD.root
root://eosatlas//eos//atlas/atlascerngroupdisk/det-slhc/SCOPING/group.det-slhc.mc12_14TeV.147807.PowhegPythia8_AU2CT10_Zmumu.recon.ESD.e1564_s1762_s1777_r6284.v26.trkD3PD_EXT0.34934835/group.det-slhc.5956391.EXT0._000119.D3PD.root
root://eosatlas//eos//atlas/atlascerngroupdisk/det-slhc/SCOPING/group.det-slhc.mc12_14TeV.147807.PowhegPythia8_AU2CT10_Zmumu.recon.ESD.e1564_s1762_s1777_r6284.v26.trkD3PD_EXT0.34934835/group.det-slhc.5956391.EXT0._000120.D3PD.root
root://eosatlas//eos//atlas/atlascerngroupdisk/det-slhc/SCOPING/group.det-slhc.mc12_14TeV.147807.PowhegPythia8_AU2CT10_Zmumu.recon.ESD.e1564_s1762_s1777_r6284.v26.trkD3PD_EXT0.34934835/group.det-slhc.5956391.EXT0._000123.D3PD.root
root://eosatlas//eos//atlas/atlascerngroupdisk/det-slhc/SCOPING/group.det-slhc.mc12_14TeV.147807.PowhegPythia8_AU2CT10_Zmumu.recon.ESD.e1564_s1762_s1777_r6284.v26.trkD3PD_EXT0.34934835/group.det-slhc.5956391.EXT0._000124.D3PD.root
root://eosatlas//eos//atlas/atlascerngroupdisk/det-slhc/SCOPING/group.det-slhc.mc12_14TeV.147807.PowhegPythia8_AU2CT10_Zmumu.recon.ESD.e1564_s1762_s1777_r6284.v26.trkD3PD_EXT0.34934835/group.det-slhc.5956391.EXT0._000126.D3PD.root
root://eosatlas//eos//atlas/atlascerngroupdisk/det-slhc/SCOPING/group.det-slhc.mc12_14TeV.147807.PowhegPythia8_AU2CT10_Zmumu.recon.ESD.e1564_s1762_s1777_r6284.v26.trkD3PD_EXT0.34934835/group.det-slhc.5956391.EXT0._000127.D3PD.root
root://eosatlas//eos//atlas/atlascerngroupdisk/det-slhc/SCOPING/group.det-slhc.mc12_14TeV.147807.PowhegPythia8_AU2CT10_Zmumu.recon.ESD.e1564_s1762_s1777_r6284.v26.trkD3PD_EXT0.34934835/group.det-slhc.5956391.EXT0._000128.D3PD.root
root://eosatlas//eos//atlas/atlascerngroupdisk/det-slhc/SCOPING/group.det-slhc.mc12_14TeV.147807.PowhegPythia8_AU2CT10_Zmumu.recon.ESD.e1564_s1762_s1777_r6284.v26.trkD3PD_EXT0.34934835/group.det-slhc.5956391.EXT0._000129.D3PD.root
root://eosatlas//eos//atlas/atlascerngroupdisk/det-slhc/SCOPING/group.det-slhc.mc12_14TeV.147807.PowhegPythia8_AU2CT10_Zmumu.recon.ESD.e1564_s1762_s1777_r6284.v26.trkD3PD_EXT0.34934835/group.det-slhc.5956391.EXT0._000130.D3PD.root
root://eosatlas//eos//atlas/atlascerngroupdisk/det-slhc/SCOPING/group.det-slhc.mc12_14TeV.147807.PowhegPythia8_AU2CT10_Zmumu.recon.ESD.e1564_s1762_s1777_r6284.v26.trkD3PD_EXT0.34934835/group.det-slhc.5956391.EXT0._000132.D3PD.root
root://eosatlas//eos//atlas/atlascerngroupdisk/det-slhc/SCOPING/group.det-slhc.mc12_14TeV.147807.PowhegPythia8_AU2CT10_Zmumu.recon.ESD.e1564_s1762_s1777_r6284.v26.trkD3PD_EXT0.34934835/group.det-slhc.5956391.EXT0._000133.D3PD.root
root://eosatlas//eos//atlas/atlascerngroupdisk/det-slhc/SCOPING/group.det-slhc.mc12_14TeV.147807.PowhegPythia8_AU2CT10_Zmumu.recon.ESD.e1564_s1762_s1777_r6284.v26.trkD3PD_EXT0.34934835/group.det-slhc.5956391.EXT0._000134.D3PD.root
root://eosatlas//eos//atlas/atlascerngroupdisk/det-slhc/SCOPING/group.det-slhc.mc12_14TeV.147807.PowhegPythia8_AU2CT10_Zmumu.recon.ESD.e1564_s1762_s1777_r6284.v26.trkD3PD_EXT0.34934835/group.det-slhc.5956391.EXT0._000135.D3PD.root
root://eosatlas//eos//atlas/atlascerngroupdisk/det-slhc/SCOPING/group.det-slhc.mc12_14TeV.147807.PowhegPythia8_AU2CT10_Zmumu.recon.ESD.e1564_s1762_s1777_r6284.v26.trkD3PD_EXT0.34934835/group.det-slhc.5956391.EXT0._000136.D3PD.root
root://eosatlas//eos//atlas/atlascerngroupdisk/det-slhc/SCOPING/group.det-slhc.mc12_14TeV.147807.PowhegPythia8_AU2CT10_Zmumu.recon.ESD.e1564_s1762_s1777_r6284.v26.trkD3PD_EXT0.34934835/group.det-slhc.5956391.EXT0._000137.D3PD.root
root://eosatlas//eos//atlas/atlascerngroupdisk/det-slhc/SCOPING/group.det-slhc.mc12_14TeV.147807.PowhegPythia8_AU2CT10_Zmumu.recon.ESD.e1564_s1762_s1777_r6284.v26.trkD3PD_EXT0.34934835/group.det-slhc.5956391.EXT0._000138.D3PD.root
root://eosatlas//eos//atlas/atlascerngroupdisk/det-slhc/SCOPING/group.det-slhc.mc12_14TeV.147807.PowhegPythia8_AU2CT10_Zmumu.recon.ESD.e1564_s1762_s1777_r6284.v26.trkD3PD_EXT0.34934835/group.det-slhc.5956391.EXT0._000139.D3PD.root
root://eosatlas//eos//atlas/atlascerngroupdisk/det-slhc/SCOPING/group.det-slhc.mc12_14TeV.147807.PowhegPythia8_AU2CT10_Zmumu.recon.ESD.e1564_s1762_s1777_r6284.v26.trkD3PD_EXT0.34934835/group.det-slhc.5956391.EXT0._000140.D3PD.root
root://eosatlas//eos//atlas/atlascerngroupdisk/det-slhc/SCOPING/group.det-slhc.mc12_14TeV.147807.PowhegPythia8_AU2CT10_Zmumu.recon.ESD.e1564_s1762_s1777_r6284.v26.trkD3PD_EXT0.34934835/group.det-slhc.5956391.EXT0._000145.D3PD.root
root://eosatlas//eos//atlas/atlascerngroupdisk/det-slhc/SCOPING/group.det-slhc.mc12_14TeV.147807.PowhegPythia8_AU2CT10_Zmumu.recon.ESD.e1564_s1762_s1777_r6284.v26.trkD3PD_EXT0.34934835/group.det-slhc.5956391.EXT0._000150.D3PD.root
root://eosatlas//eos//atlas/atlascerngroupdisk/det-slhc/SCOPING/group.det-slhc.mc12_14TeV.147807.PowhegPythia8_AU2CT10_Zmumu.recon.ESD.e1564_s1762_s1777_r6284.v26.trkD3PD_EXT0.34934835/group.det-slhc.5956391.EXT0._000151.D3PD.root
root://eosatlas//eos//atlas/atlascerngroupdisk/det-slhc/SCOPING/group.det-slhc.mc12_14TeV.147807.PowhegPythia8_AU2CT10_Zmumu.recon.ESD.e1564_s1762_s1777_r6284.v26.trkD3PD_EXT0.34934835/group.det-slhc.5956391.EXT0._000152.D3PD.root
root://eosatlas//eos//atlas/atlascerngroupdisk/det-slhc/SCOPING/group.det-slhc.mc12_14TeV.147807.PowhegPythia8_AU2CT10_Zmumu.recon.ESD.e1564_s1762_s1777_r6284.v26.trkD3PD_EXT0.34934835/group.det-slhc.5956391.EXT0._000153.D3PD.root
root://eosatlas//eos//atlas/atlascerngroupdisk/det-slhc/SCOPING/group.det-slhc.mc12_14TeV.147807.PowhegPythia8_AU2CT10_Zmumu.recon.ESD.e1564_s1762_s1777_r6284.v26.trkD3PD_EXT0.34934835/group.det-slhc.5956391.EXT0._000154.D3PD.root
root://eosatlas//eos//atlas/atlascerngroupdisk/det-slhc/SCOPING/group.det-slhc.mc12_14TeV.147807.PowhegPythia8_AU2CT10_Zmumu.recon.ESD.e1564_s1762_s1777_r6284.v26.trkD3PD_EXT0.34934835/group.det-slhc.5956391.EXT0._000155.D3PD.root
root://eosatlas//eos//atlas/atlascerngroupdisk/det-slhc/SCOPING/group.det-slhc.mc12_14TeV.147807.PowhegPythia8_AU2CT10_Zmumu.recon.ESD.e1564_s1762_s1777_r6284.v26.trkD3PD_EXT0.34934835/group.det-slhc.5956391.EXT0._000156.D3PD.root
root://eosatlas//eos//atlas/atlascerngroupdisk/det-slhc/SCOPING/group.det-slhc.mc12_14TeV.147807.PowhegPythia8_AU2CT10_Zmumu.recon.ESD.e1564_s1762_s1777_r6284.v26.trkD3PD_EXT0.34934835/group.det-slhc.5956391.EXT0._000157.D3PD.root
root://eosatlas//eos//atlas/atlascerngroupdisk/det-slhc/SCOPING/group.det-slhc.mc12_14TeV.147807.PowhegPythia8_AU2CT10_Zmumu.recon.ESD.e1564_s1762_s1777_r6284.v26.trkD3PD_EXT0.34934835/group.det-slhc.5956391.EXT0._000159.D3PD.root
root://eosatlas//eos//atlas/atlascerngroupdisk/det-slhc/SCOPING/group.det-slhc.mc12_14TeV.147807.PowhegPythia8_AU2CT10_Zmumu.recon.ESD.e1564_s1762_s1777_r6284.v26.trkD3PD_EXT0.34934835/group.det-slhc.5956391.EXT0._000160.D3PD.root
root://eosatlas//eos//atlas/atlascerngroupdisk/det-slhc/SCOPING/group.det-slhc.mc12_14TeV.147807.PowhegPythia8_AU2CT10_Zmumu.recon.ESD.e1564_s1762_s1777_r6284.v26.trkD3PD_EXT0.34934835/group.det-slhc.5956391.EXT0._000165.D3PD.root
root://eosatlas//eos//atlas/atlascerngroupdisk/det-slhc/SCOPING/group.det-slhc.mc12_14TeV.147807.PowhegPythia8_AU2CT10_Zmumu.recon.ESD.e1564_s1762_s1777_r6284.v26.trkD3PD_EXT0.34934835/group.det-slhc.5956391.EXT0._000166.D3PD.root
root://eosatlas//eos//atlas/atlascerngroupdisk/det-slhc/SCOPING/group.det-slhc.mc12_14TeV.147807.PowhegPythia8_AU2CT10_Zmumu.recon.ESD.e1564_s1762_s1777_r6284.v26.trkD3PD_EXT0.34934835/group.det-slhc.5956391.EXT0._000167.D3PD.root
root://eosatlas//eos//atlas/atlascerngroupdisk/det-slhc/SCOPING/group.det-slhc.mc12_14TeV.147807.PowhegPythia8_AU2CT10_Zmumu.recon.ESD.e1564_s1762_s1777_r6284.v26.trkD3PD_EXT0.34934835/group.det-slhc.5956391.EXT0._000169.D3PD.root
root://eosatlas//eos//atlas/atlascerngroupdisk/det-slhc/SCOPING/group.det-slhc.mc12_14TeV.147807.PowhegPythia8_AU2CT10_Zmumu.recon.ESD.e1564_s1762_s1777_r6284.v26.trkD3PD_EXT0.34934835/group.det-slhc.5956391.EXT0._000170.D3PD.root
root://eosatlas//eos//atlas/atlascerngroupdisk/det-slhc/SCOPING/group.det-slhc.mc12_14TeV.147807.PowhegPythia8_AU2CT10_Zmumu.recon.ESD.e1564_s1762_s1777_r6284.v26.trkD3PD_EXT0.34934835/group.det-slhc.5956391.EXT0._000171.D3PD.root
root://eosatlas//eos//atlas/atlascerngroupdisk/det-slhc/SCOPING/group.det-slhc.mc12_14TeV.147807.PowhegPythia8_AU2CT10_Zmumu.recon.ESD.e1564_s1762_s1777_r6284.v26.trkD3PD_EXT0.34934835/group.det-slhc.5956391.EXT0._000172.D3PD.root
root://eosatlas//eos//atlas/atlascerngroupdisk/det-slhc/SCOPING/group.det-slhc.mc12_14TeV.147807.PowhegPythia8_AU2CT10_Zmumu.recon.ESD.e1564_s1762_s1777_r6284.v26.trkD3PD_EXT0.34934835/group.det-slhc.5956391.EXT0._000173.D3PD.root
root://eosatlas//eos//atlas/atlascerngroupdisk/det-slhc/SCOPING/group.det-slhc.mc12_14TeV.147807.PowhegPythia8_AU2CT10_Zmumu.recon.ESD.e1564_s1762_s1777_r6284.v26.trkD3PD_EXT0.34934835/group.det-slhc.5956391.EXT0._000174.D3PD.root
root://eosatlas//eos//atlas/atlascerngroupdisk/det-slhc/SCOPING/group.det-slhc.mc12_14TeV.147807.PowhegPythia8_AU2CT10_Zmumu.recon.ESD.e1564_s1762_s1777_r6284.v26.trkD3PD_EXT0.34934835/group.det-slhc.5956391.EXT0._000175.D3PD.root
root://eosatlas//eos//atlas/atlascerngroupdisk/det-slhc/SCOPING/group.det-slhc.mc12_14TeV.147807.PowhegPythia8_AU2CT10_Zmumu.recon.ESD.e1564_s1762_s1777_r6284.v26.trkD3PD_EXT0.34934835/group.det-slhc.5956391.EXT0._000176.D3PD.root
root://eosatlas//eos//atlas/atlascerngroupdisk/det-slhc/SCOPING/group.det-slhc.mc12_14TeV.147807.PowhegPythia8_AU2CT10_Zmumu.recon.ESD.e1564_s1762_s1777_r6284.v26.trkD3PD_EXT0.34934835/group.det-slhc.5956391.EXT0._000177.D3PD.root
root://eosatlas//eos//atlas/atlascerngroupdisk/det-slhc/SCOPING/group.det-slhc.mc12_14TeV.147807.PowhegPythia8_AU2CT10_Zmumu.recon.ESD.e1564_s1762_s1777_r6284.v26.trkD3PD_EXT0.34934835/group.det-slhc.5956391.EXT0._000178.D3PD.root
root://eosatlas//eos//atlas/atlascerngroupdisk/det-slhc/SCOPING/group.det-slhc.mc12_14TeV.147807.PowhegPythia8_AU2CT10_Zmumu.recon.ESD.e1564_s1762_s1777_r6284.v26.trkD3PD_EXT0.34934835/group.det-slhc.5956391.EXT0._000179.D3PD.root
root://eosatlas//eos//atlas/atlascerngroupdisk/det-slhc/SCOPING/group.det-slhc.mc12_14TeV.147807.PowhegPythia8_AU2CT10_Zmumu.recon.ESD.e1564_s1762_s1777_r6284.v26.trkD3PD_EXT0.34934835/group.det-slhc.5956391.EXT0._000180.D3PD.root
root://eosatlas//eos//atlas/atlascerngroupdisk/det-slhc/SCOPING/group.det-slhc.mc12_14TeV.147807.PowhegPythia8_AU2CT10_Zmumu.recon.ESD.e1564_s1762_s1777_r6284.v26.trkD3PD_EXT0.34934835/group.det-slhc.5956391.EXT0._000181.D3PD.root
root://eosatlas//eos//atlas/atlascerngroupdisk/det-slhc/SCOPING/group.det-slhc.mc12_14TeV.147807.PowhegPythia8_AU2CT10_Zmumu.recon.ESD.e1564_s1762_s1777_r6284.v26.trkD3PD_EXT0.34934835/group.det-slhc.5956391.EXT0._000182.D3PD.root
root://eosatlas//eos//atlas/atlascerngroupdisk/det-slhc/SCOPING/group.det-slhc.mc12_14TeV.147807.PowhegPythia8_AU2CT10_Zmumu.recon.ESD.e1564_s1762_s1777_r6284.v26.trkD3PD_EXT0.34934835/group.det-slhc.5956391.EXT0._000183.D3PD.root
root://eosatlas//eos//atlas/atlascerngroupdisk/det-slhc/SCOPING/group.det-slhc.mc12_14TeV.147807.PowhegPythia8_AU2CT10_Zmumu.recon.ESD.e1564_s1762_s1777_r6284.v26.trkD3PD_EXT0.34934835/group.det-slhc.5956391.EXT0._000184.D3PD.root
root://eosatlas//eos//atlas/atlascerngroupdisk/det-slhc/SCOPING/group.det-slhc.mc12_14TeV.147807.PowhegPythia8_AU2CT10_Zmumu.recon.ESD.e1564_s1762_s1777_r6284.v26.trkD3PD_EXT0.34934835/group.det-slhc.5956391.EXT0._000185.D3PD.root
root://eosatlas//eos//atlas/atlascerngroupdisk/det-slhc/SCOPING/group.det-slhc.mc12_14TeV.147807.PowhegPythia8_AU2CT10_Zmumu.recon.ESD.e1564_s1762_s1777_r6284.v26.trkD3PD_EXT0.34934835/group.det-slhc.5956391.EXT0._000187.D3PD.root
root://eosatlas//eos//atlas/atlascerngroupdisk/det-slhc/SCOPING/group.det-slhc.mc12_14TeV.147807.PowhegPythia8_AU2CT10_Zmumu.recon.ESD.e1564_s1762_s1777_r6284.v26.trkD3PD_EXT0.34934835/group.det-slhc.5956391.EXT0._000188.D3PD.root
root://eosatlas//eos//atlas/atlascerngroupdisk/det-slhc/SCOPING/group.det-slhc.mc12_14TeV.147807.PowhegPythia8_AU2CT10_Zmumu.recon.ESD.e1564_s1762_s1777_r6284.v26.trkD3PD_EXT0.34934835/group.det-slhc.5956391.EXT0._000189.D3PD.root
root://eosatlas//eos//atlas/atlascerngroupdisk/det-slhc/SCOPING/group.det-slhc.mc12_14TeV.147807.PowhegPythia8_AU2CT10_Zmumu.recon.ESD.e1564_s1762_s1777_r6284.v26.trkD3PD_EXT0.34934835/group.det-slhc.5956391.EXT0._000191.D3PD.root
root://eosatlas//eos//atlas/atlascerngroupdisk/det-slhc/SCOPING/group.det-slhc.mc12_14TeV.147807.PowhegPythia8_AU2CT10_Zmumu.recon.ESD.e1564_s1762_s1777_r6284.v26.trkD3PD_EXT0.34934835/group.det-slhc.5956391.EXT0._000192.D3PD.root
root://eosatlas//eos//atlas/atlascerngroupdisk/det-slhc/SCOPING/group.det-slhc.mc12_14TeV.147807.PowhegPythia8_AU2CT10_Zmumu.recon.ESD.e1564_s1762_s1777_r6284.v26.trkD3PD_EXT0.34934835/group.det-slhc.5956391.EXT0._000193.D3PD.root
root://eosatlas//eos//atlas/atlascerngroupdisk/det-slhc/SCOPING/group.det-slhc.mc12_14TeV.147807.PowhegPythia8_AU2CT10_Zmumu.recon.ESD.e1564_s1762_s1777_r6284.v26.trkD3PD_EXT0.34934835/group.det-slhc.5956391.EXT0._000194.D3PD.root
root://eosatlas//eos//atlas/atlascerngroupdisk/det-slhc/SCOPING/group.det-slhc.mc12_14TeV.147807.PowhegPythia8_AU2CT10_Zmumu.recon.ESD.e1564_s1762_s1777_r6284.v26.trkD3PD_EXT0.34934835/group.det-slhc.5956391.EXT0._000195.D3PD.root
root://eosatlas//eos//atlas/atlascerngroupdisk/det-slhc/SCOPING/group.det-slhc.mc12_14TeV.147807.PowhegPythia8_AU2CT10_Zmumu.recon.ESD.e1564_s1762_s1777_r6284.v26.trkD3PD_EXT0.34934835/group.det-slhc.5956391.EXT0._000196.D3PD.root
root://eosatlas//eos//atlas/atlascerngroupdisk/det-slhc/SCOPING/group.det-slhc.mc12_14TeV.147807.PowhegPythia8_AU2CT10_Zmumu.recon.ESD.e1564_s1762_s1777_r6284.v26.trkD3PD_EXT0.34934835/group.det-slhc.5956391.EXT0._000199.D3PD.root
root://eosatlas//eos//atlas/atlascerngroupdisk/det-slhc/SCOPING/group.det-slhc.mc12_14TeV.147807.PowhegPythia8_AU2CT10_Zmumu.recon.ESD.e1564_s1762_s1777_r6284.v26.trkD3PD_EXT0.34934835/group.det-slhc.5956391.EXT0._000201.D3PD.root
root://eosatlas//eos//atlas/atlascerngroupdisk/det-slhc/SCOPING/group.det-slhc.mc12_14TeV.147807.PowhegPythia8_AU2CT10_Zmumu.recon.ESD.e1564_s1762_s1777_r6284.v26.trkD3PD_EXT0.34934835/group.det-slhc.5956391.EXT0._000202.D3PD.root
root://eosatlas//eos//atlas/atlascerngroupdisk/det-slhc/SCOPING/group.det-slhc.mc12_14TeV.147807.PowhegPythia8_AU2CT10_Zmumu.recon.ESD.e1564_s1762_s1777_r6284.v26.trkD3PD_EXT0.34934835/group.det-slhc.5956391.EXT0._000203.D3PD.root
root://eosatlas//eos//atlas/atlascerngroupdisk/det-slhc/SCOPING/group.det-slhc.mc12_14TeV.147807.PowhegPythia8_AU2CT10_Zmumu.recon.ESD.e1564_s1762_s1777_r6284.v26.trkD3PD_EXT0.34934835/group.det-slhc.5956391.EXT0._000206.D3PD.root
root://eosatlas//eos//atlas/atlascerngroupdisk/det-slhc/SCOPING/group.det-slhc.mc12_14TeV.147807.PowhegPythia8_AU2CT10_Zmumu.recon.ESD.e1564_s1762_s1777_r6284.v26.trkD3PD_EXT0.34934835/group.det-slhc.5956391.EXT0._000207.D3PD.root
root://eosatlas//eos//atlas/atlascerngroupdisk/det-slhc/SCOPING/group.det-slhc.mc12_14TeV.147807.PowhegPythia8_AU2CT10_Zmumu.recon.ESD.e1564_s1762_s1777_r6284.v26.trkD3PD_EXT0.34934835/group.det-slhc.5956391.EXT0._000208.D3PD.root
root://eosatlas//eos//atlas/atlascerngroupdisk/det-slhc/SCOPING/group.det-slhc.mc12_14TeV.147807.PowhegPythia8_AU2CT10_Zmumu.recon.ESD.e1564_s1762_s1777_r6284.v26.trkD3PD_EXT0.34934835/group.det-slhc.5956391.EXT0._000209.D3PD.root
root://eosatlas//eos//atlas/atlascerngroupdisk/det-slhc/SCOPING/group.det-slhc.mc12_14TeV.147807.PowhegPythia8_AU2CT10_Zmumu.recon.ESD.e1564_s1762_s1777_r6284.v26.trkD3PD_EXT0.34934835/group.det-slhc.5956391.EXT0._000211.D3PD.root
root://eosatlas//eos//atlas/atlascerngroupdisk/det-slhc/SCOPING/group.det-slhc.mc12_14TeV.147807.PowhegPythia8_AU2CT10_Zmumu.recon.ESD.e1564_s1762_s1777_r6284.v26.trkD3PD_EXT0.34934835/group.det-slhc.5956391.EXT0._000212.D3PD.root
root://eosatlas//eos//atlas/atlascerngroupdisk/det-slhc/SCOPING/group.det-slhc.mc12_14TeV.147807.PowhegPythia8_AU2CT10_Zmumu.recon.ESD.e1564_s1762_s1777_r6284.v26.trkD3PD_EXT0.34934835/group.det-slhc.5956391.EXT0._000213.D3PD.root
root://eosatlas//eos//atlas/atlascerngroupdisk/det-slhc/SCOPING/group.det-slhc.mc12_14TeV.147807.PowhegPythia8_AU2CT10_Zmumu.recon.ESD.e1564_s1762_s1777_r6284.v26.trkD3PD_EXT0.34934835/group.det-slhc.5956391.EXT0._000214.D3PD.root
root://eosatlas//eos//atlas/atlascerngroupdisk/det-slhc/SCOPING/group.det-slhc.mc12_14TeV.147807.PowhegPythia8_AU2CT10_Zmumu.recon.ESD.e1564_s1762_s1777_r6284.v26.trkD3PD_EXT0.34934835/group.det-slhc.5956391.EXT0._000215.D3PD.root
root://eosatlas//eos//atlas/atlascerngroupdisk/det-slhc/SCOPING/group.det-slhc.mc12_14TeV.147807.PowhegPythia8_AU2CT10_Zmumu.recon.ESD.e1564_s1762_s1777_r6284.v26.trkD3PD_EXT0.34934835/group.det-slhc.5956391.EXT0._000216.D3PD.root
root://eosatlas//eos//atlas/atlascerngroupdisk/det-slhc/SCOPING/group.det-slhc.mc12_14TeV.147807.PowhegPythia8_AU2CT10_Zmumu.recon.ESD.e1564_s1762_s1777_r6284.v26.trkD3PD_EXT0.34934835/group.det-slhc.5956391.EXT0._000218.D3PD.root
root://eosatlas//eos//atlas/atlascerngroupdisk/det-slhc/SCOPING/group.det-slhc.mc12_14TeV.147807.PowhegPythia8_AU2CT10_Zmumu.recon.ESD.e1564_s1762_s1777_r6284.v26.trkD3PD_EXT0.34934835/group.det-slhc.5956391.EXT0._000219.D3PD.root
root://eosatlas//eos//atlas/atlascerngroupdisk/det-slhc/SCOPING/group.det-slhc.mc12_14TeV.147807.PowhegPythia8_AU2CT10_Zmumu.recon.ESD.e1564_s1762_s1777_r6284.v26.trkD3PD_EXT0.34934835/group.det-slhc.5956391.EXT0._000220.D3PD.root
root://eosatlas//eos//atlas/atlascerngroupdisk/det-slhc/SCOPING/group.det-slhc.mc12_14TeV.147807.PowhegPythia8_AU2CT10_Zmumu.recon.ESD.e1564_s1762_s1777_r6284.v26.trkD3PD_EXT0.34934835/group.det-slhc.5956391.EXT0._000221.D3PD.root
root://eosatlas//eos//atlas/atlascerngroupdisk/det-slhc/SCOPING/group.det-slhc.mc12_14TeV.147807.PowhegPythia8_AU2CT10_Zmumu.recon.ESD.e1564_s1762_s1777_r6284.v26.trkD3PD_EXT0.34934835/group.det-slhc.5956391.EXT0._000222.D3PD.root
root://eosatlas//eos//atlas/atlascerngroupdisk/det-slhc/SCOPING/group.det-slhc.mc12_14TeV.147807.PowhegPythia8_AU2CT10_Zmumu.recon.ESD.e1564_s1762_s1777_r6284.v26.trkD3PD_EXT0.34934835/group.det-slhc.5956391.EXT0._000223.D3PD.root
root://eosatlas//eos//atlas/atlascerngroupdisk/det-slhc/SCOPING/group.det-slhc.mc12_14TeV.147807.PowhegPythia8_AU2CT10_Zmumu.recon.ESD.e1564_s1762_s1777_r6284.v26.trkD3PD_EXT0.34934835/group.det-slhc.5956391.EXT0._000224.D3PD.root
root://eosatlas//eos//atlas/atlascerngroupdisk/det-slhc/SCOPING/group.det-slhc.mc12_14TeV.147807.PowhegPythia8_AU2CT10_Zmumu.recon.ESD.e1564_s1762_s1777_r6284.v26.trkD3PD_EXT0.34934835/group.det-slhc.5956391.EXT0._000225.D3PD.root
root://eosatlas//eos//atlas/atlascerngroupdisk/det-slhc/SCOPING/group.det-slhc.mc12_14TeV.147807.PowhegPythia8_AU2CT10_Zmumu.recon.ESD.e1564_s1762_s1777_r6284.v26.trkD3PD_EXT0.34934835/group.det-slhc.5956391.EXT0._000226.D3PD.root
root://eosatlas//eos//atlas/atlascerngroupdisk/det-slhc/SCOPING/group.det-slhc.mc12_14TeV.147807.PowhegPythia8_AU2CT10_Zmumu.recon.ESD.e1564_s1762_s1777_r6284.v26.trkD3PD_EXT0.34934835/group.det-slhc.5956391.EXT0._000227.D3PD.root
root://eosatlas//eos//atlas/atlascerngroupdisk/det-slhc/SCOPING/group.det-slhc.mc12_14TeV.147807.PowhegPythia8_AU2CT10_Zmumu.recon.ESD.e1564_s1762_s1777_r6284.v26.trkD3PD_EXT0.34934835/group.det-slhc.5956391.EXT0._000230.D3PD.root
root://eosatlas//eos//atlas/atlascerngroupdisk/det-slhc/SCOPING/group.det-slhc.mc12_14TeV.147807.PowhegPythia8_AU2CT10_Zmumu.recon.ESD.e1564_s1762_s1777_r6284.v26.trkD3PD_EXT0.34934835/group.det-slhc.5956391.EXT0._000231.D3PD.root
root://eosatlas//eos//atlas/atlascerngroupdisk/det-slhc/SCOPING/group.det-slhc.mc12_14TeV.147807.PowhegPythia8_AU2CT10_Zmumu.recon.ESD.e1564_s1762_s1777_r6284.v26.trkD3PD_EXT0.34934835/group.det-slhc.5956391.EXT0._000232.D3PD.root
root://eosatlas//eos//atlas/atlascerngroupdisk/det-slhc/SCOPING/group.det-slhc.mc12_14TeV.147807.PowhegPythia8_AU2CT10_Zmumu.recon.ESD.e1564_s1762_s1777_r6284.v26.trkD3PD_EXT0.34934835/group.det-slhc.5956391.EXT0._000233.D3PD.root
root://eosatlas//eos//atlas/atlascerngroupdisk/det-slhc/SCOPING/group.det-slhc.mc12_14TeV.147807.PowhegPythia8_AU2CT10_Zmumu.recon.ESD.e1564_s1762_s1777_r6284.v26.trkD3PD_EXT0.34934835/group.det-slhc.5956391.EXT0._000234.D3PD.root
root://eosatlas//eos//atlas/atlascerngroupdisk/det-slhc/SCOPING/group.det-slhc.mc12_14TeV.147807.PowhegPythia8_AU2CT10_Zmumu.recon.ESD.e1564_s1762_s1777_r6284.v26.trkD3PD_EXT0.34934835/group.det-slhc.5956391.EXT0._000235.D3PD.root
root://eosatlas//eos//atlas/atlascerngroupdisk/det-slhc/SCOPING/group.det-slhc.mc12_14TeV.147807.PowhegPythia8_AU2CT10_Zmumu.recon.ESD.e1564_s1762_s1777_r6284.v26.trkD3PD_EXT0.34934835/group.det-slhc.5956391.EXT0._000236.D3PD.root
root://eosatlas//eos//atlas/atlascerngroupdisk/det-slhc/SCOPING/group.det-slhc.mc12_14TeV.147807.PowhegPythia8_AU2CT10_Zmumu.recon.ESD.e1564_s1762_s1777_r6284.v26.trkD3PD_EXT0.34934835/group.det-slhc.5956391.EXT0._000237.D3PD.root
root://eosatlas//eos//atlas/atlascerngroupdisk/det-slhc/SCOPING/group.det-slhc.mc12_14TeV.147807.PowhegPythia8_AU2CT10_Zmumu.recon.ESD.e1564_s1762_s1777_r6284.v26.trkD3PD_EXT0.34934835/group.det-slhc.5956391.EXT0._000238.D3PD.root
root://eosatlas//eos//atlas/atlascerngroupdisk/det-slhc/SCOPING/group.det-slhc.mc12_14TeV.147807.PowhegPythia8_AU2CT10_Zmumu.recon.ESD.e1564_s1762_s1777_r6284.v26.trkD3PD_EXT0.34934835/group.det-slhc.5956391.EXT0._000239.D3PD.root
root://eosatlas//eos//atlas/atlascerngroupdisk/det-slhc/SCOPING/group.det-slhc.mc12_14TeV.147807.PowhegPythia8_AU2CT10_Zmumu.recon.ESD.e1564_s1762_s1777_r6284.v26.trkD3PD_EXT0.34934835/group.det-slhc.5956391.EXT0._000240.D3PD.root
root://eosatlas//eos//atlas/atlascerngroupdisk/det-slhc/SCOPING/group.det-slhc.mc12_14TeV.147807.PowhegPythia8_AU2CT10_Zmumu.recon.ESD.e1564_s1762_s1777_r6284.v26.trkD3PD_EXT0.34934835/group.det-slhc.5956391.EXT0._000241.D3PD.root
root://eosatlas//eos//atlas/atlascerngroupdisk/det-slhc/SCOPING/group.det-slhc.mc12_14TeV.147807.PowhegPythia8_AU2CT10_Zmumu.recon.ESD.e1564_s1762_s1777_r6284.v26.trkD3PD_EXT0.34934835/group.det-slhc.5956391.EXT0._000242.D3PD.root
root://eosatlas//eos//atlas/atlascerngroupdisk/det-slhc/SCOPING/group.det-slhc.mc12_14TeV.147807.PowhegPythia8_AU2CT10_Zmumu.recon.ESD.e1564_s1762_s1777_r6284.v26.trkD3PD_EXT0.34934835/group.det-slhc.5956391.EXT0._000244.D3PD.root
root://eosatlas//eos//atlas/atlascerngroupdisk/det-slhc/SCOPING/group.det-slhc.mc12_14TeV.147807.PowhegPythia8_AU2CT10_Zmumu.recon.ESD.e1564_s1762_s1777_r6284.v26.trkD3PD_EXT0.34934835/group.det-slhc.5956391.EXT0._000245.D3PD.root
root://eosatlas//eos//atlas/atlascerngroupdisk/det-slhc/SCOPING/group.det-slhc.mc12_14TeV.147807.PowhegPythia8_AU2CT10_Zmumu.recon.ESD.e1564_s1762_s1777_r6284.v26.trkD3PD_EXT0.34934835/group.det-slhc.5956391.EXT0._000247.D3PD.root
root://eosatlas//eos//atlas/atlascerngroupdisk/det-slhc/SCOPING/group.det-slhc.mc12_14TeV.147807.PowhegPythia8_AU2CT10_Zmumu.recon.ESD.e1564_s1762_s1777_r6284.v26.trkD3PD_EXT0.34934835/group.det-slhc.5956391.EXT0._000249.D3PD.root
root://eosatlas//eos//atlas/atlascerngroupdisk/det-slhc/SCOPING/group.det-slhc.mc12_14TeV.147807.PowhegPythia8_AU2CT10_Zmumu.recon.ESD.e1564_s1762_s1777_r6284.v26.trkD3PD_EXT0.34934835/group.det-slhc.5956391.EXT0._000250.D3PD.root
root://eosatlas//eos//atlas/atlascerngroupdisk/det-slhc/SCOPING/group.det-slhc.mc12_14TeV.147807.PowhegPythia8_AU2CT10_Zmumu.recon.ESD.e1564_s1762_s1777_r6284.v26.trkD3PD_EXT0.34934835/group.det-slhc.5956391.EXT0._000251.D3PD.root
root://eosatlas//eos//atlas/atlascerngroupdisk/det-slhc/SCOPING/group.det-slhc.mc12_14TeV.147807.PowhegPythia8_AU2CT10_Zmumu.recon.ESD.e1564_s1762_s1777_r6284.v26.trkD3PD_EXT0.34934835/group.det-slhc.5956391.EXT0._000252.D3PD.root
root://eosatlas//eos//atlas/atlascerngroupdisk/det-slhc/SCOPING/group.det-slhc.mc12_14TeV.147807.PowhegPythia8_AU2CT10_Zmumu.recon.ESD.e1564_s1762_s1777_r6284.v26.trkD3PD_EXT0.34934835/group.det-slhc.5956391.EXT0._000253.D3PD.root
root://eosatlas//eos//atlas/atlascerngroupdisk/det-slhc/SCOPING/group.det-slhc.mc12_14TeV.147807.PowhegPythia8_AU2CT10_Zmumu.recon.ESD.e1564_s1762_s1777_r6284.v26.trkD3PD_EXT0.34934835/group.det-slhc.5956391.EXT0._000254.D3PD.root
root://eosatlas//eos//atlas/atlascerngroupdisk/det-slhc/SCOPING/group.det-slhc.mc12_14TeV.147807.PowhegPythia8_AU2CT10_Zmumu.recon.ESD.e1564_s1762_s1777_r6284.v26.trkD3PD_EXT0.34934835/group.det-slhc.5956391.EXT0._000255.D3PD.root
root://eosatlas//eos//atlas/atlascerngroupdisk/det-slhc/SCOPING/group.det-slhc.mc12_14TeV.147807.PowhegPythia8_AU2CT10_Zmumu.recon.ESD.e1564_s1762_s1777_r6284.v26.trkD3PD_EXT0.34934835/group.det-slhc.5956391.EXT0._000257.D3PD.root
root://eosatlas//eos//atlas/atlascerngroupdisk/det-slhc/SCOPING/group.det-slhc.mc12_14TeV.147807.PowhegPythia8_AU2CT10_Zmumu.recon.ESD.e1564_s1762_s1777_r6284.v26.trkD3PD_EXT0.34934835/group.det-slhc.5956391.EXT0._000258.D3PD.root
root://eosatlas//eos//atlas/atlascerngroupdisk/det-slhc/SCOPING/group.det-slhc.mc12_14TeV.147807.PowhegPythia8_AU2CT10_Zmumu.recon.ESD.e1564_s1762_s1777_r6284.v26.trkD3PD_EXT0.34934835/group.det-slhc.5956391.EXT0._000259.D3PD.root
root://eosatlas//eos//atlas/atlascerngroupdisk/det-slhc/SCOPING/group.det-slhc.mc12_14TeV.147807.PowhegPythia8_AU2CT10_Zmumu.recon.ESD.e1564_s1762_s1777_r6284.v26.trkD3PD_EXT0.34934835/group.det-slhc.5956391.EXT0._000260.D3PD.root
root://eosatlas//eos//atlas/atlascerngroupdisk/det-slhc/SCOPING/group.det-slhc.mc12_14TeV.147807.PowhegPythia8_AU2CT10_Zmumu.recon.ESD.e1564_s1762_s1777_r6284.v26.trkD3PD_EXT0.34934835/group.det-slhc.5956391.EXT0._000261.D3PD.root
root://eosatlas//eos//atlas/atlascerngroupdisk/det-slhc/SCOPING/group.det-slhc.mc12_14TeV.147807.PowhegPythia8_AU2CT10_Zmumu.recon.ESD.e1564_s1762_s1777_r6284.v26.trkD3PD_EXT0.34934835/group.det-slhc.5956391.EXT0._000262.D3PD.root
root://eosatlas//eos//atlas/atlascerngroupdisk/det-slhc/SCOPING/group.det-slhc.mc12_14TeV.147807.PowhegPythia8_AU2CT10_Zmumu.recon.ESD.e1564_s1762_s1777_r6284.v26.trkD3PD_EXT0.34934835/group.det-slhc.5956391.EXT0._000263.D3PD.root
root://eosatlas//eos//atlas/atlascerngroupdisk/det-slhc/SCOPING/group.det-slhc.mc12_14TeV.147807.PowhegPythia8_AU2CT10_Zmumu.recon.ESD.e1564_s1762_s1777_r6284.v26.trkD3PD_EXT0.34934835/group.det-slhc.5956391.EXT0._000264.D3PD.root
root://eosatlas//eos//atlas/atlascerngroupdisk/det-slhc/SCOPING/group.det-slhc.mc12_14TeV.147807.PowhegPythia8_AU2CT10_Zmumu.recon.ESD.e1564_s1762_s1777_r6284.v26.trkD3PD_EXT0.34934835/group.det-slhc.5956391.EXT0._000267.D3PD.root
root://eosatlas//eos//atlas/atlascerngroupdisk/det-slhc/SCOPING/group.det-slhc.mc12_14TeV.147807.PowhegPythia8_AU2CT10_Zmumu.recon.ESD.e1564_s1762_s1777_r6284.v26.trkD3PD_EXT0.34934835/group.det-slhc.5956391.EXT0._000270.D3PD.root
root://eosatlas//eos//atlas/atlascerngroupdisk/det-slhc/SCOPING/group.det-slhc.mc12_14TeV.147807.PowhegPythia8_AU2CT10_Zmumu.recon.ESD.e1564_s1762_s1777_r6284.v26.trkD3PD_EXT0.34934835/group.det-slhc.5956391.EXT0._000271.D3PD.root
root://eosatlas//eos//atlas/atlascerngroupdisk/det-slhc/SCOPING/group.det-slhc.mc12_14TeV.147807.PowhegPythia8_AU2CT10_Zmumu.recon.ESD.e1564_s1762_s1777_r6284.v26.trkD3PD_EXT0.34934835/group.det-slhc.5956391.EXT0._000272.D3PD.root
root://eosatlas//eos//atlas/atlascerngroupdisk/det-slhc/SCOPING/group.det-slhc.mc12_14TeV.147807.PowhegPythia8_AU2CT10_Zmumu.recon.ESD.e1564_s1762_s1777_r6284.v26.trkD3PD_EXT0.34934835/group.det-slhc.5956391.EXT0._000273.D3PD.root
root://eosatlas//eos//atlas/atlascerngroupdisk/det-slhc/SCOPING/group.det-slhc.mc12_14TeV.147807.PowhegPythia8_AU2CT10_Zmumu.recon.ESD.e1564_s1762_s1777_r6284.v26.trkD3PD_EXT0.34934835/group.det-slhc.5956391.EXT0._000276.D3PD.root
root://eosatlas//eos//atlas/atlascerngroupdisk/det-slhc/SCOPING/group.det-slhc.mc12_14TeV.147807.PowhegPythia8_AU2CT10_Zmumu.recon.ESD.e1564_s1762_s1777_r6284.v26.trkD3PD_EXT0.34934835/group.det-slhc.5956391.EXT0._000277.D3PD.root
root://eosatlas//eos//atlas/atlascerngroupdisk/det-slhc/SCOPING/group.det-slhc.mc12_14TeV.147807.PowhegPythia8_AU2CT10_Zmumu.recon.ESD.e1564_s1762_s1777_r6284.v26.trkD3PD_EXT0.34934835/group.det-slhc.5956391.EXT0._000278.D3PD.root
root://eosatlas//eos//atlas/atlascerngroupdisk/det-slhc/SCOPING/group.det-slhc.mc12_14TeV.147807.PowhegPythia8_AU2CT10_Zmumu.recon.ESD.e1564_s1762_s1777_r6284.v26.trkD3PD_EXT0.34934835/group.det-slhc.5956391.EXT0._000279.D3PD.root
root://eosatlas//eos//atlas/atlascerngroupdisk/det-slhc/SCOPING/group.det-slhc.mc12_14TeV.147807.PowhegPythia8_AU2CT10_Zmumu.recon.ESD.e1564_s1762_s1777_r6284.v26.trkD3PD_EXT0.34934835/group.det-slhc.5956391.EXT0._000280.D3PD.root
root://eosatlas//eos//atlas/atlascerngroupdisk/det-slhc/SCOPING/group.det-slhc.mc12_14TeV.147807.PowhegPythia8_AU2CT10_Zmumu.recon.ESD.e1564_s1762_s1777_r6284.v26.trkD3PD_EXT0.34934835/group.det-slhc.5956391.EXT0._000281.D3PD.root
root://eosatlas//eos//atlas/atlascerngroupdisk/det-slhc/SCOPING/group.det-slhc.mc12_14TeV.147807.PowhegPythia8_AU2CT10_Zmumu.recon.ESD.e1564_s1762_s1777_r6284.v26.trkD3PD_EXT0.34934835/group.det-slhc.5956391.EXT0._000282.D3PD.root
root://eosatlas//eos//atlas/atlascerngroupdisk/det-slhc/SCOPING/group.det-slhc.mc12_14TeV.147807.PowhegPythia8_AU2CT10_Zmumu.recon.ESD.e1564_s1762_s1777_r6284.v26.trkD3PD_EXT0.34934835/group.det-slhc.5956391.EXT0._000283.D3PD.root
root://eosatlas//eos//atlas/atlascerngroupdisk/det-slhc/SCOPING/group.det-slhc.mc12_14TeV.147807.PowhegPythia8_AU2CT10_Zmumu.recon.ESD.e1564_s1762_s1777_r6284.v26.trkD3PD_EXT0.34934835/group.det-slhc.5956391.EXT0._000286.D3PD.root
root://eosatlas//eos//atlas/atlascerngroupdisk/det-slhc/SCOPING/group.det-slhc.mc12_14TeV.147807.PowhegPythia8_AU2CT10_Zmumu.recon.ESD.e1564_s1762_s1777_r6284.v26.trkD3PD_EXT0.34934835/group.det-slhc.5956391.EXT0._000287.D3PD.root
root://eosatlas//eos//atlas/atlascerngroupdisk/det-slhc/SCOPING/group.det-slhc.mc12_14TeV.147807.PowhegPythia8_AU2CT10_Zmumu.recon.ESD.e1564_s1762_s1777_r6284.v26.trkD3PD_EXT0.34934835/group.det-slhc.5956391.EXT0._000288.D3PD.root
root://eosatlas//eos//atlas/atlascerngroupdisk/det-slhc/SCOPING/group.det-slhc.mc12_14TeV.147807.PowhegPythia8_AU2CT10_Zmumu.recon.ESD.e1564_s1762_s1777_r6284.v26.trkD3PD_EXT0.34934835/group.det-slhc.5956391.EXT0._000290.D3PD.root
root://eosatlas//eos//atlas/atlascerngroupdisk/det-slhc/SCOPING/group.det-slhc.mc12_14TeV.147807.PowhegPythia8_AU2CT10_Zmumu.recon.ESD.e1564_s1762_s1777_r6284.v26.trkD3PD_EXT0.34934835/group.det-slhc.5956391.EXT0._000291.D3PD.root
root://eosatlas//eos//atlas/atlascerngroupdisk/det-slhc/SCOPING/group.det-slhc.mc12_14TeV.147807.PowhegPythia8_AU2CT10_Zmumu.recon.ESD.e1564_s1762_s1777_r6284.v26.trkD3PD_EXT0.34934835/group.det-slhc.5956391.EXT0._000292.D3PD.root
root://eosatlas//eos//atlas/atlascerngroupdisk/det-slhc/SCOPING/group.det-slhc.mc12_14TeV.147807.PowhegPythia8_AU2CT10_Zmumu.recon.ESD.e1564_s1762_s1777_r6284.v26.trkD3PD_EXT0.34934835/group.det-slhc.5956391.EXT0._000293.D3PD.root
root://eosatlas//eos//atlas/atlascerngroupdisk/det-slhc/SCOPING/group.det-slhc.mc12_14TeV.147807.PowhegPythia8_AU2CT10_Zmumu.recon.ESD.e1564_s1762_s1777_r6284.v26.trkD3PD_EXT0.34934835/group.det-slhc.5956391.EXT0._000294.D3PD.root
root://eosatlas//eos//atlas/atlascerngroupdisk/det-slhc/SCOPING/group.det-slhc.mc12_14TeV.147807.PowhegPythia8_AU2CT10_Zmumu.recon.ESD.e1564_s1762_s1777_r6284.v26.trkD3PD_EXT0.34934835/group.det-slhc.5956391.EXT0._000295.D3PD.root
root://eosatlas//eos//atlas/atlascerngroupdisk/det-slhc/SCOPING/group.det-slhc.mc12_14TeV.147807.PowhegPythia8_AU2CT10_Zmumu.recon.ESD.e1564_s1762_s1777_r6284.v26.trkD3PD_EXT0.34934835/group.det-slhc.5956391.EXT0._000296.D3PD.root
root://eosatlas//eos//atlas/atlascerngroupdisk/det-slhc/SCOPING/group.det-slhc.mc12_14TeV.147807.PowhegPythia8_AU2CT10_Zmumu.recon.ESD.e1564_s1762_s1777_r6284.v26.trkD3PD_EXT0.34934835/group.det-slhc.5956391.EXT0._000297.D3PD.root
root://eosatlas//eos//atlas/atlascerngroupdisk/det-slhc/SCOPING/group.det-slhc.mc12_14TeV.147807.PowhegPythia8_AU2CT10_Zmumu.recon.ESD.e1564_s1762_s1777_r6284.v26.trkD3PD_EXT0.34934835/group.det-slhc.5956391.EXT0._000298.D3PD.root
root://eosatlas//eos//atlas/atlascerngroupdisk/det-slhc/SCOPING/group.det-slhc.mc12_14TeV.147807.PowhegPythia8_AU2CT10_Zmumu.recon.ESD.e1564_s1762_s1777_r6284.v26.trkD3PD_EXT0.34934835/group.det-slhc.5956391.EXT0._000299.D3PD.root
root://eosatlas//eos//atlas/atlascerngroupdisk/det-slhc/SCOPING/group.det-slhc.mc12_14TeV.147807.PowhegPythia8_AU2CT10_Zmumu.recon.ESD.e1564_s1762_s1777_r6284.v26.trkD3PD_EXT0.34934835/group.det-slhc.5956391.EXT0._000301.D3PD.root
root://eosatlas//eos//atlas/atlascerngroupdisk/det-slhc/SCOPING/group.det-slhc.mc12_14TeV.147807.PowhegPythia8_AU2CT10_Zmumu.recon.ESD.e1564_s1762_s1777_r6284.v26.trkD3PD_EXT0.34934835/group.det-slhc.5956391.EXT0._000302.D3PD.root
root://eosatlas//eos//atlas/atlascerngroupdisk/det-slhc/SCOPING/group.det-slhc.mc12_14TeV.147807.PowhegPythia8_AU2CT10_Zmumu.recon.ESD.e1564_s1762_s1777_r6284.v26.trkD3PD_EXT0.34934835/group.det-slhc.5956391.EXT0._000303.D3PD.root
root://eosatlas//eos//atlas/atlascerngroupdisk/det-slhc/SCOPING/group.det-slhc.mc12_14TeV.147807.PowhegPythia8_AU2CT10_Zmumu.recon.ESD.e1564_s1762_s1777_r6284.v26.trkD3PD_EXT0.34934835/group.det-slhc.5956391.EXT0._000304.D3PD.root
root://eosatlas//eos//atlas/atlascerngroupdisk/det-slhc/SCOPING/group.det-slhc.mc12_14TeV.147807.PowhegPythia8_AU2CT10_Zmumu.recon.ESD.e1564_s1762_s1777_r6284.v26.trkD3PD_EXT0.34934835/group.det-slhc.5956391.EXT0._000306.D3PD.root
root://eosatlas//eos//atlas/atlascerngroupdisk/det-slhc/SCOPING/group.det-slhc.mc12_14TeV.147807.PowhegPythia8_AU2CT10_Zmumu.recon.ESD.e1564_s1762_s1777_r6284.v26.trkD3PD_EXT0.34934835/group.det-slhc.5956391.EXT0._000307.D3PD.root
root://eosatlas//eos//atlas/atlascerngroupdisk/det-slhc/SCOPING/group.det-slhc.mc12_14TeV.147807.PowhegPythia8_AU2CT10_Zmumu.recon.ESD.e1564_s1762_s1777_r6284.v26.trkD3PD_EXT0.34934835/group.det-slhc.5956391.EXT0._000308.D3PD.root
root://eosatlas//eos//atlas/atlascerngroupdisk/det-slhc/SCOPING/group.det-slhc.mc12_14TeV.147807.PowhegPythia8_AU2CT10_Zmumu.recon.ESD.e1564_s1762_s1777_r6284.v26.trkD3PD_EXT0.34934835/group.det-slhc.5956391.EXT0._000309.D3PD.root
root://eosatlas//eos//atlas/atlascerngroupdisk/det-slhc/SCOPING/group.det-slhc.mc12_14TeV.147807.PowhegPythia8_AU2CT10_Zmumu.recon.ESD.e1564_s1762_s1777_r6284.v26.trkD3PD_EXT0.34934835/group.det-slhc.5956391.EXT0._000310.D3PD.root
root://eosatlas//eos//atlas/atlascerngroupdisk/det-slhc/SCOPING/group.det-slhc.mc12_14TeV.147807.PowhegPythia8_AU2CT10_Zmumu.recon.ESD.e1564_s1762_s1777_r6284.v26.trkD3PD_EXT0.34934835/group.det-slhc.5956391.EXT0._000311.D3PD.root
root://eosatlas//eos//atlas/atlascerngroupdisk/det-slhc/SCOPING/group.det-slhc.mc12_14TeV.147807.PowhegPythia8_AU2CT10_Zmumu.recon.ESD.e1564_s1762_s1777_r6284.v26.trkD3PD_EXT0.34934835/group.det-slhc.5956391.EXT0._000312.D3PD.root
root://eosatlas//eos//atlas/atlascerngroupdisk/det-slhc/SCOPING/group.det-slhc.mc12_14TeV.147807.PowhegPythia8_AU2CT10_Zmumu.recon.ESD.e1564_s1762_s1777_r6284.v26.trkD3PD_EXT0.34934835/group.det-slhc.5956391.EXT0._000313.D3PD.root
root://eosatlas//eos//atlas/atlascerngroupdisk/det-slhc/SCOPING/group.det-slhc.mc12_14TeV.147807.PowhegPythia8_AU2CT10_Zmumu.recon.ESD.e1564_s1762_s1777_r6284.v26.trkD3PD_EXT0.34934835/group.det-slhc.5956391.EXT0._000314.D3PD.root
root://eosatlas//eos//atlas/atlascerngroupdisk/det-slhc/SCOPING/group.det-slhc.mc12_14TeV.147807.PowhegPythia8_AU2CT10_Zmumu.recon.ESD.e1564_s1762_s1777_r6284.v26.trkD3PD_EXT0.34934835/group.det-slhc.5956391.EXT0._000315.D3PD.root
root://eosatlas//eos//atlas/atlascerngroupdisk/det-slhc/SCOPING/group.det-slhc.mc12_14TeV.147807.PowhegPythia8_AU2CT10_Zmumu.recon.ESD.e1564_s1762_s1777_r6284.v26.trkD3PD_EXT0.34934835/group.det-slhc.5956391.EXT0._000316.D3PD.root
root://eosatlas//eos//atlas/atlascerngroupdisk/det-slhc/SCOPING/group.det-slhc.mc12_14TeV.147807.PowhegPythia8_AU2CT10_Zmumu.recon.ESD.e1564_s1762_s1777_r6284.v26.trkD3PD_EXT0.34934835/group.det-slhc.5956391.EXT0._000317.D3PD.root
root://eosatlas//eos//atlas/atlascerngroupdisk/det-slhc/SCOPING/group.det-slhc.mc12_14TeV.147807.PowhegPythia8_AU2CT10_Zmumu.recon.ESD.e1564_s1762_s1777_r6284.v26.trkD3PD_EXT0.34934835/group.det-slhc.5956391.EXT0._000318.D3PD.root
root://eosatlas//eos//atlas/atlascerngroupdisk/det-slhc/SCOPING/group.det-slhc.mc12_14TeV.147807.PowhegPythia8_AU2CT10_Zmumu.recon.ESD.e1564_s1762_s1777_r6284.v26.trkD3PD_EXT0.34934835/group.det-slhc.5956391.EXT0._000319.D3PD.root
root://eosatlas//eos//atlas/atlascerngroupdisk/det-slhc/SCOPING/group.det-slhc.mc12_14TeV.147807.PowhegPythia8_AU2CT10_Zmumu.recon.ESD.e1564_s1762_s1777_r6284.v26.trkD3PD_EXT0.34934835/group.det-slhc.5956391.EXT0._000320.D3PD.root
root://eosatlas//eos//atlas/atlascerngroupdisk/det-slhc/SCOPING/group.det-slhc.mc12_14TeV.147807.PowhegPythia8_AU2CT10_Zmumu.recon.ESD.e1564_s1762_s1777_r6284.v26.trkD3PD_EXT0.34934835/group.det-slhc.5956391.EXT0._000321.D3PD.root
root://eosatlas//eos//atlas/atlascerngroupdisk/det-slhc/SCOPING/group.det-slhc.mc12_14TeV.147807.PowhegPythia8_AU2CT10_Zmumu.recon.ESD.e1564_s1762_s1777_r6284.v26.trkD3PD_EXT0.34934835/group.det-slhc.5956391.EXT0._000322.D3PD.root
root://eosatlas//eos//atlas/atlascerngroupdisk/det-slhc/SCOPING/group.det-slhc.mc12_14TeV.147807.PowhegPythia8_AU2CT10_Zmumu.recon.ESD.e1564_s1762_s1777_r6284.v26.trkD3PD_EXT0.34934835/group.det-slhc.5956391.EXT0._000323.D3PD.root
root://eosatlas//eos//atlas/atlascerngroupdisk/det-slhc/SCOPING/group.det-slhc.mc12_14TeV.147807.PowhegPythia8_AU2CT10_Zmumu.recon.ESD.e1564_s1762_s1777_r6284.v26.trkD3PD_EXT0.34934835/group.det-slhc.5956391.EXT0._000324.D3PD.root
root://eosatlas//eos//atlas/atlascerngroupdisk/det-slhc/SCOPING/group.det-slhc.mc12_14TeV.147807.PowhegPythia8_AU2CT10_Zmumu.recon.ESD.e1564_s1762_s1777_r6284.v26.trkD3PD_EXT0.34934835/group.det-slhc.5956391.EXT0._000325.D3PD.root
root://eosatlas//eos//atlas/atlascerngroupdisk/det-slhc/SCOPING/group.det-slhc.mc12_14TeV.147807.PowhegPythia8_AU2CT10_Zmumu.recon.ESD.e1564_s1762_s1777_r6284.v26.trkD3PD_EXT0.34934835/group.det-slhc.5956391.EXT0._000327.D3PD.root
root://eosatlas//eos//atlas/atlascerngroupdisk/det-slhc/SCOPING/group.det-slhc.mc12_14TeV.147807.PowhegPythia8_AU2CT10_Zmumu.recon.ESD.e1564_s1762_s1777_r6284.v26.trkD3PD_EXT0.34934835/group.det-slhc.5956391.EXT0._000330.D3PD.root
root://eosatlas//eos//atlas/atlascerngroupdisk/det-slhc/SCOPING/group.det-slhc.mc12_14TeV.147807.PowhegPythia8_AU2CT10_Zmumu.recon.ESD.e1564_s1762_s1777_r6284.v26.trkD3PD_EXT0.34934835/group.det-slhc.5956391.EXT0._000331.D3PD.root
root://eosatlas//eos//atlas/atlascerngroupdisk/det-slhc/SCOPING/group.det-slhc.mc12_14TeV.147807.PowhegPythia8_AU2CT10_Zmumu.recon.ESD.e1564_s1762_s1777_r6284.v26.trkD3PD_EXT0.34934835/group.det-slhc.5956391.EXT0._000333.D3PD.root
root://eosatlas//eos//atlas/atlascerngroupdisk/det-slhc/SCOPING/group.det-slhc.mc12_14TeV.147807.PowhegPythia8_AU2CT10_Zmumu.recon.ESD.e1564_s1762_s1777_r6284.v26.trkD3PD_EXT0.34934835/group.det-slhc.5956391.EXT0._000334.D3PD.root
root://eosatlas//eos//atlas/atlascerngroupdisk/det-slhc/SCOPING/group.det-slhc.mc12_14TeV.147807.PowhegPythia8_AU2CT10_Zmumu.recon.ESD.e1564_s1762_s1777_r6284.v26.trkD3PD_EXT0.34934835/group.det-slhc.5956391.EXT0._000335.D3PD.root
root://eosatlas//eos//atlas/atlascerngroupdisk/det-slhc/SCOPING/group.det-slhc.mc12_14TeV.147807.PowhegPythia8_AU2CT10_Zmumu.recon.ESD.e1564_s1762_s1777_r6284.v26.trkD3PD_EXT0.34934835/group.det-slhc.5956391.EXT0._000336.D3PD.root
root://eosatlas//eos//atlas/atlascerngroupdisk/det-slhc/SCOPING/group.det-slhc.mc12_14TeV.147807.PowhegPythia8_AU2CT10_Zmumu.recon.ESD.e1564_s1762_s1777_r6284.v26.trkD3PD_EXT0.34934835/group.det-slhc.5956391.EXT0._000337.D3PD.root
root://eosatlas//eos//atlas/atlascerngroupdisk/det-slhc/SCOPING/group.det-slhc.mc12_14TeV.147807.PowhegPythia8_AU2CT10_Zmumu.recon.ESD.e1564_s1762_s1777_r6284.v26.trkD3PD_EXT0.34934835/group.det-slhc.5956391.EXT0._000339.D3PD.root
root://eosatlas//eos//atlas/atlascerngroupdisk/det-slhc/SCOPING/group.det-slhc.mc12_14TeV.147807.PowhegPythia8_AU2CT10_Zmumu.recon.ESD.e1564_s1762_s1777_r6284.v26.trkD3PD_EXT0.34934835/group.det-slhc.5956391.EXT0._000340.D3PD.root
root://eosatlas//eos//atlas/atlascerngroupdisk/det-slhc/SCOPING/group.det-slhc.mc12_14TeV.147807.PowhegPythia8_AU2CT10_Zmumu.recon.ESD.e1564_s1762_s1777_r6284.v26.trkD3PD_EXT0.34934835/group.det-slhc.5956391.EXT0._000341.D3PD.root
root://eosatlas//eos//atlas/atlascerngroupdisk/det-slhc/SCOPING/group.det-slhc.mc12_14TeV.147807.PowhegPythia8_AU2CT10_Zmumu.recon.ESD.e1564_s1762_s1777_r6284.v26.trkD3PD_EXT0.34934835/group.det-slhc.5956391.EXT0._000343.D3PD.root
root://eosatlas//eos//atlas/atlascerngroupdisk/det-slhc/SCOPING/group.det-slhc.mc12_14TeV.147807.PowhegPythia8_AU2CT10_Zmumu.recon.ESD.e1564_s1762_s1777_r6284.v26.trkD3PD_EXT0.34934835/group.det-slhc.5956391.EXT0._000344.D3PD.root
root://eosatlas//eos//atlas/atlascerngroupdisk/det-slhc/SCOPING/group.det-slhc.mc12_14TeV.147807.PowhegPythia8_AU2CT10_Zmumu.recon.ESD.e1564_s1762_s1777_r6284.v26.trkD3PD_EXT0.34934835/group.det-slhc.5956391.EXT0._000345.D3PD.root
root://eosatlas//eos//atlas/atlascerngroupdisk/det-slhc/SCOPING/group.det-slhc.mc12_14TeV.147807.PowhegPythia8_AU2CT10_Zmumu.recon.ESD.e1564_s1762_s1777_r6284.v26.trkD3PD_EXT0.34934835/group.det-slhc.5956391.EXT0._000346.D3PD.root
root://eosatlas//eos//atlas/atlascerngroupdisk/det-slhc/SCOPING/group.det-slhc.mc12_14TeV.147807.PowhegPythia8_AU2CT10_Zmumu.recon.ESD.e1564_s1762_s1777_r6284.v26.trkD3PD_EXT0.34934835/group.det-slhc.5956391.EXT0._000347.D3PD.root
root://eosatlas//eos//atlas/atlascerngroupdisk/det-slhc/SCOPING/group.det-slhc.mc12_14TeV.147807.PowhegPythia8_AU2CT10_Zmumu.recon.ESD.e1564_s1762_s1777_r6284.v26.trkD3PD_EXT0.34934835/group.det-slhc.5956391.EXT0._000349.D3PD.root
root://eosatlas//eos//atlas/atlascerngroupdisk/det-slhc/SCOPING/group.det-slhc.mc12_14TeV.147807.PowhegPythia8_AU2CT10_Zmumu.recon.ESD.e1564_s1762_s1777_r6284.v26.trkD3PD_EXT0.34934835/group.det-slhc.5956391.EXT0._000350.D3PD.root
root://eosatlas//eos//atlas/atlascerngroupdisk/det-slhc/SCOPING/group.det-slhc.mc12_14TeV.147807.PowhegPythia8_AU2CT10_Zmumu.recon.ESD.e1564_s1762_s1777_r6284.v26.trkD3PD_EXT0.34934835/group.det-slhc.5956391.EXT0._000352.D3PD.root
root://eosatlas//eos//atlas/atlascerngroupdisk/det-slhc/SCOPING/group.det-slhc.mc12_14TeV.147807.PowhegPythia8_AU2CT10_Zmumu.recon.ESD.e1564_s1762_s1777_r6284.v26.trkD3PD_EXT0.34934835/group.det-slhc.5956391.EXT0._000353.D3PD.root
root://eosatlas//eos//atlas/atlascerngroupdisk/det-slhc/SCOPING/group.det-slhc.mc12_14TeV.147807.PowhegPythia8_AU2CT10_Zmumu.recon.ESD.e1564_s1762_s1777_r6284.v26.trkD3PD_EXT0.34934835/group.det-slhc.5956391.EXT0._000354.D3PD.root
root://eosatlas//eos//atlas/atlascerngroupdisk/det-slhc/SCOPING/group.det-slhc.mc12_14TeV.147807.PowhegPythia8_AU2CT10_Zmumu.recon.ESD.e1564_s1762_s1777_r6284.v26.trkD3PD_EXT0.34934835/group.det-slhc.5956391.EXT0._000355.D3PD.root
root://eosatlas//eos//atlas/atlascerngroupdisk/det-slhc/SCOPING/group.det-slhc.mc12_14TeV.147807.PowhegPythia8_AU2CT10_Zmumu.recon.ESD.e1564_s1762_s1777_r6284.v26.trkD3PD_EXT0.34934835/group.det-slhc.5956391.EXT0._000356.D3PD.root
root://eosatlas//eos//atlas/atlascerngroupdisk/det-slhc/SCOPING/group.det-slhc.mc12_14TeV.147807.PowhegPythia8_AU2CT10_Zmumu.recon.ESD.e1564_s1762_s1777_r6284.v26.trkD3PD_EXT0.34934835/group.det-slhc.5956391.EXT0._000359.D3PD.root
root://eosatlas//eos//atlas/atlascerngroupdisk/det-slhc/SCOPING/group.det-slhc.mc12_14TeV.147807.PowhegPythia8_AU2CT10_Zmumu.recon.ESD.e1564_s1762_s1777_r6284.v26.trkD3PD_EXT0.34934835/group.det-slhc.5956391.EXT0._000360.D3PD.root
root://eosatlas//eos//atlas/atlascerngroupdisk/det-slhc/SCOPING/group.det-slhc.mc12_14TeV.147807.PowhegPythia8_AU2CT10_Zmumu.recon.ESD.e1564_s1762_s1777_r6284.v26.trkD3PD_EXT0.34934835/group.det-slhc.5956391.EXT0._000362.D3PD.root
root://eosatlas//eos//atlas/atlascerngroupdisk/det-slhc/SCOPING/group.det-slhc.mc12_14TeV.147807.PowhegPythia8_AU2CT10_Zmumu.recon.ESD.e1564_s1762_s1777_r6284.v26.trkD3PD_EXT0.34934835/group.det-slhc.5956391.EXT0._000363.D3PD.root
root://eosatlas//eos//atlas/atlascerngroupdisk/det-slhc/SCOPING/group.det-slhc.mc12_14TeV.147807.PowhegPythia8_AU2CT10_Zmumu.recon.ESD.e1564_s1762_s1777_r6284.v26.trkD3PD_EXT0.34934835/group.det-slhc.5956391.EXT0._000364.D3PD.root
root://eosatlas//eos//atlas/atlascerngroupdisk/det-slhc/SCOPING/group.det-slhc.mc12_14TeV.147807.PowhegPythia8_AU2CT10_Zmumu.recon.ESD.e1564_s1762_s1777_r6284.v26.trkD3PD_EXT0.34934835/group.det-slhc.5956391.EXT0._000365.D3PD.root
root://eosatlas//eos//atlas/atlascerngroupdisk/det-slhc/SCOPING/group.det-slhc.mc12_14TeV.147807.PowhegPythia8_AU2CT10_Zmumu.recon.ESD.e1564_s1762_s1777_r6284.v26.trkD3PD_EXT0.34934835/group.det-slhc.5956391.EXT0._000366.D3PD.root
root://eosatlas//eos//atlas/atlascerngroupdisk/det-slhc/SCOPING/group.det-slhc.mc12_14TeV.147807.PowhegPythia8_AU2CT10_Zmumu.recon.ESD.e1564_s1762_s1777_r6284.v26.trkD3PD_EXT0.34934835/group.det-slhc.5956391.EXT0._000367.D3PD.root
root://eosatlas//eos//atlas/atlascerngroupdisk/det-slhc/SCOPING/group.det-slhc.mc12_14TeV.147807.PowhegPythia8_AU2CT10_Zmumu.recon.ESD.e1564_s1762_s1777_r6284.v26.trkD3PD_EXT0.34934835/group.det-slhc.5956391.EXT0._000369.D3PD.root
root://eosatlas//eos//atlas/atlascerngroupdisk/det-slhc/SCOPING/group.det-slhc.mc12_14TeV.147807.PowhegPythia8_AU2CT10_Zmumu.recon.ESD.e1564_s1762_s1777_r6284.v26.trkD3PD_EXT0.34934835/group.det-slhc.5956391.EXT0._000370.D3PD.root
root://eosatlas//eos//atlas/atlascerngroupdisk/det-slhc/SCOPING/group.det-slhc.mc12_14TeV.147807.PowhegPythia8_AU2CT10_Zmumu.recon.ESD.e1564_s1762_s1777_r6284.v26.trkD3PD_EXT0.34934835/group.det-slhc.5956391.EXT0._000371.D3PD.root
root://eosatlas//eos//atlas/atlascerngroupdisk/det-slhc/SCOPING/group.det-slhc.mc12_14TeV.147807.PowhegPythia8_AU2CT10_Zmumu.recon.ESD.e1564_s1762_s1777_r6284.v26.trkD3PD_EXT0.34934835/group.det-slhc.5956391.EXT0._000373.D3PD.root
root://eosatlas//eos//atlas/atlascerngroupdisk/det-slhc/SCOPING/group.det-slhc.mc12_14TeV.147807.PowhegPythia8_AU2CT10_Zmumu.recon.ESD.e1564_s1762_s1777_r6284.v26.trkD3PD_EXT0.34934835/group.det-slhc.5956391.EXT0._000375.D3PD.root
root://eosatlas//eos//atlas/atlascerngroupdisk/det-slhc/SCOPING/group.det-slhc.mc12_14TeV.147807.PowhegPythia8_AU2CT10_Zmumu.recon.ESD.e1564_s1762_s1777_r6284.v26.trkD3PD_EXT0.34934835/group.det-slhc.5956391.EXT0._000376.D3PD.root
root://eosatlas//eos//atlas/atlascerngroupdisk/det-slhc/SCOPING/group.det-slhc.mc12_14TeV.147807.PowhegPythia8_AU2CT10_Zmumu.recon.ESD.e1564_s1762_s1777_r6284.v26.trkD3PD_EXT0.34934835/group.det-slhc.5956391.EXT0._000377.D3PD.root
root://eosatlas//eos//atlas/atlascerngroupdisk/det-slhc/SCOPING/group.det-slhc.mc12_14TeV.147807.PowhegPythia8_AU2CT10_Zmumu.recon.ESD.e1564_s1762_s1777_r6284.v26.trkD3PD_EXT0.34934835/group.det-slhc.5956391.EXT0._000378.D3PD.root
root://eosatlas//eos//atlas/atlascerngroupdisk/det-slhc/SCOPING/group.det-slhc.mc12_14TeV.147807.PowhegPythia8_AU2CT10_Zmumu.recon.ESD.e1564_s1762_s1777_r6284.v26.trkD3PD_EXT0.34934835/group.det-slhc.5956391.EXT0._000379.D3PD.root
root://eosatlas//eos//atlas/atlascerngroupdisk/det-slhc/SCOPING/group.det-slhc.mc12_14TeV.147807.PowhegPythia8_AU2CT10_Zmumu.recon.ESD.e1564_s1762_s1777_r6284.v26.trkD3PD_EXT0.34934835/group.det-slhc.5956391.EXT0._000380.D3PD.root
root://eosatlas//eos//atlas/atlascerngroupdisk/det-slhc/SCOPING/group.det-slhc.mc12_14TeV.147807.PowhegPythia8_AU2CT10_Zmumu.recon.ESD.e1564_s1762_s1777_r6284.v26.trkD3PD_EXT0.34934835/group.det-slhc.5956391.EXT0._000381.D3PD.root
root://eosatlas//eos//atlas/atlascerngroupdisk/det-slhc/SCOPING/group.det-slhc.mc12_14TeV.147807.PowhegPythia8_AU2CT10_Zmumu.recon.ESD.e1564_s1762_s1777_r6284.v26.trkD3PD_EXT0.34934835/group.det-slhc.5956391.EXT0._000382.D3PD.root
root://eosatlas//eos//atlas/atlascerngroupdisk/det-slhc/SCOPING/group.det-slhc.mc12_14TeV.147807.PowhegPythia8_AU2CT10_Zmumu.recon.ESD.e1564_s1762_s1777_r6284.v26.trkD3PD_EXT0.34934835/group.det-slhc.5956391.EXT0._000383.D3PD.root
root://eosatlas//eos//atlas/atlascerngroupdisk/det-slhc/SCOPING/group.det-slhc.mc12_14TeV.147807.PowhegPythia8_AU2CT10_Zmumu.recon.ESD.e1564_s1762_s1777_r6284.v26.trkD3PD_EXT0.34934835/group.det-slhc.5956391.EXT0._000385.D3PD.root
root://eosatlas//eos//atlas/atlascerngroupdisk/det-slhc/SCOPING/group.det-slhc.mc12_14TeV.147807.PowhegPythia8_AU2CT10_Zmumu.recon.ESD.e1564_s1762_s1777_r6284.v26.trkD3PD_EXT0.34934835/group.det-slhc.5956391.EXT0._000386.D3PD.root
root://eosatlas//eos//atlas/atlascerngroupdisk/det-slhc/SCOPING/group.det-slhc.mc12_14TeV.147807.PowhegPythia8_AU2CT10_Zmumu.recon.ESD.e1564_s1762_s1777_r6284.v26.trkD3PD_EXT0.34934835/group.det-slhc.5956391.EXT0._000387.D3PD.root
root://eosatlas//eos//atlas/atlascerngroupdisk/det-slhc/SCOPING/group.det-slhc.mc12_14TeV.147807.PowhegPythia8_AU2CT10_Zmumu.recon.ESD.e1564_s1762_s1777_r6284.v26.trkD3PD_EXT0.34934835/group.det-slhc.5956391.EXT0._000388.D3PD.root
root://eosatlas//eos//atlas/atlascerngroupdisk/det-slhc/SCOPING/group.det-slhc.mc12_14TeV.147807.PowhegPythia8_AU2CT10_Zmumu.recon.ESD.e1564_s1762_s1777_r6284.v26.trkD3PD_EXT0.34934835/group.det-slhc.5956391.EXT0._000389.D3PD.root
root://eosatlas//eos//atlas/atlascerngroupdisk/det-slhc/SCOPING/group.det-slhc.mc12_14TeV.147807.PowhegPythia8_AU2CT10_Zmumu.recon.ESD.e1564_s1762_s1777_r6284.v26.trkD3PD_EXT0.34934835/group.det-slhc.5956391.EXT0._000391.D3PD.root
root://eosatlas//eos//atlas/atlascerngroupdisk/det-slhc/SCOPING/group.det-slhc.mc12_14TeV.147807.PowhegPythia8_AU2CT10_Zmumu.recon.ESD.e1564_s1762_s1777_r6284.v26.trkD3PD_EXT0.34934835/group.det-slhc.5956391.EXT0._000392.D3PD.root
root://eosatlas//eos//atlas/atlascerngroupdisk/det-slhc/SCOPING/group.det-slhc.mc12_14TeV.147807.PowhegPythia8_AU2CT10_Zmumu.recon.ESD.e1564_s1762_s1777_r6284.v26.trkD3PD_EXT0.34934835/group.det-slhc.5956391.EXT0._000393.D3PD.root
root://eosatlas//eos//atlas/atlascerngroupdisk/det-slhc/SCOPING/group.det-slhc.mc12_14TeV.147807.PowhegPythia8_AU2CT10_Zmumu.recon.ESD.e1564_s1762_s1777_r6284.v26.trkD3PD_EXT0.34934835/group.det-slhc.5956391.EXT0._000394.D3PD.root
root://eosatlas//eos//atlas/atlascerngroupdisk/det-slhc/SCOPING/group.det-slhc.mc12_14TeV.147807.PowhegPythia8_AU2CT10_Zmumu.recon.ESD.e1564_s1762_s1777_r6284.v26.trkD3PD_EXT0.34934835/group.det-slhc.5956391.EXT0._000395.D3PD.root
root://eosatlas//eos//atlas/atlascerngroupdisk/det-slhc/SCOPING/group.det-slhc.mc12_14TeV.147807.PowhegPythia8_AU2CT10_Zmumu.recon.ESD.e1564_s1762_s1777_r6284.v26.trkD3PD_EXT0.34934835/group.det-slhc.5956391.EXT0._000397.D3PD.root
root://eosatlas//eos//atlas/atlascerngroupdisk/det-slhc/SCOPING/group.det-slhc.mc12_14TeV.147807.PowhegPythia8_AU2CT10_Zmumu.recon.ESD.e1564_s1762_s1777_r6284.v26.trkD3PD_EXT0.34934835/group.det-slhc.5956391.EXT0._000398.D3PD.root
root://eosatlas//eos//atlas/atlascerngroupdisk/det-slhc/SCOPING/group.det-slhc.mc12_14TeV.147807.PowhegPythia8_AU2CT10_Zmumu.recon.ESD.e1564_s1762_s1777_r6284.v26.trkD3PD_EXT0.34934835/group.det-slhc.5956391.EXT0._000401.D3PD.root
root://eosatlas//eos//atlas/atlascerngroupdisk/det-slhc/SCOPING/group.det-slhc.mc12_14TeV.147807.PowhegPythia8_AU2CT10_Zmumu.recon.ESD.e1564_s1762_s1777_r6284.v26.trkD3PD_EXT0.34934835/group.det-slhc.5956391.EXT0._000402.D3PD.root
root://eosatlas//eos//atlas/atlascerngroupdisk/det-slhc/SCOPING/group.det-slhc.mc12_14TeV.147807.PowhegPythia8_AU2CT10_Zmumu.recon.ESD.e1564_s1762_s1777_r6284.v26.trkD3PD_EXT0.34934835/group.det-slhc.5956391.EXT0._000403.D3PD.root
root://eosatlas//eos//atlas/atlascerngroupdisk/det-slhc/SCOPING/group.det-slhc.mc12_14TeV.147807.PowhegPythia8_AU2CT10_Zmumu.recon.ESD.e1564_s1762_s1777_r6284.v26.trkD3PD_EXT0.34934835/group.det-slhc.5956391.EXT0._000405.D3PD.root
root://eosatlas//eos//atlas/atlascerngroupdisk/det-slhc/SCOPING/group.det-slhc.mc12_14TeV.147807.PowhegPythia8_AU2CT10_Zmumu.recon.ESD.e1564_s1762_s1777_r6284.v26.trkD3PD_EXT0.34934835/group.det-slhc.5956391.EXT0._000406.D3PD.root
root://eosatlas//eos//atlas/atlascerngroupdisk/det-slhc/SCOPING/group.det-slhc.mc12_14TeV.147807.PowhegPythia8_AU2CT10_Zmumu.recon.ESD.e1564_s1762_s1777_r6284.v26.trkD3PD_EXT0.34934835/group.det-slhc.5956391.EXT0._000408.D3PD.root
root://eosatlas//eos//atlas/atlascerngroupdisk/det-slhc/SCOPING/group.det-slhc.mc12_14TeV.147807.PowhegPythia8_AU2CT10_Zmumu.recon.ESD.e1564_s1762_s1777_r6284.v26.trkD3PD_EXT0.34934835/group.det-slhc.5956391.EXT0._000409.D3PD.root
root://eosatlas//eos//atlas/atlascerngroupdisk/det-slhc/SCOPING/group.det-slhc.mc12_14TeV.147807.PowhegPythia8_AU2CT10_Zmumu.recon.ESD.e1564_s1762_s1777_r6284.v26.trkD3PD_EXT0.34934835/group.det-slhc.5956391.EXT0._000410.D3PD.root
root://eosatlas//eos//atlas/atlascerngroupdisk/det-slhc/SCOPING/group.det-slhc.mc12_14TeV.147807.PowhegPythia8_AU2CT10_Zmumu.recon.ESD.e1564_s1762_s1777_r6284.v26.trkD3PD_EXT0.34934835/group.det-slhc.5956391.EXT0._000411.D3PD.root
root://eosatlas//eos//atlas/atlascerngroupdisk/det-slhc/SCOPING/group.det-slhc.mc12_14TeV.147807.PowhegPythia8_AU2CT10_Zmumu.recon.ESD.e1564_s1762_s1777_r6284.v26.trkD3PD_EXT0.34934835/group.det-slhc.5956391.EXT0._000412.D3PD.root
root://eosatlas//eos//atlas/atlascerngroupdisk/det-slhc/SCOPING/group.det-slhc.mc12_14TeV.147807.PowhegPythia8_AU2CT10_Zmumu.recon.ESD.e1564_s1762_s1777_r6284.v26.trkD3PD_EXT0.34934835/group.det-slhc.5956391.EXT0._000414.D3PD.root
root://eosatlas//eos//atlas/atlascerngroupdisk/det-slhc/SCOPING/group.det-slhc.mc12_14TeV.147807.PowhegPythia8_AU2CT10_Zmumu.recon.ESD.e1564_s1762_s1777_r6284.v26.trkD3PD_EXT0.34934835/group.det-slhc.5956391.EXT0._000417.D3PD.root
root://eosatlas//eos//atlas/atlascerngroupdisk/det-slhc/SCOPING/group.det-slhc.mc12_14TeV.147807.PowhegPythia8_AU2CT10_Zmumu.recon.ESD.e1564_s1762_s1777_r6284.v26.trkD3PD_EXT0.34934835/group.det-slhc.5956391.EXT0._000418.D3PD.root
root://eosatlas//eos//atlas/atlascerngroupdisk/det-slhc/SCOPING/group.det-slhc.mc12_14TeV.147807.PowhegPythia8_AU2CT10_Zmumu.recon.ESD.e1564_s1762_s1777_r6284.v26.trkD3PD_EXT0.34934835/group.det-slhc.5956391.EXT0._000419.D3PD.root
root://eosatlas//eos//atlas/atlascerngroupdisk/det-slhc/SCOPING/group.det-slhc.mc12_14TeV.147807.PowhegPythia8_AU2CT10_Zmumu.recon.ESD.e1564_s1762_s1777_r6284.v26.trkD3PD_EXT0.34934835/group.det-slhc.5956391.EXT0._000420.D3PD.root
root://eosatlas//eos//atlas/atlascerngroupdisk/det-slhc/SCOPING/group.det-slhc.mc12_14TeV.147807.PowhegPythia8_AU2CT10_Zmumu.recon.ESD.e1564_s1762_s1777_r6284.v26.trkD3PD_EXT0.34934835/group.det-slhc.5956391.EXT0._000421.D3PD.root
root://eosatlas//eos//atlas/atlascerngroupdisk/det-slhc/SCOPING/group.det-slhc.mc12_14TeV.147807.PowhegPythia8_AU2CT10_Zmumu.recon.ESD.e1564_s1762_s1777_r6284.v26.trkD3PD_EXT0.34934835/group.det-slhc.5956391.EXT0._000422.D3PD.root
root://eosatlas//eos//atlas/atlascerngroupdisk/det-slhc/SCOPING/group.det-slhc.mc12_14TeV.147807.PowhegPythia8_AU2CT10_Zmumu.recon.ESD.e1564_s1762_s1777_r6284.v26.trkD3PD_EXT0.34934835/group.det-slhc.5956391.EXT0._000423.D3PD.root
root://eosatlas//eos//atlas/atlascerngroupdisk/det-slhc/SCOPING/group.det-slhc.mc12_14TeV.147807.PowhegPythia8_AU2CT10_Zmumu.recon.ESD.e1564_s1762_s1777_r6284.v26.trkD3PD_EXT0.34934835/group.det-slhc.5956391.EXT0._000424.D3PD.root
root://eosatlas//eos//atlas/atlascerngroupdisk/det-slhc/SCOPING/group.det-slhc.mc12_14TeV.147807.PowhegPythia8_AU2CT10_Zmumu.recon.ESD.e1564_s1762_s1777_r6284.v26.trkD3PD_EXT0.34934835/group.det-slhc.5956391.EXT0._000425.D3PD.root
root://eosatlas//eos//atlas/atlascerngroupdisk/det-slhc/SCOPING/group.det-slhc.mc12_14TeV.147807.PowhegPythia8_AU2CT10_Zmumu.recon.ESD.e1564_s1762_s1777_r6284.v26.trkD3PD_EXT0.34934835/group.det-slhc.5956391.EXT0._000426.D3PD.root
root://eosatlas//eos//atlas/atlascerngroupdisk/det-slhc/SCOPING/group.det-slhc.mc12_14TeV.147807.PowhegPythia8_AU2CT10_Zmumu.recon.ESD.e1564_s1762_s1777_r6284.v26.trkD3PD_EXT0.34934835/group.det-slhc.5956391.EXT0._000427.D3PD.root
root://eosatlas//eos//atlas/atlascerngroupdisk/det-slhc/SCOPING/group.det-slhc.mc12_14TeV.147807.PowhegPythia8_AU2CT10_Zmumu.recon.ESD.e1564_s1762_s1777_r6284.v26.trkD3PD_EXT0.34934835/group.det-slhc.5956391.EXT0._000429.D3PD.root
root://eosatlas//eos//atlas/atlascerngroupdisk/det-slhc/SCOPING/group.det-slhc.mc12_14TeV.147807.PowhegPythia8_AU2CT10_Zmumu.recon.ESD.e1564_s1762_s1777_r6284.v26.trkD3PD_EXT0.34934835/group.det-slhc.5956391.EXT0._000431.D3PD.root
root://eosatlas//eos//atlas/atlascerngroupdisk/det-slhc/SCOPING/group.det-slhc.mc12_14TeV.147807.PowhegPythia8_AU2CT10_Zmumu.recon.ESD.e1564_s1762_s1777_r6284.v26.trkD3PD_EXT0.34934835/group.det-slhc.5956391.EXT0._000432.D3PD.root
root://eosatlas//eos//atlas/atlascerngroupdisk/det-slhc/SCOPING/group.det-slhc.mc12_14TeV.147807.PowhegPythia8_AU2CT10_Zmumu.recon.ESD.e1564_s1762_s1777_r6284.v26.trkD3PD_EXT0.34934835/group.det-slhc.5956391.EXT0._000434.D3PD.root
root://eosatlas//eos//atlas/atlascerngroupdisk/det-slhc/SCOPING/group.det-slhc.mc12_14TeV.147807.PowhegPythia8_AU2CT10_Zmumu.recon.ESD.e1564_s1762_s1777_r6284.v26.trkD3PD_EXT0.34934835/group.det-slhc.5956391.EXT0._000435.D3PD.root
root://eosatlas//eos//atlas/atlascerngroupdisk/det-slhc/SCOPING/group.det-slhc.mc12_14TeV.147807.PowhegPythia8_AU2CT10_Zmumu.recon.ESD.e1564_s1762_s1777_r6284.v26.trkD3PD_EXT0.34934835/group.det-slhc.5956391.EXT0._000436.D3PD.root
root://eosatlas//eos//atlas/atlascerngroupdisk/det-slhc/SCOPING/group.det-slhc.mc12_14TeV.147807.PowhegPythia8_AU2CT10_Zmumu.recon.ESD.e1564_s1762_s1777_r6284.v26.trkD3PD_EXT0.34934835/group.det-slhc.5956391.EXT0._000437.D3PD.root
root://eosatlas//eos//atlas/atlascerngroupdisk/det-slhc/SCOPING/group.det-slhc.mc12_14TeV.147807.PowhegPythia8_AU2CT10_Zmumu.recon.ESD.e1564_s1762_s1777_r6284.v26.trkD3PD_EXT0.34934835/group.det-slhc.5956391.EXT0._000438.D3PD.root
root://eosatlas//eos//atlas/atlascerngroupdisk/det-slhc/SCOPING/group.det-slhc.mc12_14TeV.147807.PowhegPythia8_AU2CT10_Zmumu.recon.ESD.e1564_s1762_s1777_r6284.v26.trkD3PD_EXT0.34934835/group.det-slhc.5956391.EXT0._000439.D3PD.root
root://eosatlas//eos//atlas/atlascerngroupdisk/det-slhc/SCOPING/group.det-slhc.mc12_14TeV.147807.PowhegPythia8_AU2CT10_Zmumu.recon.ESD.e1564_s1762_s1777_r6284.v26.trkD3PD_EXT0.34934835/group.det-slhc.5956391.EXT0._000440.D3PD.root
root://eosatlas//eos//atlas/atlascerngroupdisk/det-slhc/SCOPING/group.det-slhc.mc12_14TeV.147807.PowhegPythia8_AU2CT10_Zmumu.recon.ESD.e1564_s1762_s1777_r6284.v26.trkD3PD_EXT0.34934835/group.det-slhc.5956391.EXT0._000441.D3PD.root
root://eosatlas//eos//atlas/atlascerngroupdisk/det-slhc/SCOPING/group.det-slhc.mc12_14TeV.147807.PowhegPythia8_AU2CT10_Zmumu.recon.ESD.e1564_s1762_s1777_r6284.v26.trkD3PD_EXT0.34934835/group.det-slhc.5956391.EXT0._000442.D3PD.root
root://eosatlas//eos//atlas/atlascerngroupdisk/det-slhc/SCOPING/group.det-slhc.mc12_14TeV.147807.PowhegPythia8_AU2CT10_Zmumu.recon.ESD.e1564_s1762_s1777_r6284.v26.trkD3PD_EXT0.34934835/group.det-slhc.5956391.EXT0._000443.D3PD.root
root://eosatlas//eos//atlas/atlascerngroupdisk/det-slhc/SCOPING/group.det-slhc.mc12_14TeV.147807.PowhegPythia8_AU2CT10_Zmumu.recon.ESD.e1564_s1762_s1777_r6284.v26.trkD3PD_EXT0.34934835/group.det-slhc.5956391.EXT0._000444.D3PD.root
root://eosatlas//eos//atlas/atlascerngroupdisk/det-slhc/SCOPING/group.det-slhc.mc12_14TeV.147807.PowhegPythia8_AU2CT10_Zmumu.recon.ESD.e1564_s1762_s1777_r6284.v26.trkD3PD_EXT0.34934835/group.det-slhc.5956391.EXT0._000446.D3PD.root
root://eosatlas//eos//atlas/atlascerngroupdisk/det-slhc/SCOPING/group.det-slhc.mc12_14TeV.147807.PowhegPythia8_AU2CT10_Zmumu.recon.ESD.e1564_s1762_s1777_r6284.v26.trkD3PD_EXT0.34934835/group.det-slhc.5956391.EXT0._000447.D3PD.root
root://eosatlas//eos//atlas/atlascerngroupdisk/det-slhc/SCOPING/group.det-slhc.mc12_14TeV.147807.PowhegPythia8_AU2CT10_Zmumu.recon.ESD.e1564_s1762_s1777_r6284.v26.trkD3PD_EXT0.34934835/group.det-slhc.5956391.EXT0._000448.D3PD.root
root://eosatlas//eos//atlas/atlascerngroupdisk/det-slhc/SCOPING/group.det-slhc.mc12_14TeV.147807.PowhegPythia8_AU2CT10_Zmumu.recon.ESD.e1564_s1762_s1777_r6284.v26.trkD3PD_EXT0.34934835/group.det-slhc.5956391.EXT0._000451.D3PD.root
root://eosatlas//eos//atlas/atlascerngroupdisk/det-slhc/SCOPING/group.det-slhc.mc12_14TeV.147807.PowhegPythia8_AU2CT10_Zmumu.recon.ESD.e1564_s1762_s1777_r6284.v26.trkD3PD_EXT0.34934835/group.det-slhc.5956391.EXT0._000453.D3PD.root
root://eosatlas//eos//atlas/atlascerngroupdisk/det-slhc/SCOPING/group.det-slhc.mc12_14TeV.147807.PowhegPythia8_AU2CT10_Zmumu.recon.ESD.e1564_s1762_s1777_r6284.v26.trkD3PD_EXT0.34934835/group.det-slhc.5956391.EXT0._000455.D3PD.root
root://eosatlas//eos//atlas/atlascerngroupdisk/det-slhc/SCOPING/group.det-slhc.mc12_14TeV.147807.PowhegPythia8_AU2CT10_Zmumu.recon.ESD.e1564_s1762_s1777_r6284.v26.trkD3PD_EXT0.34934835/group.det-slhc.5956391.EXT0._000456.D3PD.root
root://eosatlas//eos//atlas/atlascerngroupdisk/det-slhc/SCOPING/group.det-slhc.mc12_14TeV.147807.PowhegPythia8_AU2CT10_Zmumu.recon.ESD.e1564_s1762_s1777_r6284.v26.trkD3PD_EXT0.34934835/group.det-slhc.5956391.EXT0._000458.D3PD.root
root://eosatlas//eos//atlas/atlascerngroupdisk/det-slhc/SCOPING/group.det-slhc.mc12_14TeV.147807.PowhegPythia8_AU2CT10_Zmumu.recon.ESD.e1564_s1762_s1777_r6284.v26.trkD3PD_EXT0.34934835/group.det-slhc.5956391.EXT0._000459.D3PD.root
root://eosatlas//eos//atlas/atlascerngroupdisk/det-slhc/SCOPING/group.det-slhc.mc12_14TeV.147807.PowhegPythia8_AU2CT10_Zmumu.recon.ESD.e1564_s1762_s1777_r6284.v26.trkD3PD_EXT0.34934835/group.det-slhc.5956391.EXT0._000460.D3PD.root
root://eosatlas//eos//atlas/atlascerngroupdisk/det-slhc/SCOPING/group.det-slhc.mc12_14TeV.147807.PowhegPythia8_AU2CT10_Zmumu.recon.ESD.e1564_s1762_s1777_r6284.v26.trkD3PD_EXT0.34934835/group.det-slhc.5956391.EXT0._000461.D3PD.root
root://eosatlas//eos//atlas/atlascerngroupdisk/det-slhc/SCOPING/group.det-slhc.mc12_14TeV.147807.PowhegPythia8_AU2CT10_Zmumu.recon.ESD.e1564_s1762_s1777_r6284.v26.trkD3PD_EXT0.34934835/group.det-slhc.5956391.EXT0._000462.D3PD.root
root://eosatlas//eos//atlas/atlascerngroupdisk/det-slhc/SCOPING/group.det-slhc.mc12_14TeV.147807.PowhegPythia8_AU2CT10_Zmumu.recon.ESD.e1564_s1762_s1777_r6284.v26.trkD3PD_EXT0.34934835/group.det-slhc.5956391.EXT0._000464.D3PD.root
root://eosatlas//eos//atlas/atlascerngroupdisk/det-slhc/SCOPING/group.det-slhc.mc12_14TeV.147807.PowhegPythia8_AU2CT10_Zmumu.recon.ESD.e1564_s1762_s1777_r6284.v26.trkD3PD_EXT0.34934835/group.det-slhc.5956391.EXT0._000468.D3PD.root
root://eosatlas//eos//atlas/atlascerngroupdisk/det-slhc/SCOPING/group.det-slhc.mc12_14TeV.147807.PowhegPythia8_AU2CT10_Zmumu.recon.ESD.e1564_s1762_s1777_r6284.v26.trkD3PD_EXT0.34934835/group.det-slhc.5956391.EXT0._000469.D3PD.root
root://eosatlas//eos//atlas/atlascerngroupdisk/det-slhc/SCOPING/group.det-slhc.mc12_14TeV.147807.PowhegPythia8_AU2CT10_Zmumu.recon.ESD.e1564_s1762_s1777_r6284.v26.trkD3PD_EXT0.34934835/group.det-slhc.5956391.EXT0._000470.D3PD.root
root://eosatlas//eos//atlas/atlascerngroupdisk/det-slhc/SCOPING/group.det-slhc.mc12_14TeV.147807.PowhegPythia8_AU2CT10_Zmumu.recon.ESD.e1564_s1762_s1777_r6284.v26.trkD3PD_EXT0.34934835/group.det-slhc.5956391.EXT0._000471.D3PD.root
root://eosatlas//eos//atlas/atlascerngroupdisk/det-slhc/SCOPING/group.det-slhc.mc12_14TeV.147807.PowhegPythia8_AU2CT10_Zmumu.recon.ESD.e1564_s1762_s1777_r6284.v26.trkD3PD_EXT0.34934835/group.det-slhc.5956391.EXT0._000472.D3PD.root
root://eosatlas//eos//atlas/atlascerngroupdisk/det-slhc/SCOPING/group.det-slhc.mc12_14TeV.147807.PowhegPythia8_AU2CT10_Zmumu.recon.ESD.e1564_s1762_s1777_r6284.v26.trkD3PD_EXT0.34934835/group.det-slhc.5956391.EXT0._000473.D3PD.root
root://eosatlas//eos//atlas/atlascerngroupdisk/det-slhc/SCOPING/group.det-slhc.mc12_14TeV.147807.PowhegPythia8_AU2CT10_Zmumu.recon.ESD.e1564_s1762_s1777_r6284.v26.trkD3PD_EXT0.34934835/group.det-slhc.5956391.EXT0._000474.D3PD.root
root://eosatlas//eos//atlas/atlascerngroupdisk/det-slhc/SCOPING/group.det-slhc.mc12_14TeV.147807.PowhegPythia8_AU2CT10_Zmumu.recon.ESD.e1564_s1762_s1777_r6284.v26.trkD3PD_EXT0.34934835/group.det-slhc.5956391.EXT0._000475.D3PD.root
root://eosatlas//eos//atlas/atlascerngroupdisk/det-slhc/SCOPING/group.det-slhc.mc12_14TeV.147807.PowhegPythia8_AU2CT10_Zmumu.recon.ESD.e1564_s1762_s1777_r6284.v26.trkD3PD_EXT0.34934835/group.det-slhc.5956391.EXT0._000477.D3PD.root
root://eosatlas//eos//atlas/atlascerngroupdisk/det-slhc/SCOPING/group.det-slhc.mc12_14TeV.147807.PowhegPythia8_AU2CT10_Zmumu.recon.ESD.e1564_s1762_s1777_r6284.v26.trkD3PD_EXT0.34934835/group.det-slhc.5956391.EXT0._000480.D3PD.root
root://eosatlas//eos//atlas/atlascerngroupdisk/det-slhc/SCOPING/group.det-slhc.mc12_14TeV.147807.PowhegPythia8_AU2CT10_Zmumu.recon.ESD.e1564_s1762_s1777_r6284.v26.trkD3PD_EXT0.34934835/group.det-slhc.5956391.EXT0._000481.D3PD.root
root://eosatlas//eos//atlas/atlascerngroupdisk/det-slhc/SCOPING/group.det-slhc.mc12_14TeV.147807.PowhegPythia8_AU2CT10_Zmumu.recon.ESD.e1564_s1762_s1777_r6284.v26.trkD3PD_EXT0.34934835/group.det-slhc.5956391.EXT0._000482.D3PD.root
root://eosatlas//eos//atlas/atlascerngroupdisk/det-slhc/SCOPING/group.det-slhc.mc12_14TeV.147807.PowhegPythia8_AU2CT10_Zmumu.recon.ESD.e1564_s1762_s1777_r6284.v26.trkD3PD_EXT0.34934835/group.det-slhc.5956391.EXT0._000483.D3PD.root
root://eosatlas//eos//atlas/atlascerngroupdisk/det-slhc/SCOPING/group.det-slhc.mc12_14TeV.147807.PowhegPythia8_AU2CT10_Zmumu.recon.ESD.e1564_s1762_s1777_r6284.v26.trkD3PD_EXT0.34934835/group.det-slhc.5956391.EXT0._000484.D3PD.root
root://eosatlas//eos//atlas/atlascerngroupdisk/det-slhc/SCOPING/group.det-slhc.mc12_14TeV.147807.PowhegPythia8_AU2CT10_Zmumu.recon.ESD.e1564_s1762_s1777_r6284.v26.trkD3PD_EXT0.34934835/group.det-slhc.5956391.EXT0._000485.D3PD.root
root://eosatlas//eos//atlas/atlascerngroupdisk/det-slhc/SCOPING/group.det-slhc.mc12_14TeV.147807.PowhegPythia8_AU2CT10_Zmumu.recon.ESD.e1564_s1762_s1777_r6284.v26.trkD3PD_EXT0.34934835/group.det-slhc.5956391.EXT0._000486.D3PD.root
root://eosatlas//eos//atlas/atlascerngroupdisk/det-slhc/SCOPING/group.det-slhc.mc12_14TeV.147807.PowhegPythia8_AU2CT10_Zmumu.recon.ESD.e1564_s1762_s1777_r6284.v26.trkD3PD_EXT0.34934835/group.det-slhc.5956391.EXT0._000487.D3PD.root
root://eosatlas//eos//atlas/atlascerngroupdisk/det-slhc/SCOPING/group.det-slhc.mc12_14TeV.147807.PowhegPythia8_AU2CT10_Zmumu.recon.ESD.e1564_s1762_s1777_r6284.v26.trkD3PD_EXT0.34934835/group.det-slhc.5956391.EXT0._000490.D3PD.root
root://eosatlas//eos//atlas/atlascerngroupdisk/det-slhc/SCOPING/group.det-slhc.mc12_14TeV.147807.PowhegPythia8_AU2CT10_Zmumu.recon.ESD.e1564_s1762_s1777_r6284.v26.trkD3PD_EXT0.34934835/group.det-slhc.5956391.EXT0._000491.D3PD.root
root://eosatlas//eos//atlas/atlascerngroupdisk/det-slhc/SCOPING/group.det-slhc.mc12_14TeV.147807.PowhegPythia8_AU2CT10_Zmumu.recon.ESD.e1564_s1762_s1777_r6284.v26.trkD3PD_EXT0.34934835/group.det-slhc.5956391.EXT0._000492.D3PD.root
root://eosatlas//eos//atlas/atlascerngroupdisk/det-slhc/SCOPING/group.det-slhc.mc12_14TeV.147807.PowhegPythia8_AU2CT10_Zmumu.recon.ESD.e1564_s1762_s1777_r6284.v26.trkD3PD_EXT0.34934835/group.det-slhc.5956391.EXT0._000493.D3PD.root
root://eosatlas//eos//atlas/atlascerngroupdisk/det-slhc/SCOPING/group.det-slhc.mc12_14TeV.147807.PowhegPythia8_AU2CT10_Zmumu.recon.ESD.e1564_s1762_s1777_r6284.v26.trkD3PD_EXT0.34934835/group.det-slhc.5956391.EXT0._000495.D3PD.root
root://eosatlas//eos//atlas/atlascerngroupdisk/det-slhc/SCOPING/group.det-slhc.mc12_14TeV.147807.PowhegPythia8_AU2CT10_Zmumu.recon.ESD.e1564_s1762_s1777_r6284.v26.trkD3PD_EXT0.34934835/group.det-slhc.5956391.EXT0._000496.D3PD.root
root://eosatlas//eos//atlas/atlascerngroupdisk/det-slhc/SCOPING/group.det-slhc.mc12_14TeV.147807.PowhegPythia8_AU2CT10_Zmumu.recon.ESD.e1564_s1762_s1777_r6284.v26.trkD3PD_EXT0.34934835/group.det-slhc.5956391.EXT0._000497.D3PD.root
root://eosatlas//eos//atlas/atlascerngroupdisk/det-slhc/SCOPING/group.det-slhc.mc12_14TeV.147807.PowhegPythia8_AU2CT10_Zmumu.recon.ESD.e1564_s1762_s1777_r6284.v26.trkD3PD_EXT0.34934835/group.det-slhc.5956391.EXT0._000498.D3PD.root
root://eosatlas//eos//atlas/atlascerngroupdisk/det-slhc/SCOPING/group.det-slhc.mc12_14TeV.147807.PowhegPythia8_AU2CT10_Zmumu.recon.ESD.e1564_s1762_s1777_r6284.v26.trkD3PD_EXT0.34934835/group.det-slhc.5956391.EXT0._000500.D3PD.root
