%!PS-Adobe-2.0 EPSF-2.0
%%BoundingBox:  0 0 567 384
%%Title: outputDir/sct_occupancy/clus_sctdisk_mgr.eps: c1_n34
%%Creator: ROOT Version 6.04/12
%%CreationDate: Mon Apr 25 16:02:11 2016
%%DocumentNeededResources: ProcSet (FontSetInit)
%%EndComments
%%BeginProlog
80 dict begin
/s {stroke} def /l {lineto} def /m {moveto} def /t {translate} def
/r {rotate} def /rl {roll}  def /R {repeat} def
/d {rlineto} def /rm {rmoveto} def /gr {grestore} def /f {eofill} def
/c {setrgbcolor} def /black {0 setgray} def /sd {setdash} def
/cl {closepath} def /sf {scalefont setfont} def /lw {setlinewidth} def
/box {m dup 0 exch d exch 0 d 0 exch neg d cl} def
/NC{systemdict begin initclip end}def/C{NC box clip newpath}def
/bl {box s} def /bf {gsave box gsave f grestore 1 lw [] 0 sd s grestore} def /Y { 0 exch d} def /X { 0 d} def 
/K {{pop pop 0 moveto} exch kshow} bind def
/ita {/ang 15 def gsave [1 0 ang dup sin exch cos div 1 0 0] concat} def 
/mp {newpath /y exch def /x exch def} def
/side {[w .77 mul w .23 mul] .385 w mul sd w 0 l currentpoint t -144 r} def
/mr {mp x y w2 0 360 arc} def /m24 {mr s} def /m20 {mr f} def
/mb {mp x y w2 add m w2 neg 0 d 0 w neg d w 0 d 0 w d cl} def
/mt {mp x y w2 add m w2 neg w neg d w 0 d cl} def
/m21 {mb f} def /m25 {mb s} def /m22 {mt f} def /m26{mt s} def
/m23 {mp x y w2 sub m w2 w d w neg 0 d cl f} def
/m27 {mp x y w2 add m w3 neg w2 neg d w3 w2 neg d w3 w2 d cl s} def
/m28 {mp x w2 sub y w2 sub w3 add m w3 0 d  0 w3 neg d w3 0 d 0 w3 d w3 0 d  0 w3 d w3 neg 0 d 0 w3 d w3 neg 0 d 0 w3 neg d w3 neg 0 d cl s } def
/m29 {mp gsave x w2 sub y w2 add w3 sub m currentpoint t 4 {side} repeat cl fill gr} def
/m30 {mp gsave x w2 sub y w2 add w3 sub m currentpoint t 4 {side} repeat cl s gr} def
/m31 {mp x y w2 sub m 0 w d x w2 sub y m w 0 d x w2 sub y w2 add m w w neg d x w2 sub y w2 sub m w w d s} def
/m32 {mp x y w2 sub m w2 w d w neg 0 d cl s} def
/m33 {mp x y w2 add m w3 neg w2 neg d w3 w2 neg d w3 w2 d cl f} def
/m34 {mp x w2 sub y w2 sub w3 add m w3 0 d  0 w3 neg d w3 0 d 0 w3 d w3 0 d  0 w3 d w3 neg 0 d 0 w3 d w3 neg 0 d 0 w3 neg d w3 neg 0 d cl f } def
/m2 {mp x y w2 sub m 0 w d x w2 sub y m w 0 d s} def
/m5 {mp x w2 sub y w2 sub m w w d x w2 sub y w2 add m w w neg d s} def
%%IncludeResource: ProcSet (FontSetInit)
%%IncludeResource: font Times-Roman
%%IncludeResource: font Times-Italic
%%IncludeResource: font Times-Bold
%%IncludeResource: font Times-BoldItalic
%%IncludeResource: font Helvetica
%%IncludeResource: font Helvetica-Oblique
%%IncludeResource: font Helvetica-Bold
%%IncludeResource: font Helvetica-BoldOblique
%%IncludeResource: font Courier
%%IncludeResource: font Courier-Oblique
%%IncludeResource: font Courier-Bold
%%IncludeResource: font Courier-BoldOblique
%%IncludeResource: font Symbol
%%IncludeResource: font ZapfDingbats
/reEncode {exch findfont dup length dict begin {1 index /FID eq  {pop pop} {def} ifelse } forall /Encoding exch def currentdict end dup /FontName get exch definefont pop } def [/Times-Bold /Times-Italic /Times-BoldItalic /Helvetica /Helvetica-Oblique
 /Helvetica-Bold /Helvetica-BoldOblique /Courier /Courier-Oblique /Courier-Bold /Courier-BoldOblique /Times-Roman /AvantGarde-Book /AvantGarde-BookOblique /AvantGarde-Demi /AvantGarde-DemiOblique /Bookman-Demi /Bookman-DemiItalic /Bookman-Light
 /Bookman-LightItalic /Helvetica-Narrow /Helvetica-Narrow-Bold /Helvetica-Narrow-BoldOblique /Helvetica-Narrow-Oblique /NewCenturySchlbk-Roman /NewCenturySchlbk-Bold /NewCenturySchlbk-BoldItalic /NewCenturySchlbk-Italic /Palatino-Bold
 /Palatino-BoldItalic /Palatino-Italic /Palatino-Roman ] {ISOLatin1Encoding reEncode } forall
%%EndProlog
%%BeginSetup
%%EndSetup
newpath  gsave  .25 .25 scale  gsave  0 0 t black[  ] 0 sd 3 lw 1 1 1 c 2268 1538 0 0 bf black 1 1 1 c 1814 1230 227 154 bf black 1814 1230 227 154 bl 1 1 1 c 1814 1230 227 154 bf black 1814 1230 227 154 bl 227 154 m 1814 X s
 gsave  2268 1538 0 0 C 1860.44 35.8403 t 0 r /Helvetica-Bold findfont 58.6478 sf 0 0 m (r [mm]) show NC gr  326 191 m -37 Y s 386 172 m -18 Y s 447 172 m -18 Y s 508 172 m -18 Y s 569 172 m -18 Y s 629 191 m -37 Y s 690 172 m -18 Y s 751 172 m -18 Y
 s 811 172 m -18 Y s 872 172 m -18 Y s 933 191 m -37 Y s 993 172 m -18 Y s 1054 172 m -18 Y s 1115 172 m -18 Y s 1175 172 m -18 Y s 1236 191 m -37 Y s 1297 172 m -18 Y s 1357 172 m -18 Y s 1418 172 m -18 Y s 1479 172 m -18 Y s 1539 191 m -37 Y s 1600
 172 m -18 Y s 1661 172 m -18 Y s 1721 172 m -18 Y s 1782 172 m -18 Y s 1843 191 m -37 Y s 326 191 m -37 Y s 265 172 m -18 Y s 1843 191 m -37 Y s 1903 172 m -18 Y s 1964 172 m -18 Y s 2025 172 m -18 Y s
 gsave  2268 1538 0 0 C 273.69 97.7464 t 0 r /Helvetica-Bold findfont 58.6478 sf 0 0 m (400) show NC gr 
 gsave  2268 1538 0 0 C 579.962 97.7464 t 0 r /Helvetica-Bold findfont 58.6478 sf 0 0 m (500) show NC gr 
 gsave  2268 1538 0 0 C 882.976 97.7464 t 0 r /Helvetica-Bold findfont 58.6478 sf 0 0 m (600) show NC gr 
 gsave  2268 1538 0 0 C 1185.99 97.7464 t 0 r /Helvetica-Bold findfont 58.6478 sf 0 0 m (700) show NC gr 
 gsave  2268 1538 0 0 C 1489 97.7464 t 0 r /Helvetica-Bold findfont 58.6478 sf 0 0 m (800) show NC gr 
 gsave  2268 1538 0 0 C 1792.02 97.7464 t 0 r /Helvetica-Bold findfont 58.6478 sf 0 0 m (900) show NC gr  227 1384 m 1814 X s 326 1347 m 37 Y s 386 1366 m 18 Y s 447 1366 m 18 Y s 508 1366 m 18 Y s 569 1366 m 18 Y s 629 1347 m 37 Y s 690 1366 m 18 Y
 s 751 1366 m 18 Y s 811 1366 m 18 Y s 872 1366 m 18 Y s 933 1347 m 37 Y s 993 1366 m 18 Y s 1054 1366 m 18 Y s 1115 1366 m 18 Y s 1175 1366 m 18 Y s 1236 1347 m 37 Y s 1297 1366 m 18 Y s 1357 1366 m 18 Y s 1418 1366 m 18 Y s 1479 1366 m 18 Y s 1539
 1347 m 37 Y s 1600 1366 m 18 Y s 1661 1366 m 18 Y s 1721 1366 m 18 Y s 1782 1366 m 18 Y s 1843 1347 m 37 Y s 326 1347 m 37 Y s 265 1366 m 18 Y s 1843 1347 m 37 Y s 1903 1366 m 18 Y s 1964 1366 m 18 Y s 2025 1366 m 18 Y s 227 154 m 1230 Y s
 gsave  2268 1538 0 0 C 97.7464 710.291 t 90 r /Helvetica-Bold findfont 58.6478 sf 0 0 m (Cluster per etaModuleID) show NC gr  281 176 m -54 X s 254 204 m -27 X s 254 233 m -27 X s 254 261 m -27 X s 254 289 m -27 X s 281 318 m -54 X s 254 346 m -27 X
 s 254 374 m -27 X s 254 403 m -27 X s 254 431 m -27 X s 281 459 m -54 X s 254 488 m -27 X s 254 516 m -27 X s 254 544 m -27 X s 254 573 m -27 X s 281 601 m -54 X s 254 629 m -27 X s 254 658 m -27 X s 254 686 m -27 X s 254 714 m -27 X s 281 743 m -54
 X s 254 771 m -27 X s 254 799 m -27 X s 254 828 m -27 X s 254 856 m -27 X s 281 884 m -54 X s 254 913 m -27 X s 254 941 m -27 X s 254 969 m -27 X s 254 998 m -27 X s 281 1026 m -54 X s 254 1054 m -27 X s 254 1083 m -27 X s 254 1111 m -27 X s 254
 1139 m -27 X s 281 1168 m -54 X s 254 1196 m -27 X s 254 1224 m -27 X s 254 1253 m -27 X s 254 1281 m -27 X s 281 1309 m -54 X s 281 176 m -54 X s 281 1309 m -54 X s 254 1338 m -27 X s 254 1366 m -27 X s
 gsave  2268 1538 0 0 C 149.878 153.136 t 0 r /Helvetica-Bold findfont 58.6478 sf 0 0 m (10) show NC gr 
 gsave  2268 1538 0 0 C 149.878 296.497 t 0 r /Helvetica-Bold findfont 58.6478 sf 0 0 m (20) show NC gr 
 gsave  2268 1538 0 0 C 149.878 436.601 t 0 r /Helvetica-Bold findfont 58.6478 sf 0 0 m (30) show NC gr 
 gsave  2268 1538 0 0 C 149.878 579.962 t 0 r /Helvetica-Bold findfont 58.6478 sf 0 0 m (40) show NC gr 
 gsave  2268 1538 0 0 C 149.878 720.065 t 0 r /Helvetica-Bold findfont 58.6478 sf 0 0 m (50) show NC gr 
 gsave  2268 1538 0 0 C 149.878 863.427 t 0 r /Helvetica-Bold findfont 58.6478 sf 0 0 m (60) show NC gr 
 gsave  2268 1538 0 0 C 149.878 1003.53 t 0 r /Helvetica-Bold findfont 58.6478 sf 0 0 m (70) show NC gr 
 gsave  2268 1538 0 0 C 149.878 1146.89 t 0 r /Helvetica-Bold findfont 58.6478 sf 0 0 m (80) show NC gr 
 gsave  2268 1538 0 0 C 149.878 1286.99 t 0 r /Helvetica-Bold findfont 58.6478 sf 0 0 m (90) show NC gr  2041 154 m 1230 Y s 1987 176 m 54 X s 2014 204 m 27 X s 2014 233 m 27 X s 2014 261 m 27 X s 2014 289 m 27 X s 1987 318 m 54 X s 2014 346 m 27 X s
 2014 374 m 27 X s 2014 403 m 27 X s 2014 431 m 27 X s 1987 459 m 54 X s 2014 488 m 27 X s 2014 516 m 27 X s 2014 544 m 27 X s 2014 573 m 27 X s 1987 601 m 54 X s 2014 629 m 27 X s 2014 658 m 27 X s 2014 686 m 27 X s 2014 714 m 27 X s 1987 743 m 54 X
 s 2014 771 m 27 X s 2014 799 m 27 X s 2014 828 m 27 X s 2014 856 m 27 X s 1987 884 m 54 X s 2014 913 m 27 X s 2014 941 m 27 X s 2014 969 m 27 X s 2014 998 m 27 X s 1987 1026 m 54 X s 2014 1054 m 27 X s 2014 1083 m 27 X s 2014 1111 m 27 X s 2014 1139
 m 27 X s 1987 1168 m 54 X s 2014 1196 m 27 X s 2014 1224 m 27 X s 2014 1253 m 27 X s 2014 1281 m 27 X s 1987 1309 m 54 X s 1987 176 m 54 X s 1987 1309 m 54 X s 2014 1338 m 27 X s 2014 1366 m 27 X s 309 472 m 36 Y s 303 508 m 13 X s 309 446 m -36 Y s
 303 410 m 13 X s 375 637 m 44 Y s 368 681 m 13 X s 375 611 m -45 Y s 368 566 m 13 X s 456 682 m 47 Y s 449 729 m 13 X s 456 656 m -47 Y s 449 609 m 13 X s 548 756 m 50 Y s 541 806 m 13 X s 548 730 m -51 Y s 541 679 m 13 X s 628 291 m 24 Y s 622 315
 m 13 X s 628 265 m -24 Y s 622 241 m 13 X s 696 523 m 39 Y s 690 562 m 13 X s 696 497 m -39 Y s 690 458 m 13 X s 774 376 m 30 Y s 767 406 m 14 X s 774 350 m -30 Y s 767 320 m 14 X s 834 331 m 27 Y s 828 358 m 13 X s 834 305 m -27 Y s 828 278 m 13 X
 s 908 597 m 43 Y s 902 640 m 13 X s 908 571 m -43 Y s 902 528 m 13 X s 1002 501 m 37 Y s 996 538 m 13 X s 1002 475 m -38 Y s 996 437 m 13 X s 1099 495 m 37 Y s 1093 532 m 13 X s 1099 469 m -37 Y s 1093 432 m 13 X s 1188 421 m 33 Y s 1182 454 m 13 X
 s 1188 395 m -33 Y s 1182 362 m 13 X s 1268 325 m 27 Y s 1261 352 m 13 X s 1268 299 m -27 Y s 1261 272 m 13 X s 1356 455 m 35 Y s 1350 490 m 13 X s 1356 429 m -35 Y s 1350 394 m 13 X s 1493 614 m 44 Y s 1486 658 m 13 X s 1493 588 m -44 Y s 1486 544
 m 13 X s 1658 518 m 38 Y s 1652 556 m 13 X s 1658 492 m -39 Y s 1652 453 m 13 X s 1806 342 m 28 Y s 1799 370 m 13 X s 1806 316 m -28 Y s 1799 288 m 13 X s 1958 489 m 37 Y s 1952 526 m 13 X s 1958 463 m -37 Y s 1952 426 m 13 X s 309 459 m 66 165 d 81
 45 d 92 74 d 80 -465 d 68 232 d 78 -147 d 60 -45 d 74 266 d 94 -96 d 97 -6 d 89 -74 d 80 -96 d 88 130 d 137 159 d 165 -96 d 148 -176 d 152 147 d s /w 26 def /w2 {w 2 div} def /w3 {w 3 div} def 309 459 375 624 456 669 548 743 628 278 696 510 774 363
 834 318 908 584 1002 488 1099 482 1188 408 1268 312 1356 442 1493 601 1658 505 1806 329 1958 476 18 { m20} R 1 0 0 c 309 563 m 41 Y s 303 604 m 13 X s 309 537 m -41 Y s 303 496 m 13 X s 375 552 m 40 Y s 368 592 m 13 X s 375 526 m -41 Y s 368 485 m
 13 X s 455 591 m 43 Y s 448 634 m 13 X s 455 565 m -42 Y s 448 523 m 13 X s 548 699 m 48 Y s 541 747 m 13 X s 548 673 m -48 Y s 541 625 m 13 X s 629 308 m 25 Y s 622 333 m 13 X s 629 282 m -26 Y s 622 256 m 13 X s 697 608 m 44 Y s 691 652 m 13 X s
 697 582 m -43 Y s 691 539 m 13 X s 774 506 m 38 Y s 768 544 m 13 X s 774 480 m -38 Y s 768 442 m 13 X s 835 297 m 24 Y s 828 321 m 13 X s 835 271 m -25 Y s 828 246 m 13 X s 908 552 m 40 Y s 902 592 m 13 X s 908 526 m -41 Y s 902 485 m 13 X s 1001
 546 m 40 Y s 995 586 m 13 X s 1001 520 m -40 Y s 995 480 m 13 X s 1099 546 m 40 Y s 1093 586 m 13 X s 1099 520 m -40 Y s 1093 480 m 13 X s 1188 404 m 32 Y s 1182 436 m 13 X s 1188 378 m -32 Y s 1182 346 m 13 X s 1268 314 m 25 Y s 1261 339 m 13 X s
 1268 288 m -26 Y s 1261 262 m 13 X s 1356 461 m 35 Y s 1350 496 m 13 X s 1356 435 m -35 Y s 1350 400 m 13 X s 1492 608 m 44 Y s 1486 652 m 13 X s 1492 582 m -43 Y s 1486 539 m 13 X s 1658 569 m 41 Y s 1651 610 m 13 X s 1658 543 m -42 Y s 1651 501 m
 13 X s 1806 370 m 30 Y s 1800 400 m 13 X s 1806 344 m -30 Y s 1800 314 m 13 X s 1958 472 m 36 Y s 1952 508 m 13 X s 1958 446 m -36 Y s 1952 410 m 13 X s black 1 0 0 c 309 550 m 66 -11 d 80 39 d 93 108 d 81 -391 d 68 300 d 77 -102 d 61 -209 d 73 255
 d 93 -6 d 98 X 89 -142 d 80 -90 d 88 147 d 136 147 d 166 -39 d 148 -199 d 152 102 d s 309 550 375 539 455 578 548 686 629 295 697 595 774 493 835 284 908 539 1001 533 1099 533 1188 391 1268 301 1356 448 1492 595 1658 556 1806 357 1958 459 18 { m20}
 R 0 1 0 c 310 625 m 45 Y s 303 670 m 13 X s 310 599 m -44 Y s 303 555 m 13 X s 375 637 m 44 Y s 369 681 m 13 X s 375 611 m -45 Y s 369 566 m 13 X s 455 795 m 52 Y s 449 847 m 13 X s 455 769 m -52 Y s 449 717 m 13 X s 548 750 m 50 Y s 541 800 m 13 X
 s 548 724 m -50 Y s 541 674 m 13 X s 628 376 m 30 Y s 621 406 m 13 X s 628 350 m -30 Y s 621 320 m 13 X s 697 518 m 38 Y s 690 556 m 13 X s 697 492 m -39 Y s 690 453 m 13 X s 774 523 m 39 Y s 768 562 m 13 X s 774 497 m -39 Y s 768 458 m 13 X s 835
 285 m 24 Y s 829 309 m 13 X s 835 259 m -23 Y s 829 236 m 13 X s 909 688 m 47 Y s 902 735 m 13 X s 909 662 m -48 Y s 902 614 m 13 X s 1001 540 m 40 Y s 994 580 m 13 X s 1001 514 m -40 Y s 994 474 m 13 X s 1099 404 m 32 Y s 1093 436 m 13 X s 1099 378
 m -32 Y s 1093 346 m 13 X s 1188 325 m 27 Y s 1182 352 m 13 X s 1188 299 m -27 Y s 1182 272 m 13 X s 1268 393 m 31 Y s 1261 424 m 13 X s 1268 367 m -31 Y s 1261 336 m 13 X s 1356 569 m 41 Y s 1350 610 m 13 X s 1356 543 m -42 Y s 1350 501 m 13 X s
 1492 608 m 44 Y s 1486 652 m 13 X s 1492 582 m -43 Y s 1486 539 m 13 X s 1658 693 m 48 Y s 1652 741 m 13 X s 1658 667 m -47 Y s 1652 620 m 13 X s 1806 478 m 36 Y s 1799 514 m 13 X s 1806 452 m -36 Y s 1799 416 m 13 X s 1958 518 m 38 Y s 1952 556 m
 13 X s 1958 492 m -39 Y s 1952 453 m 13 X s black 0 1 0 c 310 612 m 65 12 d 80 158 d 93 -45 d 80 -374 d 69 142 d 77 5 d 61 -238 d 74 403 d 92 -148 d 98 -136 d 89 -79 d 80 68 d 88 176 d 136 39 d 166 85 d 148 -215 d 152 40 d s 310 612 375 624 455 782
 548 737 628 363 697 505 774 510 835 272 909 675 1001 527 1099 391 1188 312 1268 380 1356 556 1492 595 1658 680 1806 465 1958 505 18 { m20} R 0 0 1 c 310 484 m 36 Y s 303 520 m 13 X s 310 458 m -37 Y s 303 421 m 13 X s 375 637 m 44 Y s 369 681 m 13 X
 s 375 611 m -45 Y s 369 566 m 13 X s 455 937 m 58 Y s 449 995 m 13 X s 455 911 m -58 Y s 449 853 m 13 X s 548 852 m 55 Y s 541 907 m 13 X s 548 826 m -55 Y s 541 771 m 13 X s 628 467 m 35 Y s 622 502 m 13 X s 628 441 m -36 Y s 622 405 m 13 X s 697
 654 m 45 Y s 690 699 m 13 X s 697 628 m -46 Y s 690 582 m 13 X s 774 552 m 40 Y s 768 592 m 13 X s 774 526 m -41 Y s 768 485 m 13 X s 834 268 m 23 Y s 827 291 m 13 X s 834 242 m -22 Y s 827 220 m 13 X s 908 523 m 39 Y s 901 562 m 14 X s 908 497 m
 -39 Y s 901 458 m 14 X s 1002 722 m 48 Y s 995 770 m 13 X s 1002 696 m -49 Y s 995 647 m 13 X s 1099 512 m 38 Y s 1093 550 m 13 X s 1099 486 m -38 Y s 1093 448 m 13 X s 1188 387 m 31 Y s 1181 418 m 13 X s 1188 361 m -31 Y s 1181 330 m 13 X s 1268
 450 m 34 Y s 1261 484 m 13 X s 1268 424 m -35 Y s 1261 389 m 13 X s 1357 393 m 31 Y s 1350 424 m 13 X s 1357 367 m -31 Y s 1350 336 m 13 X s 1492 586 m 42 Y s 1486 628 m 13 X s 1492 560 m -43 Y s 1486 517 m 13 X s 1658 608 m 44 Y s 1652 652 m 13 X s
 1658 582 m -43 Y s 1652 539 m 13 X s 1806 461 m 35 Y s 1799 496 m 13 X s 1806 435 m -35 Y s 1799 400 m 13 X s 1958 648 m 45 Y s 1952 693 m 13 X s 1958 622 m -45 Y s 1952 577 m 13 X s black 0 0 1 c 310 471 m 65 153 d 80 300 d 93 -85 d 80 -385 d 69
 187 d 77 -102 d 60 -284 d 74 255 d 94 199 d 97 -210 d 89 -125 d 80 63 d 89 -57 d 135 193 d 166 22 d 148 -147 d 152 187 d s 310 471 375 624 455 924 548 839 628 454 697 641 774 539 834 255 908 510 1002 709 1099 499 1188 374 1268 437 1357 380 1492 573
 1658 595 1806 448 1958 635 18 { m20} R 1 1 0 c 309 591 m 43 Y s 303 634 m 13 X s 309 565 m -42 Y s 303 523 m 13 X s 375 648 m 45 Y s 368 693 m 13 X s 375 622 m -45 Y s 368 577 m 13 X s 455 801 m 52 Y s 449 853 m 13 X s 455 775 m -52 Y s 449 723 m 13
 X s 547 778 m 52 Y s 541 830 m 13 X s 547 752 m -51 Y s 541 701 m 13 X s 628 467 m 35 Y s 621 502 m 13 X s 628 441 m -36 Y s 621 405 m 13 X s 697 648 m 45 Y s 691 693 m 13 X s 697 622 m -45 Y s 691 577 m 13 X s 775 591 m 43 Y s 769 634 m 13 X s 775
 565 m -42 Y s 769 523 m 13 X s 835 308 m 25 Y s 828 333 m 13 X s 835 282 m -26 Y s 828 256 m 13 X s 908 710 m 49 Y s 902 759 m 13 X s 908 684 m -48 Y s 902 636 m 13 X s 1002 625 m 45 Y s 996 670 m 13 X s 1002 599 m -44 Y s 996 555 m 13 X s 1099 444
 m 34 Y s 1093 478 m 13 X s 1099 418 m -34 Y s 1093 384 m 13 X s 1188 359 m 29 Y s 1182 388 m 13 X s 1188 333 m -29 Y s 1182 304 m 13 X s 1268 467 m 35 Y s 1261 502 m 13 X s 1268 441 m -36 Y s 1261 405 m 13 X s 1356 529 m 39 Y s 1350 568 m 13 X s
 1356 503 m -39 Y s 1350 464 m 13 X s 1492 620 m 44 Y s 1486 664 m 13 X s 1492 594 m -44 Y s 1486 550 m 13 X s 1658 659 m 46 Y s 1652 705 m 13 X s 1658 633 m -46 Y s 1652 587 m 13 X s 1806 484 m 36 Y s 1800 520 m 13 X s 1806 458 m -37 Y s 1800 421 m
 13 X s 1958 659 m 46 Y s 1951 705 m 14 X s 1958 633 m -46 Y s 1951 587 m 14 X s black 1 1 0 c 309 578 m 66 57 d 80 153 d 92 -23 d 81 -311 d 69 181 d 78 -57 d 60 -283 d 73 402 d 94 -85 d 97 -181 d 89 -85 d 80 108 d 88 62 d 136 91 d 166 39 d 148 -175
 d 152 175 d s 309 578 375 635 455 788 547 765 628 454 697 635 775 578 835 295 908 697 1002 612 1099 431 1188 346 1268 454 1356 516 1492 607 1658 646 1806 471 1958 646 18 { m20} R 1 0 1 c 309 569 m 41 Y s 303 610 m 13 X s 309 543 m -42 Y s 303 501 m
 13 X s 374 557 m 41 Y s 368 598 m 13 X s 374 531 m -40 Y s 368 491 m 13 X s 455 829 m 54 Y s 449 883 m 13 X s 455 803 m -53 Y s 449 750 m 13 X s 548 807 m 52 Y s 541 859 m 13 X s 548 781 m -53 Y s 541 728 m 13 X s 628 455 m 35 Y s 622 490 m 13 X s
 628 429 m -35 Y s 622 394 m 13 X s 697 591 m 43 Y s 690 634 m 13 X s 697 565 m -42 Y s 690 523 m 13 X s 775 484 m 36 Y s 768 520 m 13 X s 775 458 m -37 Y s 768 421 m 13 X s 833 382 m 30 Y s 827 412 m 13 X s 833 356 m -31 Y s 827 325 m 13 X s 908 591
 m 43 Y s 902 634 m 13 X s 908 565 m -42 Y s 902 523 m 13 X s 1001 807 m 52 Y s 995 859 m 13 X s 1001 781 m -53 Y s 995 728 m 13 X s 1099 705 m 48 Y s 1093 753 m 13 X s 1099 679 m -48 Y s 1093 631 m 13 X s 1188 501 m 37 Y s 1181 538 m 13 X s 1188 475
 m -38 Y s 1181 437 m 13 X s 1268 591 m 43 Y s 1261 634 m 13 X s 1268 565 m -42 Y s 1261 523 m 13 X s 1356 489 m 37 Y s 1350 526 m 13 X s 1356 463 m -37 Y s 1350 426 m 13 X s 1492 665 m 46 Y s 1486 711 m 13 X s 1492 639 m -46 Y s 1486 593 m 13 X s
 1658 807 m 52 Y s 1652 859 m 13 X s 1658 781 m -53 Y s 1652 728 m 13 X s 1806 552 m 40 Y s 1799 592 m 13 X s 1806 526 m -41 Y s 1799 485 m 13 X s 1958 880 m 56 Y s 1952 936 m 13 X s 1958 854 m -55 Y s 1952 799 m 13 X s black 1 0 1 c 309 556 m 65 -12
 d 81 272 d 93 -22 d 80 -352 d 69 136 d 78 -107 d 58 -102 d 75 209 d 93 216 d 98 -102 d 89 -204 d 80 90 d 88 -102 d 136 176 d 166 142 d 148 -255 d 152 328 d s 309 556 374 544 455 816 548 794 628 442 697 578 775 471 833 369 908 578 1001 794 1099 692
 1188 488 1268 578 1356 476 1492 652 1658 794 1806 539 1958 867 18 { m20} R black[ 12 12] 0 sd 309 501 m 37 Y s 303 538 m 13 X s 309 475 m -38 Y s 303 437 m 13 X s 375 529 m 39 Y s 368 568 m 13 X s 375 503 m -39 Y s 368 464 m 13 X s 455 693 m 48 Y s
 449 741 m 13 X s 455 667 m -47 Y s 449 620 m 13 X s 548 620 m 44 Y s 541 664 m 13 X s 548 594 m -44 Y s 541 550 m 13 X s 629 325 m 27 Y s 622 352 m 13 X s 629 299 m -27 Y s 622 272 m 13 X s 696 608 m 44 Y s 690 652 m 13 X s 696 582 m -43 Y s 690 539
 m 13 X s 775 427 m 33 Y s 768 460 m 13 X s 775 401 m -33 Y s 768 368 m 13 X s 834 302 m 25 Y s 828 327 m 13 X s 834 276 m -25 Y s 828 251 m 13 X s 909 427 m 33 Y s 902 460 m 13 X s 909 401 m -33 Y s 902 368 m 13 X s 1002 461 m 35 Y s 995 496 m 13 X
 s 1002 435 m -35 Y s 995 400 m 13 X s 1099 421 m 33 Y s 1093 454 m 13 X s 1099 395 m -33 Y s 1093 362 m 13 X s 1188 336 m 28 Y s 1181 364 m 13 X s 1188 310 m -27 Y s 1181 283 m 13 X s 1268 348 m 28 Y s 1261 376 m 13 X s 1268 322 m -29 Y s 1261 293 m
 13 X s 1356 467 m 35 Y s 1350 502 m 13 X s 1356 441 m -36 Y s 1350 405 m 13 X s 1492 569 m 41 Y s 1486 610 m 13 X s 1492 543 m -42 Y s 1486 501 m 13 X s 1658 625 m 45 Y s 1651 670 m 13 X s 1658 599 m -44 Y s 1651 555 m 13 X s 1806 331 m 27 Y s 1799
 358 m 14 X s 1806 305 m -27 Y s 1799 278 m 14 X s 1958 461 m 35 Y s 1952 496 m 13 X s 1958 435 m -35 Y s 1952 400 m 13 X s 309 488 m 66 28 d 80 164 d 93 -73 d 81 -295 d 67 283 d 79 -181 d 59 -125 d 75 125 d 93 34 d 97 -40 d 89 -85 d 80 12 d 88 119 d
 136 102 d 166 56 d 148 -294 d 152 130 d s[  ] 0 sd 309 488 375 516 455 680 548 607 629 312 696 595 775 414 834 289 909 414 1002 448 1099 408 1188 323 1268 335 1356 454 1492 556 1658 612 1806 318 1958 448 18 { m21} R[ 12 12] 0 sd 1 0 0 c 309 557 m 41
 Y s 303 598 m 13 X s 309 531 m -40 Y s 303 491 m 13 X s 376 535 m 39 Y s 369 574 m 13 X s 376 509 m -40 Y s 369 469 m 13 X s 455 580 m 42 Y s 449 622 m 13 X s 455 554 m -42 Y s 449 512 m 13 X s 547 659 m 46 Y s 541 705 m 13 X s 547 633 m -46 Y s 541
 587 m 13 X s 628 399 m 31 Y s 622 430 m 13 X s 628 373 m -32 Y s 622 341 m 13 X s 697 427 m 33 Y s 690 460 m 13 X s 697 401 m -33 Y s 690 368 m 13 X s 775 546 m 40 Y s 768 586 m 13 X s 775 520 m -40 Y s 768 480 m 13 X s 835 251 m 21 Y s 829 272 m 13
 X s 835 225 m -21 Y s 829 204 m 13 X s 907 580 m 42 Y s 901 622 m 13 X s 907 554 m -42 Y s 901 512 m 13 X s 1003 478 m 36 Y s 996 514 m 13 X s 1003 452 m -36 Y s 996 416 m 13 X s 1100 410 m 32 Y s 1093 442 m 13 X s 1100 384 m -32 Y s 1093 352 m 13 X
 s 1188 438 m 34 Y s 1182 472 m 13 X s 1188 412 m -34 Y s 1182 378 m 13 X s 1268 353 m 29 Y s 1261 382 m 13 X s 1268 327 m -28 Y s 1261 299 m 13 X s 1357 489 m 37 Y s 1350 526 m 13 X s 1357 463 m -37 Y s 1350 426 m 13 X s 1492 620 m 44 Y s 1486 664 m
 13 X s 1492 594 m -44 Y s 1486 550 m 13 X s 1658 529 m 39 Y s 1651 568 m 13 X s 1658 503 m -39 Y s 1651 464 m 13 X s 1806 433 m 33 Y s 1799 466 m 13 X s 1806 407 m -34 Y s 1799 373 m 13 X s 1958 535 m 39 Y s 1952 574 m 13 X s 1958 509 m -40 Y s 1952
 469 m 13 X s black 1 0 0 c 309 544 m 67 -22 d 79 45 d 92 79 d 81 -260 d 69 28 d 78 119 d 60 -295 d 72 329 d 96 -102 d 97 -68 d 88 28 d 80 -85 d 89 136 d 135 131 d 166 -91 d 148 -96 d 152 102 d s[  ] 0 sd 309 544 376 522 455 567 547 646 628 386 697
 414 775 533 835 238 907 567 1003 465 1100 397 1188 425 1268 340 1357 476 1492 607 1658 516 1806 420 1958 522 18 { m21} R[ 12 12] 0 sd 0 1 0 c 309 642 m 45 Y s 303 687 m 13 X s 309 616 m -45 Y s 303 571 m 13 X s 375 716 m 49 Y s 369 765 m 13 X s 375
 690 m -49 Y s 369 641 m 13 X s 455 750 m 50 Y s 449 800 m 13 X s 455 724 m -50 Y s 449 674 m 13 X s 548 580 m 42 Y s 541 622 m 13 X s 548 554 m -42 Y s 541 512 m 13 X s 628 382 m 30 Y s 622 412 m 13 X s 628 356 m -31 Y s 622 325 m 13 X s 697 461 m
 35 Y s 691 496 m 13 X s 697 435 m -35 Y s 691 400 m 13 X s 774 472 m 36 Y s 767 508 m 13 X s 774 446 m -36 Y s 767 410 m 13 X s 835 280 m 23 Y s 829 303 m 13 X s 835 254 m -24 Y s 829 230 m 13 X s 908 529 m 39 Y s 901 568 m 13 X s 908 503 m -39 Y s
 901 464 m 13 X s 1002 506 m 38 Y s 995 544 m 13 X s 1002 480 m -38 Y s 995 442 m 13 X s 1099 438 m 34 Y s 1093 472 m 13 X s 1099 412 m -34 Y s 1093 378 m 13 X s 1188 495 m 37 Y s 1182 532 m 13 X s 1188 469 m -37 Y s 1182 432 m 13 X s 1268 336 m 28 Y
 s 1262 364 m 13 X s 1268 310 m -27 Y s 1262 283 m 13 X s 1356 421 m 33 Y s 1350 454 m 13 X s 1356 395 m -33 Y s 1350 362 m 13 X s 1493 637 m 44 Y s 1486 681 m 13 X s 1493 611 m -45 Y s 1486 566 m 13 X s 1658 557 m 41 Y s 1652 598 m 13 X s 1658 531 m
 -40 Y s 1652 491 m 13 X s 1806 433 m 33 Y s 1799 466 m 13 X s 1806 407 m -34 Y s 1799 373 m 13 X s 1958 603 m 43 Y s 1951 646 m 14 X s 1958 577 m -43 Y s 1951 534 m 14 X s black 0 1 0 c 309 629 m 66 74 d 80 34 d 93 -170 d 80 -198 d 69 79 d 77 11 d
 61 -192 d 73 249 d 94 -23 d 97 -68 d 89 57 d 80 -159 d 88 85 d 137 216 d 165 -80 d 148 -124 d 152 170 d s[  ] 0 sd 309 629 375 703 455 737 548 567 628 369 697 448 774 459 835 267 908 516 1002 493 1099 425 1188 482 1268 323 1356 408 1493 624 1658 544
 1806 420 1958 590 18 { m21} R[ 12 12] 0 sd 0 0 1 c 309 467 m 35 Y s 303 502 m 13 X s 309 441 m -36 Y s 303 405 m 13 X s 375 563 m 41 Y s 369 604 m 13 X s 375 537 m -41 Y s 369 496 m 13 X s 455 863 m 55 Y s 448 918 m 14 X s 455 837 m -55 Y s 448 782
 m 14 X s 548 784 m 52 Y s 541 836 m 13 X s 548 758 m -52 Y s 541 706 m 13 X s 628 450 m 34 Y s 622 484 m 13 X s 628 424 m -35 Y s 622 389 m 13 X s 696 557 m 41 Y s 690 598 m 13 X s 696 531 m -40 Y s 690 491 m 13 X s 774 540 m 40 Y s 768 580 m 13 X s
 774 514 m -40 Y s 768 474 m 13 X s 834 240 m 20 Y s 827 260 m 13 X s 834 214 m -20 Y s 827 194 m 13 X s 909 535 m 39 Y s 902 574 m 13 X s 909 509 m -40 Y s 902 469 m 13 X s 1002 710 m 49 Y s 995 759 m 13 X s 1002 684 m -48 Y s 995 636 m 13 X s 1099
 597 m 43 Y s 1093 640 m 13 X s 1099 571 m -43 Y s 1093 528 m 13 X s 1188 319 m 27 Y s 1182 346 m 13 X s 1188 293 m -26 Y s 1182 267 m 13 X s 1268 410 m 32 Y s 1261 442 m 13 X s 1268 384 m -32 Y s 1261 352 m 13 X s 1356 353 m 29 Y s 1350 382 m 13 X s
 1356 327 m -28 Y s 1350 299 m 13 X s 1492 818 m 53 Y s 1486 871 m 13 X s 1492 792 m -53 Y s 1486 739 m 13 X s 1658 642 m 45 Y s 1651 687 m 14 X s 1658 616 m -45 Y s 1651 571 m 14 X s 1806 450 m 34 Y s 1799 484 m 13 X s 1806 424 m -35 Y s 1799 389 m
 13 X s 1958 563 m 41 Y s 1952 604 m 13 X s 1958 537 m -41 Y s 1952 496 m 13 X s black 0 0 1 c 309 454 m 66 96 d 80 300 d 93 -79 d 80 -334 d 68 107 d 78 -17 d 60 -300 d 75 295 d 93 175 d 97 -113 d 89 -278 d 80 91 d 88 -57 d 136 465 d 166 -176 d 148
 -192 d 152 113 d s[  ] 0 sd 309 454 375 550 455 850 548 771 628 437 696 544 774 527 834 227 909 522 1002 697 1099 584 1188 306 1268 397 1356 340 1492 805 1658 629 1806 437 1958 550 18 { m21} R[ 12 12] 0 sd 1 1 0 c 309 665 m 46 Y s 303 711 m 13 X s
 309 639 m -46 Y s 303 593 m 13 X s 375 665 m 46 Y s 368 711 m 13 X s 375 639 m -46 Y s 368 593 m 13 X s 455 795 m 52 Y s 449 847 m 13 X s 455 769 m -52 Y s 449 717 m 13 X s 548 744 m 50 Y s 541 794 m 13 X s 548 718 m -50 Y s 541 668 m 13 X s 629 455
 m 35 Y s 622 490 m 13 X s 629 429 m -35 Y s 622 394 m 13 X s 697 739 m 49 Y s 690 788 m 13 X s 697 713 m -50 Y s 690 663 m 13 X s 775 569 m 41 Y s 768 610 m 13 X s 775 543 m -42 Y s 768 501 m 13 X s 835 302 m 25 Y s 828 327 m 13 X s 835 276 m -25 Y
 s 828 251 m 13 X s 908 546 m 40 Y s 902 586 m 13 X s 908 520 m -40 Y s 902 480 m 13 X s 1002 512 m 38 Y s 995 550 m 13 X s 1002 486 m -38 Y s 995 448 m 13 X s 1099 444 m 34 Y s 1093 478 m 13 X s 1099 418 m -34 Y s 1093 384 m 13 X s 1188 433 m 33 Y s
 1182 466 m 13 X s 1188 407 m -34 Y s 1182 373 m 13 X s 1268 495 m 37 Y s 1261 532 m 13 X s 1268 469 m -37 Y s 1261 432 m 13 X s 1356 467 m 35 Y s 1350 502 m 13 X s 1356 441 m -36 Y s 1350 405 m 13 X s 1493 676 m 47 Y s 1486 723 m 13 X s 1493 650 m
 -46 Y s 1486 604 m 13 X s 1658 580 m 42 Y s 1652 622 m 13 X s 1658 554 m -42 Y s 1652 512 m 13 X s 1806 433 m 33 Y s 1799 466 m 13 X s 1806 407 m -34 Y s 1799 373 m 13 X s 1958 812 m 53 Y s 1952 865 m 13 X s 1958 786 m -53 Y s 1952 733 m 13 X s
 black 1 1 0 c 309 652 m 66 X 80 130 d 93 -51 d 81 -289 d 68 284 d 78 -170 d 60 -267 d 73 244 d 94 -34 d 97 -68 d 89 -11 d 80 62 d 88 -28 d 137 209 d 165 -96 d 148 -147 d 152 379 d s[  ] 0 sd 309 652 375 652 455 782 548 731 629 442 697 726 775 556
 835 289 908 533 1002 499 1099 431 1188 420 1268 482 1356 454 1493 663 1658 567 1806 420 1958 799 18 { m21} R[ 12 12] 0 sd 1 0 1 c 309 591 m 43 Y s 303 634 m 13 X s 309 565 m -42 Y s 303 523 m 13 X s 375 495 m 37 Y s 368 532 m 13 X s 375 469 m -37 Y
 s 368 432 m 13 X s 455 778 m 52 Y s 449 830 m 13 X s 455 752 m -51 Y s 449 701 m 13 X s 548 869 m 55 Y s 541 924 m 13 X s 548 843 m -55 Y s 541 788 m 13 X s 628 319 m 27 Y s 622 346 m 13 X s 628 293 m -26 Y s 622 267 m 13 X s 697 557 m 41 Y s 690
 598 m 13 X s 697 531 m -40 Y s 690 491 m 13 X s 774 325 m 27 Y s 768 352 m 13 X s 774 299 m -27 Y s 768 272 m 13 X s 835 416 m 32 Y s 828 448 m 13 X s 835 390 m -33 Y s 828 357 m 13 X s 907 761 m 51 Y s 901 812 m 13 X s 907 735 m -50 Y s 901 685 m
 13 X s 1002 699 m 48 Y s 996 747 m 13 X s 1002 673 m -48 Y s 996 625 m 13 X s 1099 529 m 39 Y s 1093 568 m 13 X s 1099 503 m -39 Y s 1093 464 m 13 X s 1188 506 m 38 Y s 1182 544 m 13 X s 1188 480 m -38 Y s 1182 442 m 13 X s 1268 387 m 31 Y s 1261
 418 m 13 X s 1268 361 m -31 Y s 1261 330 m 13 X s 1356 489 m 37 Y s 1350 526 m 13 X s 1356 463 m -37 Y s 1350 426 m 13 X s 1492 863 m 55 Y s 1486 918 m 13 X s 1492 837 m -55 Y s 1486 782 m 13 X s 1658 676 m 47 Y s 1651 723 m 13 X s 1658 650 m -46 Y
 s 1651 604 m 13 X s 1806 478 m 36 Y s 1800 514 m 13 X s 1806 452 m -36 Y s 1800 416 m 13 X s 1958 608 m 44 Y s 1952 652 m 13 X s 1958 582 m -43 Y s 1952 539 m 13 X s black 1 0 1 c 309 578 m 66 -96 d 80 283 d 93 91 d 80 -550 d 69 238 d 77 -232 d 61
 91 d 72 345 d 95 -62 d 97 -170 d 89 -23 d 80 -119 d 88 102 d 136 374 d 166 -187 d 148 -198 d 152 130 d s[  ] 0 sd 309 578 375 482 455 765 548 856 628 306 697 544 774 312 835 403 907 748 1002 686 1099 516 1188 493 1268 374 1356 476 1492 850 1658 663
 1806 465 1958 595 18 { m21} R[ 12 12] 0 sd black
 gsave  2268 1538 0 0 C 325.821 1300.03 t 0 r /Helvetica-Bold findfont 58.6478 sf 0 0 m (Sct Disk \(left\)) show NC gr 
 gsave  2268 1538 0 0 C 430.084 1244.64 t 0 r /Helvetica-Bold findfont 58.6478 sf 0 0 m (Disk 0) show NC gr [  ] 0 sd 334 1256 m 80 X s 374 1256 m20
 gsave  2268 1538 0 0 C 430.084 1189.25 t 0 r /Helvetica-Bold findfont 58.6478 sf 0 0 m (Disk 1) show NC gr  1 0 0 c 334 1201 m 80 X s 374 1201 m20 black
 gsave  2268 1538 0 0 C 430.084 1133.86 t 0 r /Helvetica-Bold findfont 58.6478 sf 0 0 m (Disk 2) show NC gr  0 1 0 c 334 1146 m 80 X s 374 1146 m20 black
 gsave  2268 1538 0 0 C 430.084 1078.47 t 0 r /Helvetica-Bold findfont 58.6478 sf 0 0 m (Disk 3) show NC gr  0 0 1 c 334 1091 m 80 X s 374 1091 m20 black
 gsave  2268 1538 0 0 C 430.084 1026.34 t 0 r /Helvetica-Bold findfont 58.6478 sf 0 0 m (Disk 4) show NC gr  1 1 0 c 334 1036 m 80 X s 374 1036 m20 black
 gsave  2268 1538 0 0 C 430.084 970.948 t 0 r /Helvetica-Bold findfont 58.6478 sf 0 0 m (Disk 5) show NC gr  1 0 1 c 334 981 m 80 X s 374 981 m20 black
 gsave  2268 1538 0 0 C 622.319 1300.03 t 0 r /Helvetica-Bold findfont 58.6478 sf 0 0 m (  \(right\)) show NC gr 
 gsave  2268 1538 0 0 C 723.323 1244.64 t 0 r /Helvetica-Bold findfont 58.6478 sf 0 0 m (Disk 0) show NC gr [ 12 12] 0 sd 629 1256 m 80 X s[  ] 0 sd 669 1256 m21[ 12 12] 0 sd
 gsave  2268 1538 0 0 C 723.323 1189.25 t 0 r /Helvetica-Bold findfont 58.6478 sf 0 0 m (Disk 1) show NC gr  1 0 0 c 629 1201 m 80 X s[  ] 0 sd 669 1201 m21[ 12 12] 0 sd black
 gsave  2268 1538 0 0 C 723.323 1133.86 t 0 r /Helvetica-Bold findfont 58.6478 sf 0 0 m (Disk 2) show NC gr  0 1 0 c 629 1146 m 80 X s[  ] 0 sd 669 1146 m21[ 12 12] 0 sd black
 gsave  2268 1538 0 0 C 723.323 1078.47 t 0 r /Helvetica-Bold findfont 58.6478 sf 0 0 m (Disk 3) show NC gr  0 0 1 c 629 1091 m 80 X s[  ] 0 sd 669 1091 m21[ 12 12] 0 sd black
 gsave  2268 1538 0 0 C 723.323 1026.34 t 0 r /Helvetica-Bold findfont 58.6478 sf 0 0 m (Disk 4) show NC gr  1 1 0 c 629 1036 m 80 X s[  ] 0 sd 669 1036 m21[ 12 12] 0 sd black
 gsave  2268 1538 0 0 C 723.323 970.948 t 0 r /Helvetica-Bold findfont 58.6478 sf 0 0 m (Disk 5) show NC gr  1 0 1 c 629 981 m 80 X s[  ] 0 sd 669 981 m21[ 12 12] 0 sd
 gr  gr showpage
end
%%EOF
