%!PS-Adobe-2.0 EPSF-2.0
%%BoundingBox:  0 0 567 384
%%Title: outputDir/sct_occupancy/clus_sctlayer_mg.eps: c1_n23
%%Creator: ROOT Version 6.04/12
%%CreationDate: Mon Apr 25 16:02:08 2016
%%DocumentNeededResources: ProcSet (FontSetInit)
%%EndComments
%%BeginProlog
80 dict begin
/s {stroke} def /l {lineto} def /m {moveto} def /t {translate} def
/r {rotate} def /rl {roll}  def /R {repeat} def
/d {rlineto} def /rm {rmoveto} def /gr {grestore} def /f {eofill} def
/c {setrgbcolor} def /black {0 setgray} def /sd {setdash} def
/cl {closepath} def /sf {scalefont setfont} def /lw {setlinewidth} def
/box {m dup 0 exch d exch 0 d 0 exch neg d cl} def
/NC{systemdict begin initclip end}def/C{NC box clip newpath}def
/bl {box s} def /bf {gsave box gsave f grestore 1 lw [] 0 sd s grestore} def /Y { 0 exch d} def /X { 0 d} def 
/K {{pop pop 0 moveto} exch kshow} bind def
/ita {/ang 15 def gsave [1 0 ang dup sin exch cos div 1 0 0] concat} def 
/mp {newpath /y exch def /x exch def} def
/side {[w .77 mul w .23 mul] .385 w mul sd w 0 l currentpoint t -144 r} def
/mr {mp x y w2 0 360 arc} def /m24 {mr s} def /m20 {mr f} def
/mb {mp x y w2 add m w2 neg 0 d 0 w neg d w 0 d 0 w d cl} def
/mt {mp x y w2 add m w2 neg w neg d w 0 d cl} def
/m21 {mb f} def /m25 {mb s} def /m22 {mt f} def /m26{mt s} def
/m23 {mp x y w2 sub m w2 w d w neg 0 d cl f} def
/m27 {mp x y w2 add m w3 neg w2 neg d w3 w2 neg d w3 w2 d cl s} def
/m28 {mp x w2 sub y w2 sub w3 add m w3 0 d  0 w3 neg d w3 0 d 0 w3 d w3 0 d  0 w3 d w3 neg 0 d 0 w3 d w3 neg 0 d 0 w3 neg d w3 neg 0 d cl s } def
/m29 {mp gsave x w2 sub y w2 add w3 sub m currentpoint t 4 {side} repeat cl fill gr} def
/m30 {mp gsave x w2 sub y w2 add w3 sub m currentpoint t 4 {side} repeat cl s gr} def
/m31 {mp x y w2 sub m 0 w d x w2 sub y m w 0 d x w2 sub y w2 add m w w neg d x w2 sub y w2 sub m w w d s} def
/m32 {mp x y w2 sub m w2 w d w neg 0 d cl s} def
/m33 {mp x y w2 add m w3 neg w2 neg d w3 w2 neg d w3 w2 d cl f} def
/m34 {mp x w2 sub y w2 sub w3 add m w3 0 d  0 w3 neg d w3 0 d 0 w3 d w3 0 d  0 w3 d w3 neg 0 d 0 w3 d w3 neg 0 d 0 w3 neg d w3 neg 0 d cl f } def
/m2 {mp x y w2 sub m 0 w d x w2 sub y m w 0 d s} def
/m5 {mp x w2 sub y w2 sub m w w d x w2 sub y w2 add m w w neg d s} def
%%IncludeResource: ProcSet (FontSetInit)
%%IncludeResource: font Times-Roman
%%IncludeResource: font Times-Italic
%%IncludeResource: font Times-Bold
%%IncludeResource: font Times-BoldItalic
%%IncludeResource: font Helvetica
%%IncludeResource: font Helvetica-Oblique
%%IncludeResource: font Helvetica-Bold
%%IncludeResource: font Helvetica-BoldOblique
%%IncludeResource: font Courier
%%IncludeResource: font Courier-Oblique
%%IncludeResource: font Courier-Bold
%%IncludeResource: font Courier-BoldOblique
%%IncludeResource: font Symbol
%%IncludeResource: font ZapfDingbats
/reEncode {exch findfont dup length dict begin {1 index /FID eq  {pop pop} {def} ifelse } forall /Encoding exch def currentdict end dup /FontName get exch definefont pop } def [/Times-Bold /Times-Italic /Times-BoldItalic /Helvetica /Helvetica-Oblique
 /Helvetica-Bold /Helvetica-BoldOblique /Courier /Courier-Oblique /Courier-Bold /Courier-BoldOblique /Times-Roman /AvantGarde-Book /AvantGarde-BookOblique /AvantGarde-Demi /AvantGarde-DemiOblique /Bookman-Demi /Bookman-DemiItalic /Bookman-Light
 /Bookman-LightItalic /Helvetica-Narrow /Helvetica-Narrow-Bold /Helvetica-Narrow-BoldOblique /Helvetica-Narrow-Oblique /NewCenturySchlbk-Roman /NewCenturySchlbk-Bold /NewCenturySchlbk-BoldItalic /NewCenturySchlbk-Italic /Palatino-Bold
 /Palatino-BoldItalic /Palatino-Italic /Palatino-Roman ] {ISOLatin1Encoding reEncode } forall
%%EndProlog
%%BeginSetup
%%EndSetup
newpath  gsave  .25 .25 scale  gsave  0 0 t black[  ] 0 sd 3 lw 1 1 1 c 2268 1538 0 0 bf black 1 1 1 c 1814 1230 227 154 bf black 1814 1230 227 154 bl 1 1 1 c 1814 1230 227 154 bf black 1814 1230 227 154 bl 227 154 m 1814 X s
 gsave  2268 1538 0 0 C 1772.47 32.5821 t 0 r /Helvetica-Bold findfont 58.6478 sf 0 0 m (moduleID) show NC gr  250 191 m -37 Y s 309 172 m -18 Y s 368 172 m -18 Y s 427 172 m -18 Y s 486 172 m -18 Y s 545 191 m -37 Y s 604 172 m -18 Y s 663 172 m -18
 Y s 722 172 m -18 Y s 780 172 m -18 Y s 839 191 m -37 Y s 898 172 m -18 Y s 957 172 m -18 Y s 1016 172 m -18 Y s 1075 172 m -18 Y s 1134 191 m -37 Y s 1193 172 m -18 Y s 1252 172 m -18 Y s 1311 172 m -18 Y s 1369 172 m -18 Y s 1428 191 m -37 Y s
 1487 172 m -18 Y s 1546 172 m -18 Y s 1605 172 m -18 Y s 1664 172 m -18 Y s 1723 191 m -37 Y s 1782 172 m -18 Y s 1841 172 m -18 Y s 1900 172 m -18 Y s 1958 172 m -18 Y s 2017 191 m -37 Y s 250 191 m -37 Y s 2017 191 m -37 Y s
 gsave  2268 1538 0 0 C 228.075 97.7464 t 0 r /Helvetica-Bold findfont 58.6478 sf 0 0 m (30) show NC gr 
 gsave  2268 1538 0 0 C 198.751 97.7464 t 0 r /Symbol findfont 58.6478 sf 0 0 m (-) show NC gr 
 gsave  2268 1538 0 0 C 524.572 97.7464 t 0 r /Helvetica-Bold findfont 58.6478 sf 0 0 m (20) show NC gr 
 gsave  2268 1538 0 0 C 495.248 97.7464 t 0 r /Symbol findfont 58.6478 sf 0 0 m (-) show NC gr 
 gsave  2268 1538 0 0 C 817.812 97.7464 t 0 r /Helvetica-Bold findfont 58.6478 sf 0 0 m (10) show NC gr 
 gsave  2268 1538 0 0 C 788.488 97.7464 t 0 r /Symbol findfont 58.6478 sf 0 0 m (-) show NC gr 
 gsave  2268 1538 0 0 C 1117.57 97.7464 t 0 r /Helvetica-Bold findfont 58.6478 sf 0 0 m (0) show NC gr 
 gsave  2268 1538 0 0 C 1394.52 97.7464 t 0 r /Helvetica-Bold findfont 58.6478 sf 0 0 m (10) show NC gr 
 gsave  2268 1538 0 0 C 1687.75 97.7464 t 0 r /Helvetica-Bold findfont 58.6478 sf 0 0 m (20) show NC gr 
 gsave  2268 1538 0 0 C 1984.25 97.7464 t 0 r /Helvetica-Bold findfont 58.6478 sf 0 0 m (30) show NC gr  227 1384 m 1814 X s 250 1347 m 37 Y s 309 1366 m 18 Y s 368 1366 m 18 Y s 427 1366 m 18 Y s 486 1366 m 18 Y s 545 1347 m 37 Y s 604 1366 m 18 Y s
 663 1366 m 18 Y s 722 1366 m 18 Y s 780 1366 m 18 Y s 839 1347 m 37 Y s 898 1366 m 18 Y s 957 1366 m 18 Y s 1016 1366 m 18 Y s 1075 1366 m 18 Y s 1134 1347 m 37 Y s 1193 1366 m 18 Y s 1252 1366 m 18 Y s 1311 1366 m 18 Y s 1369 1366 m 18 Y s 1428
 1347 m 37 Y s 1487 1366 m 18 Y s 1546 1366 m 18 Y s 1605 1366 m 18 Y s 1664 1366 m 18 Y s 1723 1347 m 37 Y s 1782 1366 m 18 Y s 1841 1366 m 18 Y s 1900 1366 m 18 Y s 1958 1366 m 18 Y s 2017 1347 m 37 Y s 250 1347 m 37 Y s 2017 1347 m 37 Y s 227 154
 m 1230 Y s
 gsave  2268 1538 0 0 C 97.7464 710.291 t 90 r /Helvetica-Bold findfont 58.6478 sf 0 0 m (Cluster per etaModuleID) show NC gr  281 183 m -54 X s 254 226 m -27 X s 254 268 m -27 X s 254 311 m -27 X s 254 354 m -27 X s 281 397 m -54 X s 254 440 m -27 X
 s 254 483 m -27 X s 254 526 m -27 X s 254 569 m -27 X s 281 612 m -54 X s 254 655 m -27 X s 254 697 m -27 X s 254 740 m -27 X s 254 783 m -27 X s 281 826 m -54 X s 254 869 m -27 X s 254 912 m -27 X s 254 955 m -27 X s 254 998 m -27 X s 281 1041 m
 -54 X s 254 1084 m -27 X s 254 1127 m -27 X s 254 1169 m -27 X s 254 1212 m -27 X s 281 1255 m -54 X s 281 183 m -54 X s 281 1255 m -54 X s 254 1298 m -27 X s 254 1341 m -27 X s 254 1384 m -27 X s
 gsave  2268 1538 0 0 C 149.878 162.911 t 0 r /Helvetica-Bold findfont 58.6478 sf 0 0 m (10) show NC gr 
 gsave  2268 1538 0 0 C 149.878 374.695 t 0 r /Helvetica-Bold findfont 58.6478 sf 0 0 m (20) show NC gr 
 gsave  2268 1538 0 0 C 149.878 589.737 t 0 r /Helvetica-Bold findfont 58.6478 sf 0 0 m (30) show NC gr 
 gsave  2268 1538 0 0 C 149.878 804.779 t 0 r /Helvetica-Bold findfont 58.6478 sf 0 0 m (40) show NC gr 
 gsave  2268 1538 0 0 C 149.878 1019.82 t 0 r /Helvetica-Bold findfont 58.6478 sf 0 0 m (50) show NC gr 
 gsave  2268 1538 0 0 C 149.878 1234.86 t 0 r /Helvetica-Bold findfont 58.6478 sf 0 0 m (60) show NC gr  2041 154 m 1230 Y s 1987 183 m 54 X s 2014 226 m 27 X s 2014 268 m 27 X s 2014 311 m 27 X s 2014 354 m 27 X s 1987 397 m 54 X s 2014 440 m 27 X s
 2014 483 m 27 X s 2014 526 m 27 X s 2014 569 m 27 X s 1987 612 m 54 X s 2014 655 m 27 X s 2014 697 m 27 X s 2014 740 m 27 X s 2014 783 m 27 X s 1987 826 m 54 X s 2014 869 m 27 X s 2014 912 m 27 X s 2014 955 m 27 X s 2014 998 m 27 X s 1987 1041 m 54
 X s 2014 1084 m 27 X s 2014 1127 m 27 X s 2014 1169 m 27 X s 2014 1212 m 27 X s 1987 1255 m 54 X s 1987 183 m 54 X s 1987 1255 m 54 X s 2014 1298 m 27 X s 2014 1341 m 27 X s 2014 1384 m 27 X s 309 487 m 53 Y s 303 540 m 13 X s 309 461 m -53 Y s 303
 408 m 13 X s 339 333 m 42 Y s 332 375 m 13 X s 339 307 m -42 Y s 332 265 m 13 X s 368 522 m 55 Y s 362 577 m 13 X s 368 496 m -55 Y s 362 441 m 13 X s 398 410 m 48 Y s 391 458 m 13 X s 398 384 m -48 Y s 391 336 m 13 X s 427 573 m 58 Y s 421 631 m 13
 X s 427 547 m -58 Y s 421 489 m 13 X s 456 487 m 53 Y s 450 540 m 13 X s 456 461 m -53 Y s 450 408 m 13 X s 486 462 m 51 Y s 479 513 m 13 X s 486 436 m -52 Y s 479 384 m 13 X s 515 573 m 58 Y s 509 631 m 13 X s 515 547 m -58 Y s 509 489 m 13 X s 545
 419 m 48 Y s 538 467 m 13 X s 545 393 m -49 Y s 538 344 m 13 X s 574 505 m 54 Y s 568 559 m 13 X s 574 479 m -54 Y s 568 425 m 13 X s 604 436 m 49 Y s 597 485 m 13 X s 604 410 m -50 Y s 597 360 m 13 X s 633 530 m 56 Y s 627 586 m 13 X s 633 504 m
 -55 Y s 627 449 m 13 X s 663 470 m 52 Y s 656 522 m 13 X s 663 444 m -52 Y s 656 392 m 13 X s 692 573 m 58 Y s 686 631 m 13 X s 692 547 m -58 Y s 686 489 m 13 X s 722 582 m 59 Y s 715 641 m 13 X s 722 556 m -59 Y s 715 497 m 13 X s 751 685 m 64 Y s
 744 749 m 14 X s 751 659 m -65 Y s 744 594 m 14 X s 780 771 m 69 Y s 774 840 m 13 X s 780 745 m -70 Y s 774 675 m 13 X s 810 788 m 70 Y s 803 858 m 13 X s 810 762 m -70 Y s 803 692 m 13 X s 839 642 m 62 Y s 833 704 m 13 X s 839 616 m -62 Y s 833 554
 m 13 X s 869 513 m 55 Y s 862 568 m 13 X s 869 487 m -54 Y s 862 433 m 13 X s 898 762 m 69 Y s 892 831 m 13 X s 898 736 m -69 Y s 892 667 m 13 X s 928 788 m 70 Y s 921 858 m 13 X s 928 762 m -70 Y s 921 692 m 13 X s 957 650 m 63 Y s 951 713 m 13 X s
 957 624 m -62 Y s 951 562 m 13 X s 987 625 m 61 Y s 980 686 m 13 X s 987 599 m -62 Y s 980 537 m 13 X s 1016 702 m 66 Y s 1010 768 m 13 X s 1016 676 m -66 Y s 1010 610 m 13 X s 1046 813 m 72 Y s 1039 885 m 13 X s 1046 787 m -71 Y s 1039 716 m 13 X s
 1075 676 m 64 Y s 1068 740 m 13 X s 1075 650 m -64 Y s 1068 586 m 13 X s 1104 805 m 71 Y s 1098 876 m 13 X s 1104 779 m -71 Y s 1098 708 m 13 X s 1163 599 m 60 Y s 1157 659 m 13 X s 1163 573 m -60 Y s 1157 513 m 13 X s 1193 779 m 70 Y s 1186 849 m
 13 X s 1193 753 m -70 Y s 1186 683 m 13 X s 1222 625 m 61 Y s 1216 686 m 13 X s 1222 599 m -62 Y s 1216 537 m 13 X s 1252 685 m 64 Y s 1245 749 m 13 X s 1252 659 m -65 Y s 1245 594 m 13 X s 1281 650 m 63 Y s 1275 713 m 13 X s 1281 624 m -62 Y s 1275
 562 m 13 X s 1311 839 m 73 Y s 1304 912 m 13 X s 1311 813 m -73 Y s 1304 740 m 13 X s 1340 745 m 68 Y s 1333 813 m 14 X s 1340 719 m -68 Y s 1333 651 m 14 X s 1369 719 m 67 Y s 1363 786 m 13 X s 1369 693 m -67 Y s 1363 626 m 13 X s 1399 642 m 62 Y s
 1392 704 m 13 X s 1399 616 m -62 Y s 1392 554 m 13 X s 1428 676 m 64 Y s 1422 740 m 13 X s 1428 650 m -64 Y s 1422 586 m 13 X s 1458 436 m 49 Y s 1451 485 m 13 X s 1458 410 m -50 Y s 1451 360 m 13 X s 1487 573 m 58 Y s 1481 631 m 13 X s 1487 547 m
 -58 Y s 1481 489 m 13 X s 1517 573 m 58 Y s 1510 631 m 13 X s 1517 547 m -58 Y s 1510 489 m 13 X s 1546 659 m 63 Y s 1540 722 m 13 X s 1546 633 m -63 Y s 1540 570 m 13 X s 1576 753 m 69 Y s 1569 822 m 13 X s 1576 727 m -68 Y s 1569 659 m 13 X s 1605
 565 m 57 Y s 1599 622 m 13 X s 1605 539 m -58 Y s 1599 481 m 13 X s 1635 496 m 53 Y s 1628 549 m 13 X s 1635 470 m -53 Y s 1628 417 m 13 X s 1664 453 m 51 Y s 1657 504 m 13 X s 1664 427 m -51 Y s 1657 376 m 13 X s 1693 522 m 55 Y s 1687 577 m 13 X s
 1693 496 m -55 Y s 1687 441 m 13 X s 1723 590 m 60 Y s 1716 650 m 13 X s 1723 564 m -59 Y s 1716 505 m 13 X s 1752 573 m 58 Y s 1746 631 m 13 X s 1752 547 m -58 Y s 1746 489 m 13 X s 1782 462 m 51 Y s 1775 513 m 13 X s 1782 436 m -52 Y s 1775 384 m
 13 X s 1811 668 m 63 Y s 1805 731 m 13 X s 1811 642 m -64 Y s 1805 578 m 13 X s 1841 393 m 46 Y s 1834 439 m 13 X s 1841 367 m -46 Y s 1834 321 m 13 X s 1870 487 m 53 Y s 1864 540 m 13 X s 1870 461 m -53 Y s 1864 408 m 13 X s 1900 470 m 52 Y s 1893
 522 m 13 X s 1900 444 m -52 Y s 1893 392 m 13 X s 1929 539 m 56 Y s 1923 595 m 13 X s 1929 513 m -56 Y s 1923 457 m 13 X s 1958 410 m 48 Y s 1952 458 m 13 X s 1958 384 m -48 Y s 1952 336 m 13 X s 309 474 m 30 -154 d 29 189 d 30 -112 d 29 163 d 29
 -86 d 30 -25 d 29 111 d 30 -154 d 29 86 d 30 -69 d 29 94 d 30 -60 d 29 103 d 30 9 d 29 103 d 29 86 d 30 17 d 29 -146 d 30 -129 d 29 249 d 30 26 d 29 -138 d 30 -25 d 29 77 d 30 111 d 29 -137 d 29 129 d 59 -206 d 30 180 d 29 -154 d 30 60 d 29 -35 d 30
 189 d 29 -94 d 29 -26 d 30 -77 d 29 34 d 30 -240 d 29 137 d 30 X 29 86 d 30 94 d 29 -188 d 30 -69 d 29 -43 d 29 69 d 30 68 d 29 -17 d 30 -111 d 29 206 d 30 -275 d 29 94 d 30 -17 d 29 69 d 29 -129 d s /w 26 def /w2 {w 2 div} def /w3 {w 3 div} def 309
 474 339 320 368 509 398 397 427 560 456 474 486 449 515 560 545 406 574 492 604 423 633 517 663 457 692 560 722 569 751 672 780 758 810 775 839 629 869 500 898 749 928 775 957 637 987 612 1016 689 1046 800 1075 663 1104 792 1163 586 1193 766 1222
 612 1252 672 1281 637 1311 826 1340 732 1369 706 1399 629 1428 663 1458 423 1487 560 1517 560 1546 646 1576 740 1605 552 1635 483 1664 440 1693 509 1723 577 1752 560 1782 449 1811 655 1841 380 1870 474 1900 457 1929 526 1958 397 56 { m20} R 1 0 0 c
 309 256 m 35 Y s 303 291 m 13 X s 309 230 m -36 Y s 303 194 m 13 X s 339 445 m 50 Y s 332 495 m 13 X s 339 418 m -50 Y s 332 368 m 13 X s 368 436 m 49 Y s 362 485 m 13 X s 368 410 m -50 Y s 362 360 m 13 X s 398 307 m 40 Y s 391 347 m 13 X s 398 281
 m -40 Y s 391 241 m 13 X s 427 530 m 56 Y s 421 586 m 13 X s 427 504 m -55 Y s 421 449 m 13 X s 456 273 m 37 Y s 450 310 m 13 X s 456 247 m -37 Y s 450 210 m 13 X s 486 367 m 45 Y s 479 412 m 13 X s 486 341 m -44 Y s 479 297 m 13 X s 515 505 m 54 Y
 s 509 559 m 13 X s 515 479 m -54 Y s 509 425 m 13 X s 545 410 m 48 Y s 538 458 m 13 X s 545 384 m -48 Y s 538 336 m 13 X s 574 462 m 51 Y s 568 513 m 13 X s 574 436 m -52 Y s 568 384 m 13 X s 604 470 m 52 Y s 597 522 m 13 X s 604 444 m -52 Y s 597
 392 m 13 X s 633 547 m 57 Y s 627 604 m 13 X s 633 521 m -56 Y s 627 465 m 13 X s 663 513 m 55 Y s 656 568 m 13 X s 663 487 m -54 Y s 656 433 m 13 X s 692 427 m 49 Y s 686 476 m 13 X s 692 401 m -49 Y s 686 352 m 13 X s 722 513 m 55 Y s 715 568 m 13
 X s 722 487 m -54 Y s 715 433 m 13 X s 751 470 m 52 Y s 744 522 m 14 X s 751 444 m -52 Y s 744 392 m 14 X s 780 427 m 49 Y s 774 476 m 13 X s 780 401 m -49 Y s 774 352 m 13 X s 810 659 m 63 Y s 803 722 m 13 X s 810 633 m -63 Y s 803 570 m 13 X s 839
 599 m 60 Y s 833 659 m 13 X s 839 573 m -60 Y s 833 513 m 13 X s 869 359 m 44 Y s 862 403 m 13 X s 869 333 m -44 Y s 862 289 m 13 X s 898 333 m 42 Y s 892 375 m 13 X s 898 307 m -42 Y s 892 265 m 13 X s 928 470 m 52 Y s 921 522 m 13 X s 928 444 m
 -52 Y s 921 392 m 13 X s 957 693 m 66 Y s 951 759 m 13 X s 957 667 m -65 Y s 951 602 m 13 X s 987 419 m 48 Y s 980 467 m 13 X s 987 393 m -49 Y s 980 344 m 13 X s 1016 693 m 66 Y s 1010 759 m 13 X s 1016 667 m -65 Y s 1010 602 m 13 X s 1046 505 m 54
 Y s 1039 559 m 13 X s 1046 479 m -54 Y s 1039 425 m 13 X s 1075 565 m 57 Y s 1068 622 m 13 X s 1075 539 m -58 Y s 1068 481 m 13 X s 1104 625 m 61 Y s 1098 686 m 13 X s 1104 599 m -62 Y s 1098 537 m 13 X s 1163 702 m 66 Y s 1157 768 m 13 X s 1163 676
 m -66 Y s 1157 610 m 13 X s 1193 462 m 51 Y s 1186 513 m 13 X s 1193 436 m -52 Y s 1186 384 m 13 X s 1222 453 m 51 Y s 1216 504 m 13 X s 1222 427 m -51 Y s 1216 376 m 13 X s 1252 590 m 60 Y s 1245 650 m 13 X s 1252 564 m -59 Y s 1245 505 m 13 X s
 1281 522 m 55 Y s 1275 577 m 13 X s 1281 496 m -55 Y s 1275 441 m 13 X s 1311 547 m 57 Y s 1304 604 m 13 X s 1311 521 m -56 Y s 1304 465 m 13 X s 1340 359 m 44 Y s 1333 403 m 14 X s 1340 333 m -44 Y s 1333 289 m 14 X s 1369 650 m 63 Y s 1363 713 m
 13 X s 1369 624 m -62 Y s 1363 562 m 13 X s 1399 522 m 55 Y s 1392 577 m 13 X s 1399 496 m -55 Y s 1392 441 m 13 X s 1428 505 m 54 Y s 1422 559 m 13 X s 1428 479 m -54 Y s 1422 425 m 13 X s 1458 487 m 53 Y s 1451 540 m 13 X s 1458 461 m -53 Y s 1451
 408 m 13 X s 1487 513 m 55 Y s 1481 568 m 13 X s 1487 487 m -54 Y s 1481 433 m 13 X s 1517 513 m 55 Y s 1510 568 m 13 X s 1517 487 m -54 Y s 1510 433 m 13 X s 1546 522 m 55 Y s 1540 577 m 13 X s 1546 496 m -55 Y s 1540 441 m 13 X s 1576 590 m 60 Y s
 1569 650 m 13 X s 1576 564 m -59 Y s 1569 505 m 13 X s 1605 479 m 52 Y s 1599 531 m 13 X s 1605 453 m -53 Y s 1599 400 m 13 X s 1635 599 m 60 Y s 1628 659 m 13 X s 1635 573 m -60 Y s 1628 513 m 13 X s 1664 419 m 48 Y s 1657 467 m 13 X s 1664 393 m
 -49 Y s 1657 344 m 13 X s 1693 479 m 52 Y s 1687 531 m 13 X s 1693 453 m -53 Y s 1687 400 m 13 X s 1723 410 m 48 Y s 1716 458 m 13 X s 1723 384 m -48 Y s 1716 336 m 13 X s 1752 393 m 46 Y s 1746 439 m 13 X s 1752 367 m -46 Y s 1746 321 m 13 X s 1782
 367 m 45 Y s 1775 412 m 13 X s 1782 341 m -44 Y s 1775 297 m 13 X s 1811 342 m 42 Y s 1805 384 m 13 X s 1811 315 m -42 Y s 1805 273 m 13 X s 1841 445 m 50 Y s 1834 495 m 13 X s 1841 418 m -50 Y s 1834 368 m 13 X s 1870 419 m 48 Y s 1864 467 m 13 X s
 1870 393 m -49 Y s 1864 344 m 13 X s 1900 333 m 42 Y s 1893 375 m 13 X s 1900 307 m -42 Y s 1893 265 m 13 X s 1929 513 m 55 Y s 1923 568 m 13 X s 1929 487 m -54 Y s 1923 433 m 13 X s 1958 384 m 46 Y s 1952 430 m 13 X s 1958 358 m -45 Y s 1952 313 m
 13 X s black 1 0 0 c 309 243 m 30 188 d 29 -8 d 30 -129 d 29 223 d 29 -257 d 30 94 d 29 138 d 30 -95 d 29 52 d 30 8 d 29 77 d 30 -34 d 29 -86 d 30 86 d 29 -43 d 29 -43 d 30 232 d 29 -60 d 30 -240 d 29 -26 d 30 137 d 29 223 d 30 -274 d 29 274 d 30
 -188 d 29 60 d 29 60 d 59 77 d 30 -240 d 29 -9 d 30 137 d 29 -68 d 30 25 d 29 -188 d 29 291 d 30 -128 d 29 -17 d 30 -18 d 29 26 d 30 X 29 9 d 30 68 d 29 -111 d 30 120 d 29 -180 d 29 60 d 30 -69 d 29 -17 d 30 -26 d 29 -25 d 30 102 d 29 -25 d 30 -86 d
 29 180 d 29 -129 d s 309 243 339 431 368 423 398 294 427 517 456 260 486 354 515 492 545 397 574 449 604 457 633 534 663 500 692 414 722 500 751 457 780 414 810 646 839 586 869 346 898 320 928 457 957 680 987 406 1016 680 1046 492 1075 552 1104 612
 1163 689 1193 449 1222 440 1252 577 1281 509 1311 534 1340 346 1369 637 1399 509 1428 492 1458 474 1487 500 1517 500 1546 509 1576 577 1605 466 1635 586 1664 406 1693 466 1723 397 1752 380 1782 354 1811 329 1841 431 1870 406 1900 320 1929 500 1958
 371 56 { m20} R 0 1 0 c 722 556 m 57 Y s 715 613 m 13 X s 722 530 m -57 Y s 715 473 m 13 X s 751 530 m 56 Y s 744 586 m 14 X s 751 504 m -55 Y s 744 449 m 14 X s 780 736 m 68 Y s 774 804 m 13 X s 780 710 m -67 Y s 774 643 m 13 X s 810 805 m 71 Y s
 803 876 m 13 X s 810 779 m -71 Y s 803 708 m 13 X s 839 728 m 67 Y s 833 795 m 13 X s 839 702 m -67 Y s 833 635 m 13 X s 869 693 m 66 Y s 862 759 m 13 X s 869 667 m -65 Y s 862 602 m 13 X s 898 925 m 77 Y s 892 1002 m 13 X s 898 899 m -77 Y s 892
 822 m 13 X s 928 899 m 76 Y s 921 975 m 13 X s 928 873 m -75 Y s 921 798 m 13 X s 957 650 m 63 Y s 951 713 m 13 X s 957 624 m -62 Y s 951 562 m 13 X s 987 874 m 74 Y s 980 948 m 13 X s 987 847 m -74 Y s 980 773 m 13 X s 1016 736 m 68 Y s 1010 804 m
 13 X s 1016 710 m -67 Y s 1010 643 m 13 X s 1046 899 m 76 Y s 1039 975 m 13 X s 1046 873 m -75 Y s 1039 798 m 13 X s 1075 685 m 64 Y s 1068 749 m 13 X s 1075 659 m -65 Y s 1068 594 m 13 X s 1104 642 m 62 Y s 1098 704 m 13 X s 1104 616 m -62 Y s 1098
 554 m 13 X s 1163 865 m 74 Y s 1157 939 m 13 X s 1163 839 m -74 Y s 1157 765 m 13 X s 1193 668 m 63 Y s 1186 731 m 13 X s 1193 642 m -64 Y s 1186 578 m 13 X s 1222 616 m 61 Y s 1216 677 m 13 X s 1222 590 m -61 Y s 1216 529 m 13 X s 1252 642 m 62 Y s
 1245 704 m 13 X s 1252 616 m -62 Y s 1245 554 m 13 X s 1281 676 m 64 Y s 1275 740 m 13 X s 1281 650 m -64 Y s 1275 586 m 13 X s 1311 719 m 67 Y s 1304 786 m 13 X s 1311 693 m -67 Y s 1304 626 m 13 X s 1340 702 m 66 Y s 1333 768 m 14 X s 1340 676 m
 -66 Y s 1333 610 m 14 X s 1369 616 m 61 Y s 1363 677 m 13 X s 1369 590 m -61 Y s 1363 529 m 13 X s 1399 753 m 69 Y s 1392 822 m 13 X s 1399 727 m -68 Y s 1392 659 m 13 X s 1428 676 m 64 Y s 1422 740 m 13 X s 1428 650 m -64 Y s 1422 586 m 13 X s 1458
 719 m 67 Y s 1451 786 m 13 X s 1458 693 m -67 Y s 1451 626 m 13 X s 1487 719 m 67 Y s 1481 786 m 13 X s 1487 693 m -67 Y s 1481 626 m 13 X s 1517 565 m 57 Y s 1510 622 m 13 X s 1517 539 m -58 Y s 1510 481 m 13 X s 1546 796 m 71 Y s 1540 867 m 13 X s
 1546 770 m -70 Y s 1540 700 m 13 X s black 0 1 0 c 722 543 m 29 -26 d 29 206 d 30 69 d 29 -77 d 30 -35 d 29 232 d 30 -26 d 29 -249 d 30 224 d 29 -138 d 30 163 d 29 -214 d 29 -43 d 59 223 d 30 -197 d 29 -52 d 30 26 d 29 34 d 30 43 d 29 -17 d 29 -86 d
 30 137 d 29 -77 d 30 43 d 29 X 30 -154 d 29 231 d s 722 543 751 517 780 723 810 792 839 715 869 680 898 912 928 886 957 637 987 861 1016 723 1046 886 1075 672 1104 629 1163 852 1193 655 1222 603 1252 629 1281 663 1311 706 1340 689 1369 603 1399 740
 1428 663 1458 706 1487 706 1517 552 1546 783 28 { m20} R 0 0 1 c 722 419 m 48 Y s 715 467 m 13 X s 722 393 m -49 Y s 715 344 m 13 X s 751 410 m 48 Y s 744 458 m 14 X s 751 384 m -48 Y s 744 336 m 14 X s 780 445 m 50 Y s 774 495 m 13 X s 780 418 m
 -50 Y s 774 368 m 13 X s 810 453 m 51 Y s 803 504 m 13 X s 810 427 m -51 Y s 803 376 m 13 X s 839 530 m 56 Y s 833 586 m 13 X s 839 504 m -55 Y s 833 449 m 13 X s 869 453 m 51 Y s 862 504 m 13 X s 869 427 m -51 Y s 862 376 m 13 X s 898 402 m 47 Y s
 892 449 m 13 X s 898 376 m -47 Y s 892 329 m 13 X s 928 711 m 66 Y s 921 777 m 13 X s 928 684 m -66 Y s 921 618 m 13 X s 957 556 m 57 Y s 951 613 m 13 X s 957 530 m -57 Y s 951 473 m 13 X s 987 582 m 59 Y s 980 641 m 13 X s 987 556 m -59 Y s 980 497
 m 13 X s 1016 874 m 74 Y s 1010 948 m 13 X s 1016 847 m -74 Y s 1010 773 m 13 X s 1046 736 m 68 Y s 1039 804 m 13 X s 1046 710 m -67 Y s 1039 643 m 13 X s 1075 436 m 49 Y s 1068 485 m 13 X s 1075 410 m -50 Y s 1068 360 m 13 X s 1104 513 m 55 Y s
 1098 568 m 13 X s 1104 487 m -54 Y s 1098 433 m 13 X s 1163 693 m 66 Y s 1157 759 m 13 X s 1163 667 m -65 Y s 1157 602 m 13 X s 1193 479 m 52 Y s 1186 531 m 13 X s 1193 453 m -53 Y s 1186 400 m 13 X s 1222 419 m 48 Y s 1216 467 m 13 X s 1222 393 m
 -49 Y s 1216 344 m 13 X s 1252 633 m 62 Y s 1245 695 m 13 X s 1252 607 m -62 Y s 1245 545 m 13 X s 1281 367 m 45 Y s 1275 412 m 13 X s 1281 341 m -44 Y s 1275 297 m 13 X s 1311 402 m 47 Y s 1304 449 m 13 X s 1311 376 m -47 Y s 1304 329 m 13 X s 1340
 693 m 66 Y s 1333 759 m 14 X s 1340 667 m -65 Y s 1333 602 m 14 X s 1369 436 m 49 Y s 1363 485 m 13 X s 1369 410 m -50 Y s 1363 360 m 13 X s 1399 453 m 51 Y s 1392 504 m 13 X s 1399 427 m -51 Y s 1392 376 m 13 X s 1428 513 m 55 Y s 1422 568 m 13 X s
 1428 487 m -54 Y s 1422 433 m 13 X s 1458 376 m 45 Y s 1451 421 m 13 X s 1458 350 m -45 Y s 1451 305 m 13 X s 1487 445 m 50 Y s 1481 495 m 13 X s 1487 418 m -50 Y s 1481 368 m 13 X s 1517 445 m 50 Y s 1510 495 m 13 X s 1517 418 m -50 Y s 1510 368 m
 13 X s 1546 376 m 45 Y s 1540 421 m 13 X s 1546 350 m -45 Y s 1540 305 m 13 X s black 0 0 1 c 722 406 m 29 -9 d 29 34 d 30 9 d 29 77 d 30 -77 d 29 -51 d 30 308 d 29 -154 d 30 26 d 29 292 d 30 -138 d 29 -300 d 29 77 d 59 180 d 30 -214 d 29 -60 d 30
 214 d 29 -266 d 30 35 d 29 291 d 29 -257 d 30 17 d 29 60 d 30 -137 d 29 68 d 30 X 29 -68 d s 722 406 751 397 780 431 810 440 839 517 869 440 898 389 928 697 957 543 987 569 1016 861 1046 723 1075 423 1104 500 1163 680 1193 466 1222 406 1252 620 1281
 354 1311 389 1340 680 1369 423 1399 440 1428 500 1458 363 1487 431 1517 431 1546 363 28 { m20} R black
 gsave  2268 1538 0 0 C 1645.4 1283.74 t 0 r /Helvetica-Bold findfont 58.6478 sf 0 0 m (SCT Barrel) show NC gr 
 gsave  2268 1538 0 0 C 1762.69 1205.54 t 0 r /Helvetica-Bold findfont 58.6478 sf 0 0 m (Layer 0) show NC gr  1652 1223 m 92 X s 1698 1223 m20
 gsave  2268 1538 0 0 C 1762.69 1130.6 t 0 r /Helvetica-Bold findfont 58.6478 sf 0 0 m (Layer 1) show NC gr  1 0 0 c 1652 1146 m 92 X s 1698 1146 m20 black
 gsave  2268 1538 0 0 C 1762.69 1052.4 t 0 r /Helvetica-Bold findfont 58.6478 sf 0 0 m (Layer 2) show NC gr  0 1 0 c 1652 1069 m 92 X s 1698 1069 m20 black
 gsave  2268 1538 0 0 C 1762.69 977.464 t 0 r /Helvetica-Bold findfont 58.6478 sf 0 0 m (Layer 3) show NC gr  0 0 1 c 1652 992 m 92 X s 1698 992 m20
 gr  gr showpage
end
%%EOF
