%!PS-Adobe-2.0 EPSF-2.0
%%BoundingBox:  0 0 567 384
%%Title: outputDir/sct_occupancy/clus_sctlayer_mgz.eps: c1_n24
%%Creator: ROOT Version 6.04/12
%%CreationDate: Mon Apr 25 16:02:08 2016
%%DocumentNeededResources: ProcSet (FontSetInit)
%%EndComments
%%BeginProlog
80 dict begin
/s {stroke} def /l {lineto} def /m {moveto} def /t {translate} def
/r {rotate} def /rl {roll}  def /R {repeat} def
/d {rlineto} def /rm {rmoveto} def /gr {grestore} def /f {eofill} def
/c {setrgbcolor} def /black {0 setgray} def /sd {setdash} def
/cl {closepath} def /sf {scalefont setfont} def /lw {setlinewidth} def
/box {m dup 0 exch d exch 0 d 0 exch neg d cl} def
/NC{systemdict begin initclip end}def/C{NC box clip newpath}def
/bl {box s} def /bf {gsave box gsave f grestore 1 lw [] 0 sd s grestore} def /Y { 0 exch d} def /X { 0 d} def 
/K {{pop pop 0 moveto} exch kshow} bind def
/ita {/ang 15 def gsave [1 0 ang dup sin exch cos div 1 0 0] concat} def 
/mp {newpath /y exch def /x exch def} def
/side {[w .77 mul w .23 mul] .385 w mul sd w 0 l currentpoint t -144 r} def
/mr {mp x y w2 0 360 arc} def /m24 {mr s} def /m20 {mr f} def
/mb {mp x y w2 add m w2 neg 0 d 0 w neg d w 0 d 0 w d cl} def
/mt {mp x y w2 add m w2 neg w neg d w 0 d cl} def
/m21 {mb f} def /m25 {mb s} def /m22 {mt f} def /m26{mt s} def
/m23 {mp x y w2 sub m w2 w d w neg 0 d cl f} def
/m27 {mp x y w2 add m w3 neg w2 neg d w3 w2 neg d w3 w2 d cl s} def
/m28 {mp x w2 sub y w2 sub w3 add m w3 0 d  0 w3 neg d w3 0 d 0 w3 d w3 0 d  0 w3 d w3 neg 0 d 0 w3 d w3 neg 0 d 0 w3 neg d w3 neg 0 d cl s } def
/m29 {mp gsave x w2 sub y w2 add w3 sub m currentpoint t 4 {side} repeat cl fill gr} def
/m30 {mp gsave x w2 sub y w2 add w3 sub m currentpoint t 4 {side} repeat cl s gr} def
/m31 {mp x y w2 sub m 0 w d x w2 sub y m w 0 d x w2 sub y w2 add m w w neg d x w2 sub y w2 sub m w w d s} def
/m32 {mp x y w2 sub m w2 w d w neg 0 d cl s} def
/m33 {mp x y w2 add m w3 neg w2 neg d w3 w2 neg d w3 w2 d cl f} def
/m34 {mp x w2 sub y w2 sub w3 add m w3 0 d  0 w3 neg d w3 0 d 0 w3 d w3 0 d  0 w3 d w3 neg 0 d 0 w3 d w3 neg 0 d 0 w3 neg d w3 neg 0 d cl f } def
/m2 {mp x y w2 sub m 0 w d x w2 sub y m w 0 d s} def
/m5 {mp x w2 sub y w2 sub m w w d x w2 sub y w2 add m w w neg d s} def
%%IncludeResource: ProcSet (FontSetInit)
%%IncludeResource: font Times-Roman
%%IncludeResource: font Times-Italic
%%IncludeResource: font Times-Bold
%%IncludeResource: font Times-BoldItalic
%%IncludeResource: font Helvetica
%%IncludeResource: font Helvetica-Oblique
%%IncludeResource: font Helvetica-Bold
%%IncludeResource: font Helvetica-BoldOblique
%%IncludeResource: font Courier
%%IncludeResource: font Courier-Oblique
%%IncludeResource: font Courier-Bold
%%IncludeResource: font Courier-BoldOblique
%%IncludeResource: font Symbol
%%IncludeResource: font ZapfDingbats
/reEncode {exch findfont dup length dict begin {1 index /FID eq  {pop pop} {def} ifelse } forall /Encoding exch def currentdict end dup /FontName get exch definefont pop } def [/Times-Bold /Times-Italic /Times-BoldItalic /Helvetica /Helvetica-Oblique
 /Helvetica-Bold /Helvetica-BoldOblique /Courier /Courier-Oblique /Courier-Bold /Courier-BoldOblique /Times-Roman /AvantGarde-Book /AvantGarde-BookOblique /AvantGarde-Demi /AvantGarde-DemiOblique /Bookman-Demi /Bookman-DemiItalic /Bookman-Light
 /Bookman-LightItalic /Helvetica-Narrow /Helvetica-Narrow-Bold /Helvetica-Narrow-BoldOblique /Helvetica-Narrow-Oblique /NewCenturySchlbk-Roman /NewCenturySchlbk-Bold /NewCenturySchlbk-BoldItalic /NewCenturySchlbk-Italic /Palatino-Bold
 /Palatino-BoldItalic /Palatino-Italic /Palatino-Roman ] {ISOLatin1Encoding reEncode } forall
%%EndProlog
%%BeginSetup
%%EndSetup
newpath  gsave  .25 .25 scale  gsave  0 0 t black[  ] 0 sd 3 lw 1 1 1 c 2268 1538 0 0 bf black 1 1 1 c 1814 1230 227 154 bf black 1814 1230 227 154 bl 1 1 1 c 1814 1230 227 154 bf black 1814 1230 227 154 bl 227 154 m 1814 X s
 gsave  2268 1538 0 0 C 1853.92 35.8403 t 0 r /Helvetica-Bold findfont 58.6478 sf 0 0 m (z [mm]) show NC gr  399 191 m -37 Y s 460 172 m -18 Y s 521 172 m -18 Y s 583 172 m -18 Y s 644 191 m -37 Y s 705 172 m -18 Y s 766 172 m -18 Y s 828 172 m -18 Y
 s 889 191 m -37 Y s 950 172 m -18 Y s 1011 172 m -18 Y s 1073 172 m -18 Y s 1134 191 m -37 Y s 1195 172 m -18 Y s 1256 172 m -18 Y s 1318 172 m -18 Y s 1379 191 m -37 Y s 1440 172 m -18 Y s 1501 172 m -18 Y s 1563 172 m -18 Y s 1624 191 m -37 Y s
 1685 172 m -18 Y s 1746 172 m -18 Y s 1808 172 m -18 Y s 1869 191 m -37 Y s 399 191 m -37 Y s 338 172 m -18 Y s 276 172 m -18 Y s 1869 191 m -37 Y s 1930 172 m -18 Y s 1991 172 m -18 Y s
 gsave  2268 1538 0 0 C 361.662 97.7464 t 0 r /Helvetica-Bold findfont 58.6478 sf 0 0 m (600) show NC gr 
 gsave  2268 1538 0 0 C 332.338 97.7464 t 0 r /Symbol findfont 58.6478 sf 0 0 m (-) show NC gr 
 gsave  2268 1538 0 0 C 606.028 97.7464 t 0 r /Helvetica-Bold findfont 58.6478 sf 0 0 m (400) show NC gr 
 gsave  2268 1538 0 0 C 576.704 97.7464 t 0 r /Symbol findfont 58.6478 sf 0 0 m (-) show NC gr 
 gsave  2268 1538 0 0 C 850.394 97.7464 t 0 r /Helvetica-Bold findfont 58.6478 sf 0 0 m (200) show NC gr 
 gsave  2268 1538 0 0 C 821.07 97.7464 t 0 r /Symbol findfont 58.6478 sf 0 0 m (-) show NC gr 
 gsave  2268 1538 0 0 C 1117.57 97.7464 t 0 r /Helvetica-Bold findfont 58.6478 sf 0 0 m (0) show NC gr 
 gsave  2268 1538 0 0 C 1329.35 97.7464 t 0 r /Helvetica-Bold findfont 58.6478 sf 0 0 m (200) show NC gr 
 gsave  2268 1538 0 0 C 1573.72 97.7464 t 0 r /Helvetica-Bold findfont 58.6478 sf 0 0 m (400) show NC gr 
 gsave  2268 1538 0 0 C 1818.08 97.7464 t 0 r /Helvetica-Bold findfont 58.6478 sf 0 0 m (600) show NC gr  227 1384 m 1814 X s 399 1347 m 37 Y s 460 1366 m 18 Y s 521 1366 m 18 Y s 583 1366 m 18 Y s 644 1347 m 37 Y s 705 1366 m 18 Y s 766 1366 m 18 Y
 s 828 1366 m 18 Y s 889 1347 m 37 Y s 950 1366 m 18 Y s 1011 1366 m 18 Y s 1073 1366 m 18 Y s 1134 1347 m 37 Y s 1195 1366 m 18 Y s 1256 1366 m 18 Y s 1318 1366 m 18 Y s 1379 1347 m 37 Y s 1440 1366 m 18 Y s 1501 1366 m 18 Y s 1563 1366 m 18 Y s
 1624 1347 m 37 Y s 1685 1366 m 18 Y s 1746 1366 m 18 Y s 1808 1366 m 18 Y s 1869 1347 m 37 Y s 399 1347 m 37 Y s 338 1366 m 18 Y s 276 1366 m 18 Y s 1869 1347 m 37 Y s 1930 1366 m 18 Y s 1991 1366 m 18 Y s 227 154 m 1230 Y s
 gsave  2268 1538 0 0 C 97.7464 710.291 t 90 r /Helvetica-Bold findfont 58.6478 sf 0 0 m (Cluster per etaModuleID) show NC gr  281 183 m -54 X s 254 226 m -27 X s 254 268 m -27 X s 254 311 m -27 X s 254 354 m -27 X s 281 397 m -54 X s 254 440 m -27 X
 s 254 483 m -27 X s 254 526 m -27 X s 254 569 m -27 X s 281 612 m -54 X s 254 655 m -27 X s 254 697 m -27 X s 254 740 m -27 X s 254 783 m -27 X s 281 826 m -54 X s 254 869 m -27 X s 254 912 m -27 X s 254 955 m -27 X s 254 998 m -27 X s 281 1041 m
 -54 X s 254 1084 m -27 X s 254 1127 m -27 X s 254 1169 m -27 X s 254 1212 m -27 X s 281 1255 m -54 X s 281 183 m -54 X s 281 1255 m -54 X s 254 1298 m -27 X s 254 1341 m -27 X s 254 1384 m -27 X s
 gsave  2268 1538 0 0 C 149.878 162.911 t 0 r /Helvetica-Bold findfont 58.6478 sf 0 0 m (10) show NC gr 
 gsave  2268 1538 0 0 C 149.878 374.695 t 0 r /Helvetica-Bold findfont 58.6478 sf 0 0 m (20) show NC gr 
 gsave  2268 1538 0 0 C 149.878 589.737 t 0 r /Helvetica-Bold findfont 58.6478 sf 0 0 m (30) show NC gr 
 gsave  2268 1538 0 0 C 149.878 804.779 t 0 r /Helvetica-Bold findfont 58.6478 sf 0 0 m (40) show NC gr 
 gsave  2268 1538 0 0 C 149.878 1019.82 t 0 r /Helvetica-Bold findfont 58.6478 sf 0 0 m (50) show NC gr 
 gsave  2268 1538 0 0 C 149.878 1234.86 t 0 r /Helvetica-Bold findfont 58.6478 sf 0 0 m (60) show NC gr  2041 154 m 1230 Y s 1987 183 m 54 X s 2014 226 m 27 X s 2014 268 m 27 X s 2014 311 m 27 X s 2014 354 m 27 X s 1987 397 m 54 X s 2014 440 m 27 X s
 2014 483 m 27 X s 2014 526 m 27 X s 2014 569 m 27 X s 1987 612 m 54 X s 2014 655 m 27 X s 2014 697 m 27 X s 2014 740 m 27 X s 2014 783 m 27 X s 1987 826 m 54 X s 2014 869 m 27 X s 2014 912 m 27 X s 2014 955 m 27 X s 2014 998 m 27 X s 1987 1041 m 54
 X s 2014 1084 m 27 X s 2014 1127 m 27 X s 2014 1169 m 27 X s 2014 1212 m 27 X s 1987 1255 m 54 X s 1987 183 m 54 X s 1987 1255 m 54 X s 2014 1298 m 27 X s 2014 1341 m 27 X s 2014 1384 m 27 X s 309 487 m 53 Y s 303 540 m 13 X s 309 461 m -53 Y s 303
 408 m 13 X s 338 333 m 42 Y s 332 375 m 13 X s 338 307 m -42 Y s 332 265 m 13 X s 368 522 m 55 Y s 361 577 m 13 X s 368 496 m -55 Y s 361 441 m 13 X s 397 410 m 48 Y s 391 458 m 13 X s 397 384 m -48 Y s 391 336 m 13 X s 429 573 m 58 Y s 423 631 m 13
 X s 429 547 m -58 Y s 423 489 m 13 X s 459 487 m 53 Y s 452 540 m 13 X s 459 461 m -53 Y s 452 408 m 13 X s 488 462 m 51 Y s 481 513 m 13 X s 488 436 m -52 Y s 481 384 m 13 X s 517 573 m 58 Y s 511 631 m 13 X s 517 547 m -58 Y s 511 489 m 13 X s 549
 419 m 48 Y s 543 467 m 13 X s 549 393 m -49 Y s 543 344 m 13 X s 579 505 m 54 Y s 572 559 m 13 X s 579 479 m -54 Y s 572 425 m 13 X s 608 436 m 49 Y s 602 485 m 13 X s 608 410 m -50 Y s 602 360 m 13 X s 637 530 m 56 Y s 631 586 m 13 X s 637 504 m
 -55 Y s 631 449 m 13 X s 670 470 m 52 Y s 663 522 m 13 X s 670 444 m -52 Y s 663 392 m 13 X s 699 573 m 58 Y s 692 631 m 13 X s 699 547 m -58 Y s 692 489 m 13 X s 728 582 m 59 Y s 722 641 m 13 X s 728 556 m -59 Y s 722 497 m 13 X s 757 685 m 64 Y s
 751 749 m 13 X s 757 659 m -65 Y s 751 594 m 13 X s 790 771 m 69 Y s 783 840 m 13 X s 790 745 m -70 Y s 783 675 m 13 X s 819 788 m 70 Y s 813 858 m 13 X s 819 762 m -70 Y s 813 692 m 13 X s 848 642 m 62 Y s 842 704 m 13 X s 848 616 m -62 Y s 842 554
 m 13 X s 878 513 m 55 Y s 871 568 m 13 X s 878 487 m -54 Y s 871 433 m 13 X s 910 762 m 69 Y s 903 831 m 13 X s 910 736 m -69 Y s 903 667 m 13 X s 939 788 m 70 Y s 933 858 m 13 X s 939 762 m -70 Y s 933 692 m 13 X s 968 650 m 63 Y s 962 713 m 13 X s
 968 624 m -62 Y s 962 562 m 13 X s 998 625 m 61 Y s 991 686 m 13 X s 998 599 m -62 Y s 991 537 m 13 X s 1030 702 m 66 Y s 1023 768 m 13 X s 1030 676 m -66 Y s 1023 610 m 13 X s 1059 813 m 72 Y s 1053 885 m 13 X s 1059 787 m -71 Y s 1053 716 m 13 X s
 1088 676 m 64 Y s 1082 740 m 13 X s 1088 650 m -64 Y s 1082 586 m 13 X s 1118 805 m 71 Y s 1111 876 m 13 X s 1118 779 m -71 Y s 1111 708 m 13 X s 1150 599 m 60 Y s 1143 659 m 14 X s 1150 573 m -60 Y s 1143 513 m 14 X s 1179 779 m 70 Y s 1173 849 m
 13 X s 1179 753 m -70 Y s 1173 683 m 13 X s 1209 625 m 61 Y s 1202 686 m 13 X s 1209 599 m -62 Y s 1202 537 m 13 X s 1238 685 m 64 Y s 1231 749 m 13 X s 1238 659 m -65 Y s 1231 594 m 13 X s 1270 650 m 63 Y s 1264 713 m 13 X s 1270 624 m -62 Y s 1264
 562 m 13 X s 1299 839 m 73 Y s 1293 912 m 13 X s 1299 813 m -73 Y s 1293 740 m 13 X s 1329 745 m 68 Y s 1322 813 m 13 X s 1329 719 m -68 Y s 1322 651 m 13 X s 1358 719 m 67 Y s 1351 786 m 13 X s 1358 693 m -67 Y s 1351 626 m 13 X s 1390 642 m 62 Y s
 1384 704 m 13 X s 1390 616 m -62 Y s 1384 554 m 13 X s 1420 676 m 64 Y s 1413 740 m 13 X s 1420 650 m -64 Y s 1413 586 m 13 X s 1449 436 m 49 Y s 1442 485 m 13 X s 1449 410 m -50 Y s 1442 360 m 13 X s 1478 573 m 58 Y s 1472 631 m 13 X s 1478 547 m
 -58 Y s 1472 489 m 13 X s 1510 573 m 58 Y s 1504 631 m 13 X s 1510 547 m -58 Y s 1504 489 m 13 X s 1540 659 m 63 Y s 1533 722 m 13 X s 1540 633 m -63 Y s 1533 570 m 13 X s 1569 753 m 69 Y s 1562 822 m 13 X s 1569 727 m -68 Y s 1562 659 m 13 X s 1598
 565 m 57 Y s 1592 622 m 13 X s 1598 539 m -58 Y s 1592 481 m 13 X s 1630 496 m 53 Y s 1624 549 m 13 X s 1630 470 m -53 Y s 1624 417 m 13 X s 1660 453 m 51 Y s 1653 504 m 13 X s 1660 427 m -51 Y s 1653 376 m 13 X s 1689 522 m 55 Y s 1682 577 m 14 X s
 1689 496 m -55 Y s 1682 441 m 14 X s 1718 590 m 60 Y s 1712 650 m 13 X s 1718 564 m -59 Y s 1712 505 m 13 X s 1751 573 m 58 Y s 1744 631 m 13 X s 1751 547 m -58 Y s 1744 489 m 13 X s 1780 462 m 51 Y s 1773 513 m 13 X s 1780 436 m -52 Y s 1773 384 m
 13 X s 1809 668 m 63 Y s 1803 731 m 13 X s 1809 642 m -64 Y s 1803 578 m 13 X s 1838 393 m 46 Y s 1832 439 m 13 X s 1838 367 m -46 Y s 1832 321 m 13 X s 1871 487 m 53 Y s 1864 540 m 13 X s 1871 461 m -53 Y s 1864 408 m 13 X s 1900 470 m 52 Y s 1893
 522 m 13 X s 1900 444 m -52 Y s 1893 392 m 13 X s 1929 539 m 56 Y s 1923 595 m 13 X s 1929 513 m -56 Y s 1923 457 m 13 X s 1958 410 m 48 Y s 1952 458 m 13 X s 1958 384 m -48 Y s 1952 336 m 13 X s 309 474 m 29 -154 d 30 189 d 29 -112 d 32 163 d 30
 -86 d 29 -25 d 29 111 d 32 -154 d 30 86 d 29 -69 d 29 94 d 33 -60 d 29 103 d 29 9 d 29 103 d 33 86 d 29 17 d 29 -146 d 30 -129 d 32 249 d 29 26 d 29 -138 d 30 -25 d 32 77 d 29 111 d 29 -137 d 30 129 d 32 -206 d 29 180 d 30 -154 d 29 60 d 32 -35 d 29
 189 d 30 -94 d 29 -26 d 32 -77 d 30 34 d 29 -240 d 29 137 d 32 X 30 86 d 29 94 d 29 -188 d 32 -69 d 30 -43 d 29 69 d 29 68 d 33 -17 d 29 -111 d 29 206 d 29 -275 d 33 94 d 29 -17 d 29 69 d 29 -129 d s /w 26 def /w2 {w 2 div} def /w3 {w 3 div} def 309
 474 338 320 368 509 397 397 429 560 459 474 488 449 517 560 549 406 579 492 608 423 637 517 670 457 699 560 728 569 757 672 790 758 819 775 848 629 878 500 910 749 939 775 968 637 998 612 1030 689 1059 800 1088 663 1118 792 1150 586 1179 766 1209
 612 1238 672 1270 637 1299 826 1329 732 1358 706 1390 629 1420 663 1449 423 1478 560 1510 560 1540 646 1569 740 1598 552 1630 483 1660 440 1689 509 1718 577 1751 560 1780 449 1809 655 1838 380 1871 474 1900 457 1929 526 1958 397 56 { m20} R 1 0 0 c
 309 256 m 35 Y s 303 291 m 13 X s 309 230 m -36 Y s 303 194 m 13 X s 339 445 m 50 Y s 332 495 m 13 X s 339 418 m -50 Y s 332 368 m 13 X s 368 436 m 49 Y s 361 485 m 13 X s 368 410 m -50 Y s 361 360 m 13 X s 397 307 m 40 Y s 391 347 m 13 X s 397 281
 m -40 Y s 391 241 m 13 X s 429 530 m 56 Y s 423 586 m 13 X s 429 504 m -55 Y s 423 449 m 13 X s 459 273 m 37 Y s 452 310 m 13 X s 459 247 m -37 Y s 452 210 m 13 X s 488 367 m 45 Y s 481 412 m 14 X s 488 341 m -44 Y s 481 297 m 14 X s 517 505 m 54 Y
 s 511 559 m 13 X s 517 479 m -54 Y s 511 425 m 13 X s 549 410 m 48 Y s 543 458 m 13 X s 549 384 m -48 Y s 543 336 m 13 X s 579 462 m 51 Y s 572 513 m 13 X s 579 436 m -52 Y s 572 384 m 13 X s 608 470 m 52 Y s 602 522 m 13 X s 608 444 m -52 Y s 602
 392 m 13 X s 637 547 m 57 Y s 631 604 m 13 X s 637 521 m -56 Y s 631 465 m 13 X s 669 513 m 55 Y s 663 568 m 13 X s 669 487 m -54 Y s 663 433 m 13 X s 699 427 m 49 Y s 692 476 m 13 X s 699 401 m -49 Y s 692 352 m 13 X s 728 513 m 55 Y s 722 568 m 13
 X s 728 487 m -54 Y s 722 433 m 13 X s 757 470 m 52 Y s 751 522 m 13 X s 757 444 m -52 Y s 751 392 m 13 X s 790 427 m 49 Y s 783 476 m 13 X s 790 401 m -49 Y s 783 352 m 13 X s 819 659 m 63 Y s 813 722 m 13 X s 819 633 m -63 Y s 813 570 m 13 X s 848
 599 m 60 Y s 842 659 m 13 X s 848 573 m -60 Y s 842 513 m 13 X s 878 359 m 44 Y s 871 403 m 13 X s 878 333 m -44 Y s 871 289 m 13 X s 910 333 m 42 Y s 903 375 m 13 X s 910 307 m -42 Y s 903 265 m 13 X s 939 470 m 52 Y s 933 522 m 13 X s 939 444 m
 -52 Y s 933 392 m 13 X s 968 693 m 66 Y s 962 759 m 13 X s 968 667 m -65 Y s 962 602 m 13 X s 998 419 m 48 Y s 991 467 m 13 X s 998 393 m -49 Y s 991 344 m 13 X s 1030 693 m 66 Y s 1023 759 m 13 X s 1030 667 m -65 Y s 1023 602 m 13 X s 1059 505 m 54
 Y s 1053 559 m 13 X s 1059 479 m -54 Y s 1053 425 m 13 X s 1088 565 m 57 Y s 1082 622 m 13 X s 1088 539 m -58 Y s 1082 481 m 13 X s 1118 625 m 61 Y s 1111 686 m 13 X s 1118 599 m -62 Y s 1111 537 m 13 X s 1150 702 m 66 Y s 1144 768 m 13 X s 1150 676
 m -66 Y s 1144 610 m 13 X s 1179 462 m 51 Y s 1173 513 m 13 X s 1179 436 m -52 Y s 1173 384 m 13 X s 1209 453 m 51 Y s 1202 504 m 13 X s 1209 427 m -51 Y s 1202 376 m 13 X s 1238 590 m 60 Y s 1231 650 m 13 X s 1238 564 m -59 Y s 1231 505 m 13 X s
 1270 522 m 55 Y s 1264 577 m 13 X s 1270 496 m -55 Y s 1264 441 m 13 X s 1299 547 m 57 Y s 1293 604 m 13 X s 1299 521 m -56 Y s 1293 465 m 13 X s 1329 359 m 44 Y s 1322 403 m 13 X s 1329 333 m -44 Y s 1322 289 m 13 X s 1358 650 m 63 Y s 1352 713 m
 13 X s 1358 624 m -62 Y s 1352 562 m 13 X s 1390 522 m 55 Y s 1384 577 m 13 X s 1390 496 m -55 Y s 1384 441 m 13 X s 1420 505 m 54 Y s 1413 559 m 13 X s 1420 479 m -54 Y s 1413 425 m 13 X s 1449 487 m 53 Y s 1442 540 m 13 X s 1449 461 m -53 Y s 1442
 408 m 13 X s 1478 513 m 55 Y s 1472 568 m 13 X s 1478 487 m -54 Y s 1472 433 m 13 X s 1510 513 m 55 Y s 1504 568 m 13 X s 1510 487 m -54 Y s 1504 433 m 13 X s 1540 522 m 55 Y s 1533 577 m 13 X s 1540 496 m -55 Y s 1533 441 m 13 X s 1569 590 m 60 Y s
 1562 650 m 13 X s 1569 564 m -59 Y s 1562 505 m 13 X s 1598 479 m 52 Y s 1591 531 m 14 X s 1598 453 m -53 Y s 1591 400 m 14 X s 1630 599 m 60 Y s 1624 659 m 13 X s 1630 573 m -60 Y s 1624 513 m 13 X s 1660 419 m 48 Y s 1653 467 m 13 X s 1660 393 m
 -49 Y s 1653 344 m 13 X s 1689 479 m 52 Y s 1682 531 m 14 X s 1689 453 m -53 Y s 1682 400 m 14 X s 1718 410 m 48 Y s 1712 458 m 13 X s 1718 384 m -48 Y s 1712 336 m 13 X s 1751 393 m 46 Y s 1744 439 m 13 X s 1751 367 m -46 Y s 1744 321 m 13 X s 1780
 367 m 45 Y s 1773 412 m 13 X s 1780 341 m -44 Y s 1773 297 m 13 X s 1809 342 m 42 Y s 1803 384 m 13 X s 1809 315 m -42 Y s 1803 273 m 13 X s 1838 445 m 50 Y s 1832 495 m 13 X s 1838 418 m -50 Y s 1832 368 m 13 X s 1871 419 m 48 Y s 1864 467 m 13 X s
 1871 393 m -49 Y s 1864 344 m 13 X s 1900 333 m 42 Y s 1893 375 m 13 X s 1900 307 m -42 Y s 1893 265 m 13 X s 1929 513 m 55 Y s 1923 568 m 13 X s 1929 487 m -54 Y s 1923 433 m 13 X s 1958 384 m 46 Y s 1952 430 m 13 X s 1958 358 m -45 Y s 1952 313 m
 13 X s black 1 0 0 c 309 243 m 30 188 d 29 -8 d 29 -129 d 32 223 d 30 -257 d 29 94 d 29 138 d 32 -95 d 30 52 d 29 8 d 29 77 d 32 -34 d 30 -86 d 29 86 d 29 -43 d 33 -43 d 29 232 d 29 -60 d 30 -240 d 32 -26 d 29 137 d 29 223 d 30 -274 d 32 274 d 29
 -188 d 29 60 d 30 60 d 32 77 d 29 -240 d 30 -9 d 29 137 d 32 -68 d 29 25 d 30 -188 d 29 291 d 32 -128 d 30 -17 d 29 -18 d 29 26 d 32 X 30 9 d 29 68 d 29 -111 d 32 120 d 30 -180 d 29 60 d 29 -69 d 33 -17 d 29 -26 d 29 -25 d 29 102 d 33 -25 d 29 -86 d
 29 180 d 29 -129 d s 309 243 339 431 368 423 397 294 429 517 459 260 488 354 517 492 549 397 579 449 608 457 637 534 669 500 699 414 728 500 757 457 790 414 819 646 848 586 878 346 910 320 939 457 968 680 998 406 1030 680 1059 492 1088 552 1118 612
 1150 689 1179 449 1209 440 1238 577 1270 509 1299 534 1329 346 1358 637 1390 509 1420 492 1449 474 1478 500 1510 500 1540 509 1569 577 1598 466 1630 586 1660 406 1689 466 1718 397 1751 380 1780 354 1809 329 1838 431 1871 406 1900 320 1929 500 1958
 371 56 { m20} R 0 1 0 c 324 556 m 57 Y s 318 613 m 13 X s 324 530 m -57 Y s 318 473 m 13 X s 382 530 m 56 Y s 376 586 m 13 X s 382 504 m -55 Y s 376 449 m 13 X s 444 736 m 68 Y s 438 804 m 13 X s 444 710 m -67 Y s 438 643 m 13 X s 503 805 m 71 Y s
 496 876 m 13 X s 503 779 m -71 Y s 496 708 m 13 X s 564 728 m 67 Y s 558 795 m 13 X s 564 702 m -67 Y s 558 635 m 13 X s 623 693 m 66 Y s 616 759 m 13 X s 623 667 m -65 Y s 616 602 m 13 X s 684 925 m 77 Y s 678 1002 m 13 X s 684 899 m -77 Y s 678
 822 m 13 X s 743 899 m 76 Y s 736 975 m 13 X s 743 873 m -75 Y s 736 798 m 13 X s 804 650 m 63 Y s 798 713 m 13 X s 804 624 m -62 Y s 798 562 m 13 X s 863 874 m 74 Y s 856 948 m 13 X s 863 847 m -74 Y s 856 773 m 13 X s 925 736 m 68 Y s 918 804 m 13
 X s 925 710 m -67 Y s 918 643 m 13 X s 983 899 m 76 Y s 976 975 m 13 X s 983 873 m -75 Y s 976 798 m 13 X s 1045 685 m 64 Y s 1038 749 m 13 X s 1045 659 m -65 Y s 1038 594 m 13 X s 1103 642 m 62 Y s 1097 704 m 13 X s 1103 616 m -62 Y s 1097 554 m 13
 X s 1165 865 m 74 Y s 1158 939 m 13 X s 1165 839 m -74 Y s 1158 765 m 13 X s 1223 668 m 63 Y s 1217 731 m 13 X s 1223 642 m -64 Y s 1217 578 m 13 X s 1285 616 m 61 Y s 1278 677 m 13 X s 1285 590 m -61 Y s 1278 529 m 13 X s 1343 642 m 62 Y s 1337 704
 m 13 X s 1343 616 m -62 Y s 1337 554 m 13 X s 1405 676 m 64 Y s 1398 740 m 13 X s 1405 650 m -64 Y s 1398 586 m 13 X s 1463 719 m 67 Y s 1457 786 m 13 X s 1463 693 m -67 Y s 1457 626 m 13 X s 1525 702 m 66 Y s 1519 768 m 13 X s 1525 676 m -66 Y s
 1519 610 m 13 X s 1583 616 m 61 Y s 1577 677 m 13 X s 1583 590 m -61 Y s 1577 529 m 13 X s 1645 753 m 69 Y s 1639 822 m 13 X s 1645 727 m -68 Y s 1639 659 m 13 X s 1704 676 m 64 Y s 1697 740 m 13 X s 1704 650 m -64 Y s 1697 586 m 13 X s 1765 719 m
 67 Y s 1759 786 m 13 X s 1765 693 m -67 Y s 1759 626 m 13 X s 1824 719 m 67 Y s 1817 786 m 13 X s 1824 693 m -67 Y s 1817 626 m 13 X s 1885 565 m 57 Y s 1879 622 m 13 X s 1885 539 m -58 Y s 1879 481 m 13 X s 1944 796 m 71 Y s 1937 867 m 13 X s 1944
 770 m -70 Y s 1937 700 m 13 X s black 0 1 0 c 324 543 m 58 -26 d 62 206 d 59 69 d 61 -77 d 59 -35 d 61 232 d 59 -26 d 61 -249 d 59 224 d 62 -138 d 58 163 d 62 -214 d 58 -43 d 62 223 d 58 -197 d 62 -52 d 58 26 d 62 34 d 58 43 d 62 -17 d 58 -86 d 62
 137 d 59 -77 d 61 43 d 59 X 61 -154 d 59 231 d s 324 543 382 517 444 723 503 792 564 715 623 680 684 912 743 886 804 637 863 861 925 723 983 886 1045 672 1103 629 1165 852 1223 655 1285 603 1343 629 1405 663 1463 706 1525 689 1583 603 1645 740 1704
 663 1765 706 1824 706 1885 552 1944 783 28 { m20} R 0 0 1 c 324 419 m 48 Y s 318 467 m 13 X s 324 393 m -49 Y s 318 344 m 13 X s 382 410 m 48 Y s 376 458 m 13 X s 382 384 m -48 Y s 376 336 m 13 X s 444 445 m 50 Y s 438 495 m 13 X s 444 418 m -50 Y s
 438 368 m 13 X s 503 453 m 51 Y s 496 504 m 13 X s 503 427 m -51 Y s 496 376 m 13 X s 564 530 m 56 Y s 558 586 m 13 X s 564 504 m -55 Y s 558 449 m 13 X s 622 453 m 51 Y s 616 504 m 13 X s 622 427 m -51 Y s 616 376 m 13 X s 684 402 m 47 Y s 678 449
 m 13 X s 684 376 m -47 Y s 678 329 m 13 X s 743 711 m 66 Y s 736 777 m 13 X s 743 684 m -66 Y s 736 618 m 13 X s 804 556 m 57 Y s 798 613 m 13 X s 804 530 m -57 Y s 798 473 m 13 X s 863 582 m 59 Y s 856 641 m 13 X s 863 556 m -59 Y s 856 497 m 13 X
 s 925 874 m 74 Y s 918 948 m 13 X s 925 847 m -74 Y s 918 773 m 13 X s 983 736 m 68 Y s 976 804 m 13 X s 983 710 m -67 Y s 976 643 m 13 X s 1045 436 m 49 Y s 1038 485 m 13 X s 1045 410 m -50 Y s 1038 360 m 13 X s 1103 513 m 55 Y s 1097 568 m 13 X s
 1103 487 m -54 Y s 1097 433 m 13 X s 1165 693 m 66 Y s 1158 759 m 13 X s 1165 667 m -65 Y s 1158 602 m 13 X s 1223 479 m 52 Y s 1217 531 m 13 X s 1223 453 m -53 Y s 1217 400 m 13 X s 1285 419 m 48 Y s 1278 467 m 13 X s 1285 393 m -49 Y s 1278 344 m
 13 X s 1343 633 m 62 Y s 1337 695 m 13 X s 1343 607 m -62 Y s 1337 545 m 13 X s 1405 367 m 45 Y s 1398 412 m 13 X s 1405 341 m -44 Y s 1398 297 m 13 X s 1463 402 m 47 Y s 1457 449 m 13 X s 1463 376 m -47 Y s 1457 329 m 13 X s 1525 693 m 66 Y s 1518
 759 m 13 X s 1525 667 m -65 Y s 1518 602 m 13 X s 1583 436 m 49 Y s 1577 485 m 13 X s 1583 410 m -50 Y s 1577 360 m 13 X s 1645 453 m 51 Y s 1639 504 m 13 X s 1645 427 m -51 Y s 1639 376 m 13 X s 1704 513 m 55 Y s 1697 568 m 13 X s 1704 487 m -54 Y
 s 1697 433 m 13 X s 1765 376 m 45 Y s 1759 421 m 13 X s 1765 350 m -45 Y s 1759 305 m 13 X s 1824 445 m 50 Y s 1817 495 m 13 X s 1824 418 m -50 Y s 1817 368 m 13 X s 1885 445 m 50 Y s 1879 495 m 13 X s 1885 418 m -50 Y s 1879 368 m 13 X s 1944 376 m
 45 Y s 1937 421 m 13 X s 1944 350 m -45 Y s 1937 305 m 13 X s black 0 0 1 c 324 406 m 58 -9 d 62 34 d 59 9 d 61 77 d 58 -77 d 62 -51 d 59 308 d 61 -154 d 59 26 d 62 292 d 58 -138 d 62 -300 d 58 77 d 62 180 d 58 -214 d 62 -60 d 58 214 d 62 -266 d 58
 35 d 62 291 d 58 -257 d 62 17 d 59 60 d 61 -137 d 59 68 d 61 X 59 -68 d s 324 406 382 397 444 431 503 440 564 517 622 440 684 389 743 697 804 543 863 569 925 861 983 723 1045 423 1103 500 1165 680 1223 466 1285 406 1343 620 1405 354 1463 389 1525
 680 1583 423 1645 440 1704 500 1765 363 1824 431 1885 431 1944 363 28 { m20} R black
 gsave  2268 1538 0 0 C 1645.4 1283.74 t 0 r /Helvetica-Bold findfont 58.6478 sf 0 0 m (SCT Barrel) show NC gr 
 gsave  2268 1538 0 0 C 1762.69 1205.54 t 0 r /Helvetica-Bold findfont 58.6478 sf 0 0 m (Layer 0) show NC gr  1652 1223 m 92 X s 1698 1223 m20
 gsave  2268 1538 0 0 C 1762.69 1130.6 t 0 r /Helvetica-Bold findfont 58.6478 sf 0 0 m (Layer 1) show NC gr  1 0 0 c 1652 1146 m 92 X s 1698 1146 m20 black
 gsave  2268 1538 0 0 C 1762.69 1052.4 t 0 r /Helvetica-Bold findfont 58.6478 sf 0 0 m (Layer 2) show NC gr  0 1 0 c 1652 1069 m 92 X s 1698 1069 m20 black
 gsave  2268 1538 0 0 C 1762.69 977.464 t 0 r /Helvetica-Bold findfont 58.6478 sf 0 0 m (Layer 3) show NC gr  0 0 1 c 1652 992 m 92 X s 1698 992 m20
 gr  gr showpage
end
%%EOF
