%!PS-Adobe-2.0 EPSF-2.0
%%BoundingBox:  0 0 567 384
%%Title: outputDir/sct_occupancy/clus_sctdisk_mg.eps: c1_n33
%%Creator: ROOT Version 6.04/12
%%CreationDate: Mon Apr 25 16:02:11 2016
%%DocumentNeededResources: ProcSet (FontSetInit)
%%EndComments
%%BeginProlog
80 dict begin
/s {stroke} def /l {lineto} def /m {moveto} def /t {translate} def
/r {rotate} def /rl {roll}  def /R {repeat} def
/d {rlineto} def /rm {rmoveto} def /gr {grestore} def /f {eofill} def
/c {setrgbcolor} def /black {0 setgray} def /sd {setdash} def
/cl {closepath} def /sf {scalefont setfont} def /lw {setlinewidth} def
/box {m dup 0 exch d exch 0 d 0 exch neg d cl} def
/NC{systemdict begin initclip end}def/C{NC box clip newpath}def
/bl {box s} def /bf {gsave box gsave f grestore 1 lw [] 0 sd s grestore} def /Y { 0 exch d} def /X { 0 d} def 
/K {{pop pop 0 moveto} exch kshow} bind def
/ita {/ang 15 def gsave [1 0 ang dup sin exch cos div 1 0 0] concat} def 
/mp {newpath /y exch def /x exch def} def
/side {[w .77 mul w .23 mul] .385 w mul sd w 0 l currentpoint t -144 r} def
/mr {mp x y w2 0 360 arc} def /m24 {mr s} def /m20 {mr f} def
/mb {mp x y w2 add m w2 neg 0 d 0 w neg d w 0 d 0 w d cl} def
/mt {mp x y w2 add m w2 neg w neg d w 0 d cl} def
/m21 {mb f} def /m25 {mb s} def /m22 {mt f} def /m26{mt s} def
/m23 {mp x y w2 sub m w2 w d w neg 0 d cl f} def
/m27 {mp x y w2 add m w3 neg w2 neg d w3 w2 neg d w3 w2 d cl s} def
/m28 {mp x w2 sub y w2 sub w3 add m w3 0 d  0 w3 neg d w3 0 d 0 w3 d w3 0 d  0 w3 d w3 neg 0 d 0 w3 d w3 neg 0 d 0 w3 neg d w3 neg 0 d cl s } def
/m29 {mp gsave x w2 sub y w2 add w3 sub m currentpoint t 4 {side} repeat cl fill gr} def
/m30 {mp gsave x w2 sub y w2 add w3 sub m currentpoint t 4 {side} repeat cl s gr} def
/m31 {mp x y w2 sub m 0 w d x w2 sub y m w 0 d x w2 sub y w2 add m w w neg d x w2 sub y w2 sub m w w d s} def
/m32 {mp x y w2 sub m w2 w d w neg 0 d cl s} def
/m33 {mp x y w2 add m w3 neg w2 neg d w3 w2 neg d w3 w2 d cl f} def
/m34 {mp x w2 sub y w2 sub w3 add m w3 0 d  0 w3 neg d w3 0 d 0 w3 d w3 0 d  0 w3 d w3 neg 0 d 0 w3 d w3 neg 0 d 0 w3 neg d w3 neg 0 d cl f } def
/m2 {mp x y w2 sub m 0 w d x w2 sub y m w 0 d s} def
/m5 {mp x w2 sub y w2 sub m w w d x w2 sub y w2 add m w w neg d s} def
%%IncludeResource: ProcSet (FontSetInit)
%%IncludeResource: font Times-Roman
%%IncludeResource: font Times-Italic
%%IncludeResource: font Times-Bold
%%IncludeResource: font Times-BoldItalic
%%IncludeResource: font Helvetica
%%IncludeResource: font Helvetica-Oblique
%%IncludeResource: font Helvetica-Bold
%%IncludeResource: font Helvetica-BoldOblique
%%IncludeResource: font Courier
%%IncludeResource: font Courier-Oblique
%%IncludeResource: font Courier-Bold
%%IncludeResource: font Courier-BoldOblique
%%IncludeResource: font Symbol
%%IncludeResource: font ZapfDingbats
/reEncode {exch findfont dup length dict begin {1 index /FID eq  {pop pop} {def} ifelse } forall /Encoding exch def currentdict end dup /FontName get exch definefont pop } def [/Times-Bold /Times-Italic /Times-BoldItalic /Helvetica /Helvetica-Oblique
 /Helvetica-Bold /Helvetica-BoldOblique /Courier /Courier-Oblique /Courier-Bold /Courier-BoldOblique /Times-Roman /AvantGarde-Book /AvantGarde-BookOblique /AvantGarde-Demi /AvantGarde-DemiOblique /Bookman-Demi /Bookman-DemiItalic /Bookman-Light
 /Bookman-LightItalic /Helvetica-Narrow /Helvetica-Narrow-Bold /Helvetica-Narrow-BoldOblique /Helvetica-Narrow-Oblique /NewCenturySchlbk-Roman /NewCenturySchlbk-Bold /NewCenturySchlbk-BoldItalic /NewCenturySchlbk-Italic /Palatino-Bold
 /Palatino-BoldItalic /Palatino-Italic /Palatino-Roman ] {ISOLatin1Encoding reEncode } forall
%%EndProlog
%%BeginSetup
%%EndSetup
newpath  gsave  .25 .25 scale  gsave  0 0 t black[  ] 0 sd 3 lw 1 1 1 c 2268 1538 0 0 bf black 1 1 1 c 1814 1230 227 154 bf black 1814 1230 227 154 bl 1 1 1 c 1814 1230 227 154 bf black 1814 1230 227 154 bl 227 154 m 1814 X s
 gsave  2268 1538 0 0 C 1772.47 32.5821 t 0 r /Helvetica-Bold findfont 58.6478 sf 0 0 m (moduleID) show NC gr  309 191 m -37 Y s 358 172 m -18 Y s 406 172 m -18 Y s 455 172 m -18 Y s 503 191 m -37 Y s 552 172 m -18 Y s 600 172 m -18 Y s 649 172 m -18
 Y s 697 191 m -37 Y s 746 172 m -18 Y s 794 172 m -18 Y s 843 172 m -18 Y s 891 191 m -37 Y s 940 172 m -18 Y s 988 172 m -18 Y s 1037 172 m -18 Y s 1085 191 m -37 Y s 1134 172 m -18 Y s 1182 172 m -18 Y s 1231 172 m -18 Y s 1279 191 m -37 Y s 1328
 172 m -18 Y s 1376 172 m -18 Y s 1425 172 m -18 Y s 1473 191 m -37 Y s 1522 172 m -18 Y s 1570 172 m -18 Y s 1619 172 m -18 Y s 1667 191 m -37 Y s 1716 172 m -18 Y s 1764 172 m -18 Y s 1813 172 m -18 Y s 1861 191 m -37 Y s 309 191 m -37 Y s 261 172
 m -18 Y s 1861 191 m -37 Y s 1910 172 m -18 Y s 1958 172 m -18 Y s 2007 172 m -18 Y s
 gsave  2268 1538 0 0 C 289.981 97.7464 t 0 r /Helvetica-Bold findfont 58.6478 sf 0 0 m (0) show NC gr 
 gsave  2268 1538 0 0 C 485.474 97.7464 t 0 r /Helvetica-Bold findfont 58.6478 sf 0 0 m (2) show NC gr 
 gsave  2268 1538 0 0 C 680.967 97.7464 t 0 r /Helvetica-Bold findfont 58.6478 sf 0 0 m (4) show NC gr 
 gsave  2268 1538 0 0 C 873.201 97.7464 t 0 r /Helvetica-Bold findfont 58.6478 sf 0 0 m (6) show NC gr 
 gsave  2268 1538 0 0 C 1068.69 97.7464 t 0 r /Helvetica-Bold findfont 58.6478 sf 0 0 m (8) show NC gr 
 gsave  2268 1538 0 0 C 1244.64 97.7464 t 0 r /Helvetica-Bold findfont 58.6478 sf 0 0 m (10) show NC gr 
 gsave  2268 1538 0 0 C 1440.13 97.7464 t 0 r /Helvetica-Bold findfont 58.6478 sf 0 0 m (12) show NC gr 
 gsave  2268 1538 0 0 C 1632.36 97.7464 t 0 r /Helvetica-Bold findfont 58.6478 sf 0 0 m (14) show NC gr 
 gsave  2268 1538 0 0 C 1827.86 97.7464 t 0 r /Helvetica-Bold findfont 58.6478 sf 0 0 m (16) show NC gr  227 1384 m 1814 X s 309 1347 m 37 Y s 358 1366 m 18 Y s 406 1366 m 18 Y s 455 1366 m 18 Y s 503 1347 m 37 Y s 552 1366 m 18 Y s 600 1366 m 18 Y s
 649 1366 m 18 Y s 697 1347 m 37 Y s 746 1366 m 18 Y s 794 1366 m 18 Y s 843 1366 m 18 Y s 891 1347 m 37 Y s 940 1366 m 18 Y s 988 1366 m 18 Y s 1037 1366 m 18 Y s 1085 1347 m 37 Y s 1134 1366 m 18 Y s 1182 1366 m 18 Y s 1231 1366 m 18 Y s 1279 1347
 m 37 Y s 1328 1366 m 18 Y s 1376 1366 m 18 Y s 1425 1366 m 18 Y s 1473 1347 m 37 Y s 1522 1366 m 18 Y s 1570 1366 m 18 Y s 1619 1366 m 18 Y s 1667 1347 m 37 Y s 1716 1366 m 18 Y s 1764 1366 m 18 Y s 1813 1366 m 18 Y s 1861 1347 m 37 Y s 309 1347 m
 37 Y s 261 1366 m 18 Y s 1861 1347 m 37 Y s 1910 1366 m 18 Y s 1958 1366 m 18 Y s 2007 1366 m 18 Y s 227 154 m 1230 Y s
 gsave  2268 1538 0 0 C 97.7464 710.291 t 90 r /Helvetica-Bold findfont 58.6478 sf 0 0 m (Cluster per etaModuleID) show NC gr  281 176 m -54 X s 254 204 m -27 X s 254 233 m -27 X s 254 261 m -27 X s 254 289 m -27 X s 281 318 m -54 X s 254 346 m -27 X
 s 254 374 m -27 X s 254 403 m -27 X s 254 431 m -27 X s 281 459 m -54 X s 254 488 m -27 X s 254 516 m -27 X s 254 544 m -27 X s 254 573 m -27 X s 281 601 m -54 X s 254 629 m -27 X s 254 658 m -27 X s 254 686 m -27 X s 254 714 m -27 X s 281 743 m -54
 X s 254 771 m -27 X s 254 799 m -27 X s 254 828 m -27 X s 254 856 m -27 X s 281 884 m -54 X s 254 913 m -27 X s 254 941 m -27 X s 254 969 m -27 X s 254 998 m -27 X s 281 1026 m -54 X s 254 1054 m -27 X s 254 1083 m -27 X s 254 1111 m -27 X s 254
 1139 m -27 X s 281 1168 m -54 X s 254 1196 m -27 X s 254 1224 m -27 X s 254 1253 m -27 X s 254 1281 m -27 X s 281 1309 m -54 X s 281 176 m -54 X s 281 1309 m -54 X s 254 1338 m -27 X s 254 1366 m -27 X s
 gsave  2268 1538 0 0 C 149.878 153.136 t 0 r /Helvetica-Bold findfont 58.6478 sf 0 0 m (10) show NC gr 
 gsave  2268 1538 0 0 C 149.878 296.497 t 0 r /Helvetica-Bold findfont 58.6478 sf 0 0 m (20) show NC gr 
 gsave  2268 1538 0 0 C 149.878 436.601 t 0 r /Helvetica-Bold findfont 58.6478 sf 0 0 m (30) show NC gr 
 gsave  2268 1538 0 0 C 149.878 579.962 t 0 r /Helvetica-Bold findfont 58.6478 sf 0 0 m (40) show NC gr 
 gsave  2268 1538 0 0 C 149.878 720.065 t 0 r /Helvetica-Bold findfont 58.6478 sf 0 0 m (50) show NC gr 
 gsave  2268 1538 0 0 C 149.878 863.427 t 0 r /Helvetica-Bold findfont 58.6478 sf 0 0 m (60) show NC gr 
 gsave  2268 1538 0 0 C 149.878 1003.53 t 0 r /Helvetica-Bold findfont 58.6478 sf 0 0 m (70) show NC gr 
 gsave  2268 1538 0 0 C 149.878 1146.89 t 0 r /Helvetica-Bold findfont 58.6478 sf 0 0 m (80) show NC gr 
 gsave  2268 1538 0 0 C 149.878 1286.99 t 0 r /Helvetica-Bold findfont 58.6478 sf 0 0 m (90) show NC gr  2041 154 m 1230 Y s 1987 176 m 54 X s 2014 204 m 27 X s 2014 233 m 27 X s 2014 261 m 27 X s 2014 289 m 27 X s 1987 318 m 54 X s 2014 346 m 27 X s
 2014 374 m 27 X s 2014 403 m 27 X s 2014 431 m 27 X s 1987 459 m 54 X s 2014 488 m 27 X s 2014 516 m 27 X s 2014 544 m 27 X s 2014 573 m 27 X s 1987 601 m 54 X s 2014 629 m 27 X s 2014 658 m 27 X s 2014 686 m 27 X s 2014 714 m 27 X s 1987 743 m 54 X
 s 2014 771 m 27 X s 2014 799 m 27 X s 2014 828 m 27 X s 2014 856 m 27 X s 1987 884 m 54 X s 2014 913 m 27 X s 2014 941 m 27 X s 2014 969 m 27 X s 2014 998 m 27 X s 1987 1026 m 54 X s 2014 1054 m 27 X s 2014 1083 m 27 X s 2014 1111 m 27 X s 2014 1139
 m 27 X s 1987 1168 m 54 X s 2014 1196 m 27 X s 2014 1224 m 27 X s 2014 1253 m 27 X s 2014 1281 m 27 X s 1987 1309 m 54 X s 1987 176 m 54 X s 1987 1309 m 54 X s 2014 1338 m 27 X s 2014 1366 m 27 X s 309 472 m 36 Y s 303 508 m 13 X s 309 446 m -36 Y s
 303 410 m 13 X s 406 637 m 44 Y s 400 681 m 13 X s 406 611 m -45 Y s 400 566 m 13 X s 503 682 m 47 Y s 497 729 m 13 X s 503 656 m -47 Y s 497 609 m 13 X s 600 756 m 50 Y s 594 806 m 13 X s 600 730 m -51 Y s 594 679 m 13 X s 697 291 m 24 Y s 691 315
 m 13 X s 697 265 m -24 Y s 691 241 m 13 X s 794 523 m 39 Y s 788 562 m 13 X s 794 497 m -39 Y s 788 458 m 13 X s 891 376 m 30 Y s 885 406 m 13 X s 891 350 m -30 Y s 885 320 m 13 X s 988 331 m 27 Y s 982 358 m 13 X s 988 305 m -27 Y s 982 278 m 13 X
 s 1085 597 m 43 Y s 1079 640 m 13 X s 1085 571 m -43 Y s 1079 528 m 13 X s 1182 501 m 37 Y s 1176 538 m 13 X s 1182 475 m -38 Y s 1176 437 m 13 X s 1279 495 m 37 Y s 1273 532 m 13 X s 1279 469 m -37 Y s 1273 432 m 13 X s 1376 421 m 33 Y s 1370 454 m
 13 X s 1376 395 m -33 Y s 1370 362 m 13 X s 1473 325 m 27 Y s 1467 352 m 13 X s 1473 299 m -27 Y s 1467 272 m 13 X s 1570 455 m 35 Y s 1564 490 m 13 X s 1570 429 m -35 Y s 1564 394 m 13 X s 1667 614 m 44 Y s 1661 658 m 13 X s 1667 588 m -44 Y s 1661
 544 m 13 X s 1764 518 m 38 Y s 1758 556 m 13 X s 1764 492 m -39 Y s 1758 453 m 13 X s 1861 342 m 28 Y s 1855 370 m 13 X s 1861 316 m -28 Y s 1855 288 m 13 X s 1958 489 m 37 Y s 1952 526 m 13 X s 1958 463 m -37 Y s 1952 426 m 13 X s 309 459 m 97 165
 d 97 45 d 97 74 d 97 -465 d 97 232 d 97 -147 d 97 -45 d 97 266 d 97 -96 d 97 -6 d 97 -74 d 97 -96 d 97 130 d 97 159 d 97 -96 d 97 -176 d 97 147 d s /w 26 def /w2 {w 2 div} def /w3 {w 3 div} def 309 459 406 624 503 669 600 743 697 278 794 510 891 363
 988 318 1085 584 1182 488 1279 482 1376 408 1473 312 1570 442 1667 601 1764 505 1861 329 1958 476 18 { m20} R 1 0 0 c 309 563 m 41 Y s 303 604 m 13 X s 309 537 m -41 Y s 303 496 m 13 X s 406 552 m 40 Y s 400 592 m 13 X s 406 526 m -41 Y s 400 485 m
 13 X s 503 591 m 43 Y s 497 634 m 13 X s 503 565 m -42 Y s 497 523 m 13 X s 600 699 m 48 Y s 594 747 m 13 X s 600 673 m -48 Y s 594 625 m 13 X s 697 308 m 25 Y s 691 333 m 13 X s 697 282 m -26 Y s 691 256 m 13 X s 794 608 m 44 Y s 788 652 m 13 X s
 794 582 m -43 Y s 788 539 m 13 X s 891 506 m 38 Y s 885 544 m 13 X s 891 480 m -38 Y s 885 442 m 13 X s 988 297 m 24 Y s 982 321 m 13 X s 988 271 m -25 Y s 982 246 m 13 X s 1085 552 m 40 Y s 1079 592 m 13 X s 1085 526 m -41 Y s 1079 485 m 13 X s
 1182 546 m 40 Y s 1176 586 m 13 X s 1182 520 m -40 Y s 1176 480 m 13 X s 1279 546 m 40 Y s 1273 586 m 13 X s 1279 520 m -40 Y s 1273 480 m 13 X s 1376 404 m 32 Y s 1370 436 m 13 X s 1376 378 m -32 Y s 1370 346 m 13 X s 1473 314 m 25 Y s 1467 339 m
 13 X s 1473 288 m -26 Y s 1467 262 m 13 X s 1570 461 m 35 Y s 1564 496 m 13 X s 1570 435 m -35 Y s 1564 400 m 13 X s 1667 608 m 44 Y s 1661 652 m 13 X s 1667 582 m -43 Y s 1661 539 m 13 X s 1764 569 m 41 Y s 1758 610 m 13 X s 1764 543 m -42 Y s 1758
 501 m 13 X s 1861 370 m 30 Y s 1855 400 m 13 X s 1861 344 m -30 Y s 1855 314 m 13 X s 1958 472 m 36 Y s 1952 508 m 13 X s 1958 446 m -36 Y s 1952 410 m 13 X s black 1 0 0 c 309 550 m 97 -11 d 97 39 d 97 108 d 97 -391 d 97 300 d 97 -102 d 97 -209 d
 97 255 d 97 -6 d 97 X 97 -142 d 97 -90 d 97 147 d 97 147 d 97 -39 d 97 -199 d 97 102 d s 309 550 406 539 503 578 600 686 697 295 794 595 891 493 988 284 1085 539 1182 533 1279 533 1376 391 1473 301 1570 448 1667 595 1764 556 1861 357 1958 459 18 {
 m20} R 0 1 0 c 309 625 m 45 Y s 303 670 m 13 X s 309 599 m -44 Y s 303 555 m 13 X s 406 637 m 44 Y s 400 681 m 13 X s 406 611 m -45 Y s 400 566 m 13 X s 503 795 m 52 Y s 497 847 m 13 X s 503 769 m -52 Y s 497 717 m 13 X s 600 750 m 50 Y s 594 800 m
 13 X s 600 724 m -50 Y s 594 674 m 13 X s 697 376 m 30 Y s 691 406 m 13 X s 697 350 m -30 Y s 691 320 m 13 X s 794 518 m 38 Y s 788 556 m 13 X s 794 492 m -39 Y s 788 453 m 13 X s 891 523 m 39 Y s 885 562 m 13 X s 891 497 m -39 Y s 885 458 m 13 X s
 988 285 m 24 Y s 982 309 m 13 X s 988 259 m -23 Y s 982 236 m 13 X s 1085 688 m 47 Y s 1079 735 m 13 X s 1085 662 m -48 Y s 1079 614 m 13 X s 1182 540 m 40 Y s 1176 580 m 13 X s 1182 514 m -40 Y s 1176 474 m 13 X s 1279 404 m 32 Y s 1273 436 m 13 X
 s 1279 378 m -32 Y s 1273 346 m 13 X s 1376 325 m 27 Y s 1370 352 m 13 X s 1376 299 m -27 Y s 1370 272 m 13 X s 1473 393 m 31 Y s 1467 424 m 13 X s 1473 367 m -31 Y s 1467 336 m 13 X s 1570 569 m 41 Y s 1564 610 m 13 X s 1570 543 m -42 Y s 1564 501
 m 13 X s 1667 608 m 44 Y s 1661 652 m 13 X s 1667 582 m -43 Y s 1661 539 m 13 X s 1764 693 m 48 Y s 1758 741 m 13 X s 1764 667 m -47 Y s 1758 620 m 13 X s 1861 478 m 36 Y s 1855 514 m 13 X s 1861 452 m -36 Y s 1855 416 m 13 X s 1958 518 m 38 Y s
 1952 556 m 13 X s 1958 492 m -39 Y s 1952 453 m 13 X s black 0 1 0 c 309 612 m 97 12 d 97 158 d 97 -45 d 97 -374 d 97 142 d 97 5 d 97 -238 d 97 403 d 97 -148 d 97 -136 d 97 -79 d 97 68 d 97 176 d 97 39 d 97 85 d 97 -215 d 97 40 d s 309 612 406 624
 503 782 600 737 697 363 794 505 891 510 988 272 1085 675 1182 527 1279 391 1376 312 1473 380 1570 556 1667 595 1764 680 1861 465 1958 505 18 { m20} R 0 0 1 c 309 484 m 36 Y s 303 520 m 13 X s 309 458 m -37 Y s 303 421 m 13 X s 406 637 m 44 Y s 400
 681 m 13 X s 406 611 m -45 Y s 400 566 m 13 X s 503 937 m 58 Y s 497 995 m 13 X s 503 911 m -58 Y s 497 853 m 13 X s 600 852 m 55 Y s 594 907 m 13 X s 600 826 m -55 Y s 594 771 m 13 X s 697 467 m 35 Y s 691 502 m 13 X s 697 441 m -36 Y s 691 405 m
 13 X s 794 654 m 45 Y s 788 699 m 13 X s 794 628 m -46 Y s 788 582 m 13 X s 891 552 m 40 Y s 885 592 m 13 X s 891 526 m -41 Y s 885 485 m 13 X s 988 268 m 23 Y s 982 291 m 13 X s 988 242 m -22 Y s 982 220 m 13 X s 1085 523 m 39 Y s 1079 562 m 13 X s
 1085 497 m -39 Y s 1079 458 m 13 X s 1182 722 m 48 Y s 1176 770 m 13 X s 1182 696 m -49 Y s 1176 647 m 13 X s 1279 512 m 38 Y s 1273 550 m 13 X s 1279 486 m -38 Y s 1273 448 m 13 X s 1376 387 m 31 Y s 1370 418 m 13 X s 1376 361 m -31 Y s 1370 330 m
 13 X s 1473 450 m 34 Y s 1467 484 m 13 X s 1473 424 m -35 Y s 1467 389 m 13 X s 1570 393 m 31 Y s 1564 424 m 13 X s 1570 367 m -31 Y s 1564 336 m 13 X s 1667 586 m 42 Y s 1661 628 m 13 X s 1667 560 m -43 Y s 1661 517 m 13 X s 1764 608 m 44 Y s 1758
 652 m 13 X s 1764 582 m -43 Y s 1758 539 m 13 X s 1861 461 m 35 Y s 1855 496 m 13 X s 1861 435 m -35 Y s 1855 400 m 13 X s 1958 648 m 45 Y s 1952 693 m 13 X s 1958 622 m -45 Y s 1952 577 m 13 X s black 0 0 1 c 309 471 m 97 153 d 97 300 d 97 -85 d 97
 -385 d 97 187 d 97 -102 d 97 -284 d 97 255 d 97 199 d 97 -210 d 97 -125 d 97 63 d 97 -57 d 97 193 d 97 22 d 97 -147 d 97 187 d s 309 471 406 624 503 924 600 839 697 454 794 641 891 539 988 255 1085 510 1182 709 1279 499 1376 374 1473 437 1570 380
 1667 573 1764 595 1861 448 1958 635 18 { m20} R 1 1 0 c 309 591 m 43 Y s 303 634 m 13 X s 309 565 m -42 Y s 303 523 m 13 X s 406 648 m 45 Y s 400 693 m 13 X s 406 622 m -45 Y s 400 577 m 13 X s 503 801 m 52 Y s 497 853 m 13 X s 503 775 m -52 Y s 497
 723 m 13 X s 600 778 m 52 Y s 594 830 m 13 X s 600 752 m -51 Y s 594 701 m 13 X s 697 467 m 35 Y s 691 502 m 13 X s 697 441 m -36 Y s 691 405 m 13 X s 794 648 m 45 Y s 788 693 m 13 X s 794 622 m -45 Y s 788 577 m 13 X s 891 591 m 43 Y s 885 634 m 13
 X s 891 565 m -42 Y s 885 523 m 13 X s 988 308 m 25 Y s 982 333 m 13 X s 988 282 m -26 Y s 982 256 m 13 X s 1085 710 m 49 Y s 1079 759 m 13 X s 1085 684 m -48 Y s 1079 636 m 13 X s 1182 625 m 45 Y s 1176 670 m 13 X s 1182 599 m -44 Y s 1176 555 m 13
 X s 1279 444 m 34 Y s 1273 478 m 13 X s 1279 418 m -34 Y s 1273 384 m 13 X s 1376 359 m 29 Y s 1370 388 m 13 X s 1376 333 m -29 Y s 1370 304 m 13 X s 1473 467 m 35 Y s 1467 502 m 13 X s 1473 441 m -36 Y s 1467 405 m 13 X s 1570 529 m 39 Y s 1564 568
 m 13 X s 1570 503 m -39 Y s 1564 464 m 13 X s 1667 620 m 44 Y s 1661 664 m 13 X s 1667 594 m -44 Y s 1661 550 m 13 X s 1764 659 m 46 Y s 1758 705 m 13 X s 1764 633 m -46 Y s 1758 587 m 13 X s 1861 484 m 36 Y s 1855 520 m 13 X s 1861 458 m -37 Y s
 1855 421 m 13 X s 1958 659 m 46 Y s 1952 705 m 13 X s 1958 633 m -46 Y s 1952 587 m 13 X s black 1 1 0 c 309 578 m 97 57 d 97 153 d 97 -23 d 97 -311 d 97 181 d 97 -57 d 97 -283 d 97 402 d 97 -85 d 97 -181 d 97 -85 d 97 108 d 97 62 d 97 91 d 97 39 d
 97 -175 d 97 175 d s 309 578 406 635 503 788 600 765 697 454 794 635 891 578 988 295 1085 697 1182 612 1279 431 1376 346 1473 454 1570 516 1667 607 1764 646 1861 471 1958 646 18 { m20} R 1 0 1 c 309 569 m 41 Y s 303 610 m 13 X s 309 543 m -42 Y s
 303 501 m 13 X s 406 557 m 41 Y s 400 598 m 13 X s 406 531 m -40 Y s 400 491 m 13 X s 503 829 m 54 Y s 497 883 m 13 X s 503 803 m -53 Y s 497 750 m 13 X s 600 807 m 52 Y s 594 859 m 13 X s 600 781 m -53 Y s 594 728 m 13 X s 697 455 m 35 Y s 691 490
 m 13 X s 697 429 m -35 Y s 691 394 m 13 X s 794 591 m 43 Y s 788 634 m 13 X s 794 565 m -42 Y s 788 523 m 13 X s 891 484 m 36 Y s 885 520 m 13 X s 891 458 m -37 Y s 885 421 m 13 X s 988 382 m 30 Y s 982 412 m 13 X s 988 356 m -31 Y s 982 325 m 13 X
 s 1085 591 m 43 Y s 1079 634 m 13 X s 1085 565 m -42 Y s 1079 523 m 13 X s 1182 807 m 52 Y s 1176 859 m 13 X s 1182 781 m -53 Y s 1176 728 m 13 X s 1279 705 m 48 Y s 1273 753 m 13 X s 1279 679 m -48 Y s 1273 631 m 13 X s 1376 501 m 37 Y s 1370 538 m
 13 X s 1376 475 m -38 Y s 1370 437 m 13 X s 1473 591 m 43 Y s 1467 634 m 13 X s 1473 565 m -42 Y s 1467 523 m 13 X s 1570 489 m 37 Y s 1564 526 m 13 X s 1570 463 m -37 Y s 1564 426 m 13 X s 1667 665 m 46 Y s 1661 711 m 13 X s 1667 639 m -46 Y s 1661
 593 m 13 X s 1764 807 m 52 Y s 1758 859 m 13 X s 1764 781 m -53 Y s 1758 728 m 13 X s 1861 552 m 40 Y s 1855 592 m 13 X s 1861 526 m -41 Y s 1855 485 m 13 X s 1958 880 m 56 Y s 1952 936 m 13 X s 1958 854 m -55 Y s 1952 799 m 13 X s black 1 0 1 c 309
 556 m 97 -12 d 97 272 d 97 -22 d 97 -352 d 97 136 d 97 -107 d 97 -102 d 97 209 d 97 216 d 97 -102 d 97 -204 d 97 90 d 97 -102 d 97 176 d 97 142 d 97 -255 d 97 328 d s 309 556 406 544 503 816 600 794 697 442 794 578 891 471 988 369 1085 578 1182 794
 1279 692 1376 488 1473 578 1570 476 1667 652 1764 794 1861 539 1958 867 18 { m20} R black[ 12 12] 0 sd 309 501 m 37 Y s 303 538 m 13 X s 309 475 m -38 Y s 303 437 m 13 X s 406 529 m 39 Y s 400 568 m 13 X s 406 503 m -39 Y s 400 464 m 13 X s 503 693
 m 48 Y s 497 741 m 13 X s 503 667 m -47 Y s 497 620 m 13 X s 600 620 m 44 Y s 594 664 m 13 X s 600 594 m -44 Y s 594 550 m 13 X s 697 325 m 27 Y s 691 352 m 13 X s 697 299 m -27 Y s 691 272 m 13 X s 794 608 m 44 Y s 788 652 m 13 X s 794 582 m -43 Y
 s 788 539 m 13 X s 891 427 m 33 Y s 885 460 m 13 X s 891 401 m -33 Y s 885 368 m 13 X s 988 302 m 25 Y s 982 327 m 13 X s 988 276 m -25 Y s 982 251 m 13 X s 1085 427 m 33 Y s 1079 460 m 13 X s 1085 401 m -33 Y s 1079 368 m 13 X s 1182 461 m 35 Y s
 1176 496 m 13 X s 1182 435 m -35 Y s 1176 400 m 13 X s 1279 421 m 33 Y s 1273 454 m 13 X s 1279 395 m -33 Y s 1273 362 m 13 X s 1376 336 m 28 Y s 1370 364 m 13 X s 1376 310 m -27 Y s 1370 283 m 13 X s 1473 348 m 28 Y s 1467 376 m 13 X s 1473 322 m
 -29 Y s 1467 293 m 13 X s 1570 467 m 35 Y s 1564 502 m 13 X s 1570 441 m -36 Y s 1564 405 m 13 X s 1667 569 m 41 Y s 1661 610 m 13 X s 1667 543 m -42 Y s 1661 501 m 13 X s 1764 625 m 45 Y s 1758 670 m 13 X s 1764 599 m -44 Y s 1758 555 m 13 X s 1861
 331 m 27 Y s 1855 358 m 13 X s 1861 305 m -27 Y s 1855 278 m 13 X s 1958 461 m 35 Y s 1952 496 m 13 X s 1958 435 m -35 Y s 1952 400 m 13 X s 309 488 m 97 28 d 97 164 d 97 -73 d 97 -295 d 97 283 d 97 -181 d 97 -125 d 97 125 d 97 34 d 97 -40 d 97 -85
 d 97 12 d 97 119 d 97 102 d 97 56 d 97 -294 d 97 130 d s[  ] 0 sd 309 488 406 516 503 680 600 607 697 312 794 595 891 414 988 289 1085 414 1182 448 1279 408 1376 323 1473 335 1570 454 1667 556 1764 612 1861 318 1958 448 18 { m21} R[ 12 12] 0 sd 1 0
 0 c 309 557 m 41 Y s 303 598 m 13 X s 309 531 m -40 Y s 303 491 m 13 X s 406 535 m 39 Y s 400 574 m 13 X s 406 509 m -40 Y s 400 469 m 13 X s 503 580 m 42 Y s 497 622 m 13 X s 503 554 m -42 Y s 497 512 m 13 X s 600 659 m 46 Y s 594 705 m 13 X s 600
 633 m -46 Y s 594 587 m 13 X s 697 399 m 31 Y s 691 430 m 13 X s 697 373 m -32 Y s 691 341 m 13 X s 794 427 m 33 Y s 788 460 m 13 X s 794 401 m -33 Y s 788 368 m 13 X s 891 546 m 40 Y s 885 586 m 13 X s 891 520 m -40 Y s 885 480 m 13 X s 988 251 m
 21 Y s 982 272 m 13 X s 988 225 m -21 Y s 982 204 m 13 X s 1085 580 m 42 Y s 1079 622 m 13 X s 1085 554 m -42 Y s 1079 512 m 13 X s 1182 478 m 36 Y s 1176 514 m 13 X s 1182 452 m -36 Y s 1176 416 m 13 X s 1279 410 m 32 Y s 1273 442 m 13 X s 1279 384
 m -32 Y s 1273 352 m 13 X s 1376 438 m 34 Y s 1370 472 m 13 X s 1376 412 m -34 Y s 1370 378 m 13 X s 1473 353 m 29 Y s 1467 382 m 13 X s 1473 327 m -28 Y s 1467 299 m 13 X s 1570 489 m 37 Y s 1564 526 m 13 X s 1570 463 m -37 Y s 1564 426 m 13 X s
 1667 620 m 44 Y s 1661 664 m 13 X s 1667 594 m -44 Y s 1661 550 m 13 X s 1764 529 m 39 Y s 1758 568 m 13 X s 1764 503 m -39 Y s 1758 464 m 13 X s 1861 433 m 33 Y s 1855 466 m 13 X s 1861 407 m -34 Y s 1855 373 m 13 X s 1958 535 m 39 Y s 1952 574 m
 13 X s 1958 509 m -40 Y s 1952 469 m 13 X s black 1 0 0 c 309 544 m 97 -22 d 97 45 d 97 79 d 97 -260 d 97 28 d 97 119 d 97 -295 d 97 329 d 97 -102 d 97 -68 d 97 28 d 97 -85 d 97 136 d 97 131 d 97 -91 d 97 -96 d 97 102 d s[  ] 0 sd 309 544 406 522
 503 567 600 646 697 386 794 414 891 533 988 238 1085 567 1182 465 1279 397 1376 425 1473 340 1570 476 1667 607 1764 516 1861 420 1958 522 18 { m21} R[ 12 12] 0 sd 0 1 0 c 309 642 m 45 Y s 303 687 m 13 X s 309 616 m -45 Y s 303 571 m 13 X s 406 716 m
 49 Y s 400 765 m 13 X s 406 690 m -49 Y s 400 641 m 13 X s 503 750 m 50 Y s 497 800 m 13 X s 503 724 m -50 Y s 497 674 m 13 X s 600 580 m 42 Y s 594 622 m 13 X s 600 554 m -42 Y s 594 512 m 13 X s 697 382 m 30 Y s 691 412 m 13 X s 697 356 m -31 Y s
 691 325 m 13 X s 794 461 m 35 Y s 788 496 m 13 X s 794 435 m -35 Y s 788 400 m 13 X s 891 472 m 36 Y s 885 508 m 13 X s 891 446 m -36 Y s 885 410 m 13 X s 988 280 m 23 Y s 982 303 m 13 X s 988 254 m -24 Y s 982 230 m 13 X s 1085 529 m 39 Y s 1079
 568 m 13 X s 1085 503 m -39 Y s 1079 464 m 13 X s 1182 506 m 38 Y s 1176 544 m 13 X s 1182 480 m -38 Y s 1176 442 m 13 X s 1279 438 m 34 Y s 1273 472 m 13 X s 1279 412 m -34 Y s 1273 378 m 13 X s 1376 495 m 37 Y s 1370 532 m 13 X s 1376 469 m -37 Y
 s 1370 432 m 13 X s 1473 336 m 28 Y s 1467 364 m 13 X s 1473 310 m -27 Y s 1467 283 m 13 X s 1570 421 m 33 Y s 1564 454 m 13 X s 1570 395 m -33 Y s 1564 362 m 13 X s 1667 637 m 44 Y s 1661 681 m 13 X s 1667 611 m -45 Y s 1661 566 m 13 X s 1764 557 m
 41 Y s 1758 598 m 13 X s 1764 531 m -40 Y s 1758 491 m 13 X s 1861 433 m 33 Y s 1855 466 m 13 X s 1861 407 m -34 Y s 1855 373 m 13 X s 1958 603 m 43 Y s 1952 646 m 13 X s 1958 577 m -43 Y s 1952 534 m 13 X s black 0 1 0 c 309 629 m 97 74 d 97 34 d
 97 -170 d 97 -198 d 97 79 d 97 11 d 97 -192 d 97 249 d 97 -23 d 97 -68 d 97 57 d 97 -159 d 97 85 d 97 216 d 97 -80 d 97 -124 d 97 170 d s[  ] 0 sd 309 629 406 703 503 737 600 567 697 369 794 448 891 459 988 267 1085 516 1182 493 1279 425 1376 482
 1473 323 1570 408 1667 624 1764 544 1861 420 1958 590 18 { m21} R[ 12 12] 0 sd 0 0 1 c 309 467 m 35 Y s 303 502 m 13 X s 309 441 m -36 Y s 303 405 m 13 X s 406 563 m 41 Y s 400 604 m 13 X s 406 537 m -41 Y s 400 496 m 13 X s 503 863 m 55 Y s 497 918
 m 13 X s 503 837 m -55 Y s 497 782 m 13 X s 600 784 m 52 Y s 594 836 m 13 X s 600 758 m -52 Y s 594 706 m 13 X s 697 450 m 34 Y s 691 484 m 13 X s 697 424 m -35 Y s 691 389 m 13 X s 794 557 m 41 Y s 788 598 m 13 X s 794 531 m -40 Y s 788 491 m 13 X
 s 891 540 m 40 Y s 885 580 m 13 X s 891 514 m -40 Y s 885 474 m 13 X s 988 240 m 20 Y s 982 260 m 13 X s 988 214 m -20 Y s 982 194 m 13 X s 1085 535 m 39 Y s 1079 574 m 13 X s 1085 509 m -40 Y s 1079 469 m 13 X s 1182 710 m 49 Y s 1176 759 m 13 X s
 1182 684 m -48 Y s 1176 636 m 13 X s 1279 597 m 43 Y s 1273 640 m 13 X s 1279 571 m -43 Y s 1273 528 m 13 X s 1376 319 m 27 Y s 1370 346 m 13 X s 1376 293 m -26 Y s 1370 267 m 13 X s 1473 410 m 32 Y s 1467 442 m 13 X s 1473 384 m -32 Y s 1467 352 m
 13 X s 1570 353 m 29 Y s 1564 382 m 13 X s 1570 327 m -28 Y s 1564 299 m 13 X s 1667 818 m 53 Y s 1661 871 m 13 X s 1667 792 m -53 Y s 1661 739 m 13 X s 1764 642 m 45 Y s 1758 687 m 13 X s 1764 616 m -45 Y s 1758 571 m 13 X s 1861 450 m 34 Y s 1855
 484 m 13 X s 1861 424 m -35 Y s 1855 389 m 13 X s 1958 563 m 41 Y s 1952 604 m 13 X s 1958 537 m -41 Y s 1952 496 m 13 X s black 0 0 1 c 309 454 m 97 96 d 97 300 d 97 -79 d 97 -334 d 97 107 d 97 -17 d 97 -300 d 97 295 d 97 175 d 97 -113 d 97 -278 d
 97 91 d 97 -57 d 97 465 d 97 -176 d 97 -192 d 97 113 d s[  ] 0 sd 309 454 406 550 503 850 600 771 697 437 794 544 891 527 988 227 1085 522 1182 697 1279 584 1376 306 1473 397 1570 340 1667 805 1764 629 1861 437 1958 550 18 { m21} R[ 12 12] 0 sd 1 1
 0 c 309 665 m 46 Y s 303 711 m 13 X s 309 639 m -46 Y s 303 593 m 13 X s 406 665 m 46 Y s 400 711 m 13 X s 406 639 m -46 Y s 400 593 m 13 X s 503 795 m 52 Y s 497 847 m 13 X s 503 769 m -52 Y s 497 717 m 13 X s 600 744 m 50 Y s 594 794 m 13 X s 600
 718 m -50 Y s 594 668 m 13 X s 697 455 m 35 Y s 691 490 m 13 X s 697 429 m -35 Y s 691 394 m 13 X s 794 739 m 49 Y s 788 788 m 13 X s 794 713 m -50 Y s 788 663 m 13 X s 891 569 m 41 Y s 885 610 m 13 X s 891 543 m -42 Y s 885 501 m 13 X s 988 302 m
 25 Y s 982 327 m 13 X s 988 276 m -25 Y s 982 251 m 13 X s 1085 546 m 40 Y s 1079 586 m 13 X s 1085 520 m -40 Y s 1079 480 m 13 X s 1182 512 m 38 Y s 1176 550 m 13 X s 1182 486 m -38 Y s 1176 448 m 13 X s 1279 444 m 34 Y s 1273 478 m 13 X s 1279 418
 m -34 Y s 1273 384 m 13 X s 1376 433 m 33 Y s 1370 466 m 13 X s 1376 407 m -34 Y s 1370 373 m 13 X s 1473 495 m 37 Y s 1467 532 m 13 X s 1473 469 m -37 Y s 1467 432 m 13 X s 1570 467 m 35 Y s 1564 502 m 13 X s 1570 441 m -36 Y s 1564 405 m 13 X s
 1667 676 m 47 Y s 1661 723 m 13 X s 1667 650 m -46 Y s 1661 604 m 13 X s 1764 580 m 42 Y s 1758 622 m 13 X s 1764 554 m -42 Y s 1758 512 m 13 X s 1861 433 m 33 Y s 1855 466 m 13 X s 1861 407 m -34 Y s 1855 373 m 13 X s 1958 812 m 53 Y s 1952 865 m
 13 X s 1958 786 m -53 Y s 1952 733 m 13 X s black 1 1 0 c 309 652 m 97 X 97 130 d 97 -51 d 97 -289 d 97 284 d 97 -170 d 97 -267 d 97 244 d 97 -34 d 97 -68 d 97 -11 d 97 62 d 97 -28 d 97 209 d 97 -96 d 97 -147 d 97 379 d s[  ] 0 sd 309 652 406 652
 503 782 600 731 697 442 794 726 891 556 988 289 1085 533 1182 499 1279 431 1376 420 1473 482 1570 454 1667 663 1764 567 1861 420 1958 799 18 { m21} R[ 12 12] 0 sd 1 0 1 c 309 591 m 43 Y s 303 634 m 13 X s 309 565 m -42 Y s 303 523 m 13 X s 406 495 m
 37 Y s 400 532 m 13 X s 406 469 m -37 Y s 400 432 m 13 X s 503 778 m 52 Y s 497 830 m 13 X s 503 752 m -51 Y s 497 701 m 13 X s 600 869 m 55 Y s 594 924 m 13 X s 600 843 m -55 Y s 594 788 m 13 X s 697 319 m 27 Y s 691 346 m 13 X s 697 293 m -26 Y s
 691 267 m 13 X s 794 557 m 41 Y s 788 598 m 13 X s 794 531 m -40 Y s 788 491 m 13 X s 891 325 m 27 Y s 885 352 m 13 X s 891 299 m -27 Y s 885 272 m 13 X s 988 416 m 32 Y s 982 448 m 13 X s 988 390 m -33 Y s 982 357 m 13 X s 1085 761 m 51 Y s 1079
 812 m 13 X s 1085 735 m -50 Y s 1079 685 m 13 X s 1182 699 m 48 Y s 1176 747 m 13 X s 1182 673 m -48 Y s 1176 625 m 13 X s 1279 529 m 39 Y s 1273 568 m 13 X s 1279 503 m -39 Y s 1273 464 m 13 X s 1376 506 m 38 Y s 1370 544 m 13 X s 1376 480 m -38 Y
 s 1370 442 m 13 X s 1473 387 m 31 Y s 1467 418 m 13 X s 1473 361 m -31 Y s 1467 330 m 13 X s 1570 489 m 37 Y s 1564 526 m 13 X s 1570 463 m -37 Y s 1564 426 m 13 X s 1667 863 m 55 Y s 1661 918 m 13 X s 1667 837 m -55 Y s 1661 782 m 13 X s 1764 676 m
 47 Y s 1758 723 m 13 X s 1764 650 m -46 Y s 1758 604 m 13 X s 1861 478 m 36 Y s 1855 514 m 13 X s 1861 452 m -36 Y s 1855 416 m 13 X s 1958 608 m 44 Y s 1952 652 m 13 X s 1958 582 m -43 Y s 1952 539 m 13 X s black 1 0 1 c 309 578 m 97 -96 d 97 283 d
 97 91 d 97 -550 d 97 238 d 97 -232 d 97 91 d 97 345 d 97 -62 d 97 -170 d 97 -23 d 97 -119 d 97 102 d 97 374 d 97 -187 d 97 -198 d 97 130 d s[  ] 0 sd 309 578 406 482 503 765 600 856 697 306 794 544 891 312 988 403 1085 748 1182 686 1279 516 1376 493
 1473 374 1570 476 1667 850 1764 663 1861 465 1958 595 18 { m21} R[ 12 12] 0 sd black
 gsave  2268 1538 0 0 C 325.821 1300.03 t 0 r /Helvetica-Bold findfont 58.6478 sf 0 0 m (Sct Disk \(left\)) show NC gr 
 gsave  2268 1538 0 0 C 430.084 1244.64 t 0 r /Helvetica-Bold findfont 58.6478 sf 0 0 m (Disk 0) show NC gr [  ] 0 sd 334 1256 m 80 X s 374 1256 m20
 gsave  2268 1538 0 0 C 430.084 1189.25 t 0 r /Helvetica-Bold findfont 58.6478 sf 0 0 m (Disk 1) show NC gr  1 0 0 c 334 1201 m 80 X s 374 1201 m20 black
 gsave  2268 1538 0 0 C 430.084 1133.86 t 0 r /Helvetica-Bold findfont 58.6478 sf 0 0 m (Disk 2) show NC gr  0 1 0 c 334 1146 m 80 X s 374 1146 m20 black
 gsave  2268 1538 0 0 C 430.084 1078.47 t 0 r /Helvetica-Bold findfont 58.6478 sf 0 0 m (Disk 3) show NC gr  0 0 1 c 334 1091 m 80 X s 374 1091 m20 black
 gsave  2268 1538 0 0 C 430.084 1026.34 t 0 r /Helvetica-Bold findfont 58.6478 sf 0 0 m (Disk 4) show NC gr  1 1 0 c 334 1036 m 80 X s 374 1036 m20 black
 gsave  2268 1538 0 0 C 430.084 970.948 t 0 r /Helvetica-Bold findfont 58.6478 sf 0 0 m (Disk 5) show NC gr  1 0 1 c 334 981 m 80 X s 374 981 m20 black
 gsave  2268 1538 0 0 C 622.319 1300.03 t 0 r /Helvetica-Bold findfont 58.6478 sf 0 0 m (  \(right\)) show NC gr 
 gsave  2268 1538 0 0 C 723.323 1244.64 t 0 r /Helvetica-Bold findfont 58.6478 sf 0 0 m (Disk 0) show NC gr [ 12 12] 0 sd 629 1256 m 80 X s[  ] 0 sd 669 1256 m21[ 12 12] 0 sd
 gsave  2268 1538 0 0 C 723.323 1189.25 t 0 r /Helvetica-Bold findfont 58.6478 sf 0 0 m (Disk 1) show NC gr  1 0 0 c 629 1201 m 80 X s[  ] 0 sd 669 1201 m21[ 12 12] 0 sd black
 gsave  2268 1538 0 0 C 723.323 1133.86 t 0 r /Helvetica-Bold findfont 58.6478 sf 0 0 m (Disk 2) show NC gr  0 1 0 c 629 1146 m 80 X s[  ] 0 sd 669 1146 m21[ 12 12] 0 sd black
 gsave  2268 1538 0 0 C 723.323 1078.47 t 0 r /Helvetica-Bold findfont 58.6478 sf 0 0 m (Disk 3) show NC gr  0 0 1 c 629 1091 m 80 X s[  ] 0 sd 669 1091 m21[ 12 12] 0 sd black
 gsave  2268 1538 0 0 C 723.323 1026.34 t 0 r /Helvetica-Bold findfont 58.6478 sf 0 0 m (Disk 4) show NC gr  1 1 0 c 629 1036 m 80 X s[  ] 0 sd 669 1036 m21[ 12 12] 0 sd black
 gsave  2268 1538 0 0 C 723.323 970.948 t 0 r /Helvetica-Bold findfont 58.6478 sf 0 0 m (Disk 5) show NC gr  1 0 1 c 629 981 m 80 X s[  ] 0 sd 669 981 m21[ 12 12] 0 sd
 gr  gr showpage
end
%%EOF
