%!PS-Adobe-2.0 EPSF-2.0
%%BoundingBox:  0 0 567 384
%%Title: outputDir/sct_occupancy/hit_sctlayer_mg.eps: c1_n25
%%Creator: ROOT Version 6.04/12
%%CreationDate: Mon Apr 25 16:02:09 2016
%%DocumentNeededResources: ProcSet (FontSetInit)
%%EndComments
%%BeginProlog
80 dict begin
/s {stroke} def /l {lineto} def /m {moveto} def /t {translate} def
/r {rotate} def /rl {roll}  def /R {repeat} def
/d {rlineto} def /rm {rmoveto} def /gr {grestore} def /f {eofill} def
/c {setrgbcolor} def /black {0 setgray} def /sd {setdash} def
/cl {closepath} def /sf {scalefont setfont} def /lw {setlinewidth} def
/box {m dup 0 exch d exch 0 d 0 exch neg d cl} def
/NC{systemdict begin initclip end}def/C{NC box clip newpath}def
/bl {box s} def /bf {gsave box gsave f grestore 1 lw [] 0 sd s grestore} def /Y { 0 exch d} def /X { 0 d} def 
/K {{pop pop 0 moveto} exch kshow} bind def
/ita {/ang 15 def gsave [1 0 ang dup sin exch cos div 1 0 0] concat} def 
/mp {newpath /y exch def /x exch def} def
/side {[w .77 mul w .23 mul] .385 w mul sd w 0 l currentpoint t -144 r} def
/mr {mp x y w2 0 360 arc} def /m24 {mr s} def /m20 {mr f} def
/mb {mp x y w2 add m w2 neg 0 d 0 w neg d w 0 d 0 w d cl} def
/mt {mp x y w2 add m w2 neg w neg d w 0 d cl} def
/m21 {mb f} def /m25 {mb s} def /m22 {mt f} def /m26{mt s} def
/m23 {mp x y w2 sub m w2 w d w neg 0 d cl f} def
/m27 {mp x y w2 add m w3 neg w2 neg d w3 w2 neg d w3 w2 d cl s} def
/m28 {mp x w2 sub y w2 sub w3 add m w3 0 d  0 w3 neg d w3 0 d 0 w3 d w3 0 d  0 w3 d w3 neg 0 d 0 w3 d w3 neg 0 d 0 w3 neg d w3 neg 0 d cl s } def
/m29 {mp gsave x w2 sub y w2 add w3 sub m currentpoint t 4 {side} repeat cl fill gr} def
/m30 {mp gsave x w2 sub y w2 add w3 sub m currentpoint t 4 {side} repeat cl s gr} def
/m31 {mp x y w2 sub m 0 w d x w2 sub y m w 0 d x w2 sub y w2 add m w w neg d x w2 sub y w2 sub m w w d s} def
/m32 {mp x y w2 sub m w2 w d w neg 0 d cl s} def
/m33 {mp x y w2 add m w3 neg w2 neg d w3 w2 neg d w3 w2 d cl f} def
/m34 {mp x w2 sub y w2 sub w3 add m w3 0 d  0 w3 neg d w3 0 d 0 w3 d w3 0 d  0 w3 d w3 neg 0 d 0 w3 d w3 neg 0 d 0 w3 neg d w3 neg 0 d cl f } def
/m2 {mp x y w2 sub m 0 w d x w2 sub y m w 0 d s} def
/m5 {mp x w2 sub y w2 sub m w w d x w2 sub y w2 add m w w neg d s} def
%%IncludeResource: ProcSet (FontSetInit)
%%IncludeResource: font Times-Roman
%%IncludeResource: font Times-Italic
%%IncludeResource: font Times-Bold
%%IncludeResource: font Times-BoldItalic
%%IncludeResource: font Helvetica
%%IncludeResource: font Helvetica-Oblique
%%IncludeResource: font Helvetica-Bold
%%IncludeResource: font Helvetica-BoldOblique
%%IncludeResource: font Courier
%%IncludeResource: font Courier-Oblique
%%IncludeResource: font Courier-Bold
%%IncludeResource: font Courier-BoldOblique
%%IncludeResource: font Symbol
%%IncludeResource: font ZapfDingbats
/reEncode {exch findfont dup length dict begin {1 index /FID eq  {pop pop} {def} ifelse } forall /Encoding exch def currentdict end dup /FontName get exch definefont pop } def [/Times-Bold /Times-Italic /Times-BoldItalic /Helvetica /Helvetica-Oblique
 /Helvetica-Bold /Helvetica-BoldOblique /Courier /Courier-Oblique /Courier-Bold /Courier-BoldOblique /Times-Roman /AvantGarde-Book /AvantGarde-BookOblique /AvantGarde-Demi /AvantGarde-DemiOblique /Bookman-Demi /Bookman-DemiItalic /Bookman-Light
 /Bookman-LightItalic /Helvetica-Narrow /Helvetica-Narrow-Bold /Helvetica-Narrow-BoldOblique /Helvetica-Narrow-Oblique /NewCenturySchlbk-Roman /NewCenturySchlbk-Bold /NewCenturySchlbk-BoldItalic /NewCenturySchlbk-Italic /Palatino-Bold
 /Palatino-BoldItalic /Palatino-Italic /Palatino-Roman ] {ISOLatin1Encoding reEncode } forall
%%EndProlog
%%BeginSetup
%%EndSetup
newpath  gsave  .25 .25 scale  gsave  0 0 t black[  ] 0 sd 3 lw 1 1 1 c 2268 1538 0 0 bf black 1 1 1 c 1814 1230 227 154 bf black 1814 1230 227 154 bl 1 1 1 c 1814 1230 227 154 bf black 1814 1230 227 154 bl 227 154 m 1814 X s
 gsave  2268 1538 0 0 C 1772.47 32.5821 t 0 r /Helvetica-Bold findfont 58.6478 sf 0 0 m (moduleID) show NC gr  250 191 m -37 Y s 309 172 m -18 Y s 368 172 m -18 Y s 427 172 m -18 Y s 486 172 m -18 Y s 545 191 m -37 Y s 604 172 m -18 Y s 663 172 m -18
 Y s 722 172 m -18 Y s 780 172 m -18 Y s 839 191 m -37 Y s 898 172 m -18 Y s 957 172 m -18 Y s 1016 172 m -18 Y s 1075 172 m -18 Y s 1134 191 m -37 Y s 1193 172 m -18 Y s 1252 172 m -18 Y s 1311 172 m -18 Y s 1369 172 m -18 Y s 1428 191 m -37 Y s
 1487 172 m -18 Y s 1546 172 m -18 Y s 1605 172 m -18 Y s 1664 172 m -18 Y s 1723 191 m -37 Y s 1782 172 m -18 Y s 1841 172 m -18 Y s 1900 172 m -18 Y s 1958 172 m -18 Y s 2017 191 m -37 Y s 250 191 m -37 Y s 2017 191 m -37 Y s
 gsave  2268 1538 0 0 C 228.075 97.7464 t 0 r /Helvetica-Bold findfont 58.6478 sf 0 0 m (30) show NC gr 
 gsave  2268 1538 0 0 C 198.751 97.7464 t 0 r /Symbol findfont 58.6478 sf 0 0 m (-) show NC gr 
 gsave  2268 1538 0 0 C 524.572 97.7464 t 0 r /Helvetica-Bold findfont 58.6478 sf 0 0 m (20) show NC gr 
 gsave  2268 1538 0 0 C 495.248 97.7464 t 0 r /Symbol findfont 58.6478 sf 0 0 m (-) show NC gr 
 gsave  2268 1538 0 0 C 817.812 97.7464 t 0 r /Helvetica-Bold findfont 58.6478 sf 0 0 m (10) show NC gr 
 gsave  2268 1538 0 0 C 788.488 97.7464 t 0 r /Symbol findfont 58.6478 sf 0 0 m (-) show NC gr 
 gsave  2268 1538 0 0 C 1117.57 97.7464 t 0 r /Helvetica-Bold findfont 58.6478 sf 0 0 m (0) show NC gr 
 gsave  2268 1538 0 0 C 1394.52 97.7464 t 0 r /Helvetica-Bold findfont 58.6478 sf 0 0 m (10) show NC gr 
 gsave  2268 1538 0 0 C 1687.75 97.7464 t 0 r /Helvetica-Bold findfont 58.6478 sf 0 0 m (20) show NC gr 
 gsave  2268 1538 0 0 C 1984.25 97.7464 t 0 r /Helvetica-Bold findfont 58.6478 sf 0 0 m (30) show NC gr  227 1384 m 1814 X s 250 1347 m 37 Y s 309 1366 m 18 Y s 368 1366 m 18 Y s 427 1366 m 18 Y s 486 1366 m 18 Y s 545 1347 m 37 Y s 604 1366 m 18 Y s
 663 1366 m 18 Y s 722 1366 m 18 Y s 780 1366 m 18 Y s 839 1347 m 37 Y s 898 1366 m 18 Y s 957 1366 m 18 Y s 1016 1366 m 18 Y s 1075 1366 m 18 Y s 1134 1347 m 37 Y s 1193 1366 m 18 Y s 1252 1366 m 18 Y s 1311 1366 m 18 Y s 1369 1366 m 18 Y s 1428
 1347 m 37 Y s 1487 1366 m 18 Y s 1546 1366 m 18 Y s 1605 1366 m 18 Y s 1664 1366 m 18 Y s 1723 1347 m 37 Y s 1782 1366 m 18 Y s 1841 1366 m 18 Y s 1900 1366 m 18 Y s 1958 1366 m 18 Y s 2017 1347 m 37 Y s 250 1347 m 37 Y s 2017 1347 m 37 Y s 227 154
 m 1230 Y s
 gsave  2268 1538 0 0 C 97.7464 801.521 t 90 r /Helvetica-Bold findfont 58.6478 sf 0 0 m (Hits per etaModuleID) show NC gr  281 180 m -54 X s 254 207 m -27 X s 254 234 m -27 X s 254 261 m -27 X s 281 289 m -54 X s 254 316 m -27 X s 254 343 m -27 X s
 254 370 m -27 X s 281 397 m -54 X s 254 424 m -27 X s 254 451 m -27 X s 254 478 m -27 X s 281 505 m -54 X s 254 532 m -27 X s 254 559 m -27 X s 254 586 m -27 X s 281 613 m -54 X s 254 640 m -27 X s 254 667 m -27 X s 254 694 m -27 X s 281 721 m -54 X
 s 254 748 m -27 X s 254 775 m -27 X s 254 802 m -27 X s 281 829 m -54 X s 254 856 m -27 X s 254 883 m -27 X s 254 910 m -27 X s 281 937 m -54 X s 254 964 m -27 X s 254 991 m -27 X s 254 1018 m -27 X s 281 1045 m -54 X s 254 1072 m -27 X s 254 1100 m
 -27 X s 254 1127 m -27 X s 281 1154 m -54 X s 254 1181 m -27 X s 254 1208 m -27 X s 254 1235 m -27 X s 281 1262 m -54 X s 254 1289 m -27 X s 254 1316 m -27 X s 254 1343 m -27 X s 281 1370 m -54 X s 281 180 m -54 X s 281 1370 m -54 X s
 gsave  2268 1538 0 0 C 149.878 159.652 t 0 r /Helvetica-Bold findfont 58.6478 sf 0 0 m (20) show NC gr 
 gsave  2268 1538 0 0 C 149.878 267.173 t 0 r /Helvetica-Bold findfont 58.6478 sf 0 0 m (40) show NC gr 
 gsave  2268 1538 0 0 C 149.878 374.695 t 0 r /Helvetica-Bold findfont 58.6478 sf 0 0 m (60) show NC gr 
 gsave  2268 1538 0 0 C 149.878 482.216 t 0 r /Helvetica-Bold findfont 58.6478 sf 0 0 m (80) show NC gr 
 gsave  2268 1538 0 0 C 117.296 592.995 t 0 r /Helvetica-Bold findfont 58.6478 sf 0 0 m (100) show NC gr 
 gsave  2268 1538 0 0 C 117.296 700.516 t 0 r /Helvetica-Bold findfont 58.6478 sf 0 0 m (120) show NC gr 
 gsave  2268 1538 0 0 C 117.296 808.037 t 0 r /Helvetica-Bold findfont 58.6478 sf 0 0 m (140) show NC gr 
 gsave  2268 1538 0 0 C 117.296 915.558 t 0 r /Helvetica-Bold findfont 58.6478 sf 0 0 m (160) show NC gr 
 gsave  2268 1538 0 0 C 117.296 1023.08 t 0 r /Helvetica-Bold findfont 58.6478 sf 0 0 m (180) show NC gr 
 gsave  2268 1538 0 0 C 117.296 1133.86 t 0 r /Helvetica-Bold findfont 58.6478 sf 0 0 m (200) show NC gr 
 gsave  2268 1538 0 0 C 117.296 1241.38 t 0 r /Helvetica-Bold findfont 58.6478 sf 0 0 m (220) show NC gr 
 gsave  2268 1538 0 0 C 117.296 1348.9 t 0 r /Helvetica-Bold findfont 58.6478 sf 0 0 m (240) show NC gr  2041 154 m 1230 Y s 1987 180 m 54 X s 2014 207 m 27 X s 2014 234 m 27 X s 2014 261 m 27 X s 1987 289 m 54 X s 2014 316 m 27 X s 2014 343 m 27 X s
 2014 370 m 27 X s 1987 397 m 54 X s 2014 424 m 27 X s 2014 451 m 27 X s 2014 478 m 27 X s 1987 505 m 54 X s 2014 532 m 27 X s 2014 559 m 27 X s 2014 586 m 27 X s 1987 613 m 54 X s 2014 640 m 27 X s 2014 667 m 27 X s 2014 694 m 27 X s 1987 721 m 54 X
 s 2014 748 m 27 X s 2014 775 m 27 X s 2014 802 m 27 X s 1987 829 m 54 X s 2014 856 m 27 X s 2014 883 m 27 X s 2014 910 m 27 X s 1987 937 m 54 X s 2014 964 m 27 X s 2014 991 m 27 X s 2014 1018 m 27 X s 1987 1045 m 54 X s 2014 1072 m 27 X s 2014 1100
 m 27 X s 2014 1127 m 27 X s 1987 1154 m 54 X s 2014 1181 m 27 X s 2014 1208 m 27 X s 2014 1235 m 27 X s 1987 1262 m 54 X s 2014 1289 m 27 X s 2014 1316 m 27 X s 2014 1343 m 27 X s 1987 1370 m 54 X s 1987 180 m 54 X s 1987 1370 m 54 X s 309 379 m 21
 Y s 303 400 m 13 X s 309 353 m -20 Y s 303 333 m 13 X s 339 338 m 31 Y s 332 369 m 13 X s 339 312 m -30 Y s 332 282 m 13 X s 368 405 m 35 Y s 362 440 m 13 X s 368 379 m -34 Y s 362 345 m 13 X s 398 327 m 24 Y s 391 351 m 13 X s 398 301 m -23 Y s 391
 278 m 13 X s 427 356 m 6 Y s 421 362 m 13 X s 427 330 m -7 Y s 421 323 m 13 X s 456 299 m 2 Y s 450 301 m 13 X s 456 273 m -2 Y s 450 271 m 13 X s 486 414 m 66 Y s 479 480 m 13 X s 486 388 m -66 Y s 479 322 m 13 X s 515 323 m 8 Y s 509 331 m 13 X s
 515 297 m -7 Y s 509 290 m 13 X s 574 349 m 11 Y s 568 360 m 13 X s 574 323 m -11 Y s 568 312 m 13 X s 604 265 m 1 Y s 597 266 m 13 X s 604 239 m -2 Y s 597 237 m 13 X s 633 416 m 35 Y s 627 451 m 13 X s 633 390 m -35 Y s 627 355 m 13 X s 663 364 m
 35 Y s 656 399 m 13 X s 663 338 m -35 Y s 656 303 m 13 X s 692 366 m 19 Y s 686 385 m 13 X s 692 340 m -18 Y s 686 322 m 13 X s 722 375 m 10 Y s 715 385 m 13 X s 722 349 m -10 Y s 715 339 m 13 X s 751 390 m 13 Y s 744 403 m 14 X s 751 364 m -12 Y s
 744 352 m 14 X s 780 449 m 41 Y s 774 490 m 13 X s 780 423 m -42 Y s 774 381 m 13 X s 810 392 m 12 Y s 803 404 m 13 X s 810 366 m -11 Y s 803 355 m 13 X s 839 412 m 31 Y s 833 443 m 13 X s 839 386 m -31 Y s 833 355 m 13 X s 869 321 m 19 Y s 862 340
 m 13 X s 869 295 m -19 Y s 862 276 m 13 X s 898 453 m 19 Y s 892 472 m 13 X s 898 427 m -19 Y s 892 408 m 13 X s 928 477 m 19 Y s 921 496 m 13 X s 928 451 m -20 Y s 921 431 m 13 X s 957 403 m 26 Y s 951 429 m 13 X s 957 377 m -26 Y s 951 351 m 13 X
 s 987 386 m 12 Y s 980 398 m 13 X s 987 360 m -12 Y s 980 348 m 13 X s 1016 369 m 2 Y s 1010 371 m 13 X s 1016 343 m -3 Y s 1010 340 m 13 X s 1046 539 m 38 Y s 1039 577 m 13 X s 1046 513 m -37 Y s 1039 476 m 13 X s 1075 332 m 2 Y s 1068 334 m 13 X s
 1075 306 m -3 Y s 1068 303 m 13 X s 1163 321 m 4 Y s 1157 325 m 13 X s 1163 295 m -4 Y s 1157 291 m 13 X s 1193 362 m s 1186 362 m 13 X s 1193 336 m s 1186 336 m 13 X s 1222 334 m 6 Y s 1216 340 m 13 X s 1222 308 m -6 Y s 1216 302 m 13 X s 1252 366
 m 7 Y s 1245 373 m 13 X s 1252 340 m -6 Y s 1245 334 m 13 X s 1281 360 m 9 Y s 1275 369 m 13 X s 1281 334 m -9 Y s 1275 325 m 13 X s 1311 397 m 2 Y s 1304 399 m 13 X s 1311 371 m -2 Y s 1304 369 m 13 X s 1340 537 m 46 Y s 1333 583 m 14 X s 1340 511
 m -45 Y s 1333 466 m 14 X s 1369 375 m 6 Y s 1363 381 m 13 X s 1369 349 m -6 Y s 1363 343 m 13 X s 1399 425 m 43 Y s 1392 468 m 13 X s 1399 399 m -43 Y s 1392 356 m 13 X s 1428 373 m 25 Y s 1422 398 m 13 X s 1428 347 m -26 Y s 1422 321 m 13 X s 1487
 321 m 6 Y s 1481 327 m 13 X s 1487 295 m -6 Y s 1481 289 m 13 X s 1517 356 m 8 Y s 1510 364 m 13 X s 1517 330 m -8 Y s 1510 322 m 13 X s 1546 371 m 4 Y s 1540 375 m 13 X s 1546 345 m -5 Y s 1540 340 m 13 X s 1576 397 m 9 Y s 1569 406 m 13 X s 1576
 371 m -9 Y s 1569 362 m 13 X s 1605 403 m 32 Y s 1599 435 m 13 X s 1605 377 m -32 Y s 1599 345 m 13 X s 1635 343 m 14 Y s 1628 357 m 13 X s 1635 317 m -14 Y s 1628 303 m 13 X s 1664 304 m 12 Y s 1657 316 m 13 X s 1664 278 m -13 Y s 1657 265 m 13 X s
 1693 384 m 64 Y s 1687 448 m 13 X s 1693 358 m -65 Y s 1687 293 m 13 X s 1723 552 m 105 Y s 1716 657 m 13 X s 1723 526 m -104 Y s 1716 422 m 13 X s 1752 433 m 48 Y s 1746 481 m 13 X s 1752 407 m -48 Y s 1746 359 m 13 X s 1782 306 m 3 Y s 1775 309 m
 13 X s 1782 280 m -3 Y s 1775 277 m 13 X s 1811 455 m 23 Y s 1805 478 m 13 X s 1811 429 m -23 Y s 1805 406 m 13 X s 1841 282 m 8 Y s 1834 290 m 13 X s 1841 256 m -8 Y s 1834 248 m 13 X s 1870 321 m 14 Y s 1864 335 m 13 X s 1870 295 m -14 Y s 1864
 281 m 13 X s 1900 306 m 14 Y s 1893 320 m 13 X s 1900 280 m -14 Y s 1893 266 m 13 X s 1929 349 m 9 Y s 1923 358 m 13 X s 1929 323 m -9 Y s 1923 314 m 13 X s 1958 734 m 271 Y s 1952 1005 m 13 X s 1958 708 m -271 Y s 1952 437 m 13 X s 309 366 m 30 -41
 d 29 67 d 30 -78 d 29 29 d 29 -57 d 30 115 d 29 -91 d 30 -52 d 29 78 d 30 -84 d 29 151 d 30 -52 d 29 2 d 30 9 d 29 15 d 29 59 d 30 -57 d 29 20 d 30 -91 d 29 132 d 30 24 d 29 -74 d 30 -17 d 29 -17 d 30 170 d 29 -207 d 29 34 d 59 -45 d 30 41 d 29 -28
 d 30 32 d 29 -6 d 30 37 d 29 140 d 29 -162 d 30 50 d 29 -52 d 30 -104 d 29 52 d 30 35 d 29 15 d 30 26 d 29 6 d 30 -60 d 29 -39 d 29 80 d 30 168 d 29 -119 d 30 -127 d 29 149 d 30 -173 d 29 39 d 30 -15 d 29 43 d 29 385 d s /w 26 def /w2 {w 2 div} def
 /w3 {w 3 div} def 309 366 339 325 368 392 398 314 427 343 456 286 486 401 515 310 545 258 574 336 604 252 633 403 663 351 692 353 722 362 751 377 780 436 810 379 839 399 869 308 898 440 928 464 957 390 987 373 1016 356 1046 526 1075 319 1104 353
 1163 308 1193 349 1222 321 1252 353 1281 347 1311 384 1340 524 1369 362 1399 412 1428 360 1458 256 1487 308 1517 343 1546 358 1576 384 1605 390 1635 330 1664 291 1693 371 1723 539 1752 420 1782 293 1811 442 1841 269 1870 308 1900 293 1929 336 1958
 721 56 { m20} R 1 0 0 c 309 226 m 5 Y s 303 231 m 13 X s 309 200 m -6 Y s 303 194 m 13 X s 339 364 m 34 Y s 332 398 m 13 X s 339 338 m -33 Y s 332 305 m 13 X s 368 382 m 33 Y s 362 415 m 13 X s 368 355 m -33 Y s 362 322 m 13 X s 398 258 m 12 Y s 391
 270 m 13 X s 398 232 m -11 Y s 391 221 m 13 X s 427 384 m 23 Y s 421 407 m 13 X s 427 358 m -23 Y s 421 335 m 13 X s 456 271 m 29 Y s 450 300 m 13 X s 456 245 m -28 Y s 450 217 m 13 X s 515 412 m 29 Y s 509 441 m 13 X s 515 386 m -29 Y s 509 357 m
 13 X s 574 302 m 15 Y s 568 317 m 13 X s 574 275 m -15 Y s 568 260 m 13 X s 604 323 m 5 Y s 597 328 m 13 X s 604 297 m -4 Y s 597 293 m 13 X s 633 444 m 98 Y s 627 542 m 13 X s 633 418 m -97 Y s 627 321 m 13 X s 663 312 m 5 Y s 656 317 m 13 X s 663
 286 m -4 Y s 656 282 m 13 X s 692 267 m 7 Y s 686 274 m 13 X s 692 241 m -7 Y s 686 234 m 13 X s 722 343 m 12 Y s 715 355 m 13 X s 722 317 m -12 Y s 715 305 m 13 X s 751 325 m 14 Y s 744 339 m 14 X s 751 299 m -13 Y s 744 286 m 14 X s 780 308 m 16 Y
 s 774 324 m 13 X s 780 282 m -16 Y s 774 266 m 13 X s 810 360 m 6 Y s 803 366 m 13 X s 810 334 m -6 Y s 803 328 m 13 X s 928 289 m 7 Y s 921 296 m 13 X s 928 262 m -7 Y s 921 255 m 13 X s 957 475 m 20 Y s 951 495 m 13 X s 957 448 m -20 Y s 951 428 m
 13 X s 987 299 m 3 Y s 980 302 m 13 X s 987 273 m -2 Y s 980 271 m 13 X s 1016 336 m 1 Y s 1010 337 m 13 X s 1016 310 m -1 Y s 1010 309 m 13 X s 1046 295 m 4 Y s 1039 299 m 13 X s 1046 269 m -4 Y s 1039 265 m 13 X s 1075 325 m 6 Y s 1068 331 m 13 X
 s 1075 299 m -6 Y s 1068 293 m 13 X s 1104 358 m 5 Y s 1098 363 m 13 X s 1104 332 m -6 Y s 1098 326 m 13 X s 1163 382 m 4 Y s 1157 386 m 13 X s 1163 355 m -4 Y s 1157 351 m 13 X s 1193 260 m 1 Y s 1186 261 m 13 X s 1193 234 m s 1186 234 m 13 X s
 1222 334 m 16 Y s 1216 350 m 13 X s 1222 308 m -16 Y s 1216 292 m 13 X s 1252 475 m 48 Y s 1245 523 m 13 X s 1252 448 m -48 Y s 1245 400 m 13 X s 1281 353 m 41 Y s 1275 394 m 13 X s 1281 327 m -40 Y s 1275 287 m 13 X s 1311 347 m 15 Y s 1304 362 m
 13 X s 1311 321 m -16 Y s 1304 305 m 13 X s 1340 265 m 14 Y s 1333 279 m 14 X s 1340 239 m -14 Y s 1333 225 m 14 X s 1369 371 m 14 Y s 1363 385 m 13 X s 1369 345 m -15 Y s 1363 330 m 13 X s 1399 315 m 4 Y s 1392 319 m 13 X s 1399 288 m -4 Y s 1392
 284 m 13 X s 1428 315 m 14 Y s 1422 329 m 13 X s 1428 288 m -14 Y s 1422 274 m 13 X s 1458 395 m 39 Y s 1451 434 m 13 X s 1458 368 m -39 Y s 1451 329 m 13 X s 1487 345 m 13 Y s 1481 358 m 13 X s 1487 319 m -13 Y s 1481 306 m 13 X s 1517 323 m 9 Y s
 1510 332 m 13 X s 1517 297 m -9 Y s 1510 288 m 13 X s 1546 414 m 31 Y s 1540 445 m 13 X s 1546 388 m -31 Y s 1540 357 m 13 X s 1576 375 m 8 Y s 1569 383 m 13 X s 1576 349 m -8 Y s 1569 341 m 13 X s 1605 382 m 28 Y s 1599 410 m 13 X s 1605 355 m -28
 Y s 1599 327 m 13 X s 1635 371 m 7 Y s 1628 378 m 13 X s 1635 345 m -8 Y s 1628 337 m 13 X s 1664 265 m 4 Y s 1657 269 m 13 X s 1664 239 m -5 Y s 1657 234 m 13 X s 1693 351 m 15 Y s 1687 366 m 13 X s 1693 325 m -14 Y s 1687 311 m 13 X s 1723 323 m
 25 Y s 1716 348 m 13 X s 1723 297 m -25 Y s 1716 272 m 13 X s 1752 284 m 6 Y s 1746 290 m 13 X s 1752 258 m -6 Y s 1746 252 m 13 X s 1782 278 m 4 Y s 1775 282 m 13 X s 1782 252 m -4 Y s 1775 248 m 13 X s 1841 369 m 58 Y s 1834 427 m 13 X s 1841 343
 m -59 Y s 1834 284 m 13 X s 1870 315 m 15 Y s 1864 330 m 13 X s 1870 288 m -15 Y s 1864 273 m 13 X s 1900 252 m 14 Y s 1893 266 m 13 X s 1900 226 m -15 Y s 1893 211 m 13 X s 1929 306 m 7 Y s 1923 313 m 13 X s 1929 280 m -7 Y s 1923 273 m 13 X s 1958
 375 m 40 Y s 1952 415 m 13 X s 1958 349 m -39 Y s 1952 310 m 13 X s black 1 0 0 c 309 213 m 30 138 d 29 18 d 30 -124 d 29 126 d 29 -113 d 30 -19 d 29 160 d 30 -147 d 29 37 d 30 21 d 29 121 d 30 -132 d 29 -45 d 30 76 d 29 -18 d 29 -17 d 30 52 d 29
 -26 d 30 -104 d 29 -4 d 30 63 d 29 186 d 30 -176 d 29 37 d 30 -41 d 29 30 d 29 33 d 59 24 d 30 -122 d 29 74 d 30 141 d 29 -122 d 30 -6 d 29 -82 d 29 106 d 30 -57 d 29 X 30 81 d 29 -50 d 30 -22 d 29 91 d 30 -39 d 29 7 d 30 -11 d 29 -106 d 29 86 d 30
 -28 d 29 -39 d 30 -6 d 29 -37 d 30 128 d 29 -55 d 30 -62 d 29 54 d 29 69 d s 309 213 339 351 368 369 398 245 427 371 456 258 486 239 515 399 545 252 574 289 604 310 633 431 663 299 692 254 722 330 751 312 780 295 810 347 839 321 869 217 898 213 928
 276 957 462 987 286 1016 323 1046 282 1075 312 1104 345 1163 369 1193 247 1222 321 1252 462 1281 340 1311 334 1340 252 1369 358 1399 301 1428 301 1458 382 1487 332 1517 310 1546 401 1576 362 1605 369 1635 358 1664 252 1693 338 1723 310 1752 271 1782
 265 1811 228 1841 356 1870 301 1900 239 1929 293 1958 362 56 { m20} R 0 1 0 c 722 362 m 3 Y s 715 365 m 13 X s 722 336 m -3 Y s 715 333 m 13 X s 780 442 m 21 Y s 774 463 m 13 X s 780 416 m -21 Y s 774 395 m 13 X s 810 526 m 39 Y s 803 565 m 13 X s
 810 500 m -38 Y s 803 462 m 13 X s 839 444 m 20 Y s 833 464 m 13 X s 839 418 m -20 Y s 833 398 m 13 X s 869 382 m 4 Y s 862 386 m 13 X s 869 355 m -4 Y s 862 351 m 13 X s 898 542 m 22 Y s 892 564 m 13 X s 898 516 m -23 Y s 892 493 m 13 X s 928 555 m
 19 Y s 921 574 m 13 X s 928 529 m -20 Y s 921 509 m 13 X s 957 377 m 7 Y s 951 384 m 13 X s 957 351 m -7 Y s 951 344 m 13 X s 987 546 m 33 Y s 980 579 m 13 X s 987 520 m -34 Y s 980 486 m 13 X s 1016 494 m 64 Y s 1010 558 m 13 X s 1016 468 m -64 Y s
 1010 404 m 13 X s 1046 501 m 19 Y s 1039 520 m 13 X s 1046 474 m -19 Y s 1039 455 m 13 X s 1075 364 m 3 Y s 1068 367 m 13 X s 1075 338 m -2 Y s 1068 336 m 13 X s 1104 401 m 14 Y s 1098 415 m 13 X s 1104 375 m -14 Y s 1098 361 m 13 X s 1163 438 m 10
 Y s 1157 448 m 13 X s 1163 412 m -10 Y s 1157 402 m 13 X s 1193 397 m 15 Y s 1186 412 m 13 X s 1193 371 m -16 Y s 1186 355 m 13 X s 1222 362 m 5 Y s 1216 367 m 13 X s 1222 336 m -4 Y s 1216 332 m 13 X s 1252 364 m 7 Y s 1245 371 m 13 X s 1252 338 m
 -6 Y s 1245 332 m 13 X s 1281 371 m 2 Y s 1275 373 m 13 X s 1281 345 m -3 Y s 1275 342 m 13 X s 1311 427 m 10 Y s 1304 437 m 13 X s 1311 401 m -10 Y s 1304 391 m 13 X s 1340 373 m 6 Y s 1333 379 m 14 X s 1340 347 m -7 Y s 1333 340 m 14 X s 1369 343
 m 2 Y s 1363 345 m 13 X s 1369 317 m -3 Y s 1363 314 m 13 X s 1399 431 m 10 Y s 1392 441 m 13 X s 1399 405 m -9 Y s 1392 396 m 13 X s 1428 403 m 9 Y s 1422 412 m 13 X s 1428 377 m -9 Y s 1422 368 m 13 X s 1458 550 m 40 Y s 1451 590 m 13 X s 1458 524
 m -39 Y s 1451 485 m 13 X s 1487 561 m 42 Y s 1481 603 m 13 X s 1487 535 m -42 Y s 1481 493 m 13 X s 1517 479 m 47 Y s 1510 526 m 13 X s 1517 453 m -47 Y s 1510 406 m 13 X s 1546 455 m 18 Y s 1540 473 m 13 X s 1546 429 m -18 Y s 1540 411 m 13 X s
 black 0 1 0 c 722 349 m 29 -58 d 29 138 d 30 84 d 29 -82 d 30 -62 d 29 160 d 30 13 d 29 -178 d 30 169 d 29 -52 d 30 6 d 29 -136 d 29 37 d 59 37 d 30 -41 d 29 -35 d 30 2 d 29 7 d 30 56 d 29 -54 d 29 -30 d 30 88 d 29 -28 d 30 147 d 29 11 d 30 -82 d 29
 -24 d s 722 349 751 291 780 429 810 513 839 431 869 369 898 529 928 542 957 364 987 533 1016 481 1046 487 1075 351 1104 388 1163 425 1193 384 1222 349 1252 351 1281 358 1311 414 1340 360 1369 330 1399 418 1428 390 1458 537 1487 548 1517 466 1546 442
 28 { m20} R 0 0 1 c 722 286 m 2 Y s 715 288 m 13 X s 722 260 m -1 Y s 715 259 m 13 X s 751 297 m 27 Y s 744 324 m 14 X s 751 271 m -26 Y s 744 245 m 14 X s 810 293 m 12 Y s 803 305 m 13 X s 810 267 m -12 Y s 803 255 m 13 X s 839 338 m 8 Y s 833 346
 m 13 X s 839 312 m -8 Y s 833 304 m 13 X s 869 295 m 1 Y s 862 296 m 13 X s 869 269 m -1 Y s 862 268 m 13 X s 898 330 m 18 Y s 892 348 m 13 X s 898 304 m -18 Y s 892 286 m 13 X s 928 455 m 19 Y s 921 474 m 13 X s 928 429 m -19 Y s 921 410 m 13 X s
 987 518 m 110 Y s 980 628 m 13 X s 987 492 m -111 Y s 980 381 m 13 X s 1016 462 m 15 Y s 1010 477 m 13 X s 1016 436 m -16 Y s 1010 420 m 13 X s 1046 403 m 12 Y s 1039 415 m 13 X s 1046 377 m -12 Y s 1039 365 m 13 X s 1075 334 m 12 Y s 1068 346 m 13
 X s 1075 308 m -12 Y s 1068 296 m 13 X s 1104 358 m 25 Y s 1098 383 m 13 X s 1104 332 m -25 Y s 1098 307 m 13 X s 1163 364 m 6 Y s 1157 370 m 13 X s 1163 338 m -6 Y s 1157 332 m 13 X s 1193 330 m 13 Y s 1186 343 m 13 X s 1193 304 m -14 Y s 1186 290
 m 13 X s 1222 276 m 5 Y s 1216 281 m 13 X s 1222 250 m -6 Y s 1216 244 m 13 X s 1252 362 m 8 Y s 1245 370 m 13 X s 1252 336 m -8 Y s 1245 328 m 13 X s 1281 256 m 3 Y s 1275 259 m 13 X s 1281 230 m -3 Y s 1275 227 m 13 X s 1311 278 m 4 Y s 1304 282 m
 13 X s 1311 252 m -4 Y s 1304 248 m 13 X s 1340 425 m 16 Y s 1333 441 m 14 X s 1340 399 m -16 Y s 1333 383 m 14 X s 1428 379 m 26 Y s 1422 405 m 13 X s 1428 353 m -25 Y s 1422 328 m 13 X s 1487 330 m 14 Y s 1481 344 m 13 X s 1487 304 m -15 Y s 1481
 289 m 13 X s black 0 0 1 c 722 273 m 29 11 d 29 -21 d 30 17 d 29 45 d 30 -43 d 29 35 d 30 125 d 29 -143 d 30 206 d 29 -56 d 30 -59 d 29 -69 d 29 24 d 59 6 d 30 -34 d 29 -54 d 30 86 d 29 -106 d 30 22 d 29 147 d 29 -143 d 30 -17 d 29 114 d 30 -147 d
 29 98 d 30 -52 d 29 -26 d s 722 273 751 284 780 263 810 280 839 325 869 282 898 317 928 442 957 299 987 505 1016 449 1046 390 1075 321 1104 345 1163 351 1193 317 1222 263 1252 349 1281 243 1311 265 1340 412 1369 269 1399 252 1428 366 1458 219 1487
 317 1517 265 1546 239 28 { m20} R black
 gsave  2268 1538 0 0 C 1645.4 1283.74 t 0 r /Helvetica-Bold findfont 58.6478 sf 0 0 m (SCT Barrel) show NC gr 
 gsave  2268 1538 0 0 C 1762.69 1205.54 t 0 r /Helvetica-Bold findfont 58.6478 sf 0 0 m (Layer 0) show NC gr  1652 1223 m 92 X s 1698 1223 m20
 gsave  2268 1538 0 0 C 1762.69 1130.6 t 0 r /Helvetica-Bold findfont 58.6478 sf 0 0 m (Layer 1) show NC gr  1 0 0 c 1652 1146 m 92 X s 1698 1146 m20 black
 gsave  2268 1538 0 0 C 1762.69 1052.4 t 0 r /Helvetica-Bold findfont 58.6478 sf 0 0 m (Layer 2) show NC gr  0 1 0 c 1652 1069 m 92 X s 1698 1069 m20 black
 gsave  2268 1538 0 0 C 1762.69 977.464 t 0 r /Helvetica-Bold findfont 58.6478 sf 0 0 m (Layer 3) show NC gr  0 0 1 c 1652 992 m 92 X s 1698 992 m20
 gr  gr showpage
end
%%EOF
