%!PS-Adobe-2.0 EPSF-2.0
%%BoundingBox:  0 0 567 384
%%Title: outputDir/sct_occupancy/hit_sctlayer_mgz.eps: c1_n26
%%Creator: ROOT Version 6.04/12
%%CreationDate: Mon Apr 25 16:02:09 2016
%%DocumentNeededResources: ProcSet (FontSetInit)
%%EndComments
%%BeginProlog
80 dict begin
/s {stroke} def /l {lineto} def /m {moveto} def /t {translate} def
/r {rotate} def /rl {roll}  def /R {repeat} def
/d {rlineto} def /rm {rmoveto} def /gr {grestore} def /f {eofill} def
/c {setrgbcolor} def /black {0 setgray} def /sd {setdash} def
/cl {closepath} def /sf {scalefont setfont} def /lw {setlinewidth} def
/box {m dup 0 exch d exch 0 d 0 exch neg d cl} def
/NC{systemdict begin initclip end}def/C{NC box clip newpath}def
/bl {box s} def /bf {gsave box gsave f grestore 1 lw [] 0 sd s grestore} def /Y { 0 exch d} def /X { 0 d} def 
/K {{pop pop 0 moveto} exch kshow} bind def
/ita {/ang 15 def gsave [1 0 ang dup sin exch cos div 1 0 0] concat} def 
/mp {newpath /y exch def /x exch def} def
/side {[w .77 mul w .23 mul] .385 w mul sd w 0 l currentpoint t -144 r} def
/mr {mp x y w2 0 360 arc} def /m24 {mr s} def /m20 {mr f} def
/mb {mp x y w2 add m w2 neg 0 d 0 w neg d w 0 d 0 w d cl} def
/mt {mp x y w2 add m w2 neg w neg d w 0 d cl} def
/m21 {mb f} def /m25 {mb s} def /m22 {mt f} def /m26{mt s} def
/m23 {mp x y w2 sub m w2 w d w neg 0 d cl f} def
/m27 {mp x y w2 add m w3 neg w2 neg d w3 w2 neg d w3 w2 d cl s} def
/m28 {mp x w2 sub y w2 sub w3 add m w3 0 d  0 w3 neg d w3 0 d 0 w3 d w3 0 d  0 w3 d w3 neg 0 d 0 w3 d w3 neg 0 d 0 w3 neg d w3 neg 0 d cl s } def
/m29 {mp gsave x w2 sub y w2 add w3 sub m currentpoint t 4 {side} repeat cl fill gr} def
/m30 {mp gsave x w2 sub y w2 add w3 sub m currentpoint t 4 {side} repeat cl s gr} def
/m31 {mp x y w2 sub m 0 w d x w2 sub y m w 0 d x w2 sub y w2 add m w w neg d x w2 sub y w2 sub m w w d s} def
/m32 {mp x y w2 sub m w2 w d w neg 0 d cl s} def
/m33 {mp x y w2 add m w3 neg w2 neg d w3 w2 neg d w3 w2 d cl f} def
/m34 {mp x w2 sub y w2 sub w3 add m w3 0 d  0 w3 neg d w3 0 d 0 w3 d w3 0 d  0 w3 d w3 neg 0 d 0 w3 d w3 neg 0 d 0 w3 neg d w3 neg 0 d cl f } def
/m2 {mp x y w2 sub m 0 w d x w2 sub y m w 0 d s} def
/m5 {mp x w2 sub y w2 sub m w w d x w2 sub y w2 add m w w neg d s} def
%%IncludeResource: ProcSet (FontSetInit)
%%IncludeResource: font Times-Roman
%%IncludeResource: font Times-Italic
%%IncludeResource: font Times-Bold
%%IncludeResource: font Times-BoldItalic
%%IncludeResource: font Helvetica
%%IncludeResource: font Helvetica-Oblique
%%IncludeResource: font Helvetica-Bold
%%IncludeResource: font Helvetica-BoldOblique
%%IncludeResource: font Courier
%%IncludeResource: font Courier-Oblique
%%IncludeResource: font Courier-Bold
%%IncludeResource: font Courier-BoldOblique
%%IncludeResource: font Symbol
%%IncludeResource: font ZapfDingbats
/reEncode {exch findfont dup length dict begin {1 index /FID eq  {pop pop} {def} ifelse } forall /Encoding exch def currentdict end dup /FontName get exch definefont pop } def [/Times-Bold /Times-Italic /Times-BoldItalic /Helvetica /Helvetica-Oblique
 /Helvetica-Bold /Helvetica-BoldOblique /Courier /Courier-Oblique /Courier-Bold /Courier-BoldOblique /Times-Roman /AvantGarde-Book /AvantGarde-BookOblique /AvantGarde-Demi /AvantGarde-DemiOblique /Bookman-Demi /Bookman-DemiItalic /Bookman-Light
 /Bookman-LightItalic /Helvetica-Narrow /Helvetica-Narrow-Bold /Helvetica-Narrow-BoldOblique /Helvetica-Narrow-Oblique /NewCenturySchlbk-Roman /NewCenturySchlbk-Bold /NewCenturySchlbk-BoldItalic /NewCenturySchlbk-Italic /Palatino-Bold
 /Palatino-BoldItalic /Palatino-Italic /Palatino-Roman ] {ISOLatin1Encoding reEncode } forall
%%EndProlog
%%BeginSetup
%%EndSetup
newpath  gsave  .25 .25 scale  gsave  0 0 t black[  ] 0 sd 3 lw 1 1 1 c 2268 1538 0 0 bf black 1 1 1 c 1814 1230 227 154 bf black 1814 1230 227 154 bl 1 1 1 c 1814 1230 227 154 bf black 1814 1230 227 154 bl 227 154 m 1814 X s
 gsave  2268 1538 0 0 C 1853.92 35.8403 t 0 r /Helvetica-Bold findfont 58.6478 sf 0 0 m (z [mm]) show NC gr  399 191 m -37 Y s 460 172 m -18 Y s 521 172 m -18 Y s 583 172 m -18 Y s 644 191 m -37 Y s 705 172 m -18 Y s 766 172 m -18 Y s 828 172 m -18 Y
 s 889 191 m -37 Y s 950 172 m -18 Y s 1011 172 m -18 Y s 1073 172 m -18 Y s 1134 191 m -37 Y s 1195 172 m -18 Y s 1256 172 m -18 Y s 1318 172 m -18 Y s 1379 191 m -37 Y s 1440 172 m -18 Y s 1501 172 m -18 Y s 1563 172 m -18 Y s 1624 191 m -37 Y s
 1685 172 m -18 Y s 1746 172 m -18 Y s 1808 172 m -18 Y s 1869 191 m -37 Y s 399 191 m -37 Y s 338 172 m -18 Y s 276 172 m -18 Y s 1869 191 m -37 Y s 1930 172 m -18 Y s 1991 172 m -18 Y s
 gsave  2268 1538 0 0 C 361.662 97.7464 t 0 r /Helvetica-Bold findfont 58.6478 sf 0 0 m (600) show NC gr 
 gsave  2268 1538 0 0 C 332.338 97.7464 t 0 r /Symbol findfont 58.6478 sf 0 0 m (-) show NC gr 
 gsave  2268 1538 0 0 C 606.028 97.7464 t 0 r /Helvetica-Bold findfont 58.6478 sf 0 0 m (400) show NC gr 
 gsave  2268 1538 0 0 C 576.704 97.7464 t 0 r /Symbol findfont 58.6478 sf 0 0 m (-) show NC gr 
 gsave  2268 1538 0 0 C 850.394 97.7464 t 0 r /Helvetica-Bold findfont 58.6478 sf 0 0 m (200) show NC gr 
 gsave  2268 1538 0 0 C 821.07 97.7464 t 0 r /Symbol findfont 58.6478 sf 0 0 m (-) show NC gr 
 gsave  2268 1538 0 0 C 1117.57 97.7464 t 0 r /Helvetica-Bold findfont 58.6478 sf 0 0 m (0) show NC gr 
 gsave  2268 1538 0 0 C 1329.35 97.7464 t 0 r /Helvetica-Bold findfont 58.6478 sf 0 0 m (200) show NC gr 
 gsave  2268 1538 0 0 C 1573.72 97.7464 t 0 r /Helvetica-Bold findfont 58.6478 sf 0 0 m (400) show NC gr 
 gsave  2268 1538 0 0 C 1818.08 97.7464 t 0 r /Helvetica-Bold findfont 58.6478 sf 0 0 m (600) show NC gr  227 1384 m 1814 X s 399 1347 m 37 Y s 460 1366 m 18 Y s 521 1366 m 18 Y s 583 1366 m 18 Y s 644 1347 m 37 Y s 705 1366 m 18 Y s 766 1366 m 18 Y
 s 828 1366 m 18 Y s 889 1347 m 37 Y s 950 1366 m 18 Y s 1011 1366 m 18 Y s 1073 1366 m 18 Y s 1134 1347 m 37 Y s 1195 1366 m 18 Y s 1256 1366 m 18 Y s 1318 1366 m 18 Y s 1379 1347 m 37 Y s 1440 1366 m 18 Y s 1501 1366 m 18 Y s 1563 1366 m 18 Y s
 1624 1347 m 37 Y s 1685 1366 m 18 Y s 1746 1366 m 18 Y s 1808 1366 m 18 Y s 1869 1347 m 37 Y s 399 1347 m 37 Y s 338 1366 m 18 Y s 276 1366 m 18 Y s 1869 1347 m 37 Y s 1930 1366 m 18 Y s 1991 1366 m 18 Y s 227 154 m 1230 Y s
 gsave  2268 1538 0 0 C 97.7464 801.521 t 90 r /Helvetica-Bold findfont 58.6478 sf 0 0 m (Hits per etaModuleID) show NC gr  281 180 m -54 X s 254 207 m -27 X s 254 234 m -27 X s 254 261 m -27 X s 281 289 m -54 X s 254 316 m -27 X s 254 343 m -27 X s
 254 370 m -27 X s 281 397 m -54 X s 254 424 m -27 X s 254 451 m -27 X s 254 478 m -27 X s 281 505 m -54 X s 254 532 m -27 X s 254 559 m -27 X s 254 586 m -27 X s 281 613 m -54 X s 254 640 m -27 X s 254 667 m -27 X s 254 694 m -27 X s 281 721 m -54 X
 s 254 748 m -27 X s 254 775 m -27 X s 254 802 m -27 X s 281 829 m -54 X s 254 856 m -27 X s 254 883 m -27 X s 254 910 m -27 X s 281 937 m -54 X s 254 964 m -27 X s 254 991 m -27 X s 254 1018 m -27 X s 281 1045 m -54 X s 254 1072 m -27 X s 254 1100 m
 -27 X s 254 1127 m -27 X s 281 1154 m -54 X s 254 1181 m -27 X s 254 1208 m -27 X s 254 1235 m -27 X s 281 1262 m -54 X s 254 1289 m -27 X s 254 1316 m -27 X s 254 1343 m -27 X s 281 1370 m -54 X s 281 180 m -54 X s 281 1370 m -54 X s
 gsave  2268 1538 0 0 C 149.878 159.652 t 0 r /Helvetica-Bold findfont 58.6478 sf 0 0 m (20) show NC gr 
 gsave  2268 1538 0 0 C 149.878 267.173 t 0 r /Helvetica-Bold findfont 58.6478 sf 0 0 m (40) show NC gr 
 gsave  2268 1538 0 0 C 149.878 374.695 t 0 r /Helvetica-Bold findfont 58.6478 sf 0 0 m (60) show NC gr 
 gsave  2268 1538 0 0 C 149.878 482.216 t 0 r /Helvetica-Bold findfont 58.6478 sf 0 0 m (80) show NC gr 
 gsave  2268 1538 0 0 C 117.296 592.995 t 0 r /Helvetica-Bold findfont 58.6478 sf 0 0 m (100) show NC gr 
 gsave  2268 1538 0 0 C 117.296 700.516 t 0 r /Helvetica-Bold findfont 58.6478 sf 0 0 m (120) show NC gr 
 gsave  2268 1538 0 0 C 117.296 808.037 t 0 r /Helvetica-Bold findfont 58.6478 sf 0 0 m (140) show NC gr 
 gsave  2268 1538 0 0 C 117.296 915.558 t 0 r /Helvetica-Bold findfont 58.6478 sf 0 0 m (160) show NC gr 
 gsave  2268 1538 0 0 C 117.296 1023.08 t 0 r /Helvetica-Bold findfont 58.6478 sf 0 0 m (180) show NC gr 
 gsave  2268 1538 0 0 C 117.296 1133.86 t 0 r /Helvetica-Bold findfont 58.6478 sf 0 0 m (200) show NC gr 
 gsave  2268 1538 0 0 C 117.296 1241.38 t 0 r /Helvetica-Bold findfont 58.6478 sf 0 0 m (220) show NC gr 
 gsave  2268 1538 0 0 C 117.296 1348.9 t 0 r /Helvetica-Bold findfont 58.6478 sf 0 0 m (240) show NC gr  2041 154 m 1230 Y s 1987 180 m 54 X s 2014 207 m 27 X s 2014 234 m 27 X s 2014 261 m 27 X s 1987 289 m 54 X s 2014 316 m 27 X s 2014 343 m 27 X s
 2014 370 m 27 X s 1987 397 m 54 X s 2014 424 m 27 X s 2014 451 m 27 X s 2014 478 m 27 X s 1987 505 m 54 X s 2014 532 m 27 X s 2014 559 m 27 X s 2014 586 m 27 X s 1987 613 m 54 X s 2014 640 m 27 X s 2014 667 m 27 X s 2014 694 m 27 X s 1987 721 m 54 X
 s 2014 748 m 27 X s 2014 775 m 27 X s 2014 802 m 27 X s 1987 829 m 54 X s 2014 856 m 27 X s 2014 883 m 27 X s 2014 910 m 27 X s 1987 937 m 54 X s 2014 964 m 27 X s 2014 991 m 27 X s 2014 1018 m 27 X s 1987 1045 m 54 X s 2014 1072 m 27 X s 2014 1100
 m 27 X s 2014 1127 m 27 X s 1987 1154 m 54 X s 2014 1181 m 27 X s 2014 1208 m 27 X s 2014 1235 m 27 X s 1987 1262 m 54 X s 2014 1289 m 27 X s 2014 1316 m 27 X s 2014 1343 m 27 X s 1987 1370 m 54 X s 1987 180 m 54 X s 1987 1370 m 54 X s 309 379 m 21
 Y s 303 400 m 13 X s 309 353 m -20 Y s 303 333 m 13 X s 338 338 m 31 Y s 332 369 m 13 X s 338 312 m -30 Y s 332 282 m 13 X s 368 405 m 35 Y s 361 440 m 13 X s 368 379 m -34 Y s 361 345 m 13 X s 397 327 m 24 Y s 391 351 m 13 X s 397 301 m -23 Y s 391
 278 m 13 X s 429 356 m 6 Y s 423 362 m 13 X s 429 330 m -7 Y s 423 323 m 13 X s 459 299 m 2 Y s 452 301 m 13 X s 459 273 m -2 Y s 452 271 m 13 X s 488 414 m 66 Y s 481 480 m 13 X s 488 388 m -66 Y s 481 322 m 13 X s 517 323 m 8 Y s 511 331 m 13 X s
 517 297 m -7 Y s 511 290 m 13 X s 579 349 m 11 Y s 572 360 m 13 X s 579 323 m -11 Y s 572 312 m 13 X s 608 265 m 1 Y s 602 266 m 13 X s 608 239 m -2 Y s 602 237 m 13 X s 637 416 m 35 Y s 631 451 m 13 X s 637 390 m -35 Y s 631 355 m 13 X s 670 364 m
 35 Y s 663 399 m 13 X s 670 338 m -35 Y s 663 303 m 13 X s 699 366 m 19 Y s 692 385 m 13 X s 699 340 m -18 Y s 692 322 m 13 X s 728 375 m 10 Y s 722 385 m 13 X s 728 349 m -10 Y s 722 339 m 13 X s 757 390 m 13 Y s 751 403 m 13 X s 757 364 m -12 Y s
 751 352 m 13 X s 790 449 m 41 Y s 783 490 m 13 X s 790 423 m -42 Y s 783 381 m 13 X s 819 392 m 12 Y s 813 404 m 13 X s 819 366 m -11 Y s 813 355 m 13 X s 848 412 m 31 Y s 842 443 m 13 X s 848 386 m -31 Y s 842 355 m 13 X s 878 321 m 19 Y s 871 340
 m 13 X s 878 295 m -19 Y s 871 276 m 13 X s 910 453 m 19 Y s 903 472 m 13 X s 910 427 m -19 Y s 903 408 m 13 X s 939 477 m 19 Y s 933 496 m 13 X s 939 451 m -20 Y s 933 431 m 13 X s 968 403 m 26 Y s 962 429 m 13 X s 968 377 m -26 Y s 962 351 m 13 X
 s 998 386 m 12 Y s 991 398 m 13 X s 998 360 m -12 Y s 991 348 m 13 X s 1030 369 m 2 Y s 1023 371 m 13 X s 1030 343 m -3 Y s 1023 340 m 13 X s 1059 539 m 38 Y s 1053 577 m 13 X s 1059 513 m -37 Y s 1053 476 m 13 X s 1088 332 m 2 Y s 1082 334 m 13 X s
 1088 306 m -3 Y s 1082 303 m 13 X s 1150 321 m 4 Y s 1143 325 m 14 X s 1150 295 m -4 Y s 1143 291 m 14 X s 1179 362 m s 1173 362 m 13 X s 1179 336 m s 1173 336 m 13 X s 1209 334 m 6 Y s 1202 340 m 13 X s 1209 308 m -6 Y s 1202 302 m 13 X s 1238 366
 m 7 Y s 1231 373 m 13 X s 1238 340 m -6 Y s 1231 334 m 13 X s 1270 360 m 9 Y s 1264 369 m 13 X s 1270 334 m -9 Y s 1264 325 m 13 X s 1299 397 m 2 Y s 1293 399 m 13 X s 1299 371 m -2 Y s 1293 369 m 13 X s 1329 537 m 46 Y s 1322 583 m 13 X s 1329 511
 m -45 Y s 1322 466 m 13 X s 1358 375 m 6 Y s 1351 381 m 13 X s 1358 349 m -6 Y s 1351 343 m 13 X s 1390 425 m 43 Y s 1384 468 m 13 X s 1390 399 m -43 Y s 1384 356 m 13 X s 1420 373 m 25 Y s 1413 398 m 13 X s 1420 347 m -26 Y s 1413 321 m 13 X s 1478
 321 m 6 Y s 1472 327 m 13 X s 1478 295 m -6 Y s 1472 289 m 13 X s 1510 356 m 8 Y s 1504 364 m 13 X s 1510 330 m -8 Y s 1504 322 m 13 X s 1540 371 m 4 Y s 1533 375 m 13 X s 1540 345 m -5 Y s 1533 340 m 13 X s 1569 397 m 9 Y s 1562 406 m 13 X s 1569
 371 m -9 Y s 1562 362 m 13 X s 1598 403 m 32 Y s 1592 435 m 13 X s 1598 377 m -32 Y s 1592 345 m 13 X s 1630 343 m 14 Y s 1624 357 m 13 X s 1630 317 m -14 Y s 1624 303 m 13 X s 1660 304 m 12 Y s 1653 316 m 13 X s 1660 278 m -13 Y s 1653 265 m 13 X s
 1689 384 m 64 Y s 1682 448 m 14 X s 1689 358 m -65 Y s 1682 293 m 14 X s 1718 552 m 105 Y s 1712 657 m 13 X s 1718 526 m -104 Y s 1712 422 m 13 X s 1751 433 m 48 Y s 1744 481 m 13 X s 1751 407 m -48 Y s 1744 359 m 13 X s 1780 306 m 3 Y s 1773 309 m
 13 X s 1780 280 m -3 Y s 1773 277 m 13 X s 1809 455 m 23 Y s 1803 478 m 13 X s 1809 429 m -23 Y s 1803 406 m 13 X s 1838 282 m 8 Y s 1832 290 m 13 X s 1838 256 m -8 Y s 1832 248 m 13 X s 1871 321 m 14 Y s 1864 335 m 13 X s 1871 295 m -14 Y s 1864
 281 m 13 X s 1900 306 m 14 Y s 1893 320 m 13 X s 1900 280 m -14 Y s 1893 266 m 13 X s 1929 349 m 9 Y s 1923 358 m 13 X s 1929 323 m -9 Y s 1923 314 m 13 X s 1958 734 m 271 Y s 1952 1005 m 13 X s 1958 708 m -271 Y s 1952 437 m 13 X s 309 366 m 29 -41
 d 30 67 d 29 -78 d 32 29 d 30 -57 d 29 115 d 29 -91 d 32 -52 d 30 78 d 29 -84 d 29 151 d 33 -52 d 29 2 d 29 9 d 29 15 d 33 59 d 29 -57 d 29 20 d 30 -91 d 32 132 d 29 24 d 29 -74 d 30 -17 d 32 -17 d 29 170 d 29 -207 d 30 34 d 32 -45 d 29 41 d 30 -28
 d 29 32 d 32 -6 d 29 37 d 30 140 d 29 -162 d 32 50 d 30 -52 d 29 -104 d 29 52 d 32 35 d 30 15 d 29 26 d 29 6 d 32 -60 d 30 -39 d 29 80 d 29 168 d 33 -119 d 29 -127 d 29 149 d 29 -173 d 33 39 d 29 -15 d 29 43 d 29 385 d s /w 26 def /w2 {w 2 div} def
 /w3 {w 3 div} def 309 366 338 325 368 392 397 314 429 343 459 286 488 401 517 310 549 258 579 336 608 252 637 403 670 351 699 353 728 362 757 377 790 436 819 379 848 399 878 308 910 440 939 464 968 390 998 373 1030 356 1059 526 1088 319 1118 353
 1150 308 1179 349 1209 321 1238 353 1270 347 1299 384 1329 524 1358 362 1390 412 1420 360 1449 256 1478 308 1510 343 1540 358 1569 384 1598 390 1630 330 1660 291 1689 371 1718 539 1751 420 1780 293 1809 442 1838 269 1871 308 1900 293 1929 336 1958
 721 56 { m20} R 1 0 0 c 309 226 m 5 Y s 303 231 m 13 X s 309 200 m -6 Y s 303 194 m 13 X s 339 364 m 34 Y s 332 398 m 13 X s 339 338 m -33 Y s 332 305 m 13 X s 368 382 m 33 Y s 361 415 m 13 X s 368 355 m -33 Y s 361 322 m 13 X s 397 258 m 12 Y s 391
 270 m 13 X s 397 232 m -11 Y s 391 221 m 13 X s 429 384 m 23 Y s 423 407 m 13 X s 429 358 m -23 Y s 423 335 m 13 X s 459 271 m 29 Y s 452 300 m 13 X s 459 245 m -28 Y s 452 217 m 13 X s 517 412 m 29 Y s 511 441 m 13 X s 517 386 m -29 Y s 511 357 m
 13 X s 579 302 m 15 Y s 572 317 m 13 X s 579 275 m -15 Y s 572 260 m 13 X s 608 323 m 5 Y s 602 328 m 13 X s 608 297 m -4 Y s 602 293 m 13 X s 637 444 m 98 Y s 631 542 m 13 X s 637 418 m -97 Y s 631 321 m 13 X s 669 312 m 5 Y s 663 317 m 13 X s 669
 286 m -4 Y s 663 282 m 13 X s 699 267 m 7 Y s 692 274 m 13 X s 699 241 m -7 Y s 692 234 m 13 X s 728 343 m 12 Y s 722 355 m 13 X s 728 317 m -12 Y s 722 305 m 13 X s 757 325 m 14 Y s 751 339 m 13 X s 757 299 m -13 Y s 751 286 m 13 X s 790 308 m 16 Y
 s 783 324 m 13 X s 790 282 m -16 Y s 783 266 m 13 X s 819 360 m 6 Y s 813 366 m 13 X s 819 334 m -6 Y s 813 328 m 13 X s 939 289 m 7 Y s 933 296 m 13 X s 939 262 m -7 Y s 933 255 m 13 X s 968 475 m 20 Y s 962 495 m 13 X s 968 448 m -20 Y s 962 428 m
 13 X s 998 299 m 3 Y s 991 302 m 13 X s 998 273 m -2 Y s 991 271 m 13 X s 1030 336 m 1 Y s 1023 337 m 13 X s 1030 310 m -1 Y s 1023 309 m 13 X s 1059 295 m 4 Y s 1053 299 m 13 X s 1059 269 m -4 Y s 1053 265 m 13 X s 1088 325 m 6 Y s 1082 331 m 13 X
 s 1088 299 m -6 Y s 1082 293 m 13 X s 1118 358 m 5 Y s 1111 363 m 13 X s 1118 332 m -6 Y s 1111 326 m 13 X s 1150 382 m 4 Y s 1144 386 m 13 X s 1150 355 m -4 Y s 1144 351 m 13 X s 1179 260 m 1 Y s 1173 261 m 13 X s 1179 234 m s 1173 234 m 13 X s
 1209 334 m 16 Y s 1202 350 m 13 X s 1209 308 m -16 Y s 1202 292 m 13 X s 1238 475 m 48 Y s 1231 523 m 13 X s 1238 448 m -48 Y s 1231 400 m 13 X s 1270 353 m 41 Y s 1264 394 m 13 X s 1270 327 m -40 Y s 1264 287 m 13 X s 1299 347 m 15 Y s 1293 362 m
 13 X s 1299 321 m -16 Y s 1293 305 m 13 X s 1329 265 m 14 Y s 1322 279 m 13 X s 1329 239 m -14 Y s 1322 225 m 13 X s 1358 371 m 14 Y s 1352 385 m 13 X s 1358 345 m -15 Y s 1352 330 m 13 X s 1390 315 m 4 Y s 1384 319 m 13 X s 1390 288 m -4 Y s 1384
 284 m 13 X s 1420 315 m 14 Y s 1413 329 m 13 X s 1420 288 m -14 Y s 1413 274 m 13 X s 1449 395 m 39 Y s 1442 434 m 13 X s 1449 368 m -39 Y s 1442 329 m 13 X s 1478 345 m 13 Y s 1472 358 m 13 X s 1478 319 m -13 Y s 1472 306 m 13 X s 1510 323 m 9 Y s
 1504 332 m 13 X s 1510 297 m -9 Y s 1504 288 m 13 X s 1540 414 m 31 Y s 1533 445 m 13 X s 1540 388 m -31 Y s 1533 357 m 13 X s 1569 375 m 8 Y s 1562 383 m 13 X s 1569 349 m -8 Y s 1562 341 m 13 X s 1598 382 m 28 Y s 1591 410 m 14 X s 1598 355 m -28
 Y s 1591 327 m 14 X s 1630 371 m 7 Y s 1624 378 m 13 X s 1630 345 m -8 Y s 1624 337 m 13 X s 1660 265 m 4 Y s 1653 269 m 13 X s 1660 239 m -5 Y s 1653 234 m 13 X s 1689 351 m 15 Y s 1682 366 m 14 X s 1689 325 m -14 Y s 1682 311 m 14 X s 1718 323 m
 25 Y s 1712 348 m 13 X s 1718 297 m -25 Y s 1712 272 m 13 X s 1751 284 m 6 Y s 1744 290 m 13 X s 1751 258 m -6 Y s 1744 252 m 13 X s 1780 278 m 4 Y s 1773 282 m 13 X s 1780 252 m -4 Y s 1773 248 m 13 X s 1838 369 m 58 Y s 1832 427 m 13 X s 1838 343
 m -59 Y s 1832 284 m 13 X s 1871 315 m 15 Y s 1864 330 m 13 X s 1871 288 m -15 Y s 1864 273 m 13 X s 1900 252 m 14 Y s 1893 266 m 13 X s 1900 226 m -15 Y s 1893 211 m 13 X s 1929 306 m 7 Y s 1923 313 m 13 X s 1929 280 m -7 Y s 1923 273 m 13 X s 1958
 375 m 40 Y s 1952 415 m 13 X s 1958 349 m -39 Y s 1952 310 m 13 X s black 1 0 0 c 309 213 m 30 138 d 29 18 d 29 -124 d 32 126 d 30 -113 d 29 -19 d 29 160 d 32 -147 d 30 37 d 29 21 d 29 121 d 32 -132 d 30 -45 d 29 76 d 29 -18 d 33 -17 d 29 52 d 29
 -26 d 30 -104 d 32 -4 d 29 63 d 29 186 d 30 -176 d 32 37 d 29 -41 d 29 30 d 30 33 d 32 24 d 29 -122 d 30 74 d 29 141 d 32 -122 d 29 -6 d 30 -82 d 29 106 d 32 -57 d 30 X 29 81 d 29 -50 d 32 -22 d 30 91 d 29 -39 d 29 7 d 32 -11 d 30 -106 d 29 86 d 29
 -28 d 33 -39 d 29 -6 d 29 -37 d 29 128 d 33 -55 d 29 -62 d 29 54 d 29 69 d s 309 213 339 351 368 369 397 245 429 371 459 258 488 239 517 399 549 252 579 289 608 310 637 431 669 299 699 254 728 330 757 312 790 295 819 347 848 321 878 217 910 213 939
 276 968 462 998 286 1030 323 1059 282 1088 312 1118 345 1150 369 1179 247 1209 321 1238 462 1270 340 1299 334 1329 252 1358 358 1390 301 1420 301 1449 382 1478 332 1510 310 1540 401 1569 362 1598 369 1630 358 1660 252 1689 338 1718 310 1751 271 1780
 265 1809 228 1838 356 1871 301 1900 239 1929 293 1958 362 56 { m20} R 0 1 0 c 324 362 m 3 Y s 318 365 m 13 X s 324 336 m -3 Y s 318 333 m 13 X s 444 442 m 21 Y s 438 463 m 13 X s 444 416 m -21 Y s 438 395 m 13 X s 503 526 m 39 Y s 496 565 m 13 X s
 503 500 m -38 Y s 496 462 m 13 X s 564 444 m 20 Y s 558 464 m 13 X s 564 418 m -20 Y s 558 398 m 13 X s 623 382 m 4 Y s 616 386 m 13 X s 623 355 m -4 Y s 616 351 m 13 X s 684 542 m 22 Y s 678 564 m 13 X s 684 516 m -23 Y s 678 493 m 13 X s 743 555 m
 19 Y s 736 574 m 13 X s 743 529 m -20 Y s 736 509 m 13 X s 804 377 m 7 Y s 798 384 m 13 X s 804 351 m -7 Y s 798 344 m 13 X s 863 546 m 33 Y s 856 579 m 13 X s 863 520 m -34 Y s 856 486 m 13 X s 925 494 m 64 Y s 918 558 m 13 X s 925 468 m -64 Y s
 918 404 m 13 X s 983 501 m 19 Y s 976 520 m 13 X s 983 474 m -19 Y s 976 455 m 13 X s 1045 364 m 3 Y s 1038 367 m 13 X s 1045 338 m -2 Y s 1038 336 m 13 X s 1103 401 m 14 Y s 1097 415 m 13 X s 1103 375 m -14 Y s 1097 361 m 13 X s 1165 438 m 10 Y s
 1158 448 m 13 X s 1165 412 m -10 Y s 1158 402 m 13 X s 1223 397 m 15 Y s 1217 412 m 13 X s 1223 371 m -16 Y s 1217 355 m 13 X s 1285 362 m 5 Y s 1278 367 m 13 X s 1285 336 m -4 Y s 1278 332 m 13 X s 1343 364 m 7 Y s 1337 371 m 13 X s 1343 338 m -6 Y
 s 1337 332 m 13 X s 1405 371 m 2 Y s 1398 373 m 13 X s 1405 345 m -3 Y s 1398 342 m 13 X s 1463 427 m 10 Y s 1457 437 m 13 X s 1463 401 m -10 Y s 1457 391 m 13 X s 1525 373 m 6 Y s 1519 379 m 13 X s 1525 347 m -7 Y s 1519 340 m 13 X s 1583 343 m 2 Y
 s 1577 345 m 13 X s 1583 317 m -3 Y s 1577 314 m 13 X s 1645 431 m 10 Y s 1639 441 m 13 X s 1645 405 m -9 Y s 1639 396 m 13 X s 1704 403 m 9 Y s 1697 412 m 13 X s 1704 377 m -9 Y s 1697 368 m 13 X s 1765 550 m 40 Y s 1759 590 m 13 X s 1765 524 m -39
 Y s 1759 485 m 13 X s 1824 561 m 42 Y s 1817 603 m 13 X s 1824 535 m -42 Y s 1817 493 m 13 X s 1885 479 m 47 Y s 1879 526 m 13 X s 1885 453 m -47 Y s 1879 406 m 13 X s 1944 455 m 18 Y s 1937 473 m 13 X s 1944 429 m -18 Y s 1937 411 m 13 X s black 0
 1 0 c 324 349 m 58 -58 d 62 138 d 59 84 d 61 -82 d 59 -62 d 61 160 d 59 13 d 61 -178 d 59 169 d 62 -52 d 58 6 d 62 -136 d 58 37 d 62 37 d 58 -41 d 62 -35 d 58 2 d 62 7 d 58 56 d 62 -54 d 58 -30 d 62 88 d 59 -28 d 61 147 d 59 11 d 61 -82 d 59 -24 d s
 324 349 382 291 444 429 503 513 564 431 623 369 684 529 743 542 804 364 863 533 925 481 983 487 1045 351 1103 388 1165 425 1223 384 1285 349 1343 351 1405 358 1463 414 1525 360 1583 330 1645 418 1704 390 1765 537 1824 548 1885 466 1944 442 28 { m20}
 R 0 0 1 c 324 286 m 2 Y s 318 288 m 13 X s 324 260 m -1 Y s 318 259 m 13 X s 382 297 m 27 Y s 376 324 m 13 X s 382 271 m -26 Y s 376 245 m 13 X s 503 293 m 12 Y s 496 305 m 13 X s 503 267 m -12 Y s 496 255 m 13 X s 564 338 m 8 Y s 558 346 m 13 X s
 564 312 m -8 Y s 558 304 m 13 X s 622 295 m 1 Y s 616 296 m 13 X s 622 269 m -1 Y s 616 268 m 13 X s 684 330 m 18 Y s 678 348 m 13 X s 684 304 m -18 Y s 678 286 m 13 X s 743 455 m 19 Y s 736 474 m 13 X s 743 429 m -19 Y s 736 410 m 13 X s 863 518 m
 110 Y s 856 628 m 13 X s 863 492 m -111 Y s 856 381 m 13 X s 925 462 m 15 Y s 918 477 m 13 X s 925 436 m -16 Y s 918 420 m 13 X s 983 403 m 12 Y s 976 415 m 13 X s 983 377 m -12 Y s 976 365 m 13 X s 1045 334 m 12 Y s 1038 346 m 13 X s 1045 308 m -12
 Y s 1038 296 m 13 X s 1103 358 m 25 Y s 1097 383 m 13 X s 1103 332 m -25 Y s 1097 307 m 13 X s 1165 364 m 6 Y s 1158 370 m 13 X s 1165 338 m -6 Y s 1158 332 m 13 X s 1223 330 m 13 Y s 1217 343 m 13 X s 1223 304 m -14 Y s 1217 290 m 13 X s 1285 276 m
 5 Y s 1278 281 m 13 X s 1285 250 m -6 Y s 1278 244 m 13 X s 1343 362 m 8 Y s 1337 370 m 13 X s 1343 336 m -8 Y s 1337 328 m 13 X s 1405 256 m 3 Y s 1398 259 m 13 X s 1405 230 m -3 Y s 1398 227 m 13 X s 1463 278 m 4 Y s 1457 282 m 13 X s 1463 252 m
 -4 Y s 1457 248 m 13 X s 1525 425 m 16 Y s 1518 441 m 13 X s 1525 399 m -16 Y s 1518 383 m 13 X s 1704 379 m 26 Y s 1697 405 m 13 X s 1704 353 m -25 Y s 1697 328 m 13 X s 1824 330 m 14 Y s 1817 344 m 13 X s 1824 304 m -15 Y s 1817 289 m 13 X s black
 0 0 1 c 324 273 m 58 11 d 62 -21 d 59 17 d 61 45 d 58 -43 d 62 35 d 59 125 d 61 -143 d 59 206 d 62 -56 d 58 -59 d 62 -69 d 58 24 d 62 6 d 58 -34 d 62 -54 d 58 86 d 62 -106 d 58 22 d 62 147 d 58 -143 d 62 -17 d 59 114 d 61 -147 d 59 98 d 61 -52 d 59
 -26 d s 324 273 382 284 444 263 503 280 564 325 622 282 684 317 743 442 804 299 863 505 925 449 983 390 1045 321 1103 345 1165 351 1223 317 1285 263 1343 349 1405 243 1463 265 1525 412 1583 269 1645 252 1704 366 1765 219 1824 317 1885 265 1944 239
 28 { m20} R black
 gsave  2268 1538 0 0 C 1394.52 1273.96 t 0 r /Helvetica-Bold findfont 58.6478 sf 0 0 m (SCT Barrel) show NC gr 
 gsave  2268 1538 0 0 C 1495.52 1228.35 t 0 r /Helvetica-Bold findfont 58.6478 sf 0 0 m (Layer 0) show NC gr  1400 1238 m 80 X s 1440 1238 m20
 gsave  2268 1538 0 0 C 1495.52 1182.73 t 0 r /Helvetica-Bold findfont 58.6478 sf 0 0 m (Layer 1) show NC gr  1 0 0 c 1400 1192 m 80 X s 1440 1192 m20 black
 gsave  2268 1538 0 0 C 1495.52 1137.12 t 0 r /Helvetica-Bold findfont 58.6478 sf 0 0 m (Layer 2) show NC gr  0 1 0 c 1400 1146 m 80 X s 1440 1146 m20 black
 gsave  2268 1538 0 0 C 1495.52 1091.5 t 0 r /Helvetica-Bold findfont 58.6478 sf 0 0 m (Layer 3) show NC gr  0 0 1 c 1400 1100 m 80 X s 1440 1100 m20
 gr  gr showpage
end
%%EOF
