%!PS-Adobe-2.0 EPSF-2.0
%%BoundingBox:  0 0 567 384
%%Title: outputDir/sct_occupancy/hit_sctdisk_mgr.eps: c1_n36
%%Creator: ROOT Version 6.04/12
%%CreationDate: Mon Apr 25 16:02:12 2016
%%DocumentNeededResources: ProcSet (FontSetInit)
%%EndComments
%%BeginProlog
80 dict begin
/s {stroke} def /l {lineto} def /m {moveto} def /t {translate} def
/r {rotate} def /rl {roll}  def /R {repeat} def
/d {rlineto} def /rm {rmoveto} def /gr {grestore} def /f {eofill} def
/c {setrgbcolor} def /black {0 setgray} def /sd {setdash} def
/cl {closepath} def /sf {scalefont setfont} def /lw {setlinewidth} def
/box {m dup 0 exch d exch 0 d 0 exch neg d cl} def
/NC{systemdict begin initclip end}def/C{NC box clip newpath}def
/bl {box s} def /bf {gsave box gsave f grestore 1 lw [] 0 sd s grestore} def /Y { 0 exch d} def /X { 0 d} def 
/K {{pop pop 0 moveto} exch kshow} bind def
/ita {/ang 15 def gsave [1 0 ang dup sin exch cos div 1 0 0] concat} def 
/mp {newpath /y exch def /x exch def} def
/side {[w .77 mul w .23 mul] .385 w mul sd w 0 l currentpoint t -144 r} def
/mr {mp x y w2 0 360 arc} def /m24 {mr s} def /m20 {mr f} def
/mb {mp x y w2 add m w2 neg 0 d 0 w neg d w 0 d 0 w d cl} def
/mt {mp x y w2 add m w2 neg w neg d w 0 d cl} def
/m21 {mb f} def /m25 {mb s} def /m22 {mt f} def /m26{mt s} def
/m23 {mp x y w2 sub m w2 w d w neg 0 d cl f} def
/m27 {mp x y w2 add m w3 neg w2 neg d w3 w2 neg d w3 w2 d cl s} def
/m28 {mp x w2 sub y w2 sub w3 add m w3 0 d  0 w3 neg d w3 0 d 0 w3 d w3 0 d  0 w3 d w3 neg 0 d 0 w3 d w3 neg 0 d 0 w3 neg d w3 neg 0 d cl s } def
/m29 {mp gsave x w2 sub y w2 add w3 sub m currentpoint t 4 {side} repeat cl fill gr} def
/m30 {mp gsave x w2 sub y w2 add w3 sub m currentpoint t 4 {side} repeat cl s gr} def
/m31 {mp x y w2 sub m 0 w d x w2 sub y m w 0 d x w2 sub y w2 add m w w neg d x w2 sub y w2 sub m w w d s} def
/m32 {mp x y w2 sub m w2 w d w neg 0 d cl s} def
/m33 {mp x y w2 add m w3 neg w2 neg d w3 w2 neg d w3 w2 d cl f} def
/m34 {mp x w2 sub y w2 sub w3 add m w3 0 d  0 w3 neg d w3 0 d 0 w3 d w3 0 d  0 w3 d w3 neg 0 d 0 w3 d w3 neg 0 d 0 w3 neg d w3 neg 0 d cl f } def
/m2 {mp x y w2 sub m 0 w d x w2 sub y m w 0 d s} def
/m5 {mp x w2 sub y w2 sub m w w d x w2 sub y w2 add m w w neg d s} def
%%IncludeResource: ProcSet (FontSetInit)
%%IncludeResource: font Times-Roman
%%IncludeResource: font Times-Italic
%%IncludeResource: font Times-Bold
%%IncludeResource: font Times-BoldItalic
%%IncludeResource: font Helvetica
%%IncludeResource: font Helvetica-Oblique
%%IncludeResource: font Helvetica-Bold
%%IncludeResource: font Helvetica-BoldOblique
%%IncludeResource: font Courier
%%IncludeResource: font Courier-Oblique
%%IncludeResource: font Courier-Bold
%%IncludeResource: font Courier-BoldOblique
%%IncludeResource: font Symbol
%%IncludeResource: font ZapfDingbats
/reEncode {exch findfont dup length dict begin {1 index /FID eq  {pop pop} {def} ifelse } forall /Encoding exch def currentdict end dup /FontName get exch definefont pop } def [/Times-Bold /Times-Italic /Times-BoldItalic /Helvetica /Helvetica-Oblique
 /Helvetica-Bold /Helvetica-BoldOblique /Courier /Courier-Oblique /Courier-Bold /Courier-BoldOblique /Times-Roman /AvantGarde-Book /AvantGarde-BookOblique /AvantGarde-Demi /AvantGarde-DemiOblique /Bookman-Demi /Bookman-DemiItalic /Bookman-Light
 /Bookman-LightItalic /Helvetica-Narrow /Helvetica-Narrow-Bold /Helvetica-Narrow-BoldOblique /Helvetica-Narrow-Oblique /NewCenturySchlbk-Roman /NewCenturySchlbk-Bold /NewCenturySchlbk-BoldItalic /NewCenturySchlbk-Italic /Palatino-Bold
 /Palatino-BoldItalic /Palatino-Italic /Palatino-Roman ] {ISOLatin1Encoding reEncode } forall
%%EndProlog
%%BeginSetup
%%EndSetup
newpath  gsave  .25 .25 scale  gsave  0 0 t black[  ] 0 sd 3 lw 1 1 1 c 2268 1538 0 0 bf black 1 1 1 c 1814 1230 227 154 bf black 1814 1230 227 154 bl 1 1 1 c 1814 1230 227 154 bf black 1814 1230 227 154 bl 227 154 m 1814 X s
 gsave  2268 1538 0 0 C 1860.44 35.8403 t 0 r /Helvetica-Bold findfont 58.6478 sf 0 0 m (r [mm]) show NC gr  326 191 m -37 Y s 386 172 m -18 Y s 447 172 m -18 Y s 508 172 m -18 Y s 569 172 m -18 Y s 629 191 m -37 Y s 690 172 m -18 Y s 751 172 m -18 Y
 s 811 172 m -18 Y s 872 172 m -18 Y s 933 191 m -37 Y s 993 172 m -18 Y s 1054 172 m -18 Y s 1115 172 m -18 Y s 1175 172 m -18 Y s 1236 191 m -37 Y s 1297 172 m -18 Y s 1357 172 m -18 Y s 1418 172 m -18 Y s 1479 172 m -18 Y s 1539 191 m -37 Y s 1600
 172 m -18 Y s 1661 172 m -18 Y s 1721 172 m -18 Y s 1782 172 m -18 Y s 1843 191 m -37 Y s 326 191 m -37 Y s 265 172 m -18 Y s 1843 191 m -37 Y s 1903 172 m -18 Y s 1964 172 m -18 Y s 2025 172 m -18 Y s
 gsave  2268 1538 0 0 C 273.69 97.7464 t 0 r /Helvetica-Bold findfont 58.6478 sf 0 0 m (400) show NC gr 
 gsave  2268 1538 0 0 C 579.962 97.7464 t 0 r /Helvetica-Bold findfont 58.6478 sf 0 0 m (500) show NC gr 
 gsave  2268 1538 0 0 C 882.976 97.7464 t 0 r /Helvetica-Bold findfont 58.6478 sf 0 0 m (600) show NC gr 
 gsave  2268 1538 0 0 C 1185.99 97.7464 t 0 r /Helvetica-Bold findfont 58.6478 sf 0 0 m (700) show NC gr 
 gsave  2268 1538 0 0 C 1489 97.7464 t 0 r /Helvetica-Bold findfont 58.6478 sf 0 0 m (800) show NC gr 
 gsave  2268 1538 0 0 C 1792.02 97.7464 t 0 r /Helvetica-Bold findfont 58.6478 sf 0 0 m (900) show NC gr  227 1384 m 1814 X s 326 1347 m 37 Y s 386 1366 m 18 Y s 447 1366 m 18 Y s 508 1366 m 18 Y s 569 1366 m 18 Y s 629 1347 m 37 Y s 690 1366 m 18 Y
 s 751 1366 m 18 Y s 811 1366 m 18 Y s 872 1366 m 18 Y s 933 1347 m 37 Y s 993 1366 m 18 Y s 1054 1366 m 18 Y s 1115 1366 m 18 Y s 1175 1366 m 18 Y s 1236 1347 m 37 Y s 1297 1366 m 18 Y s 1357 1366 m 18 Y s 1418 1366 m 18 Y s 1479 1366 m 18 Y s 1539
 1347 m 37 Y s 1600 1366 m 18 Y s 1661 1366 m 18 Y s 1721 1366 m 18 Y s 1782 1366 m 18 Y s 1843 1347 m 37 Y s 326 1347 m 37 Y s 265 1366 m 18 Y s 1843 1347 m 37 Y s 1903 1366 m 18 Y s 1964 1366 m 18 Y s 2025 1366 m 18 Y s 227 154 m 1230 Y s
 gsave  2268 1538 0 0 C 97.7464 801.521 t 90 r /Helvetica-Bold findfont 58.6478 sf 0 0 m (Hits per etaModuleID) show NC gr  281 348 m -54 X s 254 394 m -27 X s 254 439 m -27 X s 254 485 m -27 X s 254 531 m -27 X s 281 576 m -54 X s 254 622 m -27 X s
 254 667 m -27 X s 254 713 m -27 X s 254 759 m -27 X s 281 804 m -54 X s 254 850 m -27 X s 254 896 m -27 X s 254 941 m -27 X s 254 987 m -27 X s 281 1033 m -54 X s 254 1078 m -27 X s 254 1124 m -27 X s 254 1169 m -27 X s 254 1215 m -27 X s 281 1261 m
 -54 X s 281 348 m -54 X s 254 302 m -27 X s 254 257 m -27 X s 254 211 m -27 X s 254 165 m -27 X s 281 1261 m -54 X s 254 1306 m -27 X s 254 1352 m -27 X s
 gsave  2268 1538 0 0 C 149.878 325.821 t 0 r /Helvetica-Bold findfont 58.6478 sf 0 0 m (50) show NC gr 
 gsave  2268 1538 0 0 C 117.296 553.896 t 0 r /Helvetica-Bold findfont 58.6478 sf 0 0 m (100) show NC gr 
 gsave  2268 1538 0 0 C 117.296 781.971 t 0 r /Helvetica-Bold findfont 58.6478 sf 0 0 m (150) show NC gr 
 gsave  2268 1538 0 0 C 117.296 1010.05 t 0 r /Helvetica-Bold findfont 58.6478 sf 0 0 m (200) show NC gr 
 gsave  2268 1538 0 0 C 117.296 1238.12 t 0 r /Helvetica-Bold findfont 58.6478 sf 0 0 m (250) show NC gr  2041 154 m 1230 Y s 1987 348 m 54 X s 2014 394 m 27 X s 2014 439 m 27 X s 2014 485 m 27 X s 2014 531 m 27 X s 1987 576 m 54 X s 2014 622 m 27 X
 s 2014 667 m 27 X s 2014 713 m 27 X s 2014 759 m 27 X s 1987 804 m 54 X s 2014 850 m 27 X s 2014 896 m 27 X s 2014 941 m 27 X s 2014 987 m 27 X s 1987 1033 m 54 X s 2014 1078 m 27 X s 2014 1124 m 27 X s 2014 1169 m 27 X s 2014 1215 m 27 X s 1987
 1261 m 54 X s 1987 348 m 54 X s 2014 302 m 27 X s 2014 257 m 27 X s 2014 211 m 27 X s 2014 165 m 27 X s 1987 1261 m 54 X s 2014 1306 m 27 X s 2014 1352 m 27 X s 309 334 m 2 Y s 303 336 m 13 X s 309 308 m -3 Y s 303 305 m 13 X s 548 460 m 3 Y s 541
 463 m 13 X s 548 434 m -4 Y s 541 430 m 13 X s 628 272 m 2 Y s 622 274 m 13 X s 628 246 m -3 Y s 622 243 m 13 X s 696 372 m 5 Y s 690 377 m 13 X s 696 346 m -5 Y s 690 341 m 13 X s 908 401 m 4 Y s 902 405 m 13 X s 908 375 m -3 Y s 902 372 m 13 X s
 1002 354 m s 996 354 m 13 X s 1002 328 m -1 Y s 996 327 m 13 X s 1099 383 m 4 Y s 1093 387 m 13 X s 1099 357 m -4 Y s 1093 353 m 13 X s 1188 370 m 18 Y s 1182 388 m 13 X s 1188 344 m -18 Y s 1182 326 m 13 X s 1356 368 m 7 Y s 1350 375 m 13 X s 1356
 342 m -7 Y s 1350 335 m 13 X s 1493 425 m 2 Y s 1486 427 m 13 X s 1493 399 m -2 Y s 1486 397 m 13 X s 1658 480 m 76 Y s 1652 556 m 13 X s 1658 454 m -76 Y s 1652 378 m 13 X s 1806 323 m 34 Y s 1799 357 m 13 X s 1806 297 m -35 Y s 1799 262 m 13 X s
 1958 367 m 2 Y s 1952 369 m 13 X s 1958 340 m -2 Y s 1952 338 m 13 X s 309 321 m 66 36 d 81 46 d 92 44 d 80 -188 d 68 100 d 78 -80 d 60 -31 d 74 140 d 94 -47 d 97 29 d 89 -13 d 80 -115 d 88 113 d 137 57 d 165 55 d 148 -157 d 152 44 d s /w 26 def /w2
 {w 2 div} def /w3 {w 3 div} def 309 321 375 357 456 403 548 447 628 259 696 359 774 279 834 248 908 388 1002 341 1099 370 1188 357 1268 242 1356 355 1493 412 1658 467 1806 310 1958 354 18 { m20} R 1 0 0 c 548 419 m 9 Y s 541 428 m 13 X s 548 393 m
 -8 Y s 541 385 m 13 X s 908 418 m 18 Y s 902 436 m 13 X s 908 392 m -19 Y s 902 373 m 13 X s 1001 398 m 3 Y s 995 401 m 13 X s 1001 372 m -4 Y s 995 368 m 13 X s 1099 367 m 1 Y s 1093 368 m 13 X s 1099 340 m -1 Y s 1093 339 m 13 X s 1492 438 m 18 Y
 s 1486 456 m 13 X s 1492 412 m -18 Y s 1486 394 m 13 X s 1806 286 m 1 Y s 1800 287 m 13 X s 1806 260 m -1 Y s 1800 259 m 13 X s 1958 383 m 10 Y s 1952 393 m 13 X s 1958 357 m -10 Y s 1952 347 m 13 X s black 1 0 0 c 309 313 m 66 2 d 80 28 d 93 63 d
 81 -184 d 68 137 d 77 -20 d 61 -88 d 73 154 d 93 -20 d 98 -31 d 89 -68 d 80 -35 d 88 71 d 136 103 d 166 -51 d 148 -101 d 152 97 d s 309 313 375 315 455 343 548 406 629 222 697 359 774 339 835 251 908 405 1001 385 1099 354 1188 286 1268 251 1356 322
 1492 425 1658 374 1806 273 1958 370 18 { m20} R 0 1 0 c 310 388 m 2 Y s 303 390 m 13 X s 310 362 m -1 Y s 303 361 m 13 X s 375 423 m 6 Y s 369 429 m 13 X s 375 397 m -5 Y s 369 392 m 13 X s 455 451 m 1 Y s 449 452 m 13 X s 455 424 m -1 Y s 449 423 m
 13 X s 548 430 m s 541 430 m 13 X s 548 404 m s 541 404 m 13 X s 628 295 m 5 Y s 621 300 m 13 X s 628 269 m -4 Y s 621 265 m 13 X s 697 379 m 6 Y s 690 385 m 13 X s 697 353 m -5 Y s 690 348 m 13 X s 835 250 m 1 Y s 829 251 m 13 X s 835 224 m -1 Y s
 829 223 m 13 X s 909 421 m 5 Y s 902 426 m 13 X s 909 395 m -5 Y s 902 390 m 13 X s 1001 346 m 1 Y s 994 347 m 13 X s 1001 320 m -1 Y s 994 319 m 13 X s 1356 394 m 2 Y s 1350 396 m 13 X s 1356 368 m -2 Y s 1350 366 m 13 X s 1492 414 m 4 Y s 1486 418
 m 13 X s 1492 388 m -4 Y s 1486 384 m 13 X s 1658 483 m 11 Y s 1652 494 m 13 X s 1658 457 m -11 Y s 1652 446 m 13 X s 1806 401 m 16 Y s 1799 417 m 13 X s 1806 375 m -16 Y s 1799 359 m 13 X s black 0 1 0 c 310 375 m 65 35 d 80 27 d 93 -20 d 80 -135 d
 69 84 d 77 -40 d 61 -89 d 74 171 d 92 -75 d 98 -38 d 89 -47 d 80 38 d 88 95 d 136 20 d 166 69 d 148 -82 d 152 -64 d s 310 375 375 410 455 437 548 417 628 282 697 366 774 326 835 237 909 408 1001 333 1099 295 1188 248 1268 286 1356 381 1492 401 1658
 470 1806 388 1958 324 18 { m20} R 0 0 1 c 310 357 m 48 Y s 303 405 m 13 X s 310 331 m -47 Y s 303 284 m 13 X s 455 509 m s 449 509 m 13 X s 455 483 m s 449 483 m 13 X s 548 483 m 2 Y s 541 485 m 13 X s 548 457 m -1 Y s 541 456 m 13 X s 628 328 m 2 Y
 s 622 330 m 13 X s 628 302 m -2 Y s 622 300 m 13 X s 908 370 m 6 Y s 901 376 m 14 X s 908 344 m -6 Y s 901 338 m 14 X s 1002 434 m 1 Y s 995 435 m 13 X s 1002 408 m s 995 408 m 13 X s 1099 354 m 4 Y s 1093 358 m 13 X s 1099 328 m -5 Y s 1093 323 m
 13 X s 1658 407 m 6 Y s 1652 413 m 13 X s 1658 381 m -6 Y s 1652 375 m 13 X s 1806 421 m 47 Y s 1799 468 m 13 X s 1806 395 m -47 Y s 1799 348 m 13 X s 1958 449 m 27 Y s 1952 476 m 13 X s 1958 423 m -27 Y s 1952 396 m 13 X s black 0 0 1 c 310 344 m
 65 19 d 80 133 d 93 -26 d 80 -155 d 69 51 d 77 -22 d 60 -109 d 74 122 d 94 64 d 97 -80 d 89 -71 d 80 21 d 89 -31 d 135 106 d 166 28 d 148 14 d 152 28 d s 310 344 375 363 455 496 548 470 628 315 697 366 774 344 834 235 908 357 1002 421 1099 341 1188
 270 1268 291 1357 260 1492 366 1658 394 1806 408 1958 436 18 { m20} R 1 1 0 c 775 365 m 2 Y s 769 367 m 13 X s 775 339 m -3 Y s 769 336 m 13 X s 908 419 m 4 Y s 902 423 m 13 X s 908 393 m -3 Y s 902 390 m 13 X s 1002 377 m 3 Y s 996 380 m 13 X s
 1002 351 m -2 Y s 996 349 m 13 X s 1958 409 m 7 Y s 1951 416 m 14 X s 1958 382 m -7 Y s 1951 375 m 14 X s black 1 1 0 c 309 330 m 66 31 d 80 56 d 92 4 d 81 -120 d 69 47 d 78 4 d 60 -113 d 73 167 d 94 -42 d 97 -82 d 89 -38 d 80 62 d 88 11 d 136 35 d
 166 31 d 148 -90 d 152 102 d s 309 330 375 361 455 417 547 421 628 301 697 348 775 352 835 239 908 406 1002 364 1099 282 1188 244 1268 306 1356 317 1492 352 1658 383 1806 293 1958 395 18 { m20} R 1 0 1 c 374 356 m 5 Y s 368 361 m 13 X s 374 330 m -6
 Y s 368 324 m 13 X s 628 345 m 13 Y s 622 358 m 13 X s 628 319 m -13 Y s 622 306 m 13 X s 1001 487 m 4 Y s 995 491 m 13 X s 1001 461 m -4 Y s 995 457 m 13 X s 1099 427 m 13 Y s 1093 440 m 13 X s 1099 401 m -13 Y s 1093 388 m 13 X s 1492 429 m 7 Y s
 1486 436 m 13 X s 1492 403 m -8 Y s 1486 395 m 13 X s 1958 509 m 5 Y s 1952 514 m 13 X s 1958 483 m -5 Y s 1952 478 m 13 X s black 1 0 1 c 309 322 m 65 21 d 81 67 d 93 -13 d 80 -65 d 69 3 d 78 -33 d 58 -58 d 75 111 d 93 119 d 98 -60 d 89 -102 d 80
 31 d 88 -50 d 136 123 d 166 20 d 148 -84 d 152 144 d s 309 322 374 343 455 410 548 397 628 332 697 335 775 302 833 244 908 355 1001 474 1099 414 1188 312 1268 343 1356 293 1492 416 1658 436 1806 352 1958 496 18 { m20} R black[ 12 12] 0 sd 375 365 m
 s 368 365 m 13 X s 375 339 m -1 Y s 368 338 m 13 X s 455 419 m 1 Y s 449 420 m 13 X s 455 393 m s 449 393 m 13 X s 548 496 m 53 Y s 541 549 m 13 X s 548 470 m -53 Y s 541 417 m 13 X s 696 370 m 1 Y s 690 371 m 13 X s 696 344 m s 690 344 m 13 X s 775
 323 m 4 Y s 768 327 m 13 X s 775 297 m -5 Y s 768 292 m 13 X s 834 288 m 12 Y s 828 300 m 13 X s 834 262 m -12 Y s 828 250 m 13 X s 909 314 m 6 Y s 902 320 m 13 X s 909 288 m -7 Y s 902 281 m 13 X s 1002 412 m 31 Y s 995 443 m 13 X s 1002 386 m -31
 Y s 995 355 m 13 X s 1356 328 m 1 Y s 1350 329 m 13 X s 1356 302 m -1 Y s 1350 301 m 13 X s 1492 385 m 1 Y s 1486 386 m 13 X s 1492 359 m -2 Y s 1486 357 m 13 X s 1658 498 m 31 Y s 1651 529 m 13 X s 1658 472 m -31 Y s 1651 441 m 13 X s 1958 368 m 4
 Y s 1952 372 m 13 X s 1958 342 m -3 Y s 1952 339 m 13 X s 309 306 m 66 46 d 80 54 d 93 77 d 81 -215 d 67 89 d 79 -47 d 59 -35 d 75 26 d 93 98 d 97 -104 d 89 -58 d 80 36 d 88 42 d 136 57 d 166 113 d 148 -212 d 152 82 d s[  ] 0 sd 309 306 375 352 455
 406 548 483 629 268 696 357 775 310 834 275 909 301 1002 399 1099 295 1188 237 1268 273 1356 315 1492 372 1658 485 1806 273 1958 355 18 { m21} R[ 12 12] 0 sd 1 0 0 c 547 410 m 5 Y s 541 415 m 13 X s 547 384 m -5 Y s 541 379 m 13 X s 697 374 m 53 Y s
 690 427 m 13 X s 697 348 m -54 Y s 690 294 m 13 X s 775 401 m 5 Y s 768 406 m 13 X s 775 375 m -5 Y s 768 370 m 13 X s 907 383 m 4 Y s 901 387 m 13 X s 907 357 m -4 Y s 901 353 m 13 X s 1100 310 m 1 Y s 1093 311 m 13 X s 1100 284 m -1 Y s 1093 283 m
 13 X s 1188 356 m 17 Y s 1182 373 m 13 X s 1188 330 m -18 Y s 1182 312 m 13 X s 1268 356 m 38 Y s 1261 394 m 13 X s 1268 330 m -39 Y s 1261 291 m 13 X s 1357 779 m 215 Y s 1350 994 m 13 X s 1357 753 m -215 Y s 1350 538 m 13 X s 1492 418 m 3 Y s 1486
 421 m 13 X s 1492 392 m -4 Y s 1486 388 m 13 X s 1658 392 m 15 Y s 1651 407 m 13 X s 1658 366 m -15 Y s 1651 351 m 13 X s 1806 345 m 7 Y s 1799 352 m 13 X s 1806 319 m -8 Y s 1799 311 m 13 X s 1958 390 m 4 Y s 1952 394 m 13 X s 1958 364 m -4 Y s
 1952 360 m 13 X s black 1 0 0 c 309 332 m 67 -8 d 79 26 d 92 47 d 81 -102 d 69 66 d 78 27 d 60 -168 d 72 150 d 96 -26 d 97 -47 d 88 46 d 80 X 89 423 d 135 -361 d 166 -26 d 148 -47 d 152 45 d s[  ] 0 sd 309 332 376 324 455 350 547 397 628 295 697 361
 775 388 835 220 907 370 1003 344 1100 297 1188 343 1268 343 1357 766 1492 405 1658 379 1806 332 1958 377 18 { m21} R[ 12 12] 0 sd 0 1 0 c 309 423 m 5 Y s 303 428 m 13 X s 309 397 m -5 Y s 303 392 m 13 X s 375 412 m 2 Y s 369 414 m 13 X s 375 386 m
 -1 Y s 369 385 m 13 X s 455 447 m s 449 447 m 13 X s 455 421 m -1 Y s 449 420 m 13 X s 697 429 m 80 Y s 691 509 m 13 X s 697 403 m -81 Y s 691 322 m 13 X s 1002 345 m 2 Y s 995 347 m 13 X s 1002 319 m -3 Y s 995 316 m 13 X s 1188 345 m 2 Y s 1182
 347 m 13 X s 1188 319 m -3 Y s 1182 316 m 13 X s 1493 412 m 5 Y s 1486 417 m 13 X s 1493 386 m -5 Y s 1486 381 m 13 X s 1658 377 m 3 Y s 1652 380 m 13 X s 1658 351 m -2 Y s 1652 349 m 13 X s 1958 403 m 4 Y s 1951 407 m 14 X s 1958 377 m -4 Y s 1951
 373 m 14 X s black 0 1 0 c 309 410 m 66 -11 d 80 35 d 93 -101 d 80 -60 d 69 143 d 77 -119 d 61 -75 d 73 115 d 94 -5 d 97 -46 d 89 46 d 80 -93 d 88 63 d 137 97 d 165 -35 d 148 -73 d 152 99 d s[  ] 0 sd 309 410 375 399 455 434 548 333 628 273 697 416
 774 297 835 222 908 337 1002 332 1099 286 1188 332 1268 239 1356 302 1493 399 1658 364 1806 291 1958 390 18 { m21} R[ 12 12] 0 sd 0 0 1 c 548 460 m 2 Y s 541 462 m 13 X s 548 434 m -3 Y s 541 431 m 13 X s 774 352 m s 768 352 m 13 X s 774 326 m -1 Y
 s 768 325 m 13 X s 909 357 m 2 Y s 902 359 m 13 X s 909 331 m -1 Y s 902 330 m 13 X s 1002 485 m 13 Y s 995 498 m 13 X s 1002 459 m -13 Y s 995 446 m 13 X s 1099 469 m 40 Y s 1093 509 m 13 X s 1099 443 m -41 Y s 1093 402 m 13 X s 1188 273 m 6 Y s
 1182 279 m 13 X s 1188 247 m -5 Y s 1182 242 m 13 X s 1268 326 m 6 Y s 1261 332 m 13 X s 1268 300 m -5 Y s 1261 295 m 13 X s 1492 467 m 4 Y s 1486 471 m 13 X s 1492 441 m -4 Y s 1486 437 m 13 X s 1806 365 m 7 Y s 1799 372 m 13 X s 1806 339 m -8 Y s
 1799 331 m 13 X s black 0 0 1 c 309 279 m 66 64 d 80 91 d 93 13 d 80 -152 d 68 38 d 78 6 d 60 -137 d 75 142 d 93 128 d 97 -16 d 89 -196 d 80 53 d 88 -38 d 136 179 d 166 -80 d 148 -22 d 152 -6 d s[  ] 0 sd 309 279 375 343 455 434 548 447 628 295 696
 333 774 339 834 202 909 344 1002 472 1099 456 1188 260 1268 313 1356 275 1492 454 1658 374 1806 352 1958 346 18 { m21} R[ 12 12] 0 sd 1 1 0 c 309 485 m 79 Y s 303 564 m 13 X s 309 459 m -79 Y s 303 380 m 13 X s 375 403 m 8 Y s 368 411 m 13 X s 375
 377 m -8 Y s 368 369 m 13 X s 455 806 m 207 Y s 449 1013 m 13 X s 455 780 m -207 Y s 449 573 m 13 X s 548 432 m 2 Y s 541 434 m 13 X s 548 406 m -1 Y s 541 405 m 13 X s 629 306 m 2 Y s 622 308 m 13 X s 629 280 m -1 Y s 622 279 m 13 X s 1002 348 m 4
 Y s 995 352 m 13 X s 1002 322 m -4 Y s 995 318 m 13 X s 1099 361 m 17 Y s 1093 378 m 13 X s 1099 335 m -17 Y s 1093 318 m 13 X s 1268 330 m 1 Y s 1261 331 m 13 X s 1268 304 m -1 Y s 1261 303 m 13 X s 1806 306 m 2 Y s 1799 308 m 13 X s 1806 280 m -1
 Y s 1799 279 m 13 X s 1958 483 m 4 Y s 1952 487 m 13 X s 1958 457 m -3 Y s 1952 454 m 13 X s black 1 1 0 c 309 472 m 66 -82 d 80 403 d 93 -374 d 81 -126 d 68 93 d 78 -49 d 60 -106 d 73 97 d 94 7 d 97 13 d 89 -91 d 80 60 d 88 -16 d 137 85 d 165 -38 d
 148 -55 d 152 177 d s[  ] 0 sd 309 472 375 390 455 793 548 419 629 293 697 386 775 337 835 231 908 328 1002 335 1099 348 1188 257 1268 317 1356 301 1493 386 1658 348 1806 293 1958 470 18 { m21} R[ 12 12] 0 sd 1 0 1 c 309 368 m 7 Y s 303 375 m 13 X s
 309 342 m -7 Y s 303 335 m 13 X s 548 522 m 41 Y s 541 563 m 13 X s 548 496 m -42 Y s 541 454 m 13 X s 907 421 m 1 Y s 901 422 m 13 X s 907 395 m -1 Y s 901 394 m 13 X s 1002 429 m 4 Y s 996 433 m 13 X s 1002 403 m -5 Y s 996 398 m 13 X s 1356 339 m
 3 Y s 1350 342 m 13 X s 1356 313 m -3 Y s 1350 310 m 13 X s 1492 474 m 1 Y s 1486 475 m 13 X s 1492 448 m s 1486 448 m 13 X s 1658 409 m 3 Y s 1651 412 m 13 X s 1658 382 m -3 Y s 1651 379 m 13 X s black 1 0 1 c 309 355 m 66 -67 d 80 100 d 93 121 d
 80 -278 d 69 82 d 77 -73 d 61 35 d 72 133 d 95 8 d 97 -101 d 89 -3 d 80 -50 d 88 64 d 136 135 d 166 -66 d 148 -91 d 152 26 d s[  ] 0 sd 309 355 375 288 455 388 548 509 628 231 697 313 774 240 835 275 907 408 1002 416 1099 315 1188 312 1268 262 1356
 326 1492 461 1658 395 1806 304 1958 330 18 { m21} R[ 12 12] 0 sd black
 gsave  2268 1538 0 0 C 325.821 1300.03 t 0 r /Helvetica-Bold findfont 58.6478 sf 0 0 m (Sct Disk \(left\)) show NC gr 
 gsave  2268 1538 0 0 C 430.084 1244.64 t 0 r /Helvetica-Bold findfont 58.6478 sf 0 0 m (Disk 0) show NC gr [  ] 0 sd 334 1256 m 80 X s 374 1256 m20
 gsave  2268 1538 0 0 C 430.084 1189.25 t 0 r /Helvetica-Bold findfont 58.6478 sf 0 0 m (Disk 1) show NC gr  1 0 0 c 334 1201 m 80 X s 374 1201 m20 black
 gsave  2268 1538 0 0 C 430.084 1133.86 t 0 r /Helvetica-Bold findfont 58.6478 sf 0 0 m (Disk 2) show NC gr  0 1 0 c 334 1146 m 80 X s 374 1146 m20 black
 gsave  2268 1538 0 0 C 430.084 1078.47 t 0 r /Helvetica-Bold findfont 58.6478 sf 0 0 m (Disk 3) show NC gr  0 0 1 c 334 1091 m 80 X s 374 1091 m20 black
 gsave  2268 1538 0 0 C 430.084 1026.34 t 0 r /Helvetica-Bold findfont 58.6478 sf 0 0 m (Disk 4) show NC gr  1 1 0 c 334 1036 m 80 X s 374 1036 m20 black
 gsave  2268 1538 0 0 C 430.084 970.948 t 0 r /Helvetica-Bold findfont 58.6478 sf 0 0 m (Disk 5) show NC gr  1 0 1 c 334 981 m 80 X s 374 981 m20 black
 gsave  2268 1538 0 0 C 622.319 1300.03 t 0 r /Helvetica-Bold findfont 58.6478 sf 0 0 m (  \(right\)) show NC gr 
 gsave  2268 1538 0 0 C 723.323 1244.64 t 0 r /Helvetica-Bold findfont 58.6478 sf 0 0 m (Disk 0) show NC gr [ 12 12] 0 sd 629 1256 m 80 X s[  ] 0 sd 669 1256 m21[ 12 12] 0 sd
 gsave  2268 1538 0 0 C 723.323 1189.25 t 0 r /Helvetica-Bold findfont 58.6478 sf 0 0 m (Disk 1) show NC gr  1 0 0 c 629 1201 m 80 X s[  ] 0 sd 669 1201 m21[ 12 12] 0 sd black
 gsave  2268 1538 0 0 C 723.323 1133.86 t 0 r /Helvetica-Bold findfont 58.6478 sf 0 0 m (Disk 2) show NC gr  0 1 0 c 629 1146 m 80 X s[  ] 0 sd 669 1146 m21[ 12 12] 0 sd black
 gsave  2268 1538 0 0 C 723.323 1078.47 t 0 r /Helvetica-Bold findfont 58.6478 sf 0 0 m (Disk 3) show NC gr  0 0 1 c 629 1091 m 80 X s[  ] 0 sd 669 1091 m21[ 12 12] 0 sd black
 gsave  2268 1538 0 0 C 723.323 1026.34 t 0 r /Helvetica-Bold findfont 58.6478 sf 0 0 m (Disk 4) show NC gr  1 1 0 c 629 1036 m 80 X s[  ] 0 sd 669 1036 m21[ 12 12] 0 sd black
 gsave  2268 1538 0 0 C 723.323 970.948 t 0 r /Helvetica-Bold findfont 58.6478 sf 0 0 m (Disk 5) show NC gr  1 0 1 c 629 981 m 80 X s[  ] 0 sd 669 981 m21[ 12 12] 0 sd
 gr  gr showpage
end
%%EOF
