%!PS-Adobe-2.0 EPSF-2.0
%%BoundingBox:  0 0 567 384
%%Title: outputDir/sct_occupancy/hit_sctdisk_mg.eps: c1_n35
%%Creator: ROOT Version 6.04/12
%%CreationDate: Mon Apr 25 16:02:11 2016
%%DocumentNeededResources: ProcSet (FontSetInit)
%%EndComments
%%BeginProlog
80 dict begin
/s {stroke} def /l {lineto} def /m {moveto} def /t {translate} def
/r {rotate} def /rl {roll}  def /R {repeat} def
/d {rlineto} def /rm {rmoveto} def /gr {grestore} def /f {eofill} def
/c {setrgbcolor} def /black {0 setgray} def /sd {setdash} def
/cl {closepath} def /sf {scalefont setfont} def /lw {setlinewidth} def
/box {m dup 0 exch d exch 0 d 0 exch neg d cl} def
/NC{systemdict begin initclip end}def/C{NC box clip newpath}def
/bl {box s} def /bf {gsave box gsave f grestore 1 lw [] 0 sd s grestore} def /Y { 0 exch d} def /X { 0 d} def 
/K {{pop pop 0 moveto} exch kshow} bind def
/ita {/ang 15 def gsave [1 0 ang dup sin exch cos div 1 0 0] concat} def 
/mp {newpath /y exch def /x exch def} def
/side {[w .77 mul w .23 mul] .385 w mul sd w 0 l currentpoint t -144 r} def
/mr {mp x y w2 0 360 arc} def /m24 {mr s} def /m20 {mr f} def
/mb {mp x y w2 add m w2 neg 0 d 0 w neg d w 0 d 0 w d cl} def
/mt {mp x y w2 add m w2 neg w neg d w 0 d cl} def
/m21 {mb f} def /m25 {mb s} def /m22 {mt f} def /m26{mt s} def
/m23 {mp x y w2 sub m w2 w d w neg 0 d cl f} def
/m27 {mp x y w2 add m w3 neg w2 neg d w3 w2 neg d w3 w2 d cl s} def
/m28 {mp x w2 sub y w2 sub w3 add m w3 0 d  0 w3 neg d w3 0 d 0 w3 d w3 0 d  0 w3 d w3 neg 0 d 0 w3 d w3 neg 0 d 0 w3 neg d w3 neg 0 d cl s } def
/m29 {mp gsave x w2 sub y w2 add w3 sub m currentpoint t 4 {side} repeat cl fill gr} def
/m30 {mp gsave x w2 sub y w2 add w3 sub m currentpoint t 4 {side} repeat cl s gr} def
/m31 {mp x y w2 sub m 0 w d x w2 sub y m w 0 d x w2 sub y w2 add m w w neg d x w2 sub y w2 sub m w w d s} def
/m32 {mp x y w2 sub m w2 w d w neg 0 d cl s} def
/m33 {mp x y w2 add m w3 neg w2 neg d w3 w2 neg d w3 w2 d cl f} def
/m34 {mp x w2 sub y w2 sub w3 add m w3 0 d  0 w3 neg d w3 0 d 0 w3 d w3 0 d  0 w3 d w3 neg 0 d 0 w3 d w3 neg 0 d 0 w3 neg d w3 neg 0 d cl f } def
/m2 {mp x y w2 sub m 0 w d x w2 sub y m w 0 d s} def
/m5 {mp x w2 sub y w2 sub m w w d x w2 sub y w2 add m w w neg d s} def
%%IncludeResource: ProcSet (FontSetInit)
%%IncludeResource: font Times-Roman
%%IncludeResource: font Times-Italic
%%IncludeResource: font Times-Bold
%%IncludeResource: font Times-BoldItalic
%%IncludeResource: font Helvetica
%%IncludeResource: font Helvetica-Oblique
%%IncludeResource: font Helvetica-Bold
%%IncludeResource: font Helvetica-BoldOblique
%%IncludeResource: font Courier
%%IncludeResource: font Courier-Oblique
%%IncludeResource: font Courier-Bold
%%IncludeResource: font Courier-BoldOblique
%%IncludeResource: font Symbol
%%IncludeResource: font ZapfDingbats
/reEncode {exch findfont dup length dict begin {1 index /FID eq  {pop pop} {def} ifelse } forall /Encoding exch def currentdict end dup /FontName get exch definefont pop } def [/Times-Bold /Times-Italic /Times-BoldItalic /Helvetica /Helvetica-Oblique
 /Helvetica-Bold /Helvetica-BoldOblique /Courier /Courier-Oblique /Courier-Bold /Courier-BoldOblique /Times-Roman /AvantGarde-Book /AvantGarde-BookOblique /AvantGarde-Demi /AvantGarde-DemiOblique /Bookman-Demi /Bookman-DemiItalic /Bookman-Light
 /Bookman-LightItalic /Helvetica-Narrow /Helvetica-Narrow-Bold /Helvetica-Narrow-BoldOblique /Helvetica-Narrow-Oblique /NewCenturySchlbk-Roman /NewCenturySchlbk-Bold /NewCenturySchlbk-BoldItalic /NewCenturySchlbk-Italic /Palatino-Bold
 /Palatino-BoldItalic /Palatino-Italic /Palatino-Roman ] {ISOLatin1Encoding reEncode } forall
%%EndProlog
%%BeginSetup
%%EndSetup
newpath  gsave  .25 .25 scale  gsave  0 0 t black[  ] 0 sd 3 lw 1 1 1 c 2268 1538 0 0 bf black 1 1 1 c 1814 1230 227 154 bf black 1814 1230 227 154 bl 1 1 1 c 1814 1230 227 154 bf black 1814 1230 227 154 bl 227 154 m 1814 X s
 gsave  2268 1538 0 0 C 1772.47 32.5821 t 0 r /Helvetica-Bold findfont 58.6478 sf 0 0 m (moduleID) show NC gr  309 191 m -37 Y s 358 172 m -18 Y s 406 172 m -18 Y s 455 172 m -18 Y s 503 191 m -37 Y s 552 172 m -18 Y s 600 172 m -18 Y s 649 172 m -18
 Y s 697 191 m -37 Y s 746 172 m -18 Y s 794 172 m -18 Y s 843 172 m -18 Y s 891 191 m -37 Y s 940 172 m -18 Y s 988 172 m -18 Y s 1037 172 m -18 Y s 1085 191 m -37 Y s 1134 172 m -18 Y s 1182 172 m -18 Y s 1231 172 m -18 Y s 1279 191 m -37 Y s 1328
 172 m -18 Y s 1376 172 m -18 Y s 1425 172 m -18 Y s 1473 191 m -37 Y s 1522 172 m -18 Y s 1570 172 m -18 Y s 1619 172 m -18 Y s 1667 191 m -37 Y s 1716 172 m -18 Y s 1764 172 m -18 Y s 1813 172 m -18 Y s 1861 191 m -37 Y s 309 191 m -37 Y s 261 172
 m -18 Y s 1861 191 m -37 Y s 1910 172 m -18 Y s 1958 172 m -18 Y s 2007 172 m -18 Y s
 gsave  2268 1538 0 0 C 289.981 97.7464 t 0 r /Helvetica-Bold findfont 58.6478 sf 0 0 m (0) show NC gr 
 gsave  2268 1538 0 0 C 485.474 97.7464 t 0 r /Helvetica-Bold findfont 58.6478 sf 0 0 m (2) show NC gr 
 gsave  2268 1538 0 0 C 680.967 97.7464 t 0 r /Helvetica-Bold findfont 58.6478 sf 0 0 m (4) show NC gr 
 gsave  2268 1538 0 0 C 873.201 97.7464 t 0 r /Helvetica-Bold findfont 58.6478 sf 0 0 m (6) show NC gr 
 gsave  2268 1538 0 0 C 1068.69 97.7464 t 0 r /Helvetica-Bold findfont 58.6478 sf 0 0 m (8) show NC gr 
 gsave  2268 1538 0 0 C 1244.64 97.7464 t 0 r /Helvetica-Bold findfont 58.6478 sf 0 0 m (10) show NC gr 
 gsave  2268 1538 0 0 C 1440.13 97.7464 t 0 r /Helvetica-Bold findfont 58.6478 sf 0 0 m (12) show NC gr 
 gsave  2268 1538 0 0 C 1632.36 97.7464 t 0 r /Helvetica-Bold findfont 58.6478 sf 0 0 m (14) show NC gr 
 gsave  2268 1538 0 0 C 1827.86 97.7464 t 0 r /Helvetica-Bold findfont 58.6478 sf 0 0 m (16) show NC gr  227 1384 m 1814 X s 309 1347 m 37 Y s 358 1366 m 18 Y s 406 1366 m 18 Y s 455 1366 m 18 Y s 503 1347 m 37 Y s 552 1366 m 18 Y s 600 1366 m 18 Y s
 649 1366 m 18 Y s 697 1347 m 37 Y s 746 1366 m 18 Y s 794 1366 m 18 Y s 843 1366 m 18 Y s 891 1347 m 37 Y s 940 1366 m 18 Y s 988 1366 m 18 Y s 1037 1366 m 18 Y s 1085 1347 m 37 Y s 1134 1366 m 18 Y s 1182 1366 m 18 Y s 1231 1366 m 18 Y s 1279 1347
 m 37 Y s 1328 1366 m 18 Y s 1376 1366 m 18 Y s 1425 1366 m 18 Y s 1473 1347 m 37 Y s 1522 1366 m 18 Y s 1570 1366 m 18 Y s 1619 1366 m 18 Y s 1667 1347 m 37 Y s 1716 1366 m 18 Y s 1764 1366 m 18 Y s 1813 1366 m 18 Y s 1861 1347 m 37 Y s 309 1347 m
 37 Y s 261 1366 m 18 Y s 1861 1347 m 37 Y s 1910 1366 m 18 Y s 1958 1366 m 18 Y s 2007 1366 m 18 Y s 227 154 m 1230 Y s
 gsave  2268 1538 0 0 C 97.7464 801.521 t 90 r /Helvetica-Bold findfont 58.6478 sf 0 0 m (Hits per etaModuleID) show NC gr  281 348 m -54 X s 254 394 m -27 X s 254 439 m -27 X s 254 485 m -27 X s 254 531 m -27 X s 281 576 m -54 X s 254 622 m -27 X s
 254 667 m -27 X s 254 713 m -27 X s 254 759 m -27 X s 281 804 m -54 X s 254 850 m -27 X s 254 896 m -27 X s 254 941 m -27 X s 254 987 m -27 X s 281 1033 m -54 X s 254 1078 m -27 X s 254 1124 m -27 X s 254 1169 m -27 X s 254 1215 m -27 X s 281 1261 m
 -54 X s 281 348 m -54 X s 254 302 m -27 X s 254 257 m -27 X s 254 211 m -27 X s 254 165 m -27 X s 281 1261 m -54 X s 254 1306 m -27 X s 254 1352 m -27 X s
 gsave  2268 1538 0 0 C 149.878 325.821 t 0 r /Helvetica-Bold findfont 58.6478 sf 0 0 m (50) show NC gr 
 gsave  2268 1538 0 0 C 117.296 553.896 t 0 r /Helvetica-Bold findfont 58.6478 sf 0 0 m (100) show NC gr 
 gsave  2268 1538 0 0 C 117.296 781.971 t 0 r /Helvetica-Bold findfont 58.6478 sf 0 0 m (150) show NC gr 
 gsave  2268 1538 0 0 C 117.296 1010.05 t 0 r /Helvetica-Bold findfont 58.6478 sf 0 0 m (200) show NC gr 
 gsave  2268 1538 0 0 C 117.296 1238.12 t 0 r /Helvetica-Bold findfont 58.6478 sf 0 0 m (250) show NC gr  2041 154 m 1230 Y s 1987 348 m 54 X s 2014 394 m 27 X s 2014 439 m 27 X s 2014 485 m 27 X s 2014 531 m 27 X s 1987 576 m 54 X s 2014 622 m 27 X
 s 2014 667 m 27 X s 2014 713 m 27 X s 2014 759 m 27 X s 1987 804 m 54 X s 2014 850 m 27 X s 2014 896 m 27 X s 2014 941 m 27 X s 2014 987 m 27 X s 1987 1033 m 54 X s 2014 1078 m 27 X s 2014 1124 m 27 X s 2014 1169 m 27 X s 2014 1215 m 27 X s 1987
 1261 m 54 X s 1987 348 m 54 X s 2014 302 m 27 X s 2014 257 m 27 X s 2014 211 m 27 X s 2014 165 m 27 X s 1987 1261 m 54 X s 2014 1306 m 27 X s 2014 1352 m 27 X s 309 334 m 2 Y s 303 336 m 13 X s 309 308 m -3 Y s 303 305 m 13 X s 600 460 m 3 Y s 594
 463 m 13 X s 600 434 m -4 Y s 594 430 m 13 X s 697 272 m 2 Y s 691 274 m 13 X s 697 246 m -3 Y s 691 243 m 13 X s 794 372 m 5 Y s 788 377 m 13 X s 794 346 m -5 Y s 788 341 m 13 X s 1085 401 m 4 Y s 1079 405 m 13 X s 1085 375 m -3 Y s 1079 372 m 13 X
 s 1182 354 m s 1176 354 m 13 X s 1182 328 m -1 Y s 1176 327 m 13 X s 1279 383 m 4 Y s 1273 387 m 13 X s 1279 357 m -4 Y s 1273 353 m 13 X s 1376 370 m 18 Y s 1370 388 m 13 X s 1376 344 m -18 Y s 1370 326 m 13 X s 1570 368 m 7 Y s 1564 375 m 13 X s
 1570 342 m -7 Y s 1564 335 m 13 X s 1667 425 m 2 Y s 1661 427 m 13 X s 1667 399 m -2 Y s 1661 397 m 13 X s 1764 480 m 76 Y s 1758 556 m 13 X s 1764 454 m -76 Y s 1758 378 m 13 X s 1861 323 m 34 Y s 1855 357 m 13 X s 1861 297 m -35 Y s 1855 262 m 13
 X s 1958 367 m 2 Y s 1952 369 m 13 X s 1958 340 m -2 Y s 1952 338 m 13 X s 309 321 m 97 36 d 97 46 d 97 44 d 97 -188 d 97 100 d 97 -80 d 97 -31 d 97 140 d 97 -47 d 97 29 d 97 -13 d 97 -115 d 97 113 d 97 57 d 97 55 d 97 -157 d 97 44 d s /w 26 def /w2
 {w 2 div} def /w3 {w 3 div} def 309 321 406 357 503 403 600 447 697 259 794 359 891 279 988 248 1085 388 1182 341 1279 370 1376 357 1473 242 1570 355 1667 412 1764 467 1861 310 1958 354 18 { m20} R 1 0 0 c 600 419 m 9 Y s 594 428 m 13 X s 600 393 m
 -8 Y s 594 385 m 13 X s 1085 418 m 18 Y s 1079 436 m 13 X s 1085 392 m -19 Y s 1079 373 m 13 X s 1182 398 m 3 Y s 1176 401 m 13 X s 1182 372 m -4 Y s 1176 368 m 13 X s 1279 367 m 1 Y s 1273 368 m 13 X s 1279 340 m -1 Y s 1273 339 m 13 X s 1667 438 m
 18 Y s 1661 456 m 13 X s 1667 412 m -18 Y s 1661 394 m 13 X s 1861 286 m 1 Y s 1855 287 m 13 X s 1861 260 m -1 Y s 1855 259 m 13 X s 1958 383 m 10 Y s 1952 393 m 13 X s 1958 357 m -10 Y s 1952 347 m 13 X s black 1 0 0 c 309 313 m 97 2 d 97 28 d 97
 63 d 97 -184 d 97 137 d 97 -20 d 97 -88 d 97 154 d 97 -20 d 97 -31 d 97 -68 d 97 -35 d 97 71 d 97 103 d 97 -51 d 97 -101 d 97 97 d s 309 313 406 315 503 343 600 406 697 222 794 359 891 339 988 251 1085 405 1182 385 1279 354 1376 286 1473 251 1570
 322 1667 425 1764 374 1861 273 1958 370 18 { m20} R 0 1 0 c 309 388 m 2 Y s 303 390 m 13 X s 309 362 m -1 Y s 303 361 m 13 X s 406 423 m 6 Y s 400 429 m 13 X s 406 397 m -5 Y s 400 392 m 13 X s 503 451 m 1 Y s 497 452 m 13 X s 503 424 m -1 Y s 497
 423 m 13 X s 600 430 m s 594 430 m 13 X s 600 404 m s 594 404 m 13 X s 697 295 m 5 Y s 691 300 m 13 X s 697 269 m -4 Y s 691 265 m 13 X s 794 379 m 6 Y s 788 385 m 13 X s 794 353 m -5 Y s 788 348 m 13 X s 988 250 m 1 Y s 982 251 m 13 X s 988 224 m
 -1 Y s 982 223 m 13 X s 1085 421 m 5 Y s 1079 426 m 13 X s 1085 395 m -5 Y s 1079 390 m 13 X s 1182 346 m 1 Y s 1176 347 m 13 X s 1182 320 m -1 Y s 1176 319 m 13 X s 1570 394 m 2 Y s 1564 396 m 13 X s 1570 368 m -2 Y s 1564 366 m 13 X s 1667 414 m 4
 Y s 1661 418 m 13 X s 1667 388 m -4 Y s 1661 384 m 13 X s 1764 483 m 11 Y s 1758 494 m 13 X s 1764 457 m -11 Y s 1758 446 m 13 X s 1861 401 m 16 Y s 1855 417 m 13 X s 1861 375 m -16 Y s 1855 359 m 13 X s black 0 1 0 c 309 375 m 97 35 d 97 27 d 97
 -20 d 97 -135 d 97 84 d 97 -40 d 97 -89 d 97 171 d 97 -75 d 97 -38 d 97 -47 d 97 38 d 97 95 d 97 20 d 97 69 d 97 -82 d 97 -64 d s 309 375 406 410 503 437 600 417 697 282 794 366 891 326 988 237 1085 408 1182 333 1279 295 1376 248 1473 286 1570 381
 1667 401 1764 470 1861 388 1958 324 18 { m20} R 0 0 1 c 309 357 m 48 Y s 303 405 m 13 X s 309 331 m -47 Y s 303 284 m 13 X s 503 509 m s 497 509 m 13 X s 503 483 m s 497 483 m 13 X s 600 483 m 2 Y s 594 485 m 13 X s 600 457 m -1 Y s 594 456 m 13 X s
 697 328 m 2 Y s 691 330 m 13 X s 697 302 m -2 Y s 691 300 m 13 X s 1085 370 m 6 Y s 1079 376 m 13 X s 1085 344 m -6 Y s 1079 338 m 13 X s 1182 434 m 1 Y s 1176 435 m 13 X s 1182 408 m s 1176 408 m 13 X s 1279 354 m 4 Y s 1273 358 m 13 X s 1279 328 m
 -5 Y s 1273 323 m 13 X s 1764 407 m 6 Y s 1758 413 m 13 X s 1764 381 m -6 Y s 1758 375 m 13 X s 1861 421 m 47 Y s 1855 468 m 13 X s 1861 395 m -47 Y s 1855 348 m 13 X s 1958 449 m 27 Y s 1952 476 m 13 X s 1958 423 m -27 Y s 1952 396 m 13 X s black 0
 0 1 c 309 344 m 97 19 d 97 133 d 97 -26 d 97 -155 d 97 51 d 97 -22 d 97 -109 d 97 122 d 97 64 d 97 -80 d 97 -71 d 97 21 d 97 -31 d 97 106 d 97 28 d 97 14 d 97 28 d s 309 344 406 363 503 496 600 470 697 315 794 366 891 344 988 235 1085 357 1182 421
 1279 341 1376 270 1473 291 1570 260 1667 366 1764 394 1861 408 1958 436 18 { m20} R 1 1 0 c 891 365 m 2 Y s 885 367 m 13 X s 891 339 m -3 Y s 885 336 m 13 X s 1085 419 m 4 Y s 1079 423 m 13 X s 1085 393 m -3 Y s 1079 390 m 13 X s 1182 377 m 3 Y s
 1176 380 m 13 X s 1182 351 m -2 Y s 1176 349 m 13 X s 1958 409 m 7 Y s 1952 416 m 13 X s 1958 382 m -7 Y s 1952 375 m 13 X s black 1 1 0 c 309 330 m 97 31 d 97 56 d 97 4 d 97 -120 d 97 47 d 97 4 d 97 -113 d 97 167 d 97 -42 d 97 -82 d 97 -38 d 97 62
 d 97 11 d 97 35 d 97 31 d 97 -90 d 97 102 d s 309 330 406 361 503 417 600 421 697 301 794 348 891 352 988 239 1085 406 1182 364 1279 282 1376 244 1473 306 1570 317 1667 352 1764 383 1861 293 1958 395 18 { m20} R 1 0 1 c 406 356 m 5 Y s 400 361 m 13
 X s 406 330 m -6 Y s 400 324 m 13 X s 697 345 m 13 Y s 691 358 m 13 X s 697 319 m -13 Y s 691 306 m 13 X s 1182 487 m 4 Y s 1176 491 m 13 X s 1182 461 m -4 Y s 1176 457 m 13 X s 1279 427 m 13 Y s 1273 440 m 13 X s 1279 401 m -13 Y s 1273 388 m 13 X
 s 1667 429 m 7 Y s 1661 436 m 13 X s 1667 403 m -8 Y s 1661 395 m 13 X s 1958 509 m 5 Y s 1952 514 m 13 X s 1958 483 m -5 Y s 1952 478 m 13 X s black 1 0 1 c 309 322 m 97 21 d 97 67 d 97 -13 d 97 -65 d 97 3 d 97 -33 d 97 -58 d 97 111 d 97 119 d 97
 -60 d 97 -102 d 97 31 d 97 -50 d 97 123 d 97 20 d 97 -84 d 97 144 d s 309 322 406 343 503 410 600 397 697 332 794 335 891 302 988 244 1085 355 1182 474 1279 414 1376 312 1473 343 1570 293 1667 416 1764 436 1861 352 1958 496 18 { m20} R black[ 12 12]
 0 sd 406 365 m s 400 365 m 13 X s 406 339 m -1 Y s 400 338 m 13 X s 503 419 m 1 Y s 497 420 m 13 X s 503 393 m s 497 393 m 13 X s 600 496 m 53 Y s 594 549 m 13 X s 600 470 m -53 Y s 594 417 m 13 X s 794 370 m 1 Y s 788 371 m 13 X s 794 344 m s 788
 344 m 13 X s 891 323 m 4 Y s 885 327 m 13 X s 891 297 m -5 Y s 885 292 m 13 X s 988 288 m 12 Y s 982 300 m 13 X s 988 262 m -12 Y s 982 250 m 13 X s 1085 314 m 6 Y s 1079 320 m 13 X s 1085 288 m -7 Y s 1079 281 m 13 X s 1182 412 m 31 Y s 1176 443 m
 13 X s 1182 386 m -31 Y s 1176 355 m 13 X s 1570 328 m 1 Y s 1564 329 m 13 X s 1570 302 m -1 Y s 1564 301 m 13 X s 1667 385 m 1 Y s 1661 386 m 13 X s 1667 359 m -2 Y s 1661 357 m 13 X s 1764 498 m 31 Y s 1758 529 m 13 X s 1764 472 m -31 Y s 1758 441
 m 13 X s 1958 368 m 4 Y s 1952 372 m 13 X s 1958 342 m -3 Y s 1952 339 m 13 X s 309 306 m 97 46 d 97 54 d 97 77 d 97 -215 d 97 89 d 97 -47 d 97 -35 d 97 26 d 97 98 d 97 -104 d 97 -58 d 97 36 d 97 42 d 97 57 d 97 113 d 97 -212 d 97 82 d s[  ] 0 sd
 309 306 406 352 503 406 600 483 697 268 794 357 891 310 988 275 1085 301 1182 399 1279 295 1376 237 1473 273 1570 315 1667 372 1764 485 1861 273 1958 355 18 { m21} R[ 12 12] 0 sd 1 0 0 c 600 410 m 5 Y s 594 415 m 13 X s 600 384 m -5 Y s 594 379 m 13
 X s 794 374 m 53 Y s 788 427 m 13 X s 794 348 m -54 Y s 788 294 m 13 X s 891 401 m 5 Y s 885 406 m 13 X s 891 375 m -5 Y s 885 370 m 13 X s 1085 383 m 4 Y s 1079 387 m 13 X s 1085 357 m -4 Y s 1079 353 m 13 X s 1279 310 m 1 Y s 1273 311 m 13 X s
 1279 284 m -1 Y s 1273 283 m 13 X s 1376 356 m 17 Y s 1370 373 m 13 X s 1376 330 m -18 Y s 1370 312 m 13 X s 1473 356 m 38 Y s 1467 394 m 13 X s 1473 330 m -39 Y s 1467 291 m 13 X s 1570 779 m 215 Y s 1564 994 m 13 X s 1570 753 m -215 Y s 1564 538 m
 13 X s 1667 418 m 3 Y s 1661 421 m 13 X s 1667 392 m -4 Y s 1661 388 m 13 X s 1764 392 m 15 Y s 1758 407 m 13 X s 1764 366 m -15 Y s 1758 351 m 13 X s 1861 345 m 7 Y s 1855 352 m 13 X s 1861 319 m -8 Y s 1855 311 m 13 X s 1958 390 m 4 Y s 1952 394 m
 13 X s 1958 364 m -4 Y s 1952 360 m 13 X s black 1 0 0 c 309 332 m 97 -8 d 97 26 d 97 47 d 97 -102 d 97 66 d 97 27 d 97 -168 d 97 150 d 97 -26 d 97 -47 d 97 46 d 97 X 97 423 d 97 -361 d 97 -26 d 97 -47 d 97 45 d s[  ] 0 sd 309 332 406 324 503 350
 600 397 697 295 794 361 891 388 988 220 1085 370 1182 344 1279 297 1376 343 1473 343 1570 766 1667 405 1764 379 1861 332 1958 377 18 { m21} R[ 12 12] 0 sd 0 1 0 c 309 423 m 5 Y s 303 428 m 13 X s 309 397 m -5 Y s 303 392 m 13 X s 406 412 m 2 Y s 400
 414 m 13 X s 406 386 m -1 Y s 400 385 m 13 X s 503 447 m s 497 447 m 13 X s 503 421 m -1 Y s 497 420 m 13 X s 794 429 m 80 Y s 788 509 m 13 X s 794 403 m -81 Y s 788 322 m 13 X s 1182 345 m 2 Y s 1176 347 m 13 X s 1182 319 m -3 Y s 1176 316 m 13 X s
 1376 345 m 2 Y s 1370 347 m 13 X s 1376 319 m -3 Y s 1370 316 m 13 X s 1667 412 m 5 Y s 1661 417 m 13 X s 1667 386 m -5 Y s 1661 381 m 13 X s 1764 377 m 3 Y s 1758 380 m 13 X s 1764 351 m -2 Y s 1758 349 m 13 X s 1958 403 m 4 Y s 1952 407 m 13 X s
 1958 377 m -4 Y s 1952 373 m 13 X s black 0 1 0 c 309 410 m 97 -11 d 97 35 d 97 -101 d 97 -60 d 97 143 d 97 -119 d 97 -75 d 97 115 d 97 -5 d 97 -46 d 97 46 d 97 -93 d 97 63 d 97 97 d 97 -35 d 97 -73 d 97 99 d s[  ] 0 sd 309 410 406 399 503 434 600
 333 697 273 794 416 891 297 988 222 1085 337 1182 332 1279 286 1376 332 1473 239 1570 302 1667 399 1764 364 1861 291 1958 390 18 { m21} R[ 12 12] 0 sd 0 0 1 c 600 460 m 2 Y s 594 462 m 13 X s 600 434 m -3 Y s 594 431 m 13 X s 891 352 m s 885 352 m
 13 X s 891 326 m -1 Y s 885 325 m 13 X s 1085 357 m 2 Y s 1079 359 m 13 X s 1085 331 m -1 Y s 1079 330 m 13 X s 1182 485 m 13 Y s 1176 498 m 13 X s 1182 459 m -13 Y s 1176 446 m 13 X s 1279 469 m 40 Y s 1273 509 m 13 X s 1279 443 m -41 Y s 1273 402
 m 13 X s 1376 273 m 6 Y s 1370 279 m 13 X s 1376 247 m -5 Y s 1370 242 m 13 X s 1473 326 m 6 Y s 1467 332 m 13 X s 1473 300 m -5 Y s 1467 295 m 13 X s 1667 467 m 4 Y s 1661 471 m 13 X s 1667 441 m -4 Y s 1661 437 m 13 X s 1861 365 m 7 Y s 1855 372 m
 13 X s 1861 339 m -8 Y s 1855 331 m 13 X s black 0 0 1 c 309 279 m 97 64 d 97 91 d 97 13 d 97 -152 d 97 38 d 97 6 d 97 -137 d 97 142 d 97 128 d 97 -16 d 97 -196 d 97 53 d 97 -38 d 97 179 d 97 -80 d 97 -22 d 97 -6 d s[  ] 0 sd 309 279 406 343 503 434
 600 447 697 295 794 333 891 339 988 202 1085 344 1182 472 1279 456 1376 260 1473 313 1570 275 1667 454 1764 374 1861 352 1958 346 18 { m21} R[ 12 12] 0 sd 1 1 0 c 309 485 m 79 Y s 303 564 m 13 X s 309 459 m -79 Y s 303 380 m 13 X s 406 403 m 8 Y s
 400 411 m 13 X s 406 377 m -8 Y s 400 369 m 13 X s 503 806 m 207 Y s 497 1013 m 13 X s 503 780 m -207 Y s 497 573 m 13 X s 600 432 m 2 Y s 594 434 m 13 X s 600 406 m -1 Y s 594 405 m 13 X s 697 306 m 2 Y s 691 308 m 13 X s 697 280 m -1 Y s 691 279 m
 13 X s 1182 348 m 4 Y s 1176 352 m 13 X s 1182 322 m -4 Y s 1176 318 m 13 X s 1279 361 m 17 Y s 1273 378 m 13 X s 1279 335 m -17 Y s 1273 318 m 13 X s 1473 330 m 1 Y s 1467 331 m 13 X s 1473 304 m -1 Y s 1467 303 m 13 X s 1861 306 m 2 Y s 1855 308 m
 13 X s 1861 280 m -1 Y s 1855 279 m 13 X s 1958 483 m 4 Y s 1952 487 m 13 X s 1958 457 m -3 Y s 1952 454 m 13 X s black 1 1 0 c 309 472 m 97 -82 d 97 403 d 97 -374 d 97 -126 d 97 93 d 97 -49 d 97 -106 d 97 97 d 97 7 d 97 13 d 97 -91 d 97 60 d 97 -16
 d 97 85 d 97 -38 d 97 -55 d 97 177 d s[  ] 0 sd 309 472 406 390 503 793 600 419 697 293 794 386 891 337 988 231 1085 328 1182 335 1279 348 1376 257 1473 317 1570 301 1667 386 1764 348 1861 293 1958 470 18 { m21} R[ 12 12] 0 sd 1 0 1 c 309 368 m 7 Y
 s 303 375 m 13 X s 309 342 m -7 Y s 303 335 m 13 X s 600 522 m 41 Y s 594 563 m 13 X s 600 496 m -42 Y s 594 454 m 13 X s 1085 421 m 1 Y s 1079 422 m 13 X s 1085 395 m -1 Y s 1079 394 m 13 X s 1182 429 m 4 Y s 1176 433 m 13 X s 1182 403 m -5 Y s
 1176 398 m 13 X s 1570 339 m 3 Y s 1564 342 m 13 X s 1570 313 m -3 Y s 1564 310 m 13 X s 1667 474 m 1 Y s 1661 475 m 13 X s 1667 448 m s 1661 448 m 13 X s 1764 409 m 3 Y s 1758 412 m 13 X s 1764 382 m -3 Y s 1758 379 m 13 X s black 1 0 1 c 309 355 m
 97 -67 d 97 100 d 97 121 d 97 -278 d 97 82 d 97 -73 d 97 35 d 97 133 d 97 8 d 97 -101 d 97 -3 d 97 -50 d 97 64 d 97 135 d 97 -66 d 97 -91 d 97 26 d s[  ] 0 sd 309 355 406 288 503 388 600 509 697 231 794 313 891 240 988 275 1085 408 1182 416 1279 315
 1376 312 1473 262 1570 326 1667 461 1764 395 1861 304 1958 330 18 { m21} R[ 12 12] 0 sd black
 gsave  2268 1538 0 0 C 325.821 1300.03 t 0 r /Helvetica-Bold findfont 58.6478 sf 0 0 m (Sct Disk \(left\)) show NC gr 
 gsave  2268 1538 0 0 C 430.084 1244.64 t 0 r /Helvetica-Bold findfont 58.6478 sf 0 0 m (Disk 0) show NC gr [  ] 0 sd 334 1256 m 80 X s 374 1256 m20
 gsave  2268 1538 0 0 C 430.084 1189.25 t 0 r /Helvetica-Bold findfont 58.6478 sf 0 0 m (Disk 1) show NC gr  1 0 0 c 334 1201 m 80 X s 374 1201 m20 black
 gsave  2268 1538 0 0 C 430.084 1133.86 t 0 r /Helvetica-Bold findfont 58.6478 sf 0 0 m (Disk 2) show NC gr  0 1 0 c 334 1146 m 80 X s 374 1146 m20 black
 gsave  2268 1538 0 0 C 430.084 1078.47 t 0 r /Helvetica-Bold findfont 58.6478 sf 0 0 m (Disk 3) show NC gr  0 0 1 c 334 1091 m 80 X s 374 1091 m20 black
 gsave  2268 1538 0 0 C 430.084 1026.34 t 0 r /Helvetica-Bold findfont 58.6478 sf 0 0 m (Disk 4) show NC gr  1 1 0 c 334 1036 m 80 X s 374 1036 m20 black
 gsave  2268 1538 0 0 C 430.084 970.948 t 0 r /Helvetica-Bold findfont 58.6478 sf 0 0 m (Disk 5) show NC gr  1 0 1 c 334 981 m 80 X s 374 981 m20 black
 gsave  2268 1538 0 0 C 622.319 1300.03 t 0 r /Helvetica-Bold findfont 58.6478 sf 0 0 m (  \(right\)) show NC gr 
 gsave  2268 1538 0 0 C 723.323 1244.64 t 0 r /Helvetica-Bold findfont 58.6478 sf 0 0 m (Disk 0) show NC gr [ 12 12] 0 sd 629 1256 m 80 X s[  ] 0 sd 669 1256 m21[ 12 12] 0 sd
 gsave  2268 1538 0 0 C 723.323 1189.25 t 0 r /Helvetica-Bold findfont 58.6478 sf 0 0 m (Disk 1) show NC gr  1 0 0 c 629 1201 m 80 X s[  ] 0 sd 669 1201 m21[ 12 12] 0 sd black
 gsave  2268 1538 0 0 C 723.323 1133.86 t 0 r /Helvetica-Bold findfont 58.6478 sf 0 0 m (Disk 2) show NC gr  0 1 0 c 629 1146 m 80 X s[  ] 0 sd 669 1146 m21[ 12 12] 0 sd black
 gsave  2268 1538 0 0 C 723.323 1078.47 t 0 r /Helvetica-Bold findfont 58.6478 sf 0 0 m (Disk 3) show NC gr  0 0 1 c 629 1091 m 80 X s[  ] 0 sd 669 1091 m21[ 12 12] 0 sd black
 gsave  2268 1538 0 0 C 723.323 1026.34 t 0 r /Helvetica-Bold findfont 58.6478 sf 0 0 m (Disk 4) show NC gr  1 1 0 c 629 1036 m 80 X s[  ] 0 sd 669 1036 m21[ 12 12] 0 sd black
 gsave  2268 1538 0 0 C 723.323 970.948 t 0 r /Helvetica-Bold findfont 58.6478 sf 0 0 m (Disk 5) show NC gr  1 0 1 c 629 981 m 80 X s[  ] 0 sd 669 981 m21[ 12 12] 0 sd
 gr  gr showpage
end
%%EOF
