%!PS-Adobe-2.0 EPSF-2.0
%%BoundingBox:  0 0 567 384
%%Title: outputDir/sct_occupancy/occ_sctdisk_mgr.eps: c1_n32
%%Creator: ROOT Version 6.04/12
%%CreationDate: Mon Apr 25 16:02:10 2016
%%DocumentNeededResources: ProcSet (FontSetInit)
%%EndComments
%%BeginProlog
80 dict begin
/s {stroke} def /l {lineto} def /m {moveto} def /t {translate} def
/r {rotate} def /rl {roll}  def /R {repeat} def
/d {rlineto} def /rm {rmoveto} def /gr {grestore} def /f {eofill} def
/c {setrgbcolor} def /black {0 setgray} def /sd {setdash} def
/cl {closepath} def /sf {scalefont setfont} def /lw {setlinewidth} def
/box {m dup 0 exch d exch 0 d 0 exch neg d cl} def
/NC{systemdict begin initclip end}def/C{NC box clip newpath}def
/bl {box s} def /bf {gsave box gsave f grestore 1 lw [] 0 sd s grestore} def /Y { 0 exch d} def /X { 0 d} def 
/K {{pop pop 0 moveto} exch kshow} bind def
/ita {/ang 15 def gsave [1 0 ang dup sin exch cos div 1 0 0] concat} def 
/mp {newpath /y exch def /x exch def} def
/side {[w .77 mul w .23 mul] .385 w mul sd w 0 l currentpoint t -144 r} def
/mr {mp x y w2 0 360 arc} def /m24 {mr s} def /m20 {mr f} def
/mb {mp x y w2 add m w2 neg 0 d 0 w neg d w 0 d 0 w d cl} def
/mt {mp x y w2 add m w2 neg w neg d w 0 d cl} def
/m21 {mb f} def /m25 {mb s} def /m22 {mt f} def /m26{mt s} def
/m23 {mp x y w2 sub m w2 w d w neg 0 d cl f} def
/m27 {mp x y w2 add m w3 neg w2 neg d w3 w2 neg d w3 w2 d cl s} def
/m28 {mp x w2 sub y w2 sub w3 add m w3 0 d  0 w3 neg d w3 0 d 0 w3 d w3 0 d  0 w3 d w3 neg 0 d 0 w3 d w3 neg 0 d 0 w3 neg d w3 neg 0 d cl s } def
/m29 {mp gsave x w2 sub y w2 add w3 sub m currentpoint t 4 {side} repeat cl fill gr} def
/m30 {mp gsave x w2 sub y w2 add w3 sub m currentpoint t 4 {side} repeat cl s gr} def
/m31 {mp x y w2 sub m 0 w d x w2 sub y m w 0 d x w2 sub y w2 add m w w neg d x w2 sub y w2 sub m w w d s} def
/m32 {mp x y w2 sub m w2 w d w neg 0 d cl s} def
/m33 {mp x y w2 add m w3 neg w2 neg d w3 w2 neg d w3 w2 d cl f} def
/m34 {mp x w2 sub y w2 sub w3 add m w3 0 d  0 w3 neg d w3 0 d 0 w3 d w3 0 d  0 w3 d w3 neg 0 d 0 w3 d w3 neg 0 d 0 w3 neg d w3 neg 0 d cl f } def
/m2 {mp x y w2 sub m 0 w d x w2 sub y m w 0 d s} def
/m5 {mp x w2 sub y w2 sub m w w d x w2 sub y w2 add m w w neg d s} def
%%IncludeResource: ProcSet (FontSetInit)
%%IncludeResource: font Times-Roman
%%IncludeResource: font Times-Italic
%%IncludeResource: font Times-Bold
%%IncludeResource: font Times-BoldItalic
%%IncludeResource: font Helvetica
%%IncludeResource: font Helvetica-Oblique
%%IncludeResource: font Helvetica-Bold
%%IncludeResource: font Helvetica-BoldOblique
%%IncludeResource: font Courier
%%IncludeResource: font Courier-Oblique
%%IncludeResource: font Courier-Bold
%%IncludeResource: font Courier-BoldOblique
%%IncludeResource: font Symbol
%%IncludeResource: font ZapfDingbats
/reEncode {exch findfont dup length dict begin {1 index /FID eq  {pop pop} {def} ifelse } forall /Encoding exch def currentdict end dup /FontName get exch definefont pop } def [/Times-Bold /Times-Italic /Times-BoldItalic /Helvetica /Helvetica-Oblique
 /Helvetica-Bold /Helvetica-BoldOblique /Courier /Courier-Oblique /Courier-Bold /Courier-BoldOblique /Times-Roman /AvantGarde-Book /AvantGarde-BookOblique /AvantGarde-Demi /AvantGarde-DemiOblique /Bookman-Demi /Bookman-DemiItalic /Bookman-Light
 /Bookman-LightItalic /Helvetica-Narrow /Helvetica-Narrow-Bold /Helvetica-Narrow-BoldOblique /Helvetica-Narrow-Oblique /NewCenturySchlbk-Roman /NewCenturySchlbk-Bold /NewCenturySchlbk-BoldItalic /NewCenturySchlbk-Italic /Palatino-Bold
 /Palatino-BoldItalic /Palatino-Italic /Palatino-Roman ] {ISOLatin1Encoding reEncode } forall
%%EndProlog
%%BeginSetup
%%EndSetup
newpath  gsave  .25 .25 scale  gsave  0 0 t black[  ] 0 sd 3 lw 1 1 1 c 2268 1538 0 0 bf black 1 1 1 c 1814 1230 227 154 bf black 1814 1230 227 154 bl 1 1 1 c 1814 1230 227 154 bf black 1814 1230 227 154 bl 227 154 m 1814 X s
 gsave  2268 1538 0 0 C 1860.44 35.8403 t 0 r /Helvetica-Bold findfont 58.6478 sf 0 0 m (r [mm]) show NC gr  326 191 m -37 Y s 386 172 m -18 Y s 447 172 m -18 Y s 508 172 m -18 Y s 569 172 m -18 Y s 629 191 m -37 Y s 690 172 m -18 Y s 751 172 m -18 Y
 s 811 172 m -18 Y s 872 172 m -18 Y s 933 191 m -37 Y s 993 172 m -18 Y s 1054 172 m -18 Y s 1115 172 m -18 Y s 1175 172 m -18 Y s 1236 191 m -37 Y s 1297 172 m -18 Y s 1357 172 m -18 Y s 1418 172 m -18 Y s 1479 172 m -18 Y s 1539 191 m -37 Y s 1600
 172 m -18 Y s 1661 172 m -18 Y s 1721 172 m -18 Y s 1782 172 m -18 Y s 1843 191 m -37 Y s 326 191 m -37 Y s 265 172 m -18 Y s 1843 191 m -37 Y s 1903 172 m -18 Y s 1964 172 m -18 Y s 2025 172 m -18 Y s
 gsave  2268 1538 0 0 C 273.69 97.7464 t 0 r /Helvetica-Bold findfont 58.6478 sf 0 0 m (400) show NC gr 
 gsave  2268 1538 0 0 C 579.962 97.7464 t 0 r /Helvetica-Bold findfont 58.6478 sf 0 0 m (500) show NC gr 
 gsave  2268 1538 0 0 C 882.976 97.7464 t 0 r /Helvetica-Bold findfont 58.6478 sf 0 0 m (600) show NC gr 
 gsave  2268 1538 0 0 C 1185.99 97.7464 t 0 r /Helvetica-Bold findfont 58.6478 sf 0 0 m (700) show NC gr 
 gsave  2268 1538 0 0 C 1489 97.7464 t 0 r /Helvetica-Bold findfont 58.6478 sf 0 0 m (800) show NC gr 
 gsave  2268 1538 0 0 C 1792.02 97.7464 t 0 r /Helvetica-Bold findfont 58.6478 sf 0 0 m (900) show NC gr  227 1384 m 1814 X s 326 1347 m 37 Y s 386 1366 m 18 Y s 447 1366 m 18 Y s 508 1366 m 18 Y s 569 1366 m 18 Y s 629 1347 m 37 Y s 690 1366 m 18 Y
 s 751 1366 m 18 Y s 811 1366 m 18 Y s 872 1366 m 18 Y s 933 1347 m 37 Y s 993 1366 m 18 Y s 1054 1366 m 18 Y s 1115 1366 m 18 Y s 1175 1366 m 18 Y s 1236 1347 m 37 Y s 1297 1366 m 18 Y s 1357 1366 m 18 Y s 1418 1366 m 18 Y s 1479 1366 m 18 Y s 1539
 1347 m 37 Y s 1600 1366 m 18 Y s 1661 1366 m 18 Y s 1721 1366 m 18 Y s 1782 1366 m 18 Y s 1843 1347 m 37 Y s 326 1347 m 37 Y s 265 1366 m 18 Y s 1843 1347 m 37 Y s 1903 1366 m 18 Y s 1964 1366 m 18 Y s 2025 1366 m 18 Y s 227 154 m 1230 Y s
 gsave  2268 1538 0 0 C 97.7464 772.197 t 90 r /Helvetica-Bold findfont 58.6478 sf 0 0 m (Occupancy in percent) show NC gr  281 241 m -54 X s 254 266 m -27 X s 254 291 m -27 X s 254 315 m -27 X s 254 340 m -27 X s 281 365 m -54 X s 254 390 m -27 X s
 254 414 m -27 X s 254 439 m -27 X s 254 464 m -27 X s 281 489 m -54 X s 254 513 m -27 X s 254 538 m -27 X s 254 563 m -27 X s 254 588 m -27 X s 281 612 m -54 X s 254 637 m -27 X s 254 662 m -27 X s 254 687 m -27 X s 254 711 m -27 X s 281 736 m -54 X
 s 254 761 m -27 X s 254 786 m -27 X s 254 810 m -27 X s 254 835 m -27 X s 281 860 m -54 X s 254 885 m -27 X s 254 909 m -27 X s 254 934 m -27 X s 254 959 m -27 X s 281 984 m -54 X s 254 1008 m -27 X s 254 1033 m -27 X s 254 1058 m -27 X s 254 1083 m
 -27 X s 281 1107 m -54 X s 254 1132 m -27 X s 254 1157 m -27 X s 254 1182 m -27 X s 254 1206 m -27 X s 281 1231 m -54 X s 254 1256 m -27 X s 254 1281 m -27 X s 254 1305 m -27 X s 254 1330 m -27 X s 281 1355 m -54 X s 281 241 m -54 X s 254 216 m -27
 X s 254 192 m -27 X s 254 167 m -27 X s 281 1355 m -54 X s 254 1380 m -27 X s
 gsave  2268 1538 0 0 C 101.005 221.559 t 0 r /Helvetica-Bold findfont 58.6478 sf 0 0 m (0.05) show NC gr 
 gsave  2268 1538 0 0 C 143.361 342.112 t 0 r /Helvetica-Bold findfont 58.6478 sf 0 0 m (0.1) show NC gr 
 gsave  2268 1538 0 0 C 101.005 465.924 t 0 r /Helvetica-Bold findfont 58.6478 sf 0 0 m (0.15) show NC gr 
 gsave  2268 1538 0 0 C 133.587 589.737 t 0 r /Helvetica-Bold findfont 58.6478 sf 0 0 m (0.2) show NC gr 
 gsave  2268 1538 0 0 C 101.005 713.549 t 0 r /Helvetica-Bold findfont 58.6478 sf 0 0 m (0.25) show NC gr 
 gsave  2268 1538 0 0 C 133.587 837.361 t 0 r /Helvetica-Bold findfont 58.6478 sf 0 0 m (0.3) show NC gr 
 gsave  2268 1538 0 0 C 101.005 961.173 t 0 r /Helvetica-Bold findfont 58.6478 sf 0 0 m (0.35) show NC gr 
 gsave  2268 1538 0 0 C 133.587 1084.98 t 0 r /Helvetica-Bold findfont 58.6478 sf 0 0 m (0.4) show NC gr 
 gsave  2268 1538 0 0 C 101.005 1208.8 t 0 r /Helvetica-Bold findfont 58.6478 sf 0 0 m (0.45) show NC gr 
 gsave  2268 1538 0 0 C 133.587 1332.61 t 0 r /Helvetica-Bold findfont 58.6478 sf 0 0 m (0.5) show NC gr  2041 154 m 1230 Y s 1987 241 m 54 X s 2014 266 m 27 X s 2014 291 m 27 X s 2014 315 m 27 X s 2014 340 m 27 X s 1987 365 m 54 X s 2014 390 m 27 X
 s 2014 414 m 27 X s 2014 439 m 27 X s 2014 464 m 27 X s 1987 489 m 54 X s 2014 513 m 27 X s 2014 538 m 27 X s 2014 563 m 27 X s 2014 588 m 27 X s 1987 612 m 54 X s 2014 637 m 27 X s 2014 662 m 27 X s 2014 687 m 27 X s 2014 711 m 27 X s 1987 736 m 54
 X s 2014 761 m 27 X s 2014 786 m 27 X s 2014 810 m 27 X s 2014 835 m 27 X s 1987 860 m 54 X s 2014 885 m 27 X s 2014 909 m 27 X s 2014 934 m 27 X s 2014 959 m 27 X s 1987 984 m 54 X s 2014 1008 m 27 X s 2014 1033 m 27 X s 2014 1058 m 27 X s 2014
 1083 m 27 X s 1987 1107 m 54 X s 2014 1132 m 27 X s 2014 1157 m 27 X s 2014 1182 m 27 X s 2014 1206 m 27 X s 1987 1231 m 54 X s 2014 1256 m 27 X s 2014 1281 m 27 X s 2014 1305 m 27 X s 2014 1330 m 27 X s 1987 1355 m 54 X s 1987 241 m 54 X s 2014 216
 m 27 X s 2014 192 m 27 X s 2014 167 m 27 X s 1987 1355 m 54 X s 2014 1380 m 27 X s 309 383 m 66 49 d 81 60 d 92 58 d 80 -249 d 68 133 d 78 -106 d 60 -41 d 74 186 d 94 -63 d 97 -127 d 89 -9 d 80 -76 d 88 75 d 137 38 d 165 36 d 148 -104 d 152 29 d s
 /w 26 def /w2 {w 2 div} def /w3 {w 3 div} def 309 383 375 432 456 492 548 550 628 301 696 434 774 328 834 287 908 473 1002 410 1099 283 1188 274 1268 198 1356 273 1493 311 1658 347 1806 243 1958 272 18 { m20} R 1 0 0 c black 1 0 0 c 309 374 m 66 2 d
 80 36 d 93 85 d 81 -244 d 68 181 d 77 -27 d 61 -116 d 73 203 d 93 -26 d 98 -196 d 89 -45 d 80 -23 d 88 48 d 136 67 d 166 -34 d 148 -66 d 152 64 d s 309 374 375 376 455 412 548 497 629 253 697 434 774 407 835 291 908 494 1001 468 1099 272 1188 227
 1268 204 1356 252 1492 319 1658 285 1806 219 1958 283 18 { m20} R 0 1 0 c black 0 1 0 c 310 456 m 65 46 d 80 36 d 93 -27 d 80 -179 d 69 112 d 77 -54 d 61 -118 d 74 227 d 92 -99 d 98 -167 d 89 -31 d 80 25 d 88 63 d 136 13 d 166 46 d 148 -54 d 152 -42
 d s 310 456 375 502 455 538 548 511 628 332 697 444 774 390 835 272 909 499 1001 400 1099 233 1188 202 1268 227 1356 290 1492 303 1658 349 1806 295 1958 253 18 { m20} R 0 0 1 c black 0 0 1 c 310 415 m 65 24 d 80 176 d 93 -34 d 80 -205 d 69 68 d 77
 -29 d 60 -145 d 74 162 d 94 84 d 97 -252 d 89 -48 d 80 15 d 89 -21 d 135 71 d 166 18 d 148 9 d 152 18 d s 310 415 375 439 455 615 548 581 628 376 697 444 774 415 834 270 908 432 1002 516 1099 264 1188 216 1268 231 1357 210 1492 281 1658 299 1806 308
 1958 326 18 { m20} R 1 1 0 c black 1 1 0 c 309 395 m 66 41 d 80 75 d 92 5 d 81 -159 d 69 62 d 78 5 d 60 -150 d 73 223 d 94 -56 d 97 -216 d 89 -25 d 80 41 d 88 7 d 136 23 d 166 20 d 148 -59 d 152 68 d s 309 395 375 436 455 511 547 516 628 357 697 419
 775 424 835 274 908 497 1002 441 1099 225 1188 200 1268 241 1356 248 1492 271 1658 291 1806 232 1958 300 18 { m20} R 1 0 1 c black 1 0 1 c 309 386 m 65 26 d 81 90 d 93 -17 d 80 -87 d 69 5 d 78 -44 d 58 -77 d 75 147 d 93 157 d 98 -274 d 89 -68 d 80
 21 d 88 -33 d 136 81 d 166 13 d 148 -55 d 152 95 d s 309 386 374 412 455 502 548 485 628 398 697 403 775 359 833 282 908 429 1001 586 1099 312 1188 244 1268 265 1356 232 1492 313 1658 326 1806 271 1958 366 18 { m20} R black[ 12 12] 0 sd 309 364 m 66
 60 d 80 73 d 93 101 d 81 -285 d 67 119 d 79 -63 d 59 -46 d 75 34 d 93 130 d 97 -254 d 89 -38 d 80 24 d 88 28 d 136 37 d 166 75 d 148 -140 d 152 54 d s[  ] 0 sd 309 364 375 424 455 497 548 598 629 313 696 432 775 369 834 323 909 357 1002 487 1099 233
 1188 195 1268 219 1356 247 1492 284 1658 359 1806 219 1958 273 18 { m21} R[ 12 12] 0 sd 1 0 0 c black 1 0 0 c 309 398 m 67 -10 d 79 34 d 92 63 d 81 -136 d 69 87 d 78 37 d 60 -223 d 72 198 d 96 -33 d 97 -180 d 88 30 d 80 X 89 280 d 135 -239 d 166 -17
 d 148 -31 d 152 30 d s[  ] 0 sd 309 398 376 388 455 422 547 485 628 349 697 436 775 473 835 250 907 448 1003 415 1100 235 1188 265 1268 265 1357 545 1492 306 1658 289 1806 258 1958 288 18 { m21} R[ 12 12] 0 sd 0 1 0 c black 0 1 0 c 309 502 m 66 -15
 d 80 46 d 93 -133 d 80 -80 d 69 189 d 77 -157 d 61 -99 d 73 152 d 94 -7 d 97 -171 d 89 31 d 80 -62 d 88 42 d 137 64 d 165 -23 d 148 -48 d 152 65 d s[  ] 0 sd 309 502 375 487 455 533 548 400 628 320 697 509 774 352 835 253 908 405 1002 398 1099 227
 1188 258 1268 196 1356 238 1493 302 1658 279 1806 231 1958 296 18 { m21} R[ 12 12] 0 sd 0 0 1 c black 0 0 1 c 309 328 m 66 84 d 80 121 d 93 17 d 80 -201 d 68 51 d 78 7 d 60 -181 d 75 189 d 93 169 d 97 -244 d 89 -130 d 80 35 d 88 -25 d 136 119 d 166
 -54 d 148 -14 d 152 -4 d s[  ] 0 sd 309 328 375 412 455 533 548 550 628 349 696 400 774 407 834 226 909 415 1002 584 1099 340 1188 210 1268 245 1356 220 1492 339 1658 285 1806 271 1958 267 18 { m21} R[ 12 12] 0 sd 1 1 0 c black 1 1 0 c 309 584 m 66
 -109 d 80 534 d 93 -495 d 81 -167 d 68 123 d 78 -65 d 60 -140 d 73 128 d 94 10 d 97 -135 d 89 -60 d 80 40 d 88 -11 d 137 57 d 165 -26 d 148 -36 d 152 117 d s[  ] 0 sd 309 584 375 475 455 1009 548 514 629 347 697 470 775 405 835 265 908 393 1002 403
 1099 268 1188 208 1268 248 1356 237 1493 294 1658 268 1806 232 1958 349 18 { m21} R[ 12 12] 0 sd 1 0 1 c black 1 0 1 c 309 429 m 66 -89 d 80 133 d 93 159 d 80 -367 d 69 109 d 77 -97 d 61 46 d 72 176 d 95 10 d 97 -262 d 89 -3 d 80 -32 d 88 42 d 136
 89 d 166 -43 d 148 -61 d 152 17 d s[  ] 0 sd 309 429 375 340 455 473 548 632 628 265 697 374 774 277 835 323 907 499 1002 509 1099 247 1188 244 1268 212 1356 254 1492 343 1658 300 1806 239 1958 256 18 { m21} R[ 12 12] 0 sd black
 gsave  2268 1538 0 0 C 325.821 1300.03 t 0 r /Helvetica-Bold findfont 58.6478 sf 0 0 m (Sct Disk \(left\)) show NC gr 
 gsave  2268 1538 0 0 C 430.084 1244.64 t 0 r /Helvetica-Bold findfont 58.6478 sf 0 0 m (Disk 0) show NC gr [  ] 0 sd 334 1256 m 80 X s 374 1256 m20
 gsave  2268 1538 0 0 C 430.084 1189.25 t 0 r /Helvetica-Bold findfont 58.6478 sf 0 0 m (Disk 1) show NC gr  1 0 0 c 334 1201 m 80 X s 374 1201 m20 black
 gsave  2268 1538 0 0 C 430.084 1133.86 t 0 r /Helvetica-Bold findfont 58.6478 sf 0 0 m (Disk 2) show NC gr  0 1 0 c 334 1146 m 80 X s 374 1146 m20 black
 gsave  2268 1538 0 0 C 430.084 1078.47 t 0 r /Helvetica-Bold findfont 58.6478 sf 0 0 m (Disk 3) show NC gr  0 0 1 c 334 1091 m 80 X s 374 1091 m20 black
 gsave  2268 1538 0 0 C 430.084 1026.34 t 0 r /Helvetica-Bold findfont 58.6478 sf 0 0 m (Disk 4) show NC gr  1 1 0 c 334 1036 m 80 X s 374 1036 m20 black
 gsave  2268 1538 0 0 C 430.084 970.948 t 0 r /Helvetica-Bold findfont 58.6478 sf 0 0 m (Disk 5) show NC gr  1 0 1 c 334 981 m 80 X s 374 981 m20 black
 gsave  2268 1538 0 0 C 622.319 1300.03 t 0 r /Helvetica-Bold findfont 58.6478 sf 0 0 m (  \(right\)) show NC gr 
 gsave  2268 1538 0 0 C 723.323 1244.64 t 0 r /Helvetica-Bold findfont 58.6478 sf 0 0 m (Disk 0) show NC gr [ 12 12] 0 sd 629 1256 m 80 X s[  ] 0 sd 669 1256 m21[ 12 12] 0 sd
 gsave  2268 1538 0 0 C 723.323 1189.25 t 0 r /Helvetica-Bold findfont 58.6478 sf 0 0 m (Disk 1) show NC gr  1 0 0 c 629 1201 m 80 X s[  ] 0 sd 669 1201 m21[ 12 12] 0 sd black
 gsave  2268 1538 0 0 C 723.323 1133.86 t 0 r /Helvetica-Bold findfont 58.6478 sf 0 0 m (Disk 2) show NC gr  0 1 0 c 629 1146 m 80 X s[  ] 0 sd 669 1146 m21[ 12 12] 0 sd black
 gsave  2268 1538 0 0 C 723.323 1078.47 t 0 r /Helvetica-Bold findfont 58.6478 sf 0 0 m (Disk 3) show NC gr  0 0 1 c 629 1091 m 80 X s[  ] 0 sd 669 1091 m21[ 12 12] 0 sd black
 gsave  2268 1538 0 0 C 723.323 1026.34 t 0 r /Helvetica-Bold findfont 58.6478 sf 0 0 m (Disk 4) show NC gr  1 1 0 c 629 1036 m 80 X s[  ] 0 sd 669 1036 m21[ 12 12] 0 sd black
 gsave  2268 1538 0 0 C 723.323 970.948 t 0 r /Helvetica-Bold findfont 58.6478 sf 0 0 m (Disk 5) show NC gr  1 0 1 c 629 981 m 80 X s[  ] 0 sd 669 981 m21[ 12 12] 0 sd
 gr  gr showpage
end
%%EOF
