%!PS-Adobe-2.0 EPSF-2.0
%%BoundingBox:  0 0 567 384
%%Title: outputDir/sct_occupancy/occ_sctlayer_mgz.eps: c1_n22
%%Creator: ROOT Version 6.04/12
%%CreationDate: Mon Apr 25 16:02:08 2016
%%DocumentNeededResources: ProcSet (FontSetInit)
%%EndComments
%%BeginProlog
80 dict begin
/s {stroke} def /l {lineto} def /m {moveto} def /t {translate} def
/r {rotate} def /rl {roll}  def /R {repeat} def
/d {rlineto} def /rm {rmoveto} def /gr {grestore} def /f {eofill} def
/c {setrgbcolor} def /black {0 setgray} def /sd {setdash} def
/cl {closepath} def /sf {scalefont setfont} def /lw {setlinewidth} def
/box {m dup 0 exch d exch 0 d 0 exch neg d cl} def
/NC{systemdict begin initclip end}def/C{NC box clip newpath}def
/bl {box s} def /bf {gsave box gsave f grestore 1 lw [] 0 sd s grestore} def /Y { 0 exch d} def /X { 0 d} def 
/K {{pop pop 0 moveto} exch kshow} bind def
/ita {/ang 15 def gsave [1 0 ang dup sin exch cos div 1 0 0] concat} def 
/mp {newpath /y exch def /x exch def} def
/side {[w .77 mul w .23 mul] .385 w mul sd w 0 l currentpoint t -144 r} def
/mr {mp x y w2 0 360 arc} def /m24 {mr s} def /m20 {mr f} def
/mb {mp x y w2 add m w2 neg 0 d 0 w neg d w 0 d 0 w d cl} def
/mt {mp x y w2 add m w2 neg w neg d w 0 d cl} def
/m21 {mb f} def /m25 {mb s} def /m22 {mt f} def /m26{mt s} def
/m23 {mp x y w2 sub m w2 w d w neg 0 d cl f} def
/m27 {mp x y w2 add m w3 neg w2 neg d w3 w2 neg d w3 w2 d cl s} def
/m28 {mp x w2 sub y w2 sub w3 add m w3 0 d  0 w3 neg d w3 0 d 0 w3 d w3 0 d  0 w3 d w3 neg 0 d 0 w3 d w3 neg 0 d 0 w3 neg d w3 neg 0 d cl s } def
/m29 {mp gsave x w2 sub y w2 add w3 sub m currentpoint t 4 {side} repeat cl fill gr} def
/m30 {mp gsave x w2 sub y w2 add w3 sub m currentpoint t 4 {side} repeat cl s gr} def
/m31 {mp x y w2 sub m 0 w d x w2 sub y m w 0 d x w2 sub y w2 add m w w neg d x w2 sub y w2 sub m w w d s} def
/m32 {mp x y w2 sub m w2 w d w neg 0 d cl s} def
/m33 {mp x y w2 add m w3 neg w2 neg d w3 w2 neg d w3 w2 d cl f} def
/m34 {mp x w2 sub y w2 sub w3 add m w3 0 d  0 w3 neg d w3 0 d 0 w3 d w3 0 d  0 w3 d w3 neg 0 d 0 w3 d w3 neg 0 d 0 w3 neg d w3 neg 0 d cl f } def
/m2 {mp x y w2 sub m 0 w d x w2 sub y m w 0 d s} def
/m5 {mp x w2 sub y w2 sub m w w d x w2 sub y w2 add m w w neg d s} def
%%IncludeResource: ProcSet (FontSetInit)
%%IncludeResource: font Times-Roman
%%IncludeResource: font Times-Italic
%%IncludeResource: font Times-Bold
%%IncludeResource: font Times-BoldItalic
%%IncludeResource: font Helvetica
%%IncludeResource: font Helvetica-Oblique
%%IncludeResource: font Helvetica-Bold
%%IncludeResource: font Helvetica-BoldOblique
%%IncludeResource: font Courier
%%IncludeResource: font Courier-Oblique
%%IncludeResource: font Courier-Bold
%%IncludeResource: font Courier-BoldOblique
%%IncludeResource: font Symbol
%%IncludeResource: font ZapfDingbats
/reEncode {exch findfont dup length dict begin {1 index /FID eq  {pop pop} {def} ifelse } forall /Encoding exch def currentdict end dup /FontName get exch definefont pop } def [/Times-Bold /Times-Italic /Times-BoldItalic /Helvetica /Helvetica-Oblique
 /Helvetica-Bold /Helvetica-BoldOblique /Courier /Courier-Oblique /Courier-Bold /Courier-BoldOblique /Times-Roman /AvantGarde-Book /AvantGarde-BookOblique /AvantGarde-Demi /AvantGarde-DemiOblique /Bookman-Demi /Bookman-DemiItalic /Bookman-Light
 /Bookman-LightItalic /Helvetica-Narrow /Helvetica-Narrow-Bold /Helvetica-Narrow-BoldOblique /Helvetica-Narrow-Oblique /NewCenturySchlbk-Roman /NewCenturySchlbk-Bold /NewCenturySchlbk-BoldItalic /NewCenturySchlbk-Italic /Palatino-Bold
 /Palatino-BoldItalic /Palatino-Italic /Palatino-Roman ] {ISOLatin1Encoding reEncode } forall
%%EndProlog
%%BeginSetup
%%EndSetup
newpath  gsave  .25 .25 scale  gsave  0 0 t black[  ] 0 sd 3 lw 1 1 1 c 2268 1538 0 0 bf black 1 1 1 c 1814 1230 227 154 bf black 1814 1230 227 154 bl 1 1 1 c 1814 1230 227 154 bf black 1814 1230 227 154 bl 227 154 m 1814 X s
 gsave  2268 1538 0 0 C 1853.92 35.8403 t 0 r /Helvetica-Bold findfont 58.6478 sf 0 0 m (z [mm]) show NC gr  399 191 m -37 Y s 460 172 m -18 Y s 521 172 m -18 Y s 583 172 m -18 Y s 644 191 m -37 Y s 705 172 m -18 Y s 766 172 m -18 Y s 828 172 m -18 Y
 s 889 191 m -37 Y s 950 172 m -18 Y s 1011 172 m -18 Y s 1073 172 m -18 Y s 1134 191 m -37 Y s 1195 172 m -18 Y s 1256 172 m -18 Y s 1318 172 m -18 Y s 1379 191 m -37 Y s 1440 172 m -18 Y s 1501 172 m -18 Y s 1563 172 m -18 Y s 1624 191 m -37 Y s
 1685 172 m -18 Y s 1746 172 m -18 Y s 1808 172 m -18 Y s 1869 191 m -37 Y s 399 191 m -37 Y s 338 172 m -18 Y s 276 172 m -18 Y s 1869 191 m -37 Y s 1930 172 m -18 Y s 1991 172 m -18 Y s
 gsave  2268 1538 0 0 C 361.662 97.7464 t 0 r /Helvetica-Bold findfont 58.6478 sf 0 0 m (600) show NC gr 
 gsave  2268 1538 0 0 C 332.338 97.7464 t 0 r /Symbol findfont 58.6478 sf 0 0 m (-) show NC gr 
 gsave  2268 1538 0 0 C 606.028 97.7464 t 0 r /Helvetica-Bold findfont 58.6478 sf 0 0 m (400) show NC gr 
 gsave  2268 1538 0 0 C 576.704 97.7464 t 0 r /Symbol findfont 58.6478 sf 0 0 m (-) show NC gr 
 gsave  2268 1538 0 0 C 850.394 97.7464 t 0 r /Helvetica-Bold findfont 58.6478 sf 0 0 m (200) show NC gr 
 gsave  2268 1538 0 0 C 821.07 97.7464 t 0 r /Symbol findfont 58.6478 sf 0 0 m (-) show NC gr 
 gsave  2268 1538 0 0 C 1117.57 97.7464 t 0 r /Helvetica-Bold findfont 58.6478 sf 0 0 m (0) show NC gr 
 gsave  2268 1538 0 0 C 1329.35 97.7464 t 0 r /Helvetica-Bold findfont 58.6478 sf 0 0 m (200) show NC gr 
 gsave  2268 1538 0 0 C 1573.72 97.7464 t 0 r /Helvetica-Bold findfont 58.6478 sf 0 0 m (400) show NC gr 
 gsave  2268 1538 0 0 C 1818.08 97.7464 t 0 r /Helvetica-Bold findfont 58.6478 sf 0 0 m (600) show NC gr  227 1384 m 1814 X s 399 1347 m 37 Y s 460 1366 m 18 Y s 521 1366 m 18 Y s 583 1366 m 18 Y s 644 1347 m 37 Y s 705 1366 m 18 Y s 766 1366 m 18 Y
 s 828 1366 m 18 Y s 889 1347 m 37 Y s 950 1366 m 18 Y s 1011 1366 m 18 Y s 1073 1366 m 18 Y s 1134 1347 m 37 Y s 1195 1366 m 18 Y s 1256 1366 m 18 Y s 1318 1366 m 18 Y s 1379 1347 m 37 Y s 1440 1366 m 18 Y s 1501 1366 m 18 Y s 1563 1366 m 18 Y s
 1624 1347 m 37 Y s 1685 1366 m 18 Y s 1746 1366 m 18 Y s 1808 1366 m 18 Y s 1869 1347 m 37 Y s 399 1347 m 37 Y s 338 1366 m 18 Y s 276 1366 m 18 Y s 1869 1347 m 37 Y s 1930 1366 m 18 Y s 1991 1366 m 18 Y s 227 154 m 1230 Y s
 gsave  2268 1538 0 0 C 97.7464 772.197 t 90 r /Helvetica-Bold findfont 58.6478 sf 0 0 m (Occupancy in percent) show NC gr  281 154 m -54 X s 254 180 m -27 X s 254 206 m -27 X s 254 232 m -27 X s 254 258 m -27 X s 281 284 m -54 X s 254 311 m -27 X s
 254 337 m -27 X s 254 363 m -27 X s 254 389 m -27 X s 281 415 m -54 X s 254 441 m -27 X s 254 467 m -27 X s 254 493 m -27 X s 254 520 m -27 X s 281 546 m -54 X s 254 572 m -27 X s 254 598 m -27 X s 254 624 m -27 X s 254 650 m -27 X s 281 676 m -54 X
 s 254 702 m -27 X s 254 729 m -27 X s 254 755 m -27 X s 254 781 m -27 X s 281 807 m -54 X s 254 833 m -27 X s 254 859 m -27 X s 254 885 m -27 X s 254 911 m -27 X s 281 937 m -54 X s 254 964 m -27 X s 254 990 m -27 X s 254 1016 m -27 X s 254 1042 m
 -27 X s 281 1068 m -54 X s 254 1094 m -27 X s 254 1120 m -27 X s 254 1146 m -27 X s 254 1173 m -27 X s 281 1199 m -54 X s 254 1225 m -27 X s 254 1251 m -27 X s 254 1277 m -27 X s 254 1303 m -27 X s 281 1329 m -54 X s 281 1329 m -54 X s 254 1355 m
 -27 X s 254 1382 m -27 X s
 gsave  2268 1538 0 0 C 182.46 133.587 t 0 r /Helvetica-Bold findfont 58.6478 sf 0 0 m (0) show NC gr 
 gsave  2268 1538 0 0 C 101.005 263.915 t 0 r /Helvetica-Bold findfont 58.6478 sf 0 0 m (0.05) show NC gr 
 gsave  2268 1538 0 0 C 143.361 394.244 t 0 r /Helvetica-Bold findfont 58.6478 sf 0 0 m (0.1) show NC gr 
 gsave  2268 1538 0 0 C 101.005 524.572 t 0 r /Helvetica-Bold findfont 58.6478 sf 0 0 m (0.15) show NC gr 
 gsave  2268 1538 0 0 C 133.587 654.901 t 0 r /Helvetica-Bold findfont 58.6478 sf 0 0 m (0.2) show NC gr 
 gsave  2268 1538 0 0 C 101.005 785.229 t 0 r /Helvetica-Bold findfont 58.6478 sf 0 0 m (0.25) show NC gr 
 gsave  2268 1538 0 0 C 133.587 915.558 t 0 r /Helvetica-Bold findfont 58.6478 sf 0 0 m (0.3) show NC gr 
 gsave  2268 1538 0 0 C 101.005 1045.89 t 0 r /Helvetica-Bold findfont 58.6478 sf 0 0 m (0.35) show NC gr 
 gsave  2268 1538 0 0 C 133.587 1176.21 t 0 r /Helvetica-Bold findfont 58.6478 sf 0 0 m (0.4) show NC gr 
 gsave  2268 1538 0 0 C 101.005 1306.54 t 0 r /Helvetica-Bold findfont 58.6478 sf 0 0 m (0.45) show NC gr  2041 154 m 1230 Y s 1987 154 m 54 X s 2014 180 m 27 X s 2014 206 m 27 X s 2014 232 m 27 X s 2014 258 m 27 X s 1987 284 m 54 X s 2014 311 m 27 X
 s 2014 337 m 27 X s 2014 363 m 27 X s 2014 389 m 27 X s 1987 415 m 54 X s 2014 441 m 27 X s 2014 467 m 27 X s 2014 493 m 27 X s 2014 520 m 27 X s 1987 546 m 54 X s 2014 572 m 27 X s 2014 598 m 27 X s 2014 624 m 27 X s 2014 650 m 27 X s 1987 676 m 54
 X s 2014 702 m 27 X s 2014 729 m 27 X s 2014 755 m 27 X s 2014 781 m 27 X s 1987 807 m 54 X s 2014 833 m 27 X s 2014 859 m 27 X s 2014 885 m 27 X s 2014 911 m 27 X s 1987 937 m 54 X s 2014 964 m 27 X s 2014 990 m 27 X s 2014 1016 m 27 X s 2014 1042
 m 27 X s 1987 1068 m 54 X s 2014 1094 m 27 X s 2014 1120 m 27 X s 2014 1146 m 27 X s 2014 1173 m 27 X s 1987 1199 m 54 X s 2014 1225 m 27 X s 2014 1251 m 27 X s 2014 1277 m 27 X s 2014 1303 m 27 X s 1987 1329 m 54 X s 1987 1329 m 54 X s 2014 1355 m
 27 X s 2014 1382 m 27 X s 309 550 m 29 -55 d 30 90 d 29 -105 d 32 38 d 30 -76 d 29 155 d 29 -122 d 32 -70 d 30 104 d 29 -113 d 29 204 d 33 -70 d 29 3 d 29 11 d 29 21 d 33 79 d 29 -76 d 29 26 d 30 -122 d 32 177 d 29 33 d 29 -100 d 30 -23 d 32 -23 d
 29 230 d 29 -280 d 30 47 d 32 -61 d 29 55 d 30 -38 d 29 44 d 32 -9 d 29 50 d 30 189 d 29 -219 d 32 68 d 30 -70 d 29 -140 d 29 70 d 32 46 d 30 21 d 29 35 d 29 8 d 32 -81 d 30 -53 d 29 108 d 29 228 d 33 -161 d 29 -172 d 29 201 d 29 -233 d 33 53 d 29
 -21 d 29 58 d 29 519 d s /w 26 def /w2 {w 2 div} def /w3 {w 3 div} def 309 550 338 495 368 585 397 480 429 518 459 442 488 597 517 475 549 405 579 509 608 396 637 600 670 530 699 533 728 544 757 565 790 644 819 568 848 594 878 472 910 649 939 682
 968 582 998 559 1030 536 1059 766 1088 486 1118 533 1150 472 1179 527 1209 489 1238 533 1270 524 1299 574 1329 763 1358 544 1390 612 1420 542 1449 402 1478 472 1510 518 1540 539 1569 574 1598 582 1630 501 1660 448 1689 556 1718 784 1751 623 1780 451
 1809 652 1838 419 1871 472 1900 451 1929 509 1958 1028 56 { m20} R 1 0 0 c black 1 0 0 c 309 286 m 30 131 d 29 16 d 29 -116 d 32 118 d 30 -106 d 29 -18 d 29 151 d 32 -139 d 30 35 d 29 20 d 29 115 d 32 -125 d 30 -43 d 29 72 d 29 -17 d 33 -16 d 29 49
 d 29 -25 d 30 -97 d 32 -5 d 29 60 d 29 175 d 30 -165 d 32 35 d 29 -39 d 29 28 d 30 31 d 32 22 d 29 -114 d 30 69 d 29 133 d 32 -114 d 29 -6 d 30 -78 d 29 100 d 32 -53 d 30 X 29 76 d 29 -47 d 32 -21 d 30 86 d 29 -37 d 29 6 d 32 -10 d 30 -100 d 29 82 d
 29 -27 d 33 -36 d 29 -7 d 29 -34 d 29 120 d 33 -51 d 29 -59 d 29 51 d 29 65 d s 309 286 339 417 368 433 397 317 429 435 459 329 488 311 517 462 549 323 579 358 608 378 637 493 669 368 699 325 728 397 757 380 790 364 819 413 848 388 878 291 910 286
 939 346 968 521 998 356 1030 391 1059 352 1088 380 1118 411 1150 433 1179 319 1209 388 1238 521 1270 407 1299 401 1329 323 1358 423 1390 370 1420 370 1449 446 1478 399 1510 378 1540 464 1569 427 1598 433 1630 423 1660 323 1689 405 1718 378 1751 342
 1780 335 1809 301 1838 421 1871 370 1900 311 1929 362 1958 427 56 { m20} R 0 1 0 c black 0 1 0 c 324 340 m 58 -39 d 62 93 d 59 57 d 61 -55 d 59 -42 d 61 107 d 59 9 d 61 -119 d 59 113 d 62 -35 d 58 5 d 62 -92 d 58 25 d 62 24 d 58 -27 d 62 -24 d 58 2
 d 62 4 d 58 38 d 62 -36 d 58 -21 d 62 60 d 59 -19 d 61 99 d 59 8 d 61 -56 d 59 -16 d s 324 340 382 301 444 394 503 451 564 396 623 354 684 461 743 470 804 351 863 464 925 429 983 434 1045 342 1103 367 1165 391 1223 364 1285 340 1343 342 1405 346
 1463 384 1525 348 1583 327 1645 387 1704 368 1765 467 1824 475 1885 419 1944 403 28 { m20} R 0 0 1 c black 0 0 1 c 324 259 m 58 6 d 62 -11 d 59 9 d 61 23 d 58 -22 d 62 18 d 59 66 d 61 -75 d 59 108 d 62 -30 d 58 -31 d 62 -36 d 58 13 d 62 3 d 58 -18 d
 62 -28 d 58 45 d 62 -56 d 58 12 d 62 77 d 58 -75 d 62 -9 d 59 60 d 61 -77 d 59 51 d 61 -27 d 59 -14 d s 324 259 382 265 444 254 503 263 564 286 622 264 684 282 743 348 804 273 863 381 925 351 983 320 1045 284 1103 297 1165 300 1223 282 1285 254 1343
 299 1405 243 1463 255 1525 332 1583 257 1645 248 1704 308 1765 231 1824 282 1885 255 1944 241 28 { m20} R black
 gsave  2268 1538 0 0 C 1645.4 514.798 t 0 r /Helvetica-Bold findfont 58.6478 sf 0 0 m (SCT Barrel) show NC gr 
 gsave  2268 1538 0 0 C 1762.69 436.601 t 0 r /Helvetica-Bold findfont 58.6478 sf 0 0 m (Layer 0) show NC gr  1652 454 m 92 X s 1698 454 m20
 gsave  2268 1538 0 0 C 1762.69 361.662 t 0 r /Helvetica-Bold findfont 58.6478 sf 0 0 m (Layer 1) show NC gr  1 0 0 c 1652 377 m 92 X s 1698 377 m20 black
 gsave  2268 1538 0 0 C 1762.69 283.465 t 0 r /Helvetica-Bold findfont 58.6478 sf 0 0 m (Layer 2) show NC gr  0 1 0 c 1652 300 m 92 X s 1698 300 m20 black
 gsave  2268 1538 0 0 C 1762.69 208.526 t 0 r /Helvetica-Bold findfont 58.6478 sf 0 0 m (Layer 3) show NC gr  0 0 1 c 1652 223 m 92 X s 1698 223 m20
 gr  gr showpage
end
%%EOF
