%!PS-Adobe-2.0 EPSF-2.0
%%BoundingBox:  0 0 567 384
%%Title: outputDir/sct_occupancy/occ_sctlayer_mg.eps: c1_n21
%%Creator: ROOT Version 6.04/12
%%CreationDate: Mon Apr 25 16:02:08 2016
%%DocumentNeededResources: ProcSet (FontSetInit)
%%EndComments
%%BeginProlog
80 dict begin
/s {stroke} def /l {lineto} def /m {moveto} def /t {translate} def
/r {rotate} def /rl {roll}  def /R {repeat} def
/d {rlineto} def /rm {rmoveto} def /gr {grestore} def /f {eofill} def
/c {setrgbcolor} def /black {0 setgray} def /sd {setdash} def
/cl {closepath} def /sf {scalefont setfont} def /lw {setlinewidth} def
/box {m dup 0 exch d exch 0 d 0 exch neg d cl} def
/NC{systemdict begin initclip end}def/C{NC box clip newpath}def
/bl {box s} def /bf {gsave box gsave f grestore 1 lw [] 0 sd s grestore} def /Y { 0 exch d} def /X { 0 d} def 
/K {{pop pop 0 moveto} exch kshow} bind def
/ita {/ang 15 def gsave [1 0 ang dup sin exch cos div 1 0 0] concat} def 
/mp {newpath /y exch def /x exch def} def
/side {[w .77 mul w .23 mul] .385 w mul sd w 0 l currentpoint t -144 r} def
/mr {mp x y w2 0 360 arc} def /m24 {mr s} def /m20 {mr f} def
/mb {mp x y w2 add m w2 neg 0 d 0 w neg d w 0 d 0 w d cl} def
/mt {mp x y w2 add m w2 neg w neg d w 0 d cl} def
/m21 {mb f} def /m25 {mb s} def /m22 {mt f} def /m26{mt s} def
/m23 {mp x y w2 sub m w2 w d w neg 0 d cl f} def
/m27 {mp x y w2 add m w3 neg w2 neg d w3 w2 neg d w3 w2 d cl s} def
/m28 {mp x w2 sub y w2 sub w3 add m w3 0 d  0 w3 neg d w3 0 d 0 w3 d w3 0 d  0 w3 d w3 neg 0 d 0 w3 d w3 neg 0 d 0 w3 neg d w3 neg 0 d cl s } def
/m29 {mp gsave x w2 sub y w2 add w3 sub m currentpoint t 4 {side} repeat cl fill gr} def
/m30 {mp gsave x w2 sub y w2 add w3 sub m currentpoint t 4 {side} repeat cl s gr} def
/m31 {mp x y w2 sub m 0 w d x w2 sub y m w 0 d x w2 sub y w2 add m w w neg d x w2 sub y w2 sub m w w d s} def
/m32 {mp x y w2 sub m w2 w d w neg 0 d cl s} def
/m33 {mp x y w2 add m w3 neg w2 neg d w3 w2 neg d w3 w2 d cl f} def
/m34 {mp x w2 sub y w2 sub w3 add m w3 0 d  0 w3 neg d w3 0 d 0 w3 d w3 0 d  0 w3 d w3 neg 0 d 0 w3 d w3 neg 0 d 0 w3 neg d w3 neg 0 d cl f } def
/m2 {mp x y w2 sub m 0 w d x w2 sub y m w 0 d s} def
/m5 {mp x w2 sub y w2 sub m w w d x w2 sub y w2 add m w w neg d s} def
%%IncludeResource: ProcSet (FontSetInit)
%%IncludeResource: font Times-Roman
%%IncludeResource: font Times-Italic
%%IncludeResource: font Times-Bold
%%IncludeResource: font Times-BoldItalic
%%IncludeResource: font Helvetica
%%IncludeResource: font Helvetica-Oblique
%%IncludeResource: font Helvetica-Bold
%%IncludeResource: font Helvetica-BoldOblique
%%IncludeResource: font Courier
%%IncludeResource: font Courier-Oblique
%%IncludeResource: font Courier-Bold
%%IncludeResource: font Courier-BoldOblique
%%IncludeResource: font Symbol
%%IncludeResource: font ZapfDingbats
/reEncode {exch findfont dup length dict begin {1 index /FID eq  {pop pop} {def} ifelse } forall /Encoding exch def currentdict end dup /FontName get exch definefont pop } def [/Times-Bold /Times-Italic /Times-BoldItalic /Helvetica /Helvetica-Oblique
 /Helvetica-Bold /Helvetica-BoldOblique /Courier /Courier-Oblique /Courier-Bold /Courier-BoldOblique /Times-Roman /AvantGarde-Book /AvantGarde-BookOblique /AvantGarde-Demi /AvantGarde-DemiOblique /Bookman-Demi /Bookman-DemiItalic /Bookman-Light
 /Bookman-LightItalic /Helvetica-Narrow /Helvetica-Narrow-Bold /Helvetica-Narrow-BoldOblique /Helvetica-Narrow-Oblique /NewCenturySchlbk-Roman /NewCenturySchlbk-Bold /NewCenturySchlbk-BoldItalic /NewCenturySchlbk-Italic /Palatino-Bold
 /Palatino-BoldItalic /Palatino-Italic /Palatino-Roman ] {ISOLatin1Encoding reEncode } forall
%%EndProlog
%%BeginSetup
%%EndSetup
newpath  gsave  .25 .25 scale  gsave  0 0 t black[  ] 0 sd 3 lw 1 1 1 c 2268 1538 0 0 bf black 1 1 1 c 1814 1230 227 154 bf black 1814 1230 227 154 bl 1 1 1 c 1814 1230 227 154 bf black 1814 1230 227 154 bl 227 154 m 1814 X s
 gsave  2268 1538 0 0 C 1772.47 32.5821 t 0 r /Helvetica-Bold findfont 58.6478 sf 0 0 m (moduleID) show NC gr  250 191 m -37 Y s 309 172 m -18 Y s 368 172 m -18 Y s 427 172 m -18 Y s 486 172 m -18 Y s 545 191 m -37 Y s 604 172 m -18 Y s 663 172 m -18
 Y s 722 172 m -18 Y s 780 172 m -18 Y s 839 191 m -37 Y s 898 172 m -18 Y s 957 172 m -18 Y s 1016 172 m -18 Y s 1075 172 m -18 Y s 1134 191 m -37 Y s 1193 172 m -18 Y s 1252 172 m -18 Y s 1311 172 m -18 Y s 1369 172 m -18 Y s 1428 191 m -37 Y s
 1487 172 m -18 Y s 1546 172 m -18 Y s 1605 172 m -18 Y s 1664 172 m -18 Y s 1723 191 m -37 Y s 1782 172 m -18 Y s 1841 172 m -18 Y s 1900 172 m -18 Y s 1958 172 m -18 Y s 2017 191 m -37 Y s 250 191 m -37 Y s 2017 191 m -37 Y s
 gsave  2268 1538 0 0 C 228.075 97.7464 t 0 r /Helvetica-Bold findfont 58.6478 sf 0 0 m (30) show NC gr 
 gsave  2268 1538 0 0 C 198.751 97.7464 t 0 r /Symbol findfont 58.6478 sf 0 0 m (-) show NC gr 
 gsave  2268 1538 0 0 C 524.572 97.7464 t 0 r /Helvetica-Bold findfont 58.6478 sf 0 0 m (20) show NC gr 
 gsave  2268 1538 0 0 C 495.248 97.7464 t 0 r /Symbol findfont 58.6478 sf 0 0 m (-) show NC gr 
 gsave  2268 1538 0 0 C 817.812 97.7464 t 0 r /Helvetica-Bold findfont 58.6478 sf 0 0 m (10) show NC gr 
 gsave  2268 1538 0 0 C 788.488 97.7464 t 0 r /Symbol findfont 58.6478 sf 0 0 m (-) show NC gr 
 gsave  2268 1538 0 0 C 1117.57 97.7464 t 0 r /Helvetica-Bold findfont 58.6478 sf 0 0 m (0) show NC gr 
 gsave  2268 1538 0 0 C 1394.52 97.7464 t 0 r /Helvetica-Bold findfont 58.6478 sf 0 0 m (10) show NC gr 
 gsave  2268 1538 0 0 C 1687.75 97.7464 t 0 r /Helvetica-Bold findfont 58.6478 sf 0 0 m (20) show NC gr 
 gsave  2268 1538 0 0 C 1984.25 97.7464 t 0 r /Helvetica-Bold findfont 58.6478 sf 0 0 m (30) show NC gr  227 1384 m 1814 X s 250 1347 m 37 Y s 309 1366 m 18 Y s 368 1366 m 18 Y s 427 1366 m 18 Y s 486 1366 m 18 Y s 545 1347 m 37 Y s 604 1366 m 18 Y s
 663 1366 m 18 Y s 722 1366 m 18 Y s 780 1366 m 18 Y s 839 1347 m 37 Y s 898 1366 m 18 Y s 957 1366 m 18 Y s 1016 1366 m 18 Y s 1075 1366 m 18 Y s 1134 1347 m 37 Y s 1193 1366 m 18 Y s 1252 1366 m 18 Y s 1311 1366 m 18 Y s 1369 1366 m 18 Y s 1428
 1347 m 37 Y s 1487 1366 m 18 Y s 1546 1366 m 18 Y s 1605 1366 m 18 Y s 1664 1366 m 18 Y s 1723 1347 m 37 Y s 1782 1366 m 18 Y s 1841 1366 m 18 Y s 1900 1366 m 18 Y s 1958 1366 m 18 Y s 2017 1347 m 37 Y s 250 1347 m 37 Y s 2017 1347 m 37 Y s 227 154
 m 1230 Y s
 gsave  2268 1538 0 0 C 97.7464 772.197 t 90 r /Helvetica-Bold findfont 58.6478 sf 0 0 m (Occupancy in percent) show NC gr  281 154 m -54 X s 254 180 m -27 X s 254 206 m -27 X s 254 232 m -27 X s 254 258 m -27 X s 281 284 m -54 X s 254 311 m -27 X s
 254 337 m -27 X s 254 363 m -27 X s 254 389 m -27 X s 281 415 m -54 X s 254 441 m -27 X s 254 467 m -27 X s 254 493 m -27 X s 254 520 m -27 X s 281 546 m -54 X s 254 572 m -27 X s 254 598 m -27 X s 254 624 m -27 X s 254 650 m -27 X s 281 676 m -54 X
 s 254 702 m -27 X s 254 729 m -27 X s 254 755 m -27 X s 254 781 m -27 X s 281 807 m -54 X s 254 833 m -27 X s 254 859 m -27 X s 254 885 m -27 X s 254 911 m -27 X s 281 937 m -54 X s 254 964 m -27 X s 254 990 m -27 X s 254 1016 m -27 X s 254 1042 m
 -27 X s 281 1068 m -54 X s 254 1094 m -27 X s 254 1120 m -27 X s 254 1146 m -27 X s 254 1173 m -27 X s 281 1199 m -54 X s 254 1225 m -27 X s 254 1251 m -27 X s 254 1277 m -27 X s 254 1303 m -27 X s 281 1329 m -54 X s 281 1329 m -54 X s 254 1355 m
 -27 X s 254 1382 m -27 X s
 gsave  2268 1538 0 0 C 182.46 133.587 t 0 r /Helvetica-Bold findfont 58.6478 sf 0 0 m (0) show NC gr 
 gsave  2268 1538 0 0 C 101.005 263.915 t 0 r /Helvetica-Bold findfont 58.6478 sf 0 0 m (0.05) show NC gr 
 gsave  2268 1538 0 0 C 143.361 394.244 t 0 r /Helvetica-Bold findfont 58.6478 sf 0 0 m (0.1) show NC gr 
 gsave  2268 1538 0 0 C 101.005 524.572 t 0 r /Helvetica-Bold findfont 58.6478 sf 0 0 m (0.15) show NC gr 
 gsave  2268 1538 0 0 C 133.587 654.901 t 0 r /Helvetica-Bold findfont 58.6478 sf 0 0 m (0.2) show NC gr 
 gsave  2268 1538 0 0 C 101.005 785.229 t 0 r /Helvetica-Bold findfont 58.6478 sf 0 0 m (0.25) show NC gr 
 gsave  2268 1538 0 0 C 133.587 915.558 t 0 r /Helvetica-Bold findfont 58.6478 sf 0 0 m (0.3) show NC gr 
 gsave  2268 1538 0 0 C 101.005 1045.89 t 0 r /Helvetica-Bold findfont 58.6478 sf 0 0 m (0.35) show NC gr 
 gsave  2268 1538 0 0 C 133.587 1176.21 t 0 r /Helvetica-Bold findfont 58.6478 sf 0 0 m (0.4) show NC gr 
 gsave  2268 1538 0 0 C 101.005 1306.54 t 0 r /Helvetica-Bold findfont 58.6478 sf 0 0 m (0.45) show NC gr  2041 154 m 1230 Y s 1987 154 m 54 X s 2014 180 m 27 X s 2014 206 m 27 X s 2014 232 m 27 X s 2014 258 m 27 X s 1987 284 m 54 X s 2014 311 m 27 X
 s 2014 337 m 27 X s 2014 363 m 27 X s 2014 389 m 27 X s 1987 415 m 54 X s 2014 441 m 27 X s 2014 467 m 27 X s 2014 493 m 27 X s 2014 520 m 27 X s 1987 546 m 54 X s 2014 572 m 27 X s 2014 598 m 27 X s 2014 624 m 27 X s 2014 650 m 27 X s 1987 676 m 54
 X s 2014 702 m 27 X s 2014 729 m 27 X s 2014 755 m 27 X s 2014 781 m 27 X s 1987 807 m 54 X s 2014 833 m 27 X s 2014 859 m 27 X s 2014 885 m 27 X s 2014 911 m 27 X s 1987 937 m 54 X s 2014 964 m 27 X s 2014 990 m 27 X s 2014 1016 m 27 X s 2014 1042
 m 27 X s 1987 1068 m 54 X s 2014 1094 m 27 X s 2014 1120 m 27 X s 2014 1146 m 27 X s 2014 1173 m 27 X s 1987 1199 m 54 X s 2014 1225 m 27 X s 2014 1251 m 27 X s 2014 1277 m 27 X s 2014 1303 m 27 X s 1987 1329 m 54 X s 1987 1329 m 54 X s 2014 1355 m
 27 X s 2014 1382 m 27 X s 309 550 m 30 -55 d 29 90 d 30 -105 d 29 38 d 29 -76 d 30 155 d 29 -122 d 30 -70 d 29 104 d 30 -113 d 29 204 d 30 -70 d 29 3 d 30 11 d 29 21 d 29 79 d 30 -76 d 29 26 d 30 -122 d 29 177 d 30 33 d 29 -100 d 30 -23 d 29 -23 d
 30 230 d 29 -280 d 29 47 d 59 -61 d 30 55 d 29 -38 d 30 44 d 29 -9 d 30 50 d 29 189 d 29 -219 d 30 68 d 29 -70 d 30 -140 d 29 70 d 30 46 d 29 21 d 30 35 d 29 8 d 30 -81 d 29 -53 d 29 108 d 30 228 d 29 -161 d 30 -172 d 29 201 d 30 -233 d 29 53 d 30
 -21 d 29 58 d 29 519 d s /w 26 def /w2 {w 2 div} def /w3 {w 3 div} def 309 550 339 495 368 585 398 480 427 518 456 442 486 597 515 475 545 405 574 509 604 396 633 600 663 530 692 533 722 544 751 565 780 644 810 568 839 594 869 472 898 649 928 682
 957 582 987 559 1016 536 1046 766 1075 486 1104 533 1163 472 1193 527 1222 489 1252 533 1281 524 1311 574 1340 763 1369 544 1399 612 1428 542 1458 402 1487 472 1517 518 1546 539 1576 574 1605 582 1635 501 1664 448 1693 556 1723 784 1752 623 1782 451
 1811 652 1841 419 1870 472 1900 451 1929 509 1958 1028 56 { m20} R 1 0 0 c black 1 0 0 c 309 286 m 30 131 d 29 16 d 30 -116 d 29 118 d 29 -106 d 30 -18 d 29 151 d 30 -139 d 29 35 d 30 20 d 29 115 d 30 -125 d 29 -43 d 30 72 d 29 -17 d 29 -16 d 30 49
 d 29 -25 d 30 -97 d 29 -5 d 30 60 d 29 175 d 30 -165 d 29 35 d 30 -39 d 29 28 d 29 31 d 59 22 d 30 -114 d 29 69 d 30 133 d 29 -114 d 30 -6 d 29 -78 d 29 100 d 30 -53 d 29 X 30 76 d 29 -47 d 30 -21 d 29 86 d 30 -37 d 29 6 d 30 -10 d 29 -100 d 29 82 d
 30 -27 d 29 -36 d 30 -7 d 29 -34 d 30 120 d 29 -51 d 30 -59 d 29 51 d 29 65 d s 309 286 339 417 368 433 398 317 427 435 456 329 486 311 515 462 545 323 574 358 604 378 633 493 663 368 692 325 722 397 751 380 780 364 810 413 839 388 869 291 898 286
 928 346 957 521 987 356 1016 391 1046 352 1075 380 1104 411 1163 433 1193 319 1222 388 1252 521 1281 407 1311 401 1340 323 1369 423 1399 370 1428 370 1458 446 1487 399 1517 378 1546 464 1576 427 1605 433 1635 423 1664 323 1693 405 1723 378 1752 342
 1782 335 1811 301 1841 421 1870 370 1900 311 1929 362 1958 427 56 { m20} R 0 1 0 c black 0 1 0 c 722 340 m 29 -39 d 29 93 d 30 57 d 29 -55 d 30 -42 d 29 107 d 30 9 d 29 -119 d 30 113 d 29 -35 d 30 5 d 29 -92 d 29 25 d 59 24 d 30 -27 d 29 -24 d 30 2
 d 29 4 d 30 38 d 29 -36 d 29 -21 d 30 60 d 29 -19 d 30 99 d 29 8 d 30 -56 d 29 -16 d s 722 340 751 301 780 394 810 451 839 396 869 354 898 461 928 470 957 351 987 464 1016 429 1046 434 1075 342 1104 367 1163 391 1193 364 1222 340 1252 342 1281 346
 1311 384 1340 348 1369 327 1399 387 1428 368 1458 467 1487 475 1517 419 1546 403 28 { m20} R 0 0 1 c black 0 0 1 c 722 259 m 29 6 d 29 -11 d 30 9 d 29 23 d 30 -22 d 29 18 d 30 66 d 29 -75 d 30 108 d 29 -30 d 30 -31 d 29 -36 d 29 13 d 59 3 d 30 -18 d
 29 -28 d 30 45 d 29 -56 d 30 12 d 29 77 d 29 -75 d 30 -9 d 29 60 d 30 -77 d 29 51 d 30 -27 d 29 -14 d s 722 259 751 265 780 254 810 263 839 286 869 264 898 282 928 348 957 273 987 381 1016 351 1046 320 1075 284 1104 297 1163 300 1193 282 1222 254
 1252 299 1281 243 1311 255 1340 332 1369 257 1399 248 1428 308 1458 231 1487 282 1517 255 1546 241 28 { m20} R black
 gsave  2268 1538 0 0 C 1645.4 514.798 t 0 r /Helvetica-Bold findfont 58.6478 sf 0 0 m (SCT Barrel) show NC gr 
 gsave  2268 1538 0 0 C 1762.69 436.601 t 0 r /Helvetica-Bold findfont 58.6478 sf 0 0 m (Layer 0) show NC gr  1652 454 m 92 X s 1698 454 m20
 gsave  2268 1538 0 0 C 1762.69 361.662 t 0 r /Helvetica-Bold findfont 58.6478 sf 0 0 m (Layer 1) show NC gr  1 0 0 c 1652 377 m 92 X s 1698 377 m20 black
 gsave  2268 1538 0 0 C 1762.69 283.465 t 0 r /Helvetica-Bold findfont 58.6478 sf 0 0 m (Layer 2) show NC gr  0 1 0 c 1652 300 m 92 X s 1698 300 m20 black
 gsave  2268 1538 0 0 C 1762.69 208.526 t 0 r /Helvetica-Bold findfont 58.6478 sf 0 0 m (Layer 3) show NC gr  0 0 1 c 1652 223 m 92 X s 1698 223 m20
 gr  gr showpage
end
%%EOF
