%!PS-Adobe-2.0 EPSF-2.0
%%BoundingBox:  0 0 567 384
%%Title: outputDir/sct_occupancy/occ_sctdisk_mg.eps: c1_n31
%%Creator: ROOT Version 6.04/12
%%CreationDate: Mon Apr 25 16:02:10 2016
%%DocumentNeededResources: ProcSet (FontSetInit)
%%EndComments
%%BeginProlog
80 dict begin
/s {stroke} def /l {lineto} def /m {moveto} def /t {translate} def
/r {rotate} def /rl {roll}  def /R {repeat} def
/d {rlineto} def /rm {rmoveto} def /gr {grestore} def /f {eofill} def
/c {setrgbcolor} def /black {0 setgray} def /sd {setdash} def
/cl {closepath} def /sf {scalefont setfont} def /lw {setlinewidth} def
/box {m dup 0 exch d exch 0 d 0 exch neg d cl} def
/NC{systemdict begin initclip end}def/C{NC box clip newpath}def
/bl {box s} def /bf {gsave box gsave f grestore 1 lw [] 0 sd s grestore} def /Y { 0 exch d} def /X { 0 d} def 
/K {{pop pop 0 moveto} exch kshow} bind def
/ita {/ang 15 def gsave [1 0 ang dup sin exch cos div 1 0 0] concat} def 
/mp {newpath /y exch def /x exch def} def
/side {[w .77 mul w .23 mul] .385 w mul sd w 0 l currentpoint t -144 r} def
/mr {mp x y w2 0 360 arc} def /m24 {mr s} def /m20 {mr f} def
/mb {mp x y w2 add m w2 neg 0 d 0 w neg d w 0 d 0 w d cl} def
/mt {mp x y w2 add m w2 neg w neg d w 0 d cl} def
/m21 {mb f} def /m25 {mb s} def /m22 {mt f} def /m26{mt s} def
/m23 {mp x y w2 sub m w2 w d w neg 0 d cl f} def
/m27 {mp x y w2 add m w3 neg w2 neg d w3 w2 neg d w3 w2 d cl s} def
/m28 {mp x w2 sub y w2 sub w3 add m w3 0 d  0 w3 neg d w3 0 d 0 w3 d w3 0 d  0 w3 d w3 neg 0 d 0 w3 d w3 neg 0 d 0 w3 neg d w3 neg 0 d cl s } def
/m29 {mp gsave x w2 sub y w2 add w3 sub m currentpoint t 4 {side} repeat cl fill gr} def
/m30 {mp gsave x w2 sub y w2 add w3 sub m currentpoint t 4 {side} repeat cl s gr} def
/m31 {mp x y w2 sub m 0 w d x w2 sub y m w 0 d x w2 sub y w2 add m w w neg d x w2 sub y w2 sub m w w d s} def
/m32 {mp x y w2 sub m w2 w d w neg 0 d cl s} def
/m33 {mp x y w2 add m w3 neg w2 neg d w3 w2 neg d w3 w2 d cl f} def
/m34 {mp x w2 sub y w2 sub w3 add m w3 0 d  0 w3 neg d w3 0 d 0 w3 d w3 0 d  0 w3 d w3 neg 0 d 0 w3 d w3 neg 0 d 0 w3 neg d w3 neg 0 d cl f } def
/m2 {mp x y w2 sub m 0 w d x w2 sub y m w 0 d s} def
/m5 {mp x w2 sub y w2 sub m w w d x w2 sub y w2 add m w w neg d s} def
%%IncludeResource: ProcSet (FontSetInit)
%%IncludeResource: font Times-Roman
%%IncludeResource: font Times-Italic
%%IncludeResource: font Times-Bold
%%IncludeResource: font Times-BoldItalic
%%IncludeResource: font Helvetica
%%IncludeResource: font Helvetica-Oblique
%%IncludeResource: font Helvetica-Bold
%%IncludeResource: font Helvetica-BoldOblique
%%IncludeResource: font Courier
%%IncludeResource: font Courier-Oblique
%%IncludeResource: font Courier-Bold
%%IncludeResource: font Courier-BoldOblique
%%IncludeResource: font Symbol
%%IncludeResource: font ZapfDingbats
/reEncode {exch findfont dup length dict begin {1 index /FID eq  {pop pop} {def} ifelse } forall /Encoding exch def currentdict end dup /FontName get exch definefont pop } def [/Times-Bold /Times-Italic /Times-BoldItalic /Helvetica /Helvetica-Oblique
 /Helvetica-Bold /Helvetica-BoldOblique /Courier /Courier-Oblique /Courier-Bold /Courier-BoldOblique /Times-Roman /AvantGarde-Book /AvantGarde-BookOblique /AvantGarde-Demi /AvantGarde-DemiOblique /Bookman-Demi /Bookman-DemiItalic /Bookman-Light
 /Bookman-LightItalic /Helvetica-Narrow /Helvetica-Narrow-Bold /Helvetica-Narrow-BoldOblique /Helvetica-Narrow-Oblique /NewCenturySchlbk-Roman /NewCenturySchlbk-Bold /NewCenturySchlbk-BoldItalic /NewCenturySchlbk-Italic /Palatino-Bold
 /Palatino-BoldItalic /Palatino-Italic /Palatino-Roman ] {ISOLatin1Encoding reEncode } forall
%%EndProlog
%%BeginSetup
%%EndSetup
newpath  gsave  .25 .25 scale  gsave  0 0 t black[  ] 0 sd 3 lw 1 1 1 c 2268 1538 0 0 bf black 1 1 1 c 1814 1230 227 154 bf black 1814 1230 227 154 bl 1 1 1 c 1814 1230 227 154 bf black 1814 1230 227 154 bl 227 154 m 1814 X s
 gsave  2268 1538 0 0 C 1772.47 32.5821 t 0 r /Helvetica-Bold findfont 58.6478 sf 0 0 m (moduleID) show NC gr  309 191 m -37 Y s 358 172 m -18 Y s 406 172 m -18 Y s 455 172 m -18 Y s 503 191 m -37 Y s 552 172 m -18 Y s 600 172 m -18 Y s 649 172 m -18
 Y s 697 191 m -37 Y s 746 172 m -18 Y s 794 172 m -18 Y s 843 172 m -18 Y s 891 191 m -37 Y s 940 172 m -18 Y s 988 172 m -18 Y s 1037 172 m -18 Y s 1085 191 m -37 Y s 1134 172 m -18 Y s 1182 172 m -18 Y s 1231 172 m -18 Y s 1279 191 m -37 Y s 1328
 172 m -18 Y s 1376 172 m -18 Y s 1425 172 m -18 Y s 1473 191 m -37 Y s 1522 172 m -18 Y s 1570 172 m -18 Y s 1619 172 m -18 Y s 1667 191 m -37 Y s 1716 172 m -18 Y s 1764 172 m -18 Y s 1813 172 m -18 Y s 1861 191 m -37 Y s 309 191 m -37 Y s 261 172
 m -18 Y s 1861 191 m -37 Y s 1910 172 m -18 Y s 1958 172 m -18 Y s 2007 172 m -18 Y s
 gsave  2268 1538 0 0 C 289.981 97.7464 t 0 r /Helvetica-Bold findfont 58.6478 sf 0 0 m (0) show NC gr 
 gsave  2268 1538 0 0 C 485.474 97.7464 t 0 r /Helvetica-Bold findfont 58.6478 sf 0 0 m (2) show NC gr 
 gsave  2268 1538 0 0 C 680.967 97.7464 t 0 r /Helvetica-Bold findfont 58.6478 sf 0 0 m (4) show NC gr 
 gsave  2268 1538 0 0 C 873.201 97.7464 t 0 r /Helvetica-Bold findfont 58.6478 sf 0 0 m (6) show NC gr 
 gsave  2268 1538 0 0 C 1068.69 97.7464 t 0 r /Helvetica-Bold findfont 58.6478 sf 0 0 m (8) show NC gr 
 gsave  2268 1538 0 0 C 1244.64 97.7464 t 0 r /Helvetica-Bold findfont 58.6478 sf 0 0 m (10) show NC gr 
 gsave  2268 1538 0 0 C 1440.13 97.7464 t 0 r /Helvetica-Bold findfont 58.6478 sf 0 0 m (12) show NC gr 
 gsave  2268 1538 0 0 C 1632.36 97.7464 t 0 r /Helvetica-Bold findfont 58.6478 sf 0 0 m (14) show NC gr 
 gsave  2268 1538 0 0 C 1827.86 97.7464 t 0 r /Helvetica-Bold findfont 58.6478 sf 0 0 m (16) show NC gr  227 1384 m 1814 X s 309 1347 m 37 Y s 358 1366 m 18 Y s 406 1366 m 18 Y s 455 1366 m 18 Y s 503 1347 m 37 Y s 552 1366 m 18 Y s 600 1366 m 18 Y s
 649 1366 m 18 Y s 697 1347 m 37 Y s 746 1366 m 18 Y s 794 1366 m 18 Y s 843 1366 m 18 Y s 891 1347 m 37 Y s 940 1366 m 18 Y s 988 1366 m 18 Y s 1037 1366 m 18 Y s 1085 1347 m 37 Y s 1134 1366 m 18 Y s 1182 1366 m 18 Y s 1231 1366 m 18 Y s 1279 1347
 m 37 Y s 1328 1366 m 18 Y s 1376 1366 m 18 Y s 1425 1366 m 18 Y s 1473 1347 m 37 Y s 1522 1366 m 18 Y s 1570 1366 m 18 Y s 1619 1366 m 18 Y s 1667 1347 m 37 Y s 1716 1366 m 18 Y s 1764 1366 m 18 Y s 1813 1366 m 18 Y s 1861 1347 m 37 Y s 309 1347 m
 37 Y s 261 1366 m 18 Y s 1861 1347 m 37 Y s 1910 1366 m 18 Y s 1958 1366 m 18 Y s 2007 1366 m 18 Y s 227 154 m 1230 Y s
 gsave  2268 1538 0 0 C 97.7464 772.197 t 90 r /Helvetica-Bold findfont 58.6478 sf 0 0 m (Occupancy in percent) show NC gr  281 241 m -54 X s 254 266 m -27 X s 254 291 m -27 X s 254 315 m -27 X s 254 340 m -27 X s 281 365 m -54 X s 254 390 m -27 X s
 254 414 m -27 X s 254 439 m -27 X s 254 464 m -27 X s 281 489 m -54 X s 254 513 m -27 X s 254 538 m -27 X s 254 563 m -27 X s 254 588 m -27 X s 281 612 m -54 X s 254 637 m -27 X s 254 662 m -27 X s 254 687 m -27 X s 254 711 m -27 X s 281 736 m -54 X
 s 254 761 m -27 X s 254 786 m -27 X s 254 810 m -27 X s 254 835 m -27 X s 281 860 m -54 X s 254 885 m -27 X s 254 909 m -27 X s 254 934 m -27 X s 254 959 m -27 X s 281 984 m -54 X s 254 1008 m -27 X s 254 1033 m -27 X s 254 1058 m -27 X s 254 1083 m
 -27 X s 281 1107 m -54 X s 254 1132 m -27 X s 254 1157 m -27 X s 254 1182 m -27 X s 254 1206 m -27 X s 281 1231 m -54 X s 254 1256 m -27 X s 254 1281 m -27 X s 254 1305 m -27 X s 254 1330 m -27 X s 281 1355 m -54 X s 281 241 m -54 X s 254 216 m -27
 X s 254 192 m -27 X s 254 167 m -27 X s 281 1355 m -54 X s 254 1380 m -27 X s
 gsave  2268 1538 0 0 C 101.005 221.559 t 0 r /Helvetica-Bold findfont 58.6478 sf 0 0 m (0.05) show NC gr 
 gsave  2268 1538 0 0 C 143.361 342.112 t 0 r /Helvetica-Bold findfont 58.6478 sf 0 0 m (0.1) show NC gr 
 gsave  2268 1538 0 0 C 101.005 465.924 t 0 r /Helvetica-Bold findfont 58.6478 sf 0 0 m (0.15) show NC gr 
 gsave  2268 1538 0 0 C 133.587 589.737 t 0 r /Helvetica-Bold findfont 58.6478 sf 0 0 m (0.2) show NC gr 
 gsave  2268 1538 0 0 C 101.005 713.549 t 0 r /Helvetica-Bold findfont 58.6478 sf 0 0 m (0.25) show NC gr 
 gsave  2268 1538 0 0 C 133.587 837.361 t 0 r /Helvetica-Bold findfont 58.6478 sf 0 0 m (0.3) show NC gr 
 gsave  2268 1538 0 0 C 101.005 961.173 t 0 r /Helvetica-Bold findfont 58.6478 sf 0 0 m (0.35) show NC gr 
 gsave  2268 1538 0 0 C 133.587 1084.98 t 0 r /Helvetica-Bold findfont 58.6478 sf 0 0 m (0.4) show NC gr 
 gsave  2268 1538 0 0 C 101.005 1208.8 t 0 r /Helvetica-Bold findfont 58.6478 sf 0 0 m (0.45) show NC gr 
 gsave  2268 1538 0 0 C 133.587 1332.61 t 0 r /Helvetica-Bold findfont 58.6478 sf 0 0 m (0.5) show NC gr  2041 154 m 1230 Y s 1987 241 m 54 X s 2014 266 m 27 X s 2014 291 m 27 X s 2014 315 m 27 X s 2014 340 m 27 X s 1987 365 m 54 X s 2014 390 m 27 X
 s 2014 414 m 27 X s 2014 439 m 27 X s 2014 464 m 27 X s 1987 489 m 54 X s 2014 513 m 27 X s 2014 538 m 27 X s 2014 563 m 27 X s 2014 588 m 27 X s 1987 612 m 54 X s 2014 637 m 27 X s 2014 662 m 27 X s 2014 687 m 27 X s 2014 711 m 27 X s 1987 736 m 54
 X s 2014 761 m 27 X s 2014 786 m 27 X s 2014 810 m 27 X s 2014 835 m 27 X s 1987 860 m 54 X s 2014 885 m 27 X s 2014 909 m 27 X s 2014 934 m 27 X s 2014 959 m 27 X s 1987 984 m 54 X s 2014 1008 m 27 X s 2014 1033 m 27 X s 2014 1058 m 27 X s 2014
 1083 m 27 X s 1987 1107 m 54 X s 2014 1132 m 27 X s 2014 1157 m 27 X s 2014 1182 m 27 X s 2014 1206 m 27 X s 1987 1231 m 54 X s 2014 1256 m 27 X s 2014 1281 m 27 X s 2014 1305 m 27 X s 2014 1330 m 27 X s 1987 1355 m 54 X s 1987 241 m 54 X s 2014 216
 m 27 X s 2014 192 m 27 X s 2014 167 m 27 X s 1987 1355 m 54 X s 2014 1380 m 27 X s 309 383 m 97 49 d 97 60 d 97 58 d 97 -249 d 97 133 d 97 -106 d 97 -41 d 97 186 d 97 -63 d 97 -127 d 97 -9 d 97 -76 d 97 75 d 97 38 d 97 36 d 97 -104 d 97 29 d s /w 26
 def /w2 {w 2 div} def /w3 {w 3 div} def 309 383 406 432 503 492 600 550 697 301 794 434 891 328 988 287 1085 473 1182 410 1279 283 1376 274 1473 198 1570 273 1667 311 1764 347 1861 243 1958 272 18 { m20} R 1 0 0 c black 1 0 0 c 309 374 m 97 2 d 97
 36 d 97 85 d 97 -244 d 97 181 d 97 -27 d 97 -116 d 97 203 d 97 -26 d 97 -196 d 97 -45 d 97 -23 d 97 48 d 97 67 d 97 -34 d 97 -66 d 97 64 d s 309 374 406 376 503 412 600 497 697 253 794 434 891 407 988 291 1085 494 1182 468 1279 272 1376 227 1473 204
 1570 252 1667 319 1764 285 1861 219 1958 283 18 { m20} R 0 1 0 c black 0 1 0 c 309 456 m 97 46 d 97 36 d 97 -27 d 97 -179 d 97 112 d 97 -54 d 97 -118 d 97 227 d 97 -99 d 97 -167 d 97 -31 d 97 25 d 97 63 d 97 13 d 97 46 d 97 -54 d 97 -42 d s 309 456
 406 502 503 538 600 511 697 332 794 444 891 390 988 272 1085 499 1182 400 1279 233 1376 202 1473 227 1570 290 1667 303 1764 349 1861 295 1958 253 18 { m20} R 0 0 1 c black 0 0 1 c 309 415 m 97 24 d 97 176 d 97 -34 d 97 -205 d 97 68 d 97 -29 d 97
 -145 d 97 162 d 97 84 d 97 -252 d 97 -48 d 97 15 d 97 -21 d 97 71 d 97 18 d 97 9 d 97 18 d s 309 415 406 439 503 615 600 581 697 376 794 444 891 415 988 270 1085 432 1182 516 1279 264 1376 216 1473 231 1570 210 1667 281 1764 299 1861 308 1958 326 18
 { m20} R 1 1 0 c black 1 1 0 c 309 395 m 97 41 d 97 75 d 97 5 d 97 -159 d 97 62 d 97 5 d 97 -150 d 97 223 d 97 -56 d 97 -216 d 97 -25 d 97 41 d 97 7 d 97 23 d 97 20 d 97 -59 d 97 68 d s 309 395 406 436 503 511 600 516 697 357 794 419 891 424 988 274
 1085 497 1182 441 1279 225 1376 200 1473 241 1570 248 1667 271 1764 291 1861 232 1958 300 18 { m20} R 1 0 1 c black 1 0 1 c 309 386 m 97 26 d 97 90 d 97 -17 d 97 -87 d 97 5 d 97 -44 d 97 -77 d 97 147 d 97 157 d 97 -274 d 97 -68 d 97 21 d 97 -33 d 97
 81 d 97 13 d 97 -55 d 97 95 d s 309 386 406 412 503 502 600 485 697 398 794 403 891 359 988 282 1085 429 1182 586 1279 312 1376 244 1473 265 1570 232 1667 313 1764 326 1861 271 1958 366 18 { m20} R black[ 12 12] 0 sd 309 364 m 97 60 d 97 73 d 97 101
 d 97 -285 d 97 119 d 97 -63 d 97 -46 d 97 34 d 97 130 d 97 -254 d 97 -38 d 97 24 d 97 28 d 97 37 d 97 75 d 97 -140 d 97 54 d s[  ] 0 sd 309 364 406 424 503 497 600 598 697 313 794 432 891 369 988 323 1085 357 1182 487 1279 233 1376 195 1473 219 1570
 247 1667 284 1764 359 1861 219 1958 273 18 { m21} R[ 12 12] 0 sd 1 0 0 c black 1 0 0 c 309 398 m 97 -10 d 97 34 d 97 63 d 97 -136 d 97 87 d 97 37 d 97 -223 d 97 198 d 97 -33 d 97 -180 d 97 30 d 97 X 97 280 d 97 -239 d 97 -17 d 97 -31 d 97 30 d s[  ]
 0 sd 309 398 406 388 503 422 600 485 697 349 794 436 891 473 988 250 1085 448 1182 415 1279 235 1376 265 1473 265 1570 545 1667 306 1764 289 1861 258 1958 288 18 { m21} R[ 12 12] 0 sd 0 1 0 c black 0 1 0 c 309 502 m 97 -15 d 97 46 d 97 -133 d 97 -80
 d 97 189 d 97 -157 d 97 -99 d 97 152 d 97 -7 d 97 -171 d 97 31 d 97 -62 d 97 42 d 97 64 d 97 -23 d 97 -48 d 97 65 d s[  ] 0 sd 309 502 406 487 503 533 600 400 697 320 794 509 891 352 988 253 1085 405 1182 398 1279 227 1376 258 1473 196 1570 238 1667
 302 1764 279 1861 231 1958 296 18 { m21} R[ 12 12] 0 sd 0 0 1 c black 0 0 1 c 309 328 m 97 84 d 97 121 d 97 17 d 97 -201 d 97 51 d 97 7 d 97 -181 d 97 189 d 97 169 d 97 -244 d 97 -130 d 97 35 d 97 -25 d 97 119 d 97 -54 d 97 -14 d 97 -4 d s[  ] 0 sd
 309 328 406 412 503 533 600 550 697 349 794 400 891 407 988 226 1085 415 1182 584 1279 340 1376 210 1473 245 1570 220 1667 339 1764 285 1861 271 1958 267 18 { m21} R[ 12 12] 0 sd 1 1 0 c black 1 1 0 c 309 584 m 97 -109 d 97 534 d 97 -495 d 97 -167 d
 97 123 d 97 -65 d 97 -140 d 97 128 d 97 10 d 97 -135 d 97 -60 d 97 40 d 97 -11 d 97 57 d 97 -26 d 97 -36 d 97 117 d s[  ] 0 sd 309 584 406 475 503 1009 600 514 697 347 794 470 891 405 988 265 1085 393 1182 403 1279 268 1376 208 1473 248 1570 237
 1667 294 1764 268 1861 232 1958 349 18 { m21} R[ 12 12] 0 sd 1 0 1 c black 1 0 1 c 309 429 m 97 -89 d 97 133 d 97 159 d 97 -367 d 97 109 d 97 -97 d 97 46 d 97 176 d 97 10 d 97 -262 d 97 -3 d 97 -32 d 97 42 d 97 89 d 97 -43 d 97 -61 d 97 17 d s[  ] 0
 sd 309 429 406 340 503 473 600 632 697 265 794 374 891 277 988 323 1085 499 1182 509 1279 247 1376 244 1473 212 1570 254 1667 343 1764 300 1861 239 1958 256 18 { m21} R[ 12 12] 0 sd black
 gsave  2268 1538 0 0 C 325.821 1300.03 t 0 r /Helvetica-Bold findfont 58.6478 sf 0 0 m (Sct Disk \(left\)) show NC gr 
 gsave  2268 1538 0 0 C 430.084 1244.64 t 0 r /Helvetica-Bold findfont 58.6478 sf 0 0 m (Disk 0) show NC gr [  ] 0 sd 334 1256 m 80 X s 374 1256 m20
 gsave  2268 1538 0 0 C 430.084 1189.25 t 0 r /Helvetica-Bold findfont 58.6478 sf 0 0 m (Disk 1) show NC gr  1 0 0 c 334 1201 m 80 X s 374 1201 m20 black
 gsave  2268 1538 0 0 C 430.084 1133.86 t 0 r /Helvetica-Bold findfont 58.6478 sf 0 0 m (Disk 2) show NC gr  0 1 0 c 334 1146 m 80 X s 374 1146 m20 black
 gsave  2268 1538 0 0 C 430.084 1078.47 t 0 r /Helvetica-Bold findfont 58.6478 sf 0 0 m (Disk 3) show NC gr  0 0 1 c 334 1091 m 80 X s 374 1091 m20 black
 gsave  2268 1538 0 0 C 430.084 1026.34 t 0 r /Helvetica-Bold findfont 58.6478 sf 0 0 m (Disk 4) show NC gr  1 1 0 c 334 1036 m 80 X s 374 1036 m20 black
 gsave  2268 1538 0 0 C 430.084 970.948 t 0 r /Helvetica-Bold findfont 58.6478 sf 0 0 m (Disk 5) show NC gr  1 0 1 c 334 981 m 80 X s 374 981 m20 black
 gsave  2268 1538 0 0 C 622.319 1300.03 t 0 r /Helvetica-Bold findfont 58.6478 sf 0 0 m (  \(right\)) show NC gr 
 gsave  2268 1538 0 0 C 723.323 1244.64 t 0 r /Helvetica-Bold findfont 58.6478 sf 0 0 m (Disk 0) show NC gr [ 12 12] 0 sd 629 1256 m 80 X s[  ] 0 sd 669 1256 m21[ 12 12] 0 sd
 gsave  2268 1538 0 0 C 723.323 1189.25 t 0 r /Helvetica-Bold findfont 58.6478 sf 0 0 m (Disk 1) show NC gr  1 0 0 c 629 1201 m 80 X s[  ] 0 sd 669 1201 m21[ 12 12] 0 sd black
 gsave  2268 1538 0 0 C 723.323 1133.86 t 0 r /Helvetica-Bold findfont 58.6478 sf 0 0 m (Disk 2) show NC gr  0 1 0 c 629 1146 m 80 X s[  ] 0 sd 669 1146 m21[ 12 12] 0 sd black
 gsave  2268 1538 0 0 C 723.323 1078.47 t 0 r /Helvetica-Bold findfont 58.6478 sf 0 0 m (Disk 3) show NC gr  0 0 1 c 629 1091 m 80 X s[  ] 0 sd 669 1091 m21[ 12 12] 0 sd black
 gsave  2268 1538 0 0 C 723.323 1026.34 t 0 r /Helvetica-Bold findfont 58.6478 sf 0 0 m (Disk 4) show NC gr  1 1 0 c 629 1036 m 80 X s[  ] 0 sd 669 1036 m21[ 12 12] 0 sd black
 gsave  2268 1538 0 0 C 723.323 970.948 t 0 r /Helvetica-Bold findfont 58.6478 sf 0 0 m (Disk 5) show NC gr  1 0 1 c 629 981 m 80 X s[  ] 0 sd 669 981 m21[ 12 12] 0 sd
 gr  gr showpage
end
%%EOF
