%!PS-Adobe-2.0 EPSF-2.0
%%BoundingBox:  0 0 567 384
%%Title: outputDir/sct_occupancy/sctlayer_clus_size_unmatched.eps: c1_n55
%%Creator: ROOT Version 6.04/12
%%CreationDate: Mon Apr 25 16:02:15 2016
%%DocumentNeededResources: ProcSet (FontSetInit)
%%EndComments
%%BeginProlog
80 dict begin
/s {stroke} def /l {lineto} def /m {moveto} def /t {translate} def
/r {rotate} def /rl {roll}  def /R {repeat} def
/d {rlineto} def /rm {rmoveto} def /gr {grestore} def /f {eofill} def
/c {setrgbcolor} def /black {0 setgray} def /sd {setdash} def
/cl {closepath} def /sf {scalefont setfont} def /lw {setlinewidth} def
/box {m dup 0 exch d exch 0 d 0 exch neg d cl} def
/NC{systemdict begin initclip end}def/C{NC box clip newpath}def
/bl {box s} def /bf {gsave box gsave f grestore 1 lw [] 0 sd s grestore} def /Y { 0 exch d} def /X { 0 d} def 
/K {{pop pop 0 moveto} exch kshow} bind def
/ita {/ang 15 def gsave [1 0 ang dup sin exch cos div 1 0 0] concat} def 
/mp {newpath /y exch def /x exch def} def
/side {[w .77 mul w .23 mul] .385 w mul sd w 0 l currentpoint t -144 r} def
/mr {mp x y w2 0 360 arc} def /m24 {mr s} def /m20 {mr f} def
/mb {mp x y w2 add m w2 neg 0 d 0 w neg d w 0 d 0 w d cl} def
/mt {mp x y w2 add m w2 neg w neg d w 0 d cl} def
/m21 {mb f} def /m25 {mb s} def /m22 {mt f} def /m26{mt s} def
/m23 {mp x y w2 sub m w2 w d w neg 0 d cl f} def
/m27 {mp x y w2 add m w3 neg w2 neg d w3 w2 neg d w3 w2 d cl s} def
/m28 {mp x w2 sub y w2 sub w3 add m w3 0 d  0 w3 neg d w3 0 d 0 w3 d w3 0 d  0 w3 d w3 neg 0 d 0 w3 d w3 neg 0 d 0 w3 neg d w3 neg 0 d cl s } def
/m29 {mp gsave x w2 sub y w2 add w3 sub m currentpoint t 4 {side} repeat cl fill gr} def
/m30 {mp gsave x w2 sub y w2 add w3 sub m currentpoint t 4 {side} repeat cl s gr} def
/m31 {mp x y w2 sub m 0 w d x w2 sub y m w 0 d x w2 sub y w2 add m w w neg d x w2 sub y w2 sub m w w d s} def
/m32 {mp x y w2 sub m w2 w d w neg 0 d cl s} def
/m33 {mp x y w2 add m w3 neg w2 neg d w3 w2 neg d w3 w2 d cl f} def
/m34 {mp x w2 sub y w2 sub w3 add m w3 0 d  0 w3 neg d w3 0 d 0 w3 d w3 0 d  0 w3 d w3 neg 0 d 0 w3 d w3 neg 0 d 0 w3 neg d w3 neg 0 d cl f } def
/m2 {mp x y w2 sub m 0 w d x w2 sub y m w 0 d s} def
/m5 {mp x w2 sub y w2 sub m w w d x w2 sub y w2 add m w w neg d s} def
%%IncludeResource: ProcSet (FontSetInit)
%%IncludeResource: font Times-Roman
%%IncludeResource: font Times-Italic
%%IncludeResource: font Times-Bold
%%IncludeResource: font Times-BoldItalic
%%IncludeResource: font Helvetica
%%IncludeResource: font Helvetica-Oblique
%%IncludeResource: font Helvetica-Bold
%%IncludeResource: font Helvetica-BoldOblique
%%IncludeResource: font Courier
%%IncludeResource: font Courier-Oblique
%%IncludeResource: font Courier-Bold
%%IncludeResource: font Courier-BoldOblique
%%IncludeResource: font Symbol
%%IncludeResource: font ZapfDingbats
/reEncode {exch findfont dup length dict begin {1 index /FID eq  {pop pop} {def} ifelse } forall /Encoding exch def currentdict end dup /FontName get exch definefont pop } def [/Times-Bold /Times-Italic /Times-BoldItalic /Helvetica /Helvetica-Oblique
 /Helvetica-Bold /Helvetica-BoldOblique /Courier /Courier-Oblique /Courier-Bold /Courier-BoldOblique /Times-Roman /AvantGarde-Book /AvantGarde-BookOblique /AvantGarde-Demi /AvantGarde-DemiOblique /Bookman-Demi /Bookman-DemiItalic /Bookman-Light
 /Bookman-LightItalic /Helvetica-Narrow /Helvetica-Narrow-Bold /Helvetica-Narrow-BoldOblique /Helvetica-Narrow-Oblique /NewCenturySchlbk-Roman /NewCenturySchlbk-Bold /NewCenturySchlbk-BoldItalic /NewCenturySchlbk-Italic /Palatino-Bold
 /Palatino-BoldItalic /Palatino-Italic /Palatino-Roman ] {ISOLatin1Encoding reEncode } forall
%%EndProlog
%%BeginSetup
%%EndSetup
newpath  gsave  .25 .25 scale  gsave  0 0 t black[  ] 0 sd 3 lw 1 1 1 c 2268 1538 0 0 bf black 1 1 1 c 1814 1307 227 154 bf black 1814 1307 227 154 bl 1 1 1 c 1814 1307 227 154 bf black 1814 1307 227 154 bl 1 1 1 c black 227 154 m 36 X 1188 Y 36 X
 -240 Y 37 X -392 Y 36 X -238 Y 36 X -123 Y 36 X -81 Y 37 X -65 Y 36 X -6 Y 36 X -13 Y 37 X -6 Y 36 X -8 Y 36 X -2 Y 36 X -3 Y 37 X 1 Y 36 X -6 Y 36 X 2 Y 37 X -5 Y 36 X 2 Y 72 X -2 Y 109 X -2 Y 37 X -1 Y 36 X 1 Y 72 X -1 Y 73 X 1 Y 73 X -1 Y 689 X s
 227 154 m 1814 X s
 gsave  2268 1538 0 0 C 1847.41 32.5821 t 0 r /Helvetica-Bold findfont 58.6478 sf 0 0 m (Events) show NC gr  227 191 m -37 Y s 263 172 m -18 Y s 299 172 m -18 Y s 336 172 m -18 Y s 372 172 m -18 Y s 408 191 m -37 Y s 444 172 m -18 Y s 481 172 m -18 Y
 s 517 172 m -18 Y s 553 172 m -18 Y s 590 191 m -37 Y s 626 172 m -18 Y s 662 172 m -18 Y s 698 172 m -18 Y s 735 172 m -18 Y s 771 191 m -37 Y s 807 172 m -18 Y s 844 172 m -18 Y s 880 172 m -18 Y s 916 172 m -18 Y s 952 191 m -37 Y s 989 172 m -18
 Y s 1025 172 m -18 Y s 1061 172 m -18 Y s 1098 172 m -18 Y s 1134 191 m -37 Y s 1170 172 m -18 Y s 1206 172 m -18 Y s 1243 172 m -18 Y s 1279 172 m -18 Y s 1315 191 m -37 Y s 1352 172 m -18 Y s 1388 172 m -18 Y s 1424 172 m -18 Y s 1460 172 m -18 Y
 s 1497 191 m -37 Y s 1533 172 m -18 Y s 1569 172 m -18 Y s 1606 172 m -18 Y s 1642 172 m -18 Y s 1678 191 m -37 Y s 1714 172 m -18 Y s 1751 172 m -18 Y s 1787 172 m -18 Y s 1823 172 m -18 Y s 1860 191 m -37 Y s 1896 172 m -18 Y s 1932 172 m -18 Y s
 1968 172 m -18 Y s 2005 172 m -18 Y s 2041 191 m -37 Y s
 gsave  2268 1538 0 0 C 208.526 97.7464 t 0 r /Helvetica-Bold findfont 58.6478 sf 0 0 m (0) show NC gr 
 gsave  2268 1538 0 0 C 390.986 97.7464 t 0 r /Helvetica-Bold findfont 58.6478 sf 0 0 m (5) show NC gr 
 gsave  2268 1538 0 0 C 553.896 97.7464 t 0 r /Helvetica-Bold findfont 58.6478 sf 0 0 m (10) show NC gr 
 gsave  2268 1538 0 0 C 736.356 97.7464 t 0 r /Helvetica-Bold findfont 58.6478 sf 0 0 m (15) show NC gr 
 gsave  2268 1538 0 0 C 918.816 97.7464 t 0 r /Helvetica-Bold findfont 58.6478 sf 0 0 m (20) show NC gr 
 gsave  2268 1538 0 0 C 1101.28 97.7464 t 0 r /Helvetica-Bold findfont 58.6478 sf 0 0 m (25) show NC gr 
 gsave  2268 1538 0 0 C 1280.48 97.7464 t 0 r /Helvetica-Bold findfont 58.6478 sf 0 0 m (30) show NC gr 
 gsave  2268 1538 0 0 C 1462.94 97.7464 t 0 r /Helvetica-Bold findfont 58.6478 sf 0 0 m (35) show NC gr 
 gsave  2268 1538 0 0 C 1645.4 97.7464 t 0 r /Helvetica-Bold findfont 58.6478 sf 0 0 m (40) show NC gr 
 gsave  2268 1538 0 0 C 1824.6 97.7464 t 0 r /Helvetica-Bold findfont 58.6478 sf 0 0 m (45) show NC gr 
 gsave  2268 1538 0 0 C 2007.06 97.7464 t 0 r /Helvetica-Bold findfont 58.6478 sf 0 0 m (50) show NC gr  227 1461 m 1814 X s 227 1424 m 37 Y s 263 1443 m 18 Y s 299 1443 m 18 Y s 336 1443 m 18 Y s 372 1443 m 18 Y s 408 1424 m 37 Y s 444 1443 m 18 Y s
 481 1443 m 18 Y s 517 1443 m 18 Y s 553 1443 m 18 Y s 590 1424 m 37 Y s 626 1443 m 18 Y s 662 1443 m 18 Y s 698 1443 m 18 Y s 735 1443 m 18 Y s 771 1424 m 37 Y s 807 1443 m 18 Y s 844 1443 m 18 Y s 880 1443 m 18 Y s 916 1443 m 18 Y s 952 1424 m 37 Y
 s 989 1443 m 18 Y s 1025 1443 m 18 Y s 1061 1443 m 18 Y s 1098 1443 m 18 Y s 1134 1424 m 37 Y s 1170 1443 m 18 Y s 1206 1443 m 18 Y s 1243 1443 m 18 Y s 1279 1443 m 18 Y s 1315 1424 m 37 Y s 1352 1443 m 18 Y s 1388 1443 m 18 Y s 1424 1443 m 18 Y s
 1460 1443 m 18 Y s 1497 1424 m 37 Y s 1533 1443 m 18 Y s 1569 1443 m 18 Y s 1606 1443 m 18 Y s 1642 1443 m 18 Y s 1678 1424 m 37 Y s 1714 1443 m 18 Y s 1751 1443 m 18 Y s 1787 1443 m 18 Y s 1823 1443 m 18 Y s 1860 1424 m 37 Y s 1896 1443 m 18 Y s
 1932 1443 m 18 Y s 1968 1443 m 18 Y s 2005 1443 m 18 Y s 2041 1424 m 37 Y s 227 154 m 1307 Y s
 gsave  2268 1538 0 0 C 97.7464 850.394 t 90 r /Helvetica-Bold findfont 58.6478 sf 0 0 m (Cluster Size \(No. Hits\)) show NC gr  285 154 m -58 X s 256 186 m -29 X s 256 217 m -29 X s 256 249 m -29 X s 256 281 m -29 X s 285 313 m -58 X s 256 344 m -29
 X s 256 376 m -29 X s 256 408 m -29 X s 256 440 m -29 X s 285 472 m -58 X s 256 503 m -29 X s 256 535 m -29 X s 256 567 m -29 X s 256 599 m -29 X s 285 630 m -58 X s 256 662 m -29 X s 256 694 m -29 X s 256 726 m -29 X s 256 757 m -29 X s 285 789 m
 -58 X s 256 821 m -29 X s 256 853 m -29 X s 256 885 m -29 X s 256 916 m -29 X s 285 948 m -58 X s 256 980 m -29 X s 256 1012 m -29 X s 256 1043 m -29 X s 256 1075 m -29 X s 285 1107 m -58 X s 256 1139 m -29 X s 256 1171 m -29 X s 256 1202 m -29 X s
 256 1234 m -29 X s 285 1266 m -58 X s 256 1298 m -29 X s 256 1329 m -29 X s 256 1361 m -29 X s 256 1393 m -29 X s 285 1425 m -58 X s 285 1425 m -58 X s 256 1457 m -29 X s
 gsave  2268 1538 0 0 C 182.46 133.587 t 0 r /Helvetica-Bold findfont 58.6478 sf 0 0 m (0) show NC gr 
 gsave  2268 1538 0 0 C 117.296 289.981 t 0 r /Helvetica-Bold findfont 58.6478 sf 0 0 m (100) show NC gr 
 gsave  2268 1538 0 0 C 117.296 449.633 t 0 r /Helvetica-Bold findfont 58.6478 sf 0 0 m (200) show NC gr 
 gsave  2268 1538 0 0 C 117.296 609.286 t 0 r /Helvetica-Bold findfont 58.6478 sf 0 0 m (300) show NC gr 
 gsave  2268 1538 0 0 C 117.296 768.938 t 0 r /Helvetica-Bold findfont 58.6478 sf 0 0 m (400) show NC gr 
 gsave  2268 1538 0 0 C 117.296 928.591 t 0 r /Helvetica-Bold findfont 58.6478 sf 0 0 m (500) show NC gr 
 gsave  2268 1538 0 0 C 117.296 1084.98 t 0 r /Helvetica-Bold findfont 58.6478 sf 0 0 m (600) show NC gr 
 gsave  2268 1538 0 0 C 117.296 1244.64 t 0 r /Helvetica-Bold findfont 58.6478 sf 0 0 m (700) show NC gr 
 gsave  2268 1538 0 0 C 117.296 1404.29 t 0 r /Helvetica-Bold findfont 58.6478 sf 0 0 m (800) show NC gr  2041 154 m 1307 Y s 1983 154 m 58 X s 2012 186 m 29 X s 2012 217 m 29 X s 2012 249 m 29 X s 2012 281 m 29 X s 1983 313 m 58 X s 2012 344 m 29 X
 s 2012 376 m 29 X s 2012 408 m 29 X s 2012 440 m 29 X s 1983 472 m 58 X s 2012 503 m 29 X s 2012 535 m 29 X s 2012 567 m 29 X s 2012 599 m 29 X s 1983 630 m 58 X s 2012 662 m 29 X s 2012 694 m 29 X s 2012 726 m 29 X s 2012 757 m 29 X s 1983 789 m 58
 X s 2012 821 m 29 X s 2012 853 m 29 X s 2012 885 m 29 X s 2012 916 m 29 X s 1983 948 m 58 X s 2012 980 m 29 X s 2012 1012 m 29 X s 2012 1043 m 29 X s 2012 1075 m 29 X s 1983 1107 m 58 X s 2012 1139 m 29 X s 2012 1171 m 29 X s 2012 1202 m 29 X s 2012
 1234 m 29 X s 1983 1266 m 58 X s 2012 1298 m 29 X s 2012 1329 m 29 X s 2012 1361 m 29 X s 2012 1393 m 29 X s 1983 1425 m 58 X s 1983 1425 m 58 X s 2012 1457 m 29 X s
 gsave  2268 1538 0 0 C 1326.09 1172.96 t 0 r /Helvetica-Bold findfont 58.6478 sf 0 0 m (Pixel Occupancies) show NC gr  1124 1192 m 167 X s
 gr  gr showpage
end
%%EOF
