%!PS-Adobe-2.0 EPSF-2.0
%%BoundingBox:  0 0 567 384
%%Title: outputDir/sct_occupancy/size_sctlayer_mgz.eps: c1_n30
%%Creator: ROOT Version 6.04/12
%%CreationDate: Mon Apr 25 16:02:10 2016
%%DocumentNeededResources: ProcSet (FontSetInit)
%%EndComments
%%BeginProlog
80 dict begin
/s {stroke} def /l {lineto} def /m {moveto} def /t {translate} def
/r {rotate} def /rl {roll}  def /R {repeat} def
/d {rlineto} def /rm {rmoveto} def /gr {grestore} def /f {eofill} def
/c {setrgbcolor} def /black {0 setgray} def /sd {setdash} def
/cl {closepath} def /sf {scalefont setfont} def /lw {setlinewidth} def
/box {m dup 0 exch d exch 0 d 0 exch neg d cl} def
/NC{systemdict begin initclip end}def/C{NC box clip newpath}def
/bl {box s} def /bf {gsave box gsave f grestore 1 lw [] 0 sd s grestore} def /Y { 0 exch d} def /X { 0 d} def 
/K {{pop pop 0 moveto} exch kshow} bind def
/ita {/ang 15 def gsave [1 0 ang dup sin exch cos div 1 0 0] concat} def 
/mp {newpath /y exch def /x exch def} def
/side {[w .77 mul w .23 mul] .385 w mul sd w 0 l currentpoint t -144 r} def
/mr {mp x y w2 0 360 arc} def /m24 {mr s} def /m20 {mr f} def
/mb {mp x y w2 add m w2 neg 0 d 0 w neg d w 0 d 0 w d cl} def
/mt {mp x y w2 add m w2 neg w neg d w 0 d cl} def
/m21 {mb f} def /m25 {mb s} def /m22 {mt f} def /m26{mt s} def
/m23 {mp x y w2 sub m w2 w d w neg 0 d cl f} def
/m27 {mp x y w2 add m w3 neg w2 neg d w3 w2 neg d w3 w2 d cl s} def
/m28 {mp x w2 sub y w2 sub w3 add m w3 0 d  0 w3 neg d w3 0 d 0 w3 d w3 0 d  0 w3 d w3 neg 0 d 0 w3 d w3 neg 0 d 0 w3 neg d w3 neg 0 d cl s } def
/m29 {mp gsave x w2 sub y w2 add w3 sub m currentpoint t 4 {side} repeat cl fill gr} def
/m30 {mp gsave x w2 sub y w2 add w3 sub m currentpoint t 4 {side} repeat cl s gr} def
/m31 {mp x y w2 sub m 0 w d x w2 sub y m w 0 d x w2 sub y w2 add m w w neg d x w2 sub y w2 sub m w w d s} def
/m32 {mp x y w2 sub m w2 w d w neg 0 d cl s} def
/m33 {mp x y w2 add m w3 neg w2 neg d w3 w2 neg d w3 w2 d cl f} def
/m34 {mp x w2 sub y w2 sub w3 add m w3 0 d  0 w3 neg d w3 0 d 0 w3 d w3 0 d  0 w3 d w3 neg 0 d 0 w3 d w3 neg 0 d 0 w3 neg d w3 neg 0 d cl f } def
/m2 {mp x y w2 sub m 0 w d x w2 sub y m w 0 d s} def
/m5 {mp x w2 sub y w2 sub m w w d x w2 sub y w2 add m w w neg d s} def
%%IncludeResource: ProcSet (FontSetInit)
%%IncludeResource: font Times-Roman
%%IncludeResource: font Times-Italic
%%IncludeResource: font Times-Bold
%%IncludeResource: font Times-BoldItalic
%%IncludeResource: font Helvetica
%%IncludeResource: font Helvetica-Oblique
%%IncludeResource: font Helvetica-Bold
%%IncludeResource: font Helvetica-BoldOblique
%%IncludeResource: font Courier
%%IncludeResource: font Courier-Oblique
%%IncludeResource: font Courier-Bold
%%IncludeResource: font Courier-BoldOblique
%%IncludeResource: font Symbol
%%IncludeResource: font ZapfDingbats
/reEncode {exch findfont dup length dict begin {1 index /FID eq  {pop pop} {def} ifelse } forall /Encoding exch def currentdict end dup /FontName get exch definefont pop } def [/Times-Bold /Times-Italic /Times-BoldItalic /Helvetica /Helvetica-Oblique
 /Helvetica-Bold /Helvetica-BoldOblique /Courier /Courier-Oblique /Courier-Bold /Courier-BoldOblique /Times-Roman /AvantGarde-Book /AvantGarde-BookOblique /AvantGarde-Demi /AvantGarde-DemiOblique /Bookman-Demi /Bookman-DemiItalic /Bookman-Light
 /Bookman-LightItalic /Helvetica-Narrow /Helvetica-Narrow-Bold /Helvetica-Narrow-BoldOblique /Helvetica-Narrow-Oblique /NewCenturySchlbk-Roman /NewCenturySchlbk-Bold /NewCenturySchlbk-BoldItalic /NewCenturySchlbk-Italic /Palatino-Bold
 /Palatino-BoldItalic /Palatino-Italic /Palatino-Roman ] {ISOLatin1Encoding reEncode } forall
%%EndProlog
%%BeginSetup
%%EndSetup
newpath  gsave  .25 .25 scale  gsave  0 0 t black[  ] 0 sd 3 lw 1 1 1 c 2268 1538 0 0 bf black 1 1 1 c 1814 1230 227 154 bf black 1814 1230 227 154 bl 1 1 1 c 1814 1230 227 154 bf black 1814 1230 227 154 bl 227 154 m 1814 X s
 gsave  2268 1538 0 0 C 1853.92 35.8403 t 0 r /Helvetica-Bold findfont 58.6478 sf 0 0 m (z [mm]) show NC gr  399 191 m -37 Y s 460 172 m -18 Y s 521 172 m -18 Y s 583 172 m -18 Y s 644 191 m -37 Y s 705 172 m -18 Y s 766 172 m -18 Y s 828 172 m -18 Y
 s 889 191 m -37 Y s 950 172 m -18 Y s 1011 172 m -18 Y s 1073 172 m -18 Y s 1134 191 m -37 Y s 1195 172 m -18 Y s 1256 172 m -18 Y s 1318 172 m -18 Y s 1379 191 m -37 Y s 1440 172 m -18 Y s 1501 172 m -18 Y s 1563 172 m -18 Y s 1624 191 m -37 Y s
 1685 172 m -18 Y s 1746 172 m -18 Y s 1808 172 m -18 Y s 1869 191 m -37 Y s 399 191 m -37 Y s 338 172 m -18 Y s 276 172 m -18 Y s 1869 191 m -37 Y s 1930 172 m -18 Y s 1991 172 m -18 Y s
 gsave  2268 1538 0 0 C 361.662 97.7464 t 0 r /Helvetica-Bold findfont 58.6478 sf 0 0 m (600) show NC gr 
 gsave  2268 1538 0 0 C 332.338 97.7464 t 0 r /Symbol findfont 58.6478 sf 0 0 m (-) show NC gr 
 gsave  2268 1538 0 0 C 606.028 97.7464 t 0 r /Helvetica-Bold findfont 58.6478 sf 0 0 m (400) show NC gr 
 gsave  2268 1538 0 0 C 576.704 97.7464 t 0 r /Symbol findfont 58.6478 sf 0 0 m (-) show NC gr 
 gsave  2268 1538 0 0 C 850.394 97.7464 t 0 r /Helvetica-Bold findfont 58.6478 sf 0 0 m (200) show NC gr 
 gsave  2268 1538 0 0 C 821.07 97.7464 t 0 r /Symbol findfont 58.6478 sf 0 0 m (-) show NC gr 
 gsave  2268 1538 0 0 C 1117.57 97.7464 t 0 r /Helvetica-Bold findfont 58.6478 sf 0 0 m (0) show NC gr 
 gsave  2268 1538 0 0 C 1329.35 97.7464 t 0 r /Helvetica-Bold findfont 58.6478 sf 0 0 m (200) show NC gr 
 gsave  2268 1538 0 0 C 1573.72 97.7464 t 0 r /Helvetica-Bold findfont 58.6478 sf 0 0 m (400) show NC gr 
 gsave  2268 1538 0 0 C 1818.08 97.7464 t 0 r /Helvetica-Bold findfont 58.6478 sf 0 0 m (600) show NC gr  227 1384 m 1814 X s 399 1347 m 37 Y s 460 1366 m 18 Y s 521 1366 m 18 Y s 583 1366 m 18 Y s 644 1347 m 37 Y s 705 1366 m 18 Y s 766 1366 m 18 Y
 s 828 1366 m 18 Y s 889 1347 m 37 Y s 950 1366 m 18 Y s 1011 1366 m 18 Y s 1073 1366 m 18 Y s 1134 1347 m 37 Y s 1195 1366 m 18 Y s 1256 1366 m 18 Y s 1318 1366 m 18 Y s 1379 1347 m 37 Y s 1440 1366 m 18 Y s 1501 1366 m 18 Y s 1563 1366 m 18 Y s
 1624 1347 m 37 Y s 1685 1366 m 18 Y s 1746 1366 m 18 Y s 1808 1366 m 18 Y s 1869 1347 m 37 Y s 399 1347 m 37 Y s 338 1366 m 18 Y s 276 1366 m 18 Y s 1869 1347 m 37 Y s 1930 1366 m 18 Y s 1991 1366 m 18 Y s 227 154 m 1230 Y s
 gsave  2268 1538 0 0 C 104.263 1055.66 t 90 r /Helvetica-Bold findfont 58.6478 sf 0 0 m (Cluster size) show NC gr  281 271 m -54 X s 254 326 m -27 X s 254 381 m -27 X s 254 435 m -27 X s 281 490 m -54 X s 254 545 m -27 X s 254 600 m -27 X s 254 654
 m -27 X s 281 709 m -54 X s 254 764 m -27 X s 254 819 m -27 X s 254 873 m -27 X s 281 928 m -54 X s 254 983 m -27 X s 254 1038 m -27 X s 254 1093 m -27 X s 281 1147 m -54 X s 254 1202 m -27 X s 254 1257 m -27 X s 254 1312 m -27 X s 281 1366 m -54 X
 s 281 271 m -54 X s 254 216 m -27 X s 254 162 m -27 X s 281 1366 m -54 X s
 gsave  2268 1538 0 0 C 182.46 247.624 t 0 r /Helvetica-Bold findfont 58.6478 sf 0 0 m (2) show NC gr 
 gsave  2268 1538 0 0 C 182.46 469.183 t 0 r /Helvetica-Bold findfont 58.6478 sf 0 0 m (4) show NC gr 
 gsave  2268 1538 0 0 C 182.46 687.483 t 0 r /Helvetica-Bold findfont 58.6478 sf 0 0 m (6) show NC gr 
 gsave  2268 1538 0 0 C 182.46 905.783 t 0 r /Helvetica-Bold findfont 58.6478 sf 0 0 m (8) show NC gr 
 gsave  2268 1538 0 0 C 149.878 1127.34 t 0 r /Helvetica-Bold findfont 58.6478 sf 0 0 m (10) show NC gr 
 gsave  2268 1538 0 0 C 149.878 1342.38 t 0 r /Helvetica-Bold findfont 58.6478 sf 0 0 m (12) show NC gr  2041 154 m 1230 Y s 1987 271 m 54 X s 2014 326 m 27 X s 2014 381 m 27 X s 2014 435 m 27 X s 1987 490 m 54 X s 2014 545 m 27 X s 2014 600 m 27 X s
 2014 654 m 27 X s 1987 709 m 54 X s 2014 764 m 27 X s 2014 819 m 27 X s 2014 873 m 27 X s 1987 928 m 54 X s 2014 983 m 27 X s 2014 1038 m 27 X s 2014 1093 m 27 X s 1987 1147 m 54 X s 2014 1202 m 27 X s 2014 1257 m 27 X s 2014 1312 m 27 X s 1987 1366
 m 54 X s 1987 271 m 54 X s 2014 216 m 27 X s 2014 162 m 27 X s 1987 1366 m 54 X s 309 318 m 15 Y s 303 333 m 13 X s 309 292 m -16 Y s 303 276 m 13 X s 338 378 m 40 Y s 332 418 m 13 X s 338 352 m -41 Y s 332 311 m 13 X s 368 322 m 26 Y s 361 348 m 13
 X s 368 296 m -25 Y s 361 271 m 13 X s 397 310 m 24 Y s 391 334 m 13 X s 397 284 m -23 Y s 391 261 m 13 X s 429 264 m 1 Y s 423 265 m 13 X s 429 237 m -1 Y s 423 236 m 13 X s 488 362 m 59 Y s 481 421 m 13 X s 488 336 m -58 Y s 481 278 m 13 X s 517
 240 m 2 Y s 511 242 m 13 X s 517 214 m -2 Y s 511 212 m 13 X s 579 284 m 7 Y s 572 291 m 13 X s 579 258 m -7 Y s 572 251 m 13 X s 608 237 m s 602 237 m 13 X s 608 211 m -1 Y s 602 210 m 13 X s 637 327 m 25 Y s 631 352 m 13 X s 637 301 m -25 Y s 631
 276 m 13 X s 670 313 m 30 Y s 663 343 m 13 X s 670 287 m -30 Y s 663 257 m 13 X s 699 271 m 11 Y s 692 282 m 13 X s 699 245 m -10 Y s 692 235 m 13 X s 728 275 m 3 Y s 722 278 m 13 X s 728 249 m -4 Y s 722 245 m 13 X s 757 253 m 3 Y s 751 256 m 13 X
 s 757 227 m -2 Y s 751 225 m 13 X s 790 265 m 17 Y s 783 282 m 13 X s 790 239 m -17 Y s 783 222 m 13 X s 848 280 m 16 Y s 842 296 m 13 X s 848 254 m -16 Y s 842 238 m 13 X s 878 258 m 13 Y s 871 271 m 13 X s 878 232 m -14 Y s 871 218 m 13 X s 910
 270 m 4 Y s 903 274 m 13 X s 910 244 m -5 Y s 903 239 m 13 X s 939 276 m 5 Y s 933 281 m 13 X s 939 250 m -5 Y s 933 245 m 13 X s 968 272 m 12 Y s 962 284 m 13 X s 968 245 m -12 Y s 962 233 m 13 X s 998 268 m 4 Y s 991 272 m 13 X s 998 242 m -4 Y s
 991 238 m 13 X s 1059 302 m 13 Y s 1053 315 m 13 X s 1059 276 m -13 Y s 1053 263 m 13 X s 1209 233 m s 1202 233 m 13 X s 1209 207 m s 1202 207 m 13 X s 1270 243 m 2 Y s 1264 245 m 13 X s 1270 217 m -1 Y s 1264 216 m 13 X s 1329 322 m 20 Y s 1322 342
 m 13 X s 1329 296 m -20 Y s 1322 276 m 13 X s 1390 288 m 24 Y s 1384 312 m 13 X s 1390 262 m -23 Y s 1384 239 m 13 X s 1420 245 m 11 Y s 1413 256 m 13 X s 1420 219 m -11 Y s 1413 208 m 13 X s 1478 238 m 1 Y s 1472 239 m 13 X s 1478 212 m -1 Y s 1472
 211 m 13 X s 1510 264 m 2 Y s 1504 266 m 13 X s 1510 237 m -2 Y s 1504 235 m 13 X s 1598 302 m 20 Y s 1592 322 m 13 X s 1598 276 m -20 Y s 1592 256 m 13 X s 1630 282 m 10 Y s 1624 292 m 13 X s 1630 256 m -9 Y s 1624 247 m 13 X s 1660 266 m 11 Y s
 1653 277 m 13 X s 1660 240 m -11 Y s 1653 229 m 13 X s 1689 305 m 49 Y s 1682 354 m 14 X s 1689 279 m -49 Y s 1682 230 m 14 X s 1718 398 m 71 Y s 1712 469 m 13 X s 1718 372 m -71 Y s 1712 301 m 13 X s 1751 321 m 31 Y s 1744 352 m 13 X s 1751 295 m
 -32 Y s 1744 263 m 13 X s 1780 265 m 1 Y s 1773 266 m 13 X s 1780 239 m -2 Y s 1773 237 m 13 X s 1809 299 m 10 Y s 1803 309 m 13 X s 1809 273 m -10 Y s 1803 263 m 13 X s 1838 273 m 9 Y s 1832 282 m 13 X s 1838 247 m -9 Y s 1832 238 m 13 X s 1871 267
 m 10 Y s 1864 277 m 13 X s 1871 241 m -10 Y s 1864 231 m 13 X s 1900 261 m 11 Y s 1893 272 m 13 X s 1900 235 m -11 Y s 1893 224 m 13 X s 1929 271 m 4 Y s 1923 275 m 13 X s 1929 245 m -5 Y s 1923 240 m 13 X s 1958 722 m 274 Y s 1952 996 m 13 X s 1958
 696 m -274 Y s 1952 422 m 13 X s 309 305 m 29 60 d 30 -56 d 29 -12 d 32 -47 d 30 -14 d 29 113 d 29 -122 d 32 10 d 30 34 d 29 -47 d 29 90 d 33 -14 d 29 -42 d 29 4 d 29 -22 d 33 12 d 29 -34 d 29 49 d 30 -22 d 32 12 d 29 6 d 29 -5 d 30 -3 d 32 -32 d 29
 66 d 29 -83 d 30 -6 d 32 18 d 29 -15 d 30 17 d 29 6 d 32 4 d 29 -20 d 30 99 d 29 -86 d 32 52 d 30 -43 d 29 -4 d 29 -3 d 32 25 d 30 -15 d 29 -8 d 29 62 d 32 -20 d 30 -16 d 29 39 d 29 93 d 33 -77 d 29 -56 d 29 34 d 29 -26 d 33 -6 d 29 -6 d 29 10 d 29
 451 d s /w 26 def /w2 {w 2 div} def /w3 {w 3 div} def 309 305 338 365 368 309 397 297 429 250 459 236 488 349 517 227 549 237 579 271 608 224 637 314 670 300 699 258 728 262 757 240 790 252 819 218 848 267 878 245 910 257 939 263 968 258 998 255
 1030 223 1059 289 1088 206 1118 200 1150 218 1179 203 1209 220 1238 226 1270 230 1299 210 1329 309 1358 223 1390 275 1420 232 1449 228 1478 225 1510 250 1540 235 1569 227 1598 289 1630 269 1660 253 1689 292 1718 385 1751 308 1780 252 1809 286 1838
 260 1871 254 1900 248 1929 258 1958 709 56 { m20} R 1 0 0 c 309 288 m 16 Y s 303 304 m 13 X s 309 262 m -17 Y s 303 245 m 13 X s 339 327 m 30 Y s 332 357 m 13 X s 339 301 m -31 Y s 332 270 m 13 X s 368 348 m 31 Y s 361 379 m 13 X s 368 322 m -31 Y s
 361 291 m 13 X s 397 296 m 19 Y s 391 315 m 13 X s 397 270 m -20 Y s 391 250 m 13 X s 429 301 m 16 Y s 423 317 m 13 X s 429 275 m -15 Y s 423 260 m 13 X s 459 342 m 49 Y s 452 391 m 13 X s 459 316 m -49 Y s 452 267 m 13 X s 488 253 m 1 Y s 481 254 m
 14 X s 488 226 m -1 Y s 481 225 m 14 X s 517 336 m 22 Y s 511 358 m 13 X s 517 310 m -22 Y s 511 288 m 13 X s 579 261 m 12 Y s 572 273 m 13 X s 579 235 m -13 Y s 572 222 m 13 X s 608 276 m 3 Y s 602 279 m 13 X s 608 250 m -2 Y s 602 248 m 13 X s 637
 341 m 71 Y s 631 412 m 13 X s 637 315 m -72 Y s 631 243 m 13 X s 669 251 m 1 Y s 663 252 m 13 X s 669 225 m -2 Y s 663 223 m 13 X s 699 242 m 7 Y s 692 249 m 13 X s 699 216 m -7 Y s 692 209 m 13 X s 728 275 m 8 Y s 722 283 m 13 X s 728 249 m -7 Y s
 722 242 m 13 X s 757 278 m 11 Y s 751 289 m 13 X s 757 252 m -10 Y s 751 242 m 13 X s 790 282 m 15 Y s 783 297 m 13 X s 790 256 m -15 Y s 783 241 m 13 X s 910 239 m 2 Y s 903 241 m 13 X s 910 213 m -3 Y s 903 210 m 13 X s 939 246 m 5 Y s 933 251 m
 13 X s 939 220 m -5 Y s 933 215 m 13 X s 968 303 m 7 Y s 962 310 m 13 X s 968 277 m -8 Y s 962 269 m 13 X s 998 278 m 2 Y s 991 280 m 13 X s 998 252 m -3 Y s 991 249 m 13 X s 1059 239 m 1 Y s 1053 240 m 13 X s 1059 213 m -1 Y s 1053 212 m 13 X s
 1088 244 m 1 Y s 1082 245 m 13 X s 1088 218 m -1 Y s 1082 217 m 13 X s 1209 294 m 14 Y s 1202 308 m 13 X s 1209 268 m -14 Y s 1202 254 m 13 X s 1238 343 m 30 Y s 1231 373 m 13 X s 1238 317 m -31 Y s 1231 286 m 13 X s 1270 281 m 29 Y s 1264 310 m 13
 X s 1270 255 m -30 Y s 1264 225 m 13 X s 1299 266 m 9 Y s 1293 275 m 13 X s 1299 240 m -9 Y s 1293 231 m 13 X s 1329 272 m 18 Y s 1322 290 m 13 X s 1329 246 m -18 Y s 1322 228 m 13 X s 1358 250 m 5 Y s 1352 255 m 13 X s 1358 224 m -5 Y s 1352 219 m
 13 X s 1390 249 m 2 Y s 1384 251 m 13 X s 1390 223 m -1 Y s 1384 222 m 13 X s 1420 255 m 10 Y s 1413 265 m 13 X s 1420 229 m -9 Y s 1413 220 m 13 X s 1449 331 m 32 Y s 1442 363 m 13 X s 1449 305 m -33 Y s 1442 272 m 13 X s 1478 277 m 8 Y s 1472 285
 m 13 X s 1478 251 m -8 Y s 1472 243 m 13 X s 1510 259 m 6 Y s 1504 265 m 13 X s 1510 233 m -5 Y s 1504 228 m 13 X s 1540 329 m 23 Y s 1533 352 m 13 X s 1540 303 m -22 Y s 1533 281 m 13 X s 1569 272 m 1 Y s 1562 273 m 13 X s 1569 246 m -2 Y s 1562
 244 m 13 X s 1598 324 m 23 Y s 1591 347 m 14 X s 1598 298 m -24 Y s 1591 274 m 14 X s 1630 266 m 1 Y s 1624 267 m 13 X s 1630 240 m -2 Y s 1624 238 m 13 X s 1660 243 m 5 Y s 1653 248 m 13 X s 1660 217 m -4 Y s 1653 213 m 13 X s 1689 297 m 11 Y s
 1682 308 m 14 X s 1689 271 m -11 Y s 1682 260 m 14 X s 1718 306 m 25 Y s 1712 331 m 13 X s 1718 280 m -25 Y s 1712 255 m 13 X s 1751 275 m 7 Y s 1744 282 m 13 X s 1751 249 m -7 Y s 1744 242 m 13 X s 1780 282 m 6 Y s 1773 288 m 13 X s 1780 256 m -6 Y
 s 1773 250 m 13 X s 1809 253 m 2 Y s 1803 255 m 13 X s 1809 227 m -3 Y s 1803 224 m 13 X s 1838 331 m 54 Y s 1832 385 m 13 X s 1838 305 m -55 Y s 1832 250 m 13 X s 1871 293 m 15 Y s 1864 308 m 13 X s 1871 267 m -16 Y s 1864 251 m 13 X s 1900 271 m
 21 Y s 1893 292 m 13 X s 1900 245 m -21 Y s 1893 224 m 13 X s 1929 245 m 3 Y s 1923 248 m 13 X s 1929 219 m -3 Y s 1923 216 m 13 X s 1958 377 m 44 Y s 1952 421 m 13 X s 1958 351 m -43 Y s 1952 308 m 13 X s black 1 0 0 c 309 275 m 30 39 d 29 21 d 29
 -52 d 32 5 d 30 41 d 29 -90 d 29 84 d 32 -89 d 30 14 d 29 15 d 29 65 d 32 -90 d 30 -9 d 29 33 d 29 3 d 33 4 d 29 -41 d 29 -1 d 30 -8 d 32 7 d 29 7 d 29 57 d 30 -25 d 32 -60 d 29 21 d 29 5 d 30 5 d 32 -5 d 29 -20 d 30 70 d 29 49 d 32 -62 d 29 -15 d
 30 6 d 29 -22 d 32 -1 d 30 6 d 29 76 d 29 -54 d 32 -18 d 30 70 d 29 -57 d 29 52 d 32 -58 d 30 -23 d 29 54 d 29 9 d 33 -31 d 29 7 d 29 -29 d 29 78 d 33 -38 d 29 -22 d 29 -26 d 29 132 d s 309 275 339 314 368 335 397 283 429 288 459 329 488 239 517 323
 549 234 579 248 608 263 637 328 669 238 699 229 728 262 757 265 790 269 819 228 848 227 878 219 910 226 939 233 968 290 998 265 1030 205 1059 226 1088 231 1118 236 1150 231 1179 211 1209 281 1238 330 1270 268 1299 253 1329 259 1358 237 1390 236 1420
 242 1449 318 1478 264 1510 246 1540 316 1569 259 1598 311 1630 253 1660 230 1689 284 1718 293 1751 262 1780 269 1809 240 1838 318 1871 280 1900 258 1929 232 1958 364 56 { m20} R 0 1 0 c 444 270 m 7 Y s 438 277 m 13 X s 444 244 m -6 Y s 438 238 m 13
 X s 503 298 m 14 Y s 496 312 m 13 X s 503 272 m -14 Y s 496 258 m 13 X s 564 274 m 6 Y s 558 280 m 13 X s 564 248 m -6 Y s 558 242 m 13 X s 684 275 m 3 Y s 678 278 m 13 X s 684 249 m -3 Y s 678 246 m 13 X s 743 287 m 2 Y s 736 289 m 13 X s 743 261 m
 -2 Y s 736 259 m 13 X s 804 255 m s 798 255 m 13 X s 804 229 m s 798 229 m 13 X s 863 289 m 10 Y s 856 299 m 13 X s 863 263 m -9 Y s 856 254 m 13 X s 925 300 m 32 Y s 918 332 m 13 X s 925 274 m -31 Y s 918 243 m 13 X s 983 262 m 2 Y s 976 264 m 13 X
 s 983 236 m -3 Y s 976 233 m 13 X s 1103 273 m 4 Y s 1097 277 m 13 X s 1103 247 m -5 Y s 1097 242 m 13 X s 1223 262 m 5 Y s 1217 267 m 13 X s 1223 236 m -5 Y s 1217 231 m 13 X s 1463 266 m 1 Y s 1457 267 m 13 X s 1463 240 m s 1457 240 m 13 X s 1704
 264 m s 1697 264 m 13 X s 1704 238 m -1 Y s 1697 237 m 13 X s 1765 339 m 18 Y s 1759 357 m 13 X s 1765 313 m -18 Y s 1759 295 m 13 X s 1824 345 m 20 Y s 1817 365 m 13 X s 1824 319 m -19 Y s 1817 300 m 13 X s 1885 358 m 32 Y s 1879 390 m 13 X s 1885
 332 m -32 Y s 1879 300 m 13 X s 1944 262 m 4 Y s 1937 266 m 13 X s 1944 236 m -3 Y s 1937 233 m 13 X s black 0 1 0 c 324 261 m 58 -36 d 62 32 d 59 28 d 61 -24 d 59 -28 d 61 29 d 59 12 d 61 -32 d 59 34 d 62 11 d 58 -38 d 62 -25 d 58 36 d 62 -35 d 58
 24 d 62 -7 d 58 -6 d 62 -5 d 58 22 d 62 -28 d 58 3 d 62 19 d 59 4 d 61 75 d 59 6 d 61 13 d 59 -96 d s 324 261 382 225 444 257 503 285 564 261 623 233 684 262 743 274 804 242 863 276 925 287 983 249 1045 224 1103 260 1165 225 1223 249 1285 242 1343
 236 1405 231 1463 253 1525 225 1583 228 1645 247 1704 251 1765 326 1824 332 1885 345 1944 249 28 { m20} R 0 0 1 c 324 265 m 1 Y s 318 266 m 13 X s 324 239 m -1 Y s 318 238 m 13 X s 382 280 m 27 Y s 376 307 m 13 X s 382 254 m -27 Y s 376 227 m 13 X s
 503 256 m 10 Y s 496 266 m 13 X s 503 230 m -10 Y s 496 220 m 13 X s 564 265 m 4 Y s 558 269 m 13 X s 564 239 m -3 Y s 558 236 m 13 X s 622 258 m 1 Y s 616 259 m 13 X s 622 232 m s 616 232 m 13 X s 684 318 m 19 Y s 678 337 m 13 X s 684 292 m -19 Y s
 678 273 m 13 X s 743 285 m 6 Y s 736 291 m 13 X s 743 259 m -6 Y s 736 253 m 13 X s 863 378 m 76 Y s 856 454 m 13 X s 863 352 m -76 Y s 856 276 m 13 X s 925 248 m 1 Y s 918 249 m 13 X s 925 222 m -1 Y s 918 221 m 13 X s 983 248 m 1 Y s 976 249 m 13
 X s 983 222 m -1 Y s 976 221 m 13 X s 1045 303 m 11 Y s 1038 314 m 13 X s 1045 277 m -12 Y s 1038 265 m 13 X s 1103 288 m 18 Y s 1097 306 m 13 X s 1103 262 m -18 Y s 1097 244 m 13 X s 1223 278 m 11 Y s 1217 289 m 13 X s 1223 252 m -10 Y s 1217 242 m
 13 X s 1285 254 m 5 Y s 1278 259 m 13 X s 1285 228 m -5 Y s 1278 223 m 13 X s 1343 250 m s 1337 250 m 13 X s 1343 224 m -1 Y s 1337 223 m 13 X s 1405 257 m 5 Y s 1398 262 m 13 X s 1405 231 m -4 Y s 1398 227 m 13 X s 1463 264 m 5 Y s 1457 269 m 13 X
 s 1463 238 m -5 Y s 1457 233 m 13 X s 1525 272 m 5 Y s 1518 277 m 13 X s 1525 246 m -5 Y s 1518 241 m 13 X s 1704 305 m 19 Y s 1697 324 m 13 X s 1704 279 m -18 Y s 1697 261 m 13 X s 1824 294 m 13 Y s 1817 307 m 13 X s 1824 268 m -12 Y s 1817 256 m
 13 X s black 0 0 1 c 324 252 m 58 15 d 62 -36 d 59 12 d 61 9 d 58 -7 d 62 60 d 59 -33 d 61 -48 d 59 141 d 62 -130 d 58 X 62 55 d 58 -15 d 62 -53 d 58 43 d 62 -24 d 58 -4 d 62 7 d 58 7 d 62 8 d 58 -19 d 62 -23 d 59 75 d 61 -78 d 59 67 d 61 -48 d 59 2
 d s 324 252 382 267 444 231 503 243 564 252 622 245 684 305 743 272 804 224 863 365 925 235 983 235 1045 290 1103 275 1165 222 1223 265 1285 241 1343 237 1405 244 1463 251 1525 259 1583 240 1645 217 1704 292 1765 214 1824 281 1885 233 1944 235 28 {
 m20} R black
 gsave  2268 1538 0 0 C 1394.52 1273.96 t 0 r /Helvetica-Bold findfont 58.6478 sf 0 0 m (SCT Barrel) show NC gr 
 gsave  2268 1538 0 0 C 1495.52 1228.35 t 0 r /Helvetica-Bold findfont 58.6478 sf 0 0 m (Layer 0) show NC gr  1400 1238 m 80 X s 1440 1238 m20
 gsave  2268 1538 0 0 C 1495.52 1182.73 t 0 r /Helvetica-Bold findfont 58.6478 sf 0 0 m (Layer 1) show NC gr  1 0 0 c 1400 1192 m 80 X s 1440 1192 m20 black
 gsave  2268 1538 0 0 C 1495.52 1137.12 t 0 r /Helvetica-Bold findfont 58.6478 sf 0 0 m (Layer 2) show NC gr  0 1 0 c 1400 1146 m 80 X s 1440 1146 m20 black
 gsave  2268 1538 0 0 C 1495.52 1091.5 t 0 r /Helvetica-Bold findfont 58.6478 sf 0 0 m (Layer 3) show NC gr  0 0 1 c 1400 1100 m 80 X s 1440 1100 m20
 gr  gr showpage
end
%%EOF
