%!PS-Adobe-2.0 EPSF-2.0
%%BoundingBox:  0 0 567 384
%%Title: outputDir/sct_occupancy/size_sctdisk_mg.eps: c1_n47
%%Creator: ROOT Version 6.04/12
%%CreationDate: Mon Apr 25 16:02:14 2016
%%DocumentNeededResources: ProcSet (FontSetInit)
%%EndComments
%%BeginProlog
80 dict begin
/s {stroke} def /l {lineto} def /m {moveto} def /t {translate} def
/r {rotate} def /rl {roll}  def /R {repeat} def
/d {rlineto} def /rm {rmoveto} def /gr {grestore} def /f {eofill} def
/c {setrgbcolor} def /black {0 setgray} def /sd {setdash} def
/cl {closepath} def /sf {scalefont setfont} def /lw {setlinewidth} def
/box {m dup 0 exch d exch 0 d 0 exch neg d cl} def
/NC{systemdict begin initclip end}def/C{NC box clip newpath}def
/bl {box s} def /bf {gsave box gsave f grestore 1 lw [] 0 sd s grestore} def /Y { 0 exch d} def /X { 0 d} def 
/K {{pop pop 0 moveto} exch kshow} bind def
/ita {/ang 15 def gsave [1 0 ang dup sin exch cos div 1 0 0] concat} def 
/mp {newpath /y exch def /x exch def} def
/side {[w .77 mul w .23 mul] .385 w mul sd w 0 l currentpoint t -144 r} def
/mr {mp x y w2 0 360 arc} def /m24 {mr s} def /m20 {mr f} def
/mb {mp x y w2 add m w2 neg 0 d 0 w neg d w 0 d 0 w d cl} def
/mt {mp x y w2 add m w2 neg w neg d w 0 d cl} def
/m21 {mb f} def /m25 {mb s} def /m22 {mt f} def /m26{mt s} def
/m23 {mp x y w2 sub m w2 w d w neg 0 d cl f} def
/m27 {mp x y w2 add m w3 neg w2 neg d w3 w2 neg d w3 w2 d cl s} def
/m28 {mp x w2 sub y w2 sub w3 add m w3 0 d  0 w3 neg d w3 0 d 0 w3 d w3 0 d  0 w3 d w3 neg 0 d 0 w3 d w3 neg 0 d 0 w3 neg d w3 neg 0 d cl s } def
/m29 {mp gsave x w2 sub y w2 add w3 sub m currentpoint t 4 {side} repeat cl fill gr} def
/m30 {mp gsave x w2 sub y w2 add w3 sub m currentpoint t 4 {side} repeat cl s gr} def
/m31 {mp x y w2 sub m 0 w d x w2 sub y m w 0 d x w2 sub y w2 add m w w neg d x w2 sub y w2 sub m w w d s} def
/m32 {mp x y w2 sub m w2 w d w neg 0 d cl s} def
/m33 {mp x y w2 add m w3 neg w2 neg d w3 w2 neg d w3 w2 d cl f} def
/m34 {mp x w2 sub y w2 sub w3 add m w3 0 d  0 w3 neg d w3 0 d 0 w3 d w3 0 d  0 w3 d w3 neg 0 d 0 w3 d w3 neg 0 d 0 w3 neg d w3 neg 0 d cl f } def
/m2 {mp x y w2 sub m 0 w d x w2 sub y m w 0 d s} def
/m5 {mp x w2 sub y w2 sub m w w d x w2 sub y w2 add m w w neg d s} def
%%IncludeResource: ProcSet (FontSetInit)
%%IncludeResource: font Times-Roman
%%IncludeResource: font Times-Italic
%%IncludeResource: font Times-Bold
%%IncludeResource: font Times-BoldItalic
%%IncludeResource: font Helvetica
%%IncludeResource: font Helvetica-Oblique
%%IncludeResource: font Helvetica-Bold
%%IncludeResource: font Helvetica-BoldOblique
%%IncludeResource: font Courier
%%IncludeResource: font Courier-Oblique
%%IncludeResource: font Courier-Bold
%%IncludeResource: font Courier-BoldOblique
%%IncludeResource: font Symbol
%%IncludeResource: font ZapfDingbats
/reEncode {exch findfont dup length dict begin {1 index /FID eq  {pop pop} {def} ifelse } forall /Encoding exch def currentdict end dup /FontName get exch definefont pop } def [/Times-Bold /Times-Italic /Times-BoldItalic /Helvetica /Helvetica-Oblique
 /Helvetica-Bold /Helvetica-BoldOblique /Courier /Courier-Oblique /Courier-Bold /Courier-BoldOblique /Times-Roman /AvantGarde-Book /AvantGarde-BookOblique /AvantGarde-Demi /AvantGarde-DemiOblique /Bookman-Demi /Bookman-DemiItalic /Bookman-Light
 /Bookman-LightItalic /Helvetica-Narrow /Helvetica-Narrow-Bold /Helvetica-Narrow-BoldOblique /Helvetica-Narrow-Oblique /NewCenturySchlbk-Roman /NewCenturySchlbk-Bold /NewCenturySchlbk-BoldItalic /NewCenturySchlbk-Italic /Palatino-Bold
 /Palatino-BoldItalic /Palatino-Italic /Palatino-Roman ] {ISOLatin1Encoding reEncode } forall
%%EndProlog
%%BeginSetup
%%EndSetup
newpath  gsave  .25 .25 scale  gsave  0 0 t black[  ] 0 sd 3 lw 1 1 1 c 2268 1538 0 0 bf black 1 1 1 c 1814 1230 227 154 bf black 1814 1230 227 154 bl 1 1 1 c 1814 1230 227 154 bf black 1814 1230 227 154 bl 227 154 m 1814 X s 309 191 m -37 Y s 358
 172 m -18 Y s 406 172 m -18 Y s 455 172 m -18 Y s 503 191 m -37 Y s 552 172 m -18 Y s 600 172 m -18 Y s 649 172 m -18 Y s 697 191 m -37 Y s 746 172 m -18 Y s 794 172 m -18 Y s 843 172 m -18 Y s 891 191 m -37 Y s 940 172 m -18 Y s 988 172 m -18 Y s
 1037 172 m -18 Y s 1085 191 m -37 Y s 1134 172 m -18 Y s 1182 172 m -18 Y s 1231 172 m -18 Y s 1279 191 m -37 Y s 1328 172 m -18 Y s 1376 172 m -18 Y s 1425 172 m -18 Y s 1473 191 m -37 Y s 1522 172 m -18 Y s 1570 172 m -18 Y s 1619 172 m -18 Y s
 1667 191 m -37 Y s 1716 172 m -18 Y s 1764 172 m -18 Y s 1813 172 m -18 Y s 1861 191 m -37 Y s 309 191 m -37 Y s 261 172 m -18 Y s 1861 191 m -37 Y s 1910 172 m -18 Y s 1958 172 m -18 Y s 2007 172 m -18 Y s
 gsave  2268 1538 0 0 C 289.981 97.7464 t 0 r /Helvetica-Bold findfont 58.6478 sf 0 0 m (0) show NC gr 
 gsave  2268 1538 0 0 C 485.474 97.7464 t 0 r /Helvetica-Bold findfont 58.6478 sf 0 0 m (2) show NC gr 
 gsave  2268 1538 0 0 C 680.967 97.7464 t 0 r /Helvetica-Bold findfont 58.6478 sf 0 0 m (4) show NC gr 
 gsave  2268 1538 0 0 C 873.201 97.7464 t 0 r /Helvetica-Bold findfont 58.6478 sf 0 0 m (6) show NC gr 
 gsave  2268 1538 0 0 C 1068.69 97.7464 t 0 r /Helvetica-Bold findfont 58.6478 sf 0 0 m (8) show NC gr 
 gsave  2268 1538 0 0 C 1244.64 97.7464 t 0 r /Helvetica-Bold findfont 58.6478 sf 0 0 m (10) show NC gr 
 gsave  2268 1538 0 0 C 1440.13 97.7464 t 0 r /Helvetica-Bold findfont 58.6478 sf 0 0 m (12) show NC gr 
 gsave  2268 1538 0 0 C 1632.36 97.7464 t 0 r /Helvetica-Bold findfont 58.6478 sf 0 0 m (14) show NC gr 
 gsave  2268 1538 0 0 C 1827.86 97.7464 t 0 r /Helvetica-Bold findfont 58.6478 sf 0 0 m (16) show NC gr  227 1384 m 1814 X s 309 1347 m 37 Y s 358 1366 m 18 Y s 406 1366 m 18 Y s 455 1366 m 18 Y s 503 1347 m 37 Y s 552 1366 m 18 Y s 600 1366 m 18 Y s
 649 1366 m 18 Y s 697 1347 m 37 Y s 746 1366 m 18 Y s 794 1366 m 18 Y s 843 1366 m 18 Y s 891 1347 m 37 Y s 940 1366 m 18 Y s 988 1366 m 18 Y s 1037 1366 m 18 Y s 1085 1347 m 37 Y s 1134 1366 m 18 Y s 1182 1366 m 18 Y s 1231 1366 m 18 Y s 1279 1347
 m 37 Y s 1328 1366 m 18 Y s 1376 1366 m 18 Y s 1425 1366 m 18 Y s 1473 1347 m 37 Y s 1522 1366 m 18 Y s 1570 1366 m 18 Y s 1619 1366 m 18 Y s 1667 1347 m 37 Y s 1716 1366 m 18 Y s 1764 1366 m 18 Y s 1813 1366 m 18 Y s 1861 1347 m 37 Y s 309 1347 m
 37 Y s 261 1366 m 18 Y s 1861 1347 m 37 Y s 1910 1366 m 18 Y s 1958 1366 m 18 Y s 2007 1366 m 18 Y s 227 154 m 1230 Y s 281 184 m -54 X s 254 216 m -27 X s 254 247 m -27 X s 254 279 m -27 X s 254 310 m -27 X s 281 342 m -54 X s 254 373 m -27 X s 254
 405 m -27 X s 254 436 m -27 X s 254 468 m -27 X s 281 499 m -54 X s 254 531 m -27 X s 254 562 m -27 X s 254 593 m -27 X s 254 625 m -27 X s 281 656 m -54 X s 254 688 m -27 X s 254 719 m -27 X s 254 751 m -27 X s 254 782 m -27 X s 281 814 m -54 X s
 254 845 m -27 X s 254 877 m -27 X s 254 908 m -27 X s 254 940 m -27 X s 281 971 m -54 X s 254 1003 m -27 X s 254 1034 m -27 X s 254 1066 m -27 X s 254 1097 m -27 X s 281 1129 m -54 X s 254 1160 m -27 X s 254 1191 m -27 X s 254 1223 m -27 X s 254
 1254 m -27 X s 281 1286 m -54 X s 281 184 m -54 X s 281 1286 m -54 X s 254 1317 m -27 X s 254 1349 m -27 X s 254 1380 m -27 X s
 gsave  2268 1538 0 0 C 192.235 162.911 t 0 r /Helvetica-Bold findfont 58.6478 sf 0 0 m (1) show NC gr 
 gsave  2268 1538 0 0 C 182.46 316.047 t 0 r /Helvetica-Bold findfont 58.6478 sf 0 0 m (2) show NC gr 
 gsave  2268 1538 0 0 C 182.46 478.957 t 0 r /Helvetica-Bold findfont 58.6478 sf 0 0 m (3) show NC gr 
 gsave  2268 1538 0 0 C 182.46 635.352 t 0 r /Helvetica-Bold findfont 58.6478 sf 0 0 m (4) show NC gr 
 gsave  2268 1538 0 0 C 182.46 791.746 t 0 r /Helvetica-Bold findfont 58.6478 sf 0 0 m (5) show NC gr 
 gsave  2268 1538 0 0 C 182.46 951.398 t 0 r /Helvetica-Bold findfont 58.6478 sf 0 0 m (6) show NC gr 
 gsave  2268 1538 0 0 C 182.46 1107.79 t 0 r /Helvetica-Bold findfont 58.6478 sf 0 0 m (7) show NC gr 
 gsave  2268 1538 0 0 C 182.46 1264.19 t 0 r /Helvetica-Bold findfont 58.6478 sf 0 0 m (8) show NC gr  2041 154 m 1230 Y s 1987 184 m 54 X s 2014 216 m 27 X s 2014 247 m 27 X s 2014 279 m 27 X s 2014 310 m 27 X s 1987 342 m 54 X s 2014 373 m 27 X s
 2014 405 m 27 X s 2014 436 m 27 X s 2014 468 m 27 X s 1987 499 m 54 X s 2014 531 m 27 X s 2014 562 m 27 X s 2014 593 m 27 X s 2014 625 m 27 X s 1987 656 m 54 X s 2014 688 m 27 X s 2014 719 m 27 X s 2014 751 m 27 X s 2014 782 m 27 X s 1987 814 m 54 X
 s 2014 845 m 27 X s 2014 877 m 27 X s 2014 908 m 27 X s 2014 940 m 27 X s 1987 971 m 54 X s 2014 1003 m 27 X s 2014 1034 m 27 X s 2014 1066 m 27 X s 2014 1097 m 27 X s 1987 1129 m 54 X s 2014 1160 m 27 X s 2014 1191 m 27 X s 2014 1223 m 27 X s 2014
 1254 m 27 X s 1987 1286 m 54 X s 1987 184 m 54 X s 1987 1286 m 54 X s 2014 1317 m 27 X s 2014 1349 m 27 X s 2014 1380 m 27 X s 309 271 m 4 Y s 303 275 m 13 X s 309 245 m -5 Y s 303 240 m 13 X s 697 318 m 18 Y s 691 336 m 13 X s 697 292 m -18 Y s 691
 274 m 13 X s 794 285 m 6 Y s 788 291 m 13 X s 794 259 m -5 Y s 788 254 m 13 X s 891 276 m 5 Y s 885 281 m 13 X s 891 250 m -5 Y s 885 245 m 13 X s 988 260 m 1 Y s 982 261 m 13 X s 988 234 m -1 Y s 982 233 m 13 X s 1085 278 m 2 Y s 1079 280 m 13 X s
 1085 252 m -1 Y s 1079 251 m 13 X s 1182 278 m 1 Y s 1176 279 m 13 X s 1182 252 m -1 Y s 1176 251 m 13 X s 1279 313 m 5 Y s 1273 318 m 13 X s 1279 287 m -5 Y s 1273 282 m 13 X s 1376 350 m 28 Y s 1370 378 m 13 X s 1376 324 m -28 Y s 1370 296 m 13 X
 s 1570 322 m 11 Y s 1564 333 m 13 X s 1570 296 m -11 Y s 1564 285 m 13 X s 1667 292 m s 1661 292 m 13 X s 1667 266 m s 1661 266 m 13 X s 1764 400 m 80 Y s 1758 480 m 13 X s 1764 374 m -79 Y s 1758 295 m 13 X s 1861 355 m 65 Y s 1855 420 m 13 X s
 1861 329 m -66 Y s 1855 263 m 13 X s 1958 298 m 4 Y s 1952 302 m 13 X s 1958 272 m -4 Y s 1952 268 m 13 X s 309 258 m 97 -34 d 97 21 d 97 7 d 97 53 d 97 -33 d 97 -9 d 97 -16 d 97 18 d 97 X 97 35 d 97 37 d 97 -95 d 97 67 d 97 -30 d 97 108 d 97 -45 d
 97 -57 d s /w 26 def /w2 {w 2 div} def /w3 {w 3 div} def 309 258 406 224 503 245 600 252 697 305 794 272 891 263 988 247 1085 265 1182 265 1279 300 1376 337 1473 242 1570 309 1667 279 1764 387 1861 342 1958 285 18 { m20} R 1 0 0 c 600 255 m 3 Y s
 594 258 m 13 X s 600 229 m -4 Y s 594 225 m 13 X s 891 273 m 1 Y s 885 274 m 13 X s 891 247 m -1 Y s 885 246 m 13 X s 988 297 m 9 Y s 982 306 m 13 X s 988 271 m -8 Y s 982 263 m 13 X s 1085 316 m 17 Y s 1079 333 m 13 X s 1085 290 m -18 Y s 1079 272
 m 13 X s 1182 299 m 4 Y s 1176 303 m 13 X s 1182 273 m -3 Y s 1176 270 m 13 X s 1279 269 m 1 Y s 1273 270 m 13 X s 1279 243 m -1 Y s 1273 242 m 13 X s 1473 281 m 10 Y s 1467 291 m 13 X s 1473 255 m -10 Y s 1467 245 m 13 X s 1570 279 m s 1564 279 m
 13 X s 1570 253 m s 1564 253 m 13 X s 1667 305 m 14 Y s 1661 319 m 13 X s 1667 279 m -14 Y s 1661 265 m 13 X s 1861 272 m 8 Y s 1855 280 m 13 X s 1861 246 m -8 Y s 1855 238 m 13 X s 1958 327 m 14 Y s 1952 341 m 13 X s 1958 301 m -13 Y s 1952 288 m
 13 X s black 1 0 0 c 309 210 m 97 6 d 97 11 d 97 15 d 97 -24 d 97 17 d 97 25 d 97 24 d 97 19 d 97 -17 d 97 -30 d 97 -2 d 97 14 d 97 -2 d 97 26 d 97 -27 d 97 -6 d 97 55 d s 309 210 406 216 503 227 600 242 697 218 794 235 891 260 988 284 1085 303 1182
 286 1279 256 1376 254 1473 268 1570 266 1667 292 1764 265 1861 259 1958 314 18 { m20} R 0 1 0 c 406 281 m 2 Y s 400 283 m 13 X s 406 254 m -2 Y s 400 252 m 13 X s 697 281 m 14 Y s 691 295 m 13 X s 697 255 m -13 Y s 691 242 m 13 X s 794 296 m 6 Y s
 788 302 m 13 X s 794 270 m -6 Y s 788 264 m 13 X s 988 280 m 15 Y s 982 295 m 13 X s 988 254 m -16 Y s 982 238 m 13 X s 1085 260 m 1 Y s 1079 261 m 13 X s 1085 234 m -1 Y s 1079 233 m 13 X s 1182 252 m s 1176 252 m 13 X s 1182 226 m -1 Y s 1176 225
 m 13 X s 1279 280 m 3 Y s 1273 283 m 13 X s 1279 254 m -4 Y s 1273 250 m 13 X s 1376 265 m 9 Y s 1370 274 m 13 X s 1376 239 m -10 Y s 1370 229 m 13 X s 1473 275 m 5 Y s 1467 280 m 13 X s 1473 249 m -5 Y s 1467 244 m 13 X s 1570 285 m s 1564 285 m 13
 X s 1570 258 m s 1564 258 m 13 X s 1667 285 m 1 Y s 1661 286 m 13 X s 1667 259 m -2 Y s 1661 257 m 13 X s 1764 305 m 5 Y s 1758 310 m 13 X s 1764 279 m -5 Y s 1758 274 m 13 X s 1861 344 m 20 Y s 1855 364 m 13 X s 1861 318 m -19 Y s 1855 299 m 13 X s
 black 0 1 0 c 309 243 m 97 25 d 97 -34 d 97 X 97 34 d 97 15 d 97 -44 d 97 28 d 97 -20 d 97 -8 d 97 28 d 97 -15 d 97 10 d 97 10 d 97 X 97 20 d 97 39 d 97 -92 d s 309 243 406 268 503 234 600 234 697 268 794 283 891 239 988 267 1085 247 1182 239 1279
 267 1376 252 1473 262 1570 272 1667 272 1764 292 1861 331 1958 239 18 { m20} R 0 0 1 c 309 291 m 55 Y s 303 346 m 13 X s 309 265 m -54 Y s 303 211 m 13 X s 697 267 m 5 Y s 691 272 m 13 X s 697 241 m -4 Y s 691 237 m 13 X s 988 294 m 13 Y s 982 307 m
 13 X s 988 268 m -13 Y s 982 255 m 13 X s 1085 283 m 7 Y s 1079 290 m 13 X s 1085 257 m -6 Y s 1079 251 m 13 X s 1279 272 m 5 Y s 1273 277 m 13 X s 1279 246 m -5 Y s 1273 241 m 13 X s 1376 255 m 2 Y s 1370 257 m 13 X s 1376 229 m -2 Y s 1370 227 m
 13 X s 1764 278 m 4 Y s 1758 282 m 13 X s 1764 252 m -3 Y s 1758 249 m 13 X s 1861 381 m 57 Y s 1855 438 m 13 X s 1861 354 m -57 Y s 1855 297 m 13 X s 1958 297 m 19 Y s 1952 316 m 13 X s 1958 271 m -20 Y s 1952 251 m 13 X s black 0 0 1 c 309 278 m
 97 -50 d 97 5 d 97 7 d 97 14 d 97 -29 d 97 19 d 97 37 d 97 -11 d 97 -25 d 97 14 d 97 -17 d 97 -7 d 97 -9 d 97 25 d 97 14 d 97 103 d 97 -84 d s 309 278 406 228 503 233 600 240 697 254 794 225 891 244 988 281 1085 270 1182 245 1279 259 1376 242 1473
 235 1570 226 1667 251 1764 265 1861 368 1958 284 18 { m20} R 1 1 0 c 891 248 m 1 Y s 885 249 m 13 X s 891 222 m -1 Y s 885 221 m 13 X s 988 262 m 7 Y s 982 269 m 13 X s 988 236 m -7 Y s 982 229 m 13 X s 1473 257 m 1 Y s 1467 258 m 13 X s 1473 231 m
 -1 Y s 1467 230 m 13 X s 1958 260 m 3 Y s 1952 263 m 13 X s 1958 234 m -3 Y s 1952 231 m 13 X s black 1 1 0 c 309 215 m 97 8 d 97 -3 d 97 8 d 97 9 d 97 -25 d 97 23 d 97 14 d 97 -11 d 97 -4 d 97 -7 d 97 -6 d 97 23 d 97 -17 d 97 -2 d 97 12 d 97 -16 d
 97 26 d s 309 215 406 223 503 220 600 228 697 237 794 212 891 235 988 249 1085 238 1182 234 1279 227 1376 221 1473 244 1570 227 1667 225 1764 237 1861 221 1958 247 18 { m20} R 1 0 1 c 406 253 m 5 Y s 400 258 m 13 X s 406 227 m -5 Y s 400 222 m 13 X
 s 697 293 m 19 Y s 691 312 m 13 X s 697 267 m -18 Y s 691 249 m 13 X s 1279 258 m 7 Y s 1273 265 m 13 X s 1279 232 m -6 Y s 1273 226 m 13 X s 1667 274 m 3 Y s 1661 277 m 13 X s 1667 248 m -4 Y s 1661 244 m 13 X s black 1 0 1 c 309 217 m 97 23 d 97
 -32 d 97 -3 d 97 75 d 97 -60 d 97 11 d 97 -23 d 97 30 d 97 17 d 97 -10 d 97 -12 d 97 -6 d 97 -8 d 97 42 d 97 -31 d 97 21 d 97 -4 d s 309 217 406 240 503 208 600 205 697 280 794 220 891 231 988 208 1085 238 1182 255 1279 245 1376 233 1473 227 1570
 219 1667 261 1764 230 1861 251 1958 247 18 { m20} R black[ 12 12] 0 sd 406 275 m 1 Y s 400 276 m 13 X s 406 249 m -1 Y s 400 248 m 13 X s 600 350 m 43 Y s 594 393 m 13 X s 600 324 m -43 Y s 594 281 m 13 X s 697 300 m 9 Y s 691 309 m 13 X s 697 274 m
 -9 Y s 691 265 m 13 X s 891 284 m 9 Y s 885 293 m 13 X s 891 258 m -9 Y s 885 249 m 13 X s 988 337 m 35 Y s 982 372 m 13 X s 988 311 m -35 Y s 982 276 m 13 X s 1085 272 m 13 Y s 1079 285 m 13 X s 1085 246 m -12 Y s 1079 234 m 13 X s 1182 370 m 39 Y
 s 1176 409 m 13 X s 1182 344 m -39 Y s 1176 305 m 13 X s 1570 267 m 4 Y s 1564 271 m 13 X s 1570 241 m -3 Y s 1564 238 m 13 X s 1667 276 m s 1661 276 m 13 X s 1667 250 m s 1661 250 m 13 X s 1764 349 m 23 Y s 1758 372 m 13 X s 1764 322 m -23 Y s 1758
 299 m 13 X s 1861 304 m 7 Y s 1855 311 m 13 X s 1861 278 m -7 Y s 1855 271 m 13 X s 1958 318 m 7 Y s 1952 325 m 13 X s 1958 292 m -7 Y s 1952 285 m 13 X s 309 228 m 97 34 d 97 -18 d 97 93 d 97 -50 d 97 -53 d 97 37 d 97 53 d 97 -65 d 97 98 d 97 -101
 d 97 -32 d 97 52 d 97 -22 d 97 9 d 97 72 d 97 -44 d 97 14 d s[  ] 0 sd 309 228 406 262 503 244 600 337 697 287 794 234 891 271 988 324 1085 259 1182 357 1279 256 1376 224 1473 276 1570 254 1667 263 1764 335 1861 291 1958 305 18 { m21} R[ 12 12] 0 sd
 1 0 0 c 600 261 m 2 Y s 594 263 m 13 X s 600 235 m -1 Y s 594 234 m 13 X s 697 284 m 4 Y s 691 288 m 13 X s 697 258 m -5 Y s 691 253 m 13 X s 794 350 m 73 Y s 788 423 m 13 X s 794 324 m -73 Y s 788 251 m 13 X s 891 303 m 5 Y s 885 308 m 13 X s 891
 277 m -5 Y s 885 272 m 13 X s 988 280 m 12 Y s 982 292 m 13 X s 988 254 m -11 Y s 982 243 m 13 X s 1085 269 m 3 Y s 1079 272 m 13 X s 1085 243 m -2 Y s 1079 241 m 13 X s 1182 295 m 1 Y s 1176 296 m 13 X s 1182 269 m -2 Y s 1176 267 m 13 X s 1279 278
 m 6 Y s 1273 284 m 13 X s 1279 252 m -5 Y s 1273 247 m 13 X s 1376 318 m 25 Y s 1370 343 m 13 X s 1376 292 m -25 Y s 1370 267 m 13 X s 1473 395 m 70 Y s 1467 465 m 13 X s 1473 369 m -69 Y s 1467 300 m 13 X s 1570 754 m 240 Y s 1564 994 m 13 X s 1570
 728 m -239 Y s 1564 489 m 13 X s 1667 283 m 1 Y s 1661 284 m 13 X s 1667 257 m -1 Y s 1661 256 m 13 X s 1764 303 m 15 Y s 1758 318 m 13 X s 1764 277 m -16 Y s 1758 261 m 13 X s 1861 308 m 13 Y s 1855 321 m 13 X s 1861 282 m -12 Y s 1855 270 m 13 X s
 1958 298 m 4 Y s 1952 302 m 13 X s 1958 272 m -4 Y s 1952 268 m 13 X s black 1 0 0 c 309 230 m 97 2 d 97 6 d 97 10 d 97 23 d 97 66 d 97 -47 d 97 -23 d 97 -11 d 97 26 d 97 -17 d 97 40 d 97 77 d 97 359 d 97 -471 d 97 20 d 97 5 d 97 -10 d s[  ] 0 sd
 309 230 406 232 503 238 600 248 697 271 794 337 891 290 988 267 1085 256 1182 282 1279 265 1376 305 1473 382 1570 741 1667 270 1764 290 1861 295 1958 285 18 { m21} R[ 12 12] 0 sd 0 1 0 c 309 278 m 2 Y s 303 280 m 13 X s 309 252 m -1 Y s 303 251 m 13
 X s 697 264 m 1 Y s 691 265 m 13 X s 697 238 m -1 Y s 691 237 m 13 X s 794 389 m 97 Y s 788 486 m 13 X s 794 363 m -97 Y s 788 266 m 13 X s 988 255 m 1 Y s 982 256 m 13 X s 988 229 m -1 Y s 982 228 m 13 X s 1182 265 m 4 Y s 1176 269 m 13 X s 1182
 239 m -3 Y s 1176 236 m 13 X s 1376 271 m 4 Y s 1370 275 m 13 X s 1376 245 m -4 Y s 1370 241 m 13 X s 1570 278 m 3 Y s 1564 281 m 13 X s 1570 252 m -3 Y s 1564 249 m 13 X s 1667 271 m 2 Y s 1661 273 m 13 X s 1667 245 m -1 Y s 1661 244 m 13 X s 1764
 274 m 2 Y s 1758 276 m 13 X s 1764 248 m -2 Y s 1758 246 m 13 X s 1958 278 m 2 Y s 1952 280 m 13 X s 1958 252 m -3 Y s 1952 249 m 13 X s black 0 1 0 c 309 265 m 97 -34 d 97 14 d 97 -22 d 97 28 d 97 125 d 97 -146 d 97 12 d 97 5 d 97 5 d 97 -18 d 97
 24 d 97 -31 d 97 38 d 97 -7 d 97 3 d 97 -17 d 97 21 d s[  ] 0 sd 309 265 406 231 503 245 600 223 697 251 794 376 891 230 988 242 1085 247 1182 252 1279 234 1376 258 1473 227 1570 265 1667 258 1764 261 1861 244 1958 265 18 { m21} R[ 12 12] 0 sd 0 0 1
 c 309 225 m 1 Y s 303 226 m 13 X s 309 199 m -1 Y s 303 198 m 13 X s 697 253 m s 691 253 m 13 X s 697 227 m s 691 227 m 13 X s 891 257 m s 885 257 m 13 X s 891 231 m s 885 231 m 13 X s 988 248 m 6 Y s 982 254 m 13 X s 988 222 m -5 Y s 982 217 m 13 X
 s 1085 265 m 1 Y s 1079 266 m 13 X s 1085 239 m -1 Y s 1079 238 m 13 X s 1182 300 m 6 Y s 1176 306 m 13 X s 1182 273 m -6 Y s 1176 267 m 13 X s 1279 338 m 35 Y s 1273 373 m 13 X s 1279 312 m -34 Y s 1273 278 m 13 X s 1376 292 m 20 Y s 1370 312 m 13
 X s 1376 266 m -19 Y s 1370 247 m 13 X s 1473 301 m 12 Y s 1467 313 m 13 X s 1473 275 m -13 Y s 1467 262 m 13 X s 1570 288 m 7 Y s 1564 295 m 13 X s 1570 262 m -8 Y s 1564 254 m 13 X s 1861 321 m 12 Y s 1855 333 m 13 X s 1861 295 m -12 Y s 1855 283
 m 13 X s black 0 0 1 c 309 212 m 97 26 d 97 -23 d 97 29 d 97 -4 d 97 -9 d 97 13 d 97 -9 d 97 17 d 97 35 d 97 38 d 97 -46 d 97 9 d 97 -13 d 97 -36 d 97 -4 d 97 73 d 97 -67 d s[  ] 0 sd 309 212 406 238 503 215 600 244 697 240 794 231 891 244 988 235
 1085 252 1182 287 1279 325 1376 279 1473 288 1570 275 1667 239 1764 235 1861 308 1958 241 18 { m21} R[ 12 12] 0 sd 1 1 0 c 309 319 m 60 Y s 303 379 m 13 X s 309 293 m -60 Y s 303 233 m 13 X s 406 254 m 3 Y s 400 257 m 13 X s 406 228 m -4 Y s 400 224
 m 13 X s 503 480 m 130 Y s 497 610 m 13 X s 503 454 m -131 Y s 497 323 m 13 X s 697 248 m 4 Y s 691 252 m 13 X s 697 222 m -5 Y s 691 217 m 13 X s 988 253 m 2 Y s 982 255 m 13 X s 988 227 m -2 Y s 982 225 m 13 X s 1182 266 m 6 Y s 1176 272 m 13 X s
 1182 240 m -5 Y s 1176 235 m 13 X s 1279 321 m 24 Y s 1273 345 m 13 X s 1279 295 m -25 Y s 1273 270 m 13 X s 1473 255 m 3 Y s 1467 258 m 13 X s 1473 229 m -3 Y s 1467 226 m 13 X s 1861 260 m 5 Y s 1855 265 m 13 X s 1861 234 m -6 Y s 1855 228 m 13 X
 s black 1 1 0 c 309 306 m 97 -65 d 97 226 d 97 -230 d 97 -2 d 97 -20 d 97 15 d 97 10 d 97 -9 d 97 22 d 97 55 d 97 -108 d 97 42 d 97 -5 d 97 -3 d 97 2 d 97 11 d 97 4 d s[  ] 0 sd 309 306 406 241 503 467 600 237 697 235 794 215 891 230 988 240 1085
 231 1182 253 1279 308 1376 200 1473 242 1570 237 1667 234 1764 236 1861 247 1958 251 18 { m21} R[ 12 12] 0 sd 1 0 1 c 309 251 m 5 Y s 303 256 m 13 X s 309 225 m -5 Y s 303 220 m 13 X s 600 271 m 20 Y s 594 291 m 13 X s 600 245 m -19 Y s 594 226 m 13
 X s 697 240 m 1 Y s 691 241 m 13 X s 697 214 m -1 Y s 691 213 m 13 X s 891 252 m 2 Y s 885 254 m 13 X s 891 226 m -3 Y s 885 223 m 13 X s 1182 262 m s 1176 262 m 13 X s 1182 236 m -1 Y s 1176 235 m 13 X s 1376 244 m s 1370 244 m 13 X s 1376 218 m s
 1370 218 m 13 X s 1473 245 m 1 Y s 1467 246 m 13 X s 1473 218 m -1 Y s 1467 217 m 13 X s 1570 268 m 4 Y s 1564 272 m 13 X s 1570 242 m -4 Y s 1564 238 m 13 X s black 1 0 1 c 309 238 m 97 -28 d 97 -4 d 97 52 d 97 -31 d 97 -15 d 97 27 d 97 -6 d 97 -9
 d 97 25 d 97 -24 d 97 6 d 97 X 97 24 d 97 -24 d 97 10 d 97 -5 d 97 -26 d s[  ] 0 sd 309 238 406 210 503 206 600 258 697 227 794 212 891 239 988 233 1085 224 1182 249 1279 225 1376 231 1473 231 1570 255 1667 231 1764 241 1861 236 1958 210 18 { m21}
 R[ 12 12] 0 sd black
 gsave  2268 1538 0 0 C 1326.09 1361.93 t 0 r /Helvetica-Bold findfont 58.6478 sf 0 0 m (Disk 0) show NC gr [  ] 0 sd 1124 1368 m 167 X s 1208 1368 m20
 gsave  2268 1538 0 0 C 1326.09 1329.35 t 0 r /Helvetica-Bold findfont 58.6478 sf 0 0 m (Disk 1) show NC gr  1 0 0 c 1124 1336 m 167 X s 1208 1336 m20 black
 gsave  2268 1538 0 0 C 1326.09 1300.03 t 0 r /Helvetica-Bold findfont 58.6478 sf 0 0 m (Disk 2) show NC gr  0 1 0 c 1124 1304 m 167 X s 1208 1304 m20 black
 gsave  2268 1538 0 0 C 1326.09 1267.44 t 0 r /Helvetica-Bold findfont 58.6478 sf 0 0 m (Disk 3) show NC gr  0 0 1 c 1124 1272 m 167 X s 1208 1272 m20 black
 gsave  2268 1538 0 0 C 1326.09 1234.86 t 0 r /Helvetica-Bold findfont 58.6478 sf 0 0 m (Disk 4) show NC gr  1 1 0 c 1124 1240 m 167 X s 1208 1240 m20 black
 gsave  2268 1538 0 0 C 1326.09 1202.28 t 0 r /Helvetica-Bold findfont 58.6478 sf 0 0 m (Disk 5) show NC gr  1 0 1 c 1124 1208 m 167 X s 1208 1208 m20 black
 gsave  2268 1538 0 0 C 1326.09 1169.7 t 0 r /Helvetica-Bold findfont 58.6478 sf 0 0 m (Disk 0) show NC gr [ 12 12] 0 sd 1124 1176 m 167 X s[  ] 0 sd 1208 1176 m21[ 12 12] 0 sd
 gsave  2268 1538 0 0 C 1326.09 1137.12 t 0 r /Helvetica-Bold findfont 58.6478 sf 0 0 m (Disk 1) show NC gr  1 0 0 c 1124 1144 m 167 X s[  ] 0 sd 1208 1144 m21[ 12 12] 0 sd black
 gsave  2268 1538 0 0 C 1326.09 1107.79 t 0 r /Helvetica-Bold findfont 58.6478 sf 0 0 m (Disk 2) show NC gr  0 1 0 c 1124 1112 m 167 X s[  ] 0 sd 1208 1112 m21[ 12 12] 0 sd black
 gsave  2268 1538 0 0 C 1326.09 1075.21 t 0 r /Helvetica-Bold findfont 58.6478 sf 0 0 m (Disk 3) show NC gr  0 0 1 c 1124 1080 m 167 X s[  ] 0 sd 1208 1080 m21[ 12 12] 0 sd black
 gsave  2268 1538 0 0 C 1326.09 1042.63 t 0 r /Helvetica-Bold findfont 58.6478 sf 0 0 m (Disk 4) show NC gr  1 1 0 c 1124 1048 m 167 X s[  ] 0 sd 1208 1048 m21[ 12 12] 0 sd black
 gsave  2268 1538 0 0 C 1326.09 1010.05 t 0 r /Helvetica-Bold findfont 58.6478 sf 0 0 m (Disk 5) show NC gr  1 0 1 c 1124 1016 m 167 X s[  ] 0 sd 1208 1016 m21[ 12 12] 0 sd
 gr  gr showpage
end
%%EOF
