%!PS-Adobe-2.0 EPSF-2.0
%%BoundingBox:  0 0 567 384
%%Title: outputDir/sct_occupancy/size_sctdisk_mgr.eps: c1_n39
%%Creator: ROOT Version 6.04/12
%%CreationDate: Mon Apr 25 16:02:13 2016
%%DocumentNeededResources: ProcSet (FontSetInit)
%%EndComments
%%BeginProlog
80 dict begin
/s {stroke} def /l {lineto} def /m {moveto} def /t {translate} def
/r {rotate} def /rl {roll}  def /R {repeat} def
/d {rlineto} def /rm {rmoveto} def /gr {grestore} def /f {eofill} def
/c {setrgbcolor} def /black {0 setgray} def /sd {setdash} def
/cl {closepath} def /sf {scalefont setfont} def /lw {setlinewidth} def
/box {m dup 0 exch d exch 0 d 0 exch neg d cl} def
/NC{systemdict begin initclip end}def/C{NC box clip newpath}def
/bl {box s} def /bf {gsave box gsave f grestore 1 lw [] 0 sd s grestore} def /Y { 0 exch d} def /X { 0 d} def 
/K {{pop pop 0 moveto} exch kshow} bind def
/ita {/ang 15 def gsave [1 0 ang dup sin exch cos div 1 0 0] concat} def 
/mp {newpath /y exch def /x exch def} def
/side {[w .77 mul w .23 mul] .385 w mul sd w 0 l currentpoint t -144 r} def
/mr {mp x y w2 0 360 arc} def /m24 {mr s} def /m20 {mr f} def
/mb {mp x y w2 add m w2 neg 0 d 0 w neg d w 0 d 0 w d cl} def
/mt {mp x y w2 add m w2 neg w neg d w 0 d cl} def
/m21 {mb f} def /m25 {mb s} def /m22 {mt f} def /m26{mt s} def
/m23 {mp x y w2 sub m w2 w d w neg 0 d cl f} def
/m27 {mp x y w2 add m w3 neg w2 neg d w3 w2 neg d w3 w2 d cl s} def
/m28 {mp x w2 sub y w2 sub w3 add m w3 0 d  0 w3 neg d w3 0 d 0 w3 d w3 0 d  0 w3 d w3 neg 0 d 0 w3 d w3 neg 0 d 0 w3 neg d w3 neg 0 d cl s } def
/m29 {mp gsave x w2 sub y w2 add w3 sub m currentpoint t 4 {side} repeat cl fill gr} def
/m30 {mp gsave x w2 sub y w2 add w3 sub m currentpoint t 4 {side} repeat cl s gr} def
/m31 {mp x y w2 sub m 0 w d x w2 sub y m w 0 d x w2 sub y w2 add m w w neg d x w2 sub y w2 sub m w w d s} def
/m32 {mp x y w2 sub m w2 w d w neg 0 d cl s} def
/m33 {mp x y w2 add m w3 neg w2 neg d w3 w2 neg d w3 w2 d cl f} def
/m34 {mp x w2 sub y w2 sub w3 add m w3 0 d  0 w3 neg d w3 0 d 0 w3 d w3 0 d  0 w3 d w3 neg 0 d 0 w3 d w3 neg 0 d 0 w3 neg d w3 neg 0 d cl f } def
/m2 {mp x y w2 sub m 0 w d x w2 sub y m w 0 d s} def
/m5 {mp x w2 sub y w2 sub m w w d x w2 sub y w2 add m w w neg d s} def
%%IncludeResource: ProcSet (FontSetInit)
%%IncludeResource: font Times-Roman
%%IncludeResource: font Times-Italic
%%IncludeResource: font Times-Bold
%%IncludeResource: font Times-BoldItalic
%%IncludeResource: font Helvetica
%%IncludeResource: font Helvetica-Oblique
%%IncludeResource: font Helvetica-Bold
%%IncludeResource: font Helvetica-BoldOblique
%%IncludeResource: font Courier
%%IncludeResource: font Courier-Oblique
%%IncludeResource: font Courier-Bold
%%IncludeResource: font Courier-BoldOblique
%%IncludeResource: font Symbol
%%IncludeResource: font ZapfDingbats
/reEncode {exch findfont dup length dict begin {1 index /FID eq  {pop pop} {def} ifelse } forall /Encoding exch def currentdict end dup /FontName get exch definefont pop } def [/Times-Bold /Times-Italic /Times-BoldItalic /Helvetica /Helvetica-Oblique
 /Helvetica-Bold /Helvetica-BoldOblique /Courier /Courier-Oblique /Courier-Bold /Courier-BoldOblique /Times-Roman /AvantGarde-Book /AvantGarde-BookOblique /AvantGarde-Demi /AvantGarde-DemiOblique /Bookman-Demi /Bookman-DemiItalic /Bookman-Light
 /Bookman-LightItalic /Helvetica-Narrow /Helvetica-Narrow-Bold /Helvetica-Narrow-BoldOblique /Helvetica-Narrow-Oblique /NewCenturySchlbk-Roman /NewCenturySchlbk-Bold /NewCenturySchlbk-BoldItalic /NewCenturySchlbk-Italic /Palatino-Bold
 /Palatino-BoldItalic /Palatino-Italic /Palatino-Roman ] {ISOLatin1Encoding reEncode } forall
%%EndProlog
%%BeginSetup
%%EndSetup
newpath  gsave  .25 .25 scale  gsave  0 0 t black[  ] 0 sd 3 lw 1 1 1 c 2268 1538 0 0 bf black 1 1 1 c 1814 1230 227 154 bf black 1814 1230 227 154 bl 1 1 1 c 1814 1230 227 154 bf black 1814 1230 227 154 bl 227 154 m 1814 X s
 gsave  2268 1538 0 0 C 1860.44 35.8403 t 0 r /Helvetica-Bold findfont 58.6478 sf 0 0 m (r [mm]) show NC gr  326 191 m -37 Y s 386 172 m -18 Y s 447 172 m -18 Y s 508 172 m -18 Y s 569 172 m -18 Y s 629 191 m -37 Y s 690 172 m -18 Y s 751 172 m -18 Y
 s 811 172 m -18 Y s 872 172 m -18 Y s 933 191 m -37 Y s 993 172 m -18 Y s 1054 172 m -18 Y s 1115 172 m -18 Y s 1175 172 m -18 Y s 1236 191 m -37 Y s 1297 172 m -18 Y s 1357 172 m -18 Y s 1418 172 m -18 Y s 1479 172 m -18 Y s 1539 191 m -37 Y s 1600
 172 m -18 Y s 1661 172 m -18 Y s 1721 172 m -18 Y s 1782 172 m -18 Y s 1843 191 m -37 Y s 326 191 m -37 Y s 265 172 m -18 Y s 1843 191 m -37 Y s 1903 172 m -18 Y s 1964 172 m -18 Y s 2025 172 m -18 Y s
 gsave  2268 1538 0 0 C 273.69 97.7464 t 0 r /Helvetica-Bold findfont 58.6478 sf 0 0 m (400) show NC gr 
 gsave  2268 1538 0 0 C 579.962 97.7464 t 0 r /Helvetica-Bold findfont 58.6478 sf 0 0 m (500) show NC gr 
 gsave  2268 1538 0 0 C 882.976 97.7464 t 0 r /Helvetica-Bold findfont 58.6478 sf 0 0 m (600) show NC gr 
 gsave  2268 1538 0 0 C 1185.99 97.7464 t 0 r /Helvetica-Bold findfont 58.6478 sf 0 0 m (700) show NC gr 
 gsave  2268 1538 0 0 C 1489 97.7464 t 0 r /Helvetica-Bold findfont 58.6478 sf 0 0 m (800) show NC gr 
 gsave  2268 1538 0 0 C 1792.02 97.7464 t 0 r /Helvetica-Bold findfont 58.6478 sf 0 0 m (900) show NC gr  227 1384 m 1814 X s 326 1347 m 37 Y s 386 1366 m 18 Y s 447 1366 m 18 Y s 508 1366 m 18 Y s 569 1366 m 18 Y s 629 1347 m 37 Y s 690 1366 m 18 Y
 s 751 1366 m 18 Y s 811 1366 m 18 Y s 872 1366 m 18 Y s 933 1347 m 37 Y s 993 1366 m 18 Y s 1054 1366 m 18 Y s 1115 1366 m 18 Y s 1175 1366 m 18 Y s 1236 1347 m 37 Y s 1297 1366 m 18 Y s 1357 1366 m 18 Y s 1418 1366 m 18 Y s 1479 1366 m 18 Y s 1539
 1347 m 37 Y s 1600 1366 m 18 Y s 1661 1366 m 18 Y s 1721 1366 m 18 Y s 1782 1366 m 18 Y s 1843 1347 m 37 Y s 326 1347 m 37 Y s 265 1366 m 18 Y s 1843 1347 m 37 Y s 1903 1366 m 18 Y s 1964 1366 m 18 Y s 2025 1366 m 18 Y s 227 154 m 1230 Y s
 gsave  2268 1538 0 0 C 104.263 1055.66 t 90 r /Helvetica-Bold findfont 58.6478 sf 0 0 m (Cluster size) show NC gr  281 184 m -54 X s 254 216 m -27 X s 254 247 m -27 X s 254 279 m -27 X s 254 310 m -27 X s 281 342 m -54 X s 254 373 m -27 X s 254 405
 m -27 X s 254 436 m -27 X s 254 468 m -27 X s 281 499 m -54 X s 254 531 m -27 X s 254 562 m -27 X s 254 593 m -27 X s 254 625 m -27 X s 281 656 m -54 X s 254 688 m -27 X s 254 719 m -27 X s 254 751 m -27 X s 254 782 m -27 X s 281 814 m -54 X s 254
 845 m -27 X s 254 877 m -27 X s 254 908 m -27 X s 254 940 m -27 X s 281 971 m -54 X s 254 1003 m -27 X s 254 1034 m -27 X s 254 1066 m -27 X s 254 1097 m -27 X s 281 1129 m -54 X s 254 1160 m -27 X s 254 1191 m -27 X s 254 1223 m -27 X s 254 1254 m
 -27 X s 281 1286 m -54 X s 281 184 m -54 X s 281 1286 m -54 X s 254 1317 m -27 X s 254 1349 m -27 X s 254 1380 m -27 X s
 gsave  2268 1538 0 0 C 192.235 162.911 t 0 r /Helvetica-Bold findfont 58.6478 sf 0 0 m (1) show NC gr 
 gsave  2268 1538 0 0 C 182.46 316.047 t 0 r /Helvetica-Bold findfont 58.6478 sf 0 0 m (2) show NC gr 
 gsave  2268 1538 0 0 C 182.46 478.957 t 0 r /Helvetica-Bold findfont 58.6478 sf 0 0 m (3) show NC gr 
 gsave  2268 1538 0 0 C 182.46 635.352 t 0 r /Helvetica-Bold findfont 58.6478 sf 0 0 m (4) show NC gr 
 gsave  2268 1538 0 0 C 182.46 791.746 t 0 r /Helvetica-Bold findfont 58.6478 sf 0 0 m (5) show NC gr 
 gsave  2268 1538 0 0 C 182.46 951.398 t 0 r /Helvetica-Bold findfont 58.6478 sf 0 0 m (6) show NC gr 
 gsave  2268 1538 0 0 C 182.46 1107.79 t 0 r /Helvetica-Bold findfont 58.6478 sf 0 0 m (7) show NC gr 
 gsave  2268 1538 0 0 C 182.46 1264.19 t 0 r /Helvetica-Bold findfont 58.6478 sf 0 0 m (8) show NC gr  2041 154 m 1230 Y s 1987 184 m 54 X s 2014 216 m 27 X s 2014 247 m 27 X s 2014 279 m 27 X s 2014 310 m 27 X s 1987 342 m 54 X s 2014 373 m 27 X s
 2014 405 m 27 X s 2014 436 m 27 X s 2014 468 m 27 X s 1987 499 m 54 X s 2014 531 m 27 X s 2014 562 m 27 X s 2014 593 m 27 X s 2014 625 m 27 X s 1987 656 m 54 X s 2014 688 m 27 X s 2014 719 m 27 X s 2014 751 m 27 X s 2014 782 m 27 X s 1987 814 m 54 X
 s 2014 845 m 27 X s 2014 877 m 27 X s 2014 908 m 27 X s 2014 940 m 27 X s 1987 971 m 54 X s 2014 1003 m 27 X s 2014 1034 m 27 X s 2014 1066 m 27 X s 2014 1097 m 27 X s 1987 1129 m 54 X s 2014 1160 m 27 X s 2014 1191 m 27 X s 2014 1223 m 27 X s 2014
 1254 m 27 X s 1987 1286 m 54 X s 1987 184 m 54 X s 1987 1286 m 54 X s 2014 1317 m 27 X s 2014 1349 m 27 X s 2014 1380 m 27 X s 309 271 m 4 Y s 303 275 m 13 X s 309 245 m -5 Y s 303 240 m 13 X s 628 318 m 18 Y s 622 336 m 13 X s 628 292 m -18 Y s 622
 274 m 13 X s 696 285 m 6 Y s 690 291 m 13 X s 696 259 m -5 Y s 690 254 m 13 X s 774 276 m 5 Y s 767 281 m 14 X s 774 250 m -5 Y s 767 245 m 14 X s 834 260 m 1 Y s 828 261 m 13 X s 834 234 m -1 Y s 828 233 m 13 X s 908 278 m 2 Y s 902 280 m 13 X s
 908 252 m -1 Y s 902 251 m 13 X s 1002 278 m 1 Y s 996 279 m 13 X s 1002 252 m -1 Y s 996 251 m 13 X s 1099 313 m 5 Y s 1093 318 m 13 X s 1099 287 m -5 Y s 1093 282 m 13 X s 1188 350 m 28 Y s 1182 378 m 13 X s 1188 324 m -28 Y s 1182 296 m 13 X s
 1356 322 m 11 Y s 1350 333 m 13 X s 1356 296 m -11 Y s 1350 285 m 13 X s 1493 292 m s 1486 292 m 13 X s 1493 266 m s 1486 266 m 13 X s 1658 400 m 80 Y s 1652 480 m 13 X s 1658 374 m -79 Y s 1652 295 m 13 X s 1806 355 m 65 Y s 1799 420 m 13 X s 1806
 329 m -66 Y s 1799 263 m 13 X s 1958 298 m 4 Y s 1952 302 m 13 X s 1958 272 m -4 Y s 1952 268 m 13 X s 309 258 m 66 -34 d 81 21 d 92 7 d 80 53 d 68 -33 d 78 -9 d 60 -16 d 74 18 d 94 X 97 35 d 89 37 d 80 -95 d 88 67 d 137 -30 d 165 108 d 148 -45 d
 152 -57 d s /w 26 def /w2 {w 2 div} def /w3 {w 3 div} def 309 258 375 224 456 245 548 252 628 305 696 272 774 263 834 247 908 265 1002 265 1099 300 1188 337 1268 242 1356 309 1493 279 1658 387 1806 342 1958 285 18 { m20} R 1 0 0 c 548 255 m 3 Y s
 541 258 m 13 X s 548 229 m -4 Y s 541 225 m 13 X s 774 273 m 1 Y s 768 274 m 13 X s 774 247 m -1 Y s 768 246 m 13 X s 835 297 m 9 Y s 828 306 m 13 X s 835 271 m -8 Y s 828 263 m 13 X s 908 316 m 17 Y s 902 333 m 13 X s 908 290 m -18 Y s 902 272 m 13
 X s 1001 299 m 4 Y s 995 303 m 13 X s 1001 273 m -3 Y s 995 270 m 13 X s 1099 269 m 1 Y s 1093 270 m 13 X s 1099 243 m -1 Y s 1093 242 m 13 X s 1268 281 m 10 Y s 1261 291 m 13 X s 1268 255 m -10 Y s 1261 245 m 13 X s 1356 279 m s 1350 279 m 13 X s
 1356 253 m s 1350 253 m 13 X s 1492 305 m 14 Y s 1486 319 m 13 X s 1492 279 m -14 Y s 1486 265 m 13 X s 1806 272 m 8 Y s 1800 280 m 13 X s 1806 246 m -8 Y s 1800 238 m 13 X s 1958 327 m 14 Y s 1952 341 m 13 X s 1958 301 m -13 Y s 1952 288 m 13 X s
 black 1 0 0 c 309 210 m 66 6 d 80 11 d 93 15 d 81 -24 d 68 17 d 77 25 d 61 24 d 73 19 d 93 -17 d 98 -30 d 89 -2 d 80 14 d 88 -2 d 136 26 d 166 -27 d 148 -6 d 152 55 d s 309 210 375 216 455 227 548 242 629 218 697 235 774 260 835 284 908 303 1001 286
 1099 256 1188 254 1268 268 1356 266 1492 292 1658 265 1806 259 1958 314 18 { m20} R 0 1 0 c 375 281 m 2 Y s 369 283 m 13 X s 375 254 m -2 Y s 369 252 m 13 X s 628 281 m 14 Y s 621 295 m 13 X s 628 255 m -13 Y s 621 242 m 13 X s 697 296 m 6 Y s 690
 302 m 13 X s 697 270 m -6 Y s 690 264 m 13 X s 835 280 m 15 Y s 829 295 m 13 X s 835 254 m -16 Y s 829 238 m 13 X s 909 260 m 1 Y s 902 261 m 13 X s 909 234 m -1 Y s 902 233 m 13 X s 1001 252 m s 994 252 m 13 X s 1001 226 m -1 Y s 994 225 m 13 X s
 1099 280 m 3 Y s 1093 283 m 13 X s 1099 254 m -4 Y s 1093 250 m 13 X s 1188 265 m 9 Y s 1182 274 m 13 X s 1188 239 m -10 Y s 1182 229 m 13 X s 1268 275 m 5 Y s 1261 280 m 13 X s 1268 249 m -5 Y s 1261 244 m 13 X s 1356 285 m s 1350 285 m 13 X s 1356
 258 m s 1350 258 m 13 X s 1492 285 m 1 Y s 1486 286 m 13 X s 1492 259 m -2 Y s 1486 257 m 13 X s 1658 305 m 5 Y s 1652 310 m 13 X s 1658 279 m -5 Y s 1652 274 m 13 X s 1806 344 m 20 Y s 1799 364 m 13 X s 1806 318 m -19 Y s 1799 299 m 13 X s black 0
 1 0 c 310 243 m 65 25 d 80 -34 d 93 X 80 34 d 69 15 d 77 -44 d 61 28 d 74 -20 d 92 -8 d 98 28 d 89 -15 d 80 10 d 88 10 d 136 X 166 20 d 148 39 d 152 -92 d s 310 243 375 268 455 234 548 234 628 268 697 283 774 239 835 267 909 247 1001 239 1099 267
 1188 252 1268 262 1356 272 1492 272 1658 292 1806 331 1958 239 18 { m20} R 0 0 1 c 310 291 m 55 Y s 303 346 m 13 X s 310 265 m -54 Y s 303 211 m 13 X s 628 267 m 5 Y s 622 272 m 13 X s 628 241 m -4 Y s 622 237 m 13 X s 834 294 m 13 Y s 827 307 m 13
 X s 834 268 m -13 Y s 827 255 m 13 X s 908 283 m 7 Y s 901 290 m 14 X s 908 257 m -6 Y s 901 251 m 14 X s 1099 272 m 5 Y s 1093 277 m 13 X s 1099 246 m -5 Y s 1093 241 m 13 X s 1188 255 m 2 Y s 1181 257 m 13 X s 1188 229 m -2 Y s 1181 227 m 13 X s
 1658 278 m 4 Y s 1652 282 m 13 X s 1658 252 m -3 Y s 1652 249 m 13 X s 1806 381 m 57 Y s 1799 438 m 13 X s 1806 354 m -57 Y s 1799 297 m 13 X s 1958 297 m 19 Y s 1952 316 m 13 X s 1958 271 m -20 Y s 1952 251 m 13 X s black 0 0 1 c 310 278 m 65 -50 d
 80 5 d 93 7 d 80 14 d 69 -29 d 77 19 d 60 37 d 74 -11 d 94 -25 d 97 14 d 89 -17 d 80 -7 d 89 -9 d 135 25 d 166 14 d 148 103 d 152 -84 d s 310 278 375 228 455 233 548 240 628 254 697 225 774 244 834 281 908 270 1002 245 1099 259 1188 242 1268 235
 1357 226 1492 251 1658 265 1806 368 1958 284 18 { m20} R 1 1 0 c 775 248 m 1 Y s 769 249 m 13 X s 775 222 m -1 Y s 769 221 m 13 X s 835 262 m 7 Y s 828 269 m 13 X s 835 236 m -7 Y s 828 229 m 13 X s 1268 257 m 1 Y s 1261 258 m 13 X s 1268 231 m -1 Y
 s 1261 230 m 13 X s 1958 260 m 3 Y s 1951 263 m 14 X s 1958 234 m -3 Y s 1951 231 m 14 X s black 1 1 0 c 309 215 m 66 8 d 80 -3 d 92 8 d 81 9 d 69 -25 d 78 23 d 60 14 d 73 -11 d 94 -4 d 97 -7 d 89 -6 d 80 23 d 88 -17 d 136 -2 d 166 12 d 148 -16 d
 152 26 d s 309 215 375 223 455 220 547 228 628 237 697 212 775 235 835 249 908 238 1002 234 1099 227 1188 221 1268 244 1356 227 1492 225 1658 237 1806 221 1958 247 18 { m20} R 1 0 1 c 374 253 m 5 Y s 368 258 m 13 X s 374 227 m -5 Y s 368 222 m 13 X
 s 628 293 m 19 Y s 622 312 m 13 X s 628 267 m -18 Y s 622 249 m 13 X s 1099 258 m 7 Y s 1093 265 m 13 X s 1099 232 m -6 Y s 1093 226 m 13 X s 1492 274 m 3 Y s 1486 277 m 13 X s 1492 248 m -4 Y s 1486 244 m 13 X s black 1 0 1 c 309 217 m 65 23 d 81
 -32 d 93 -3 d 80 75 d 69 -60 d 78 11 d 58 -23 d 75 30 d 93 17 d 98 -10 d 89 -12 d 80 -6 d 88 -8 d 136 42 d 166 -31 d 148 21 d 152 -4 d s 309 217 374 240 455 208 548 205 628 280 697 220 775 231 833 208 908 238 1001 255 1099 245 1188 233 1268 227 1356
 219 1492 261 1658 230 1806 251 1958 247 18 { m20} R black[ 12 12] 0 sd 375 275 m 1 Y s 368 276 m 13 X s 375 249 m -1 Y s 368 248 m 13 X s 548 350 m 43 Y s 541 393 m 13 X s 548 324 m -43 Y s 541 281 m 13 X s 629 300 m 9 Y s 622 309 m 13 X s 629 274 m
 -9 Y s 622 265 m 13 X s 775 284 m 9 Y s 768 293 m 13 X s 775 258 m -9 Y s 768 249 m 13 X s 834 337 m 35 Y s 828 372 m 13 X s 834 311 m -35 Y s 828 276 m 13 X s 909 272 m 13 Y s 902 285 m 13 X s 909 246 m -12 Y s 902 234 m 13 X s 1002 370 m 39 Y s
 995 409 m 13 X s 1002 344 m -39 Y s 995 305 m 13 X s 1356 267 m 4 Y s 1350 271 m 13 X s 1356 241 m -3 Y s 1350 238 m 13 X s 1492 276 m s 1486 276 m 13 X s 1492 250 m s 1486 250 m 13 X s 1658 349 m 23 Y s 1651 372 m 13 X s 1658 322 m -23 Y s 1651 299
 m 13 X s 1806 304 m 7 Y s 1799 311 m 14 X s 1806 278 m -7 Y s 1799 271 m 14 X s 1958 318 m 7 Y s 1952 325 m 13 X s 1958 292 m -7 Y s 1952 285 m 13 X s 309 228 m 66 34 d 80 -18 d 93 93 d 81 -50 d 67 -53 d 79 37 d 59 53 d 75 -65 d 93 98 d 97 -101 d 89
 -32 d 80 52 d 88 -22 d 136 9 d 166 72 d 148 -44 d 152 14 d s[  ] 0 sd 309 228 375 262 455 244 548 337 629 287 696 234 775 271 834 324 909 259 1002 357 1099 256 1188 224 1268 276 1356 254 1492 263 1658 335 1806 291 1958 305 18 { m21} R[ 12 12] 0 sd 1
 0 0 c 547 261 m 2 Y s 541 263 m 13 X s 547 235 m -1 Y s 541 234 m 13 X s 628 284 m 4 Y s 622 288 m 13 X s 628 258 m -5 Y s 622 253 m 13 X s 697 350 m 73 Y s 690 423 m 13 X s 697 324 m -73 Y s 690 251 m 13 X s 775 303 m 5 Y s 768 308 m 13 X s 775 277
 m -5 Y s 768 272 m 13 X s 835 280 m 12 Y s 829 292 m 13 X s 835 254 m -11 Y s 829 243 m 13 X s 907 269 m 3 Y s 901 272 m 13 X s 907 243 m -2 Y s 901 241 m 13 X s 1003 295 m 1 Y s 996 296 m 13 X s 1003 269 m -2 Y s 996 267 m 13 X s 1100 278 m 6 Y s
 1093 284 m 13 X s 1100 252 m -5 Y s 1093 247 m 13 X s 1188 318 m 25 Y s 1182 343 m 13 X s 1188 292 m -25 Y s 1182 267 m 13 X s 1268 395 m 70 Y s 1261 465 m 13 X s 1268 369 m -69 Y s 1261 300 m 13 X s 1357 754 m 240 Y s 1350 994 m 13 X s 1357 728 m
 -239 Y s 1350 489 m 13 X s 1492 283 m 1 Y s 1486 284 m 13 X s 1492 257 m -1 Y s 1486 256 m 13 X s 1658 303 m 15 Y s 1651 318 m 13 X s 1658 277 m -16 Y s 1651 261 m 13 X s 1806 308 m 13 Y s 1799 321 m 13 X s 1806 282 m -12 Y s 1799 270 m 13 X s 1958
 298 m 4 Y s 1952 302 m 13 X s 1958 272 m -4 Y s 1952 268 m 13 X s black 1 0 0 c 309 230 m 67 2 d 79 6 d 92 10 d 81 23 d 69 66 d 78 -47 d 60 -23 d 72 -11 d 96 26 d 97 -17 d 88 40 d 80 77 d 89 359 d 135 -471 d 166 20 d 148 5 d 152 -10 d s[  ] 0 sd 309
 230 376 232 455 238 547 248 628 271 697 337 775 290 835 267 907 256 1003 282 1100 265 1188 305 1268 382 1357 741 1492 270 1658 290 1806 295 1958 285 18 { m21} R[ 12 12] 0 sd 0 1 0 c 309 278 m 2 Y s 303 280 m 13 X s 309 252 m -1 Y s 303 251 m 13 X s
 628 264 m 1 Y s 622 265 m 13 X s 628 238 m -1 Y s 622 237 m 13 X s 697 389 m 97 Y s 691 486 m 13 X s 697 363 m -97 Y s 691 266 m 13 X s 835 255 m 1 Y s 829 256 m 13 X s 835 229 m -1 Y s 829 228 m 13 X s 1002 265 m 4 Y s 995 269 m 13 X s 1002 239 m
 -3 Y s 995 236 m 13 X s 1188 271 m 4 Y s 1182 275 m 13 X s 1188 245 m -4 Y s 1182 241 m 13 X s 1356 278 m 3 Y s 1350 281 m 13 X s 1356 252 m -3 Y s 1350 249 m 13 X s 1493 271 m 2 Y s 1486 273 m 13 X s 1493 245 m -1 Y s 1486 244 m 13 X s 1658 274 m 2
 Y s 1652 276 m 13 X s 1658 248 m -2 Y s 1652 246 m 13 X s 1958 278 m 2 Y s 1951 280 m 14 X s 1958 252 m -3 Y s 1951 249 m 14 X s black 0 1 0 c 309 265 m 66 -34 d 80 14 d 93 -22 d 80 28 d 69 125 d 77 -146 d 61 12 d 73 5 d 94 5 d 97 -18 d 89 24 d 80
 -31 d 88 38 d 137 -7 d 165 3 d 148 -17 d 152 21 d s[  ] 0 sd 309 265 375 231 455 245 548 223 628 251 697 376 774 230 835 242 908 247 1002 252 1099 234 1188 258 1268 227 1356 265 1493 258 1658 261 1806 244 1958 265 18 { m21} R[ 12 12] 0 sd 0 0 1 c
 309 225 m 1 Y s 303 226 m 13 X s 309 199 m -1 Y s 303 198 m 13 X s 628 253 m s 622 253 m 13 X s 628 227 m s 622 227 m 13 X s 774 257 m s 768 257 m 13 X s 774 231 m s 768 231 m 13 X s 834 248 m 6 Y s 827 254 m 13 X s 834 222 m -5 Y s 827 217 m 13 X s
 909 265 m 1 Y s 902 266 m 13 X s 909 239 m -1 Y s 902 238 m 13 X s 1002 300 m 6 Y s 995 306 m 13 X s 1002 273 m -6 Y s 995 267 m 13 X s 1099 338 m 35 Y s 1093 373 m 13 X s 1099 312 m -34 Y s 1093 278 m 13 X s 1188 292 m 20 Y s 1182 312 m 13 X s 1188
 266 m -19 Y s 1182 247 m 13 X s 1268 301 m 12 Y s 1261 313 m 13 X s 1268 275 m -13 Y s 1261 262 m 13 X s 1356 288 m 7 Y s 1350 295 m 13 X s 1356 262 m -8 Y s 1350 254 m 13 X s 1806 321 m 12 Y s 1799 333 m 13 X s 1806 295 m -12 Y s 1799 283 m 13 X s
 black 0 0 1 c 309 212 m 66 26 d 80 -23 d 93 29 d 80 -4 d 68 -9 d 78 13 d 60 -9 d 75 17 d 93 35 d 97 38 d 89 -46 d 80 9 d 88 -13 d 136 -36 d 166 -4 d 148 73 d 152 -67 d s[  ] 0 sd 309 212 375 238 455 215 548 244 628 240 696 231 774 244 834 235 909
 252 1002 287 1099 325 1188 279 1268 288 1356 275 1492 239 1658 235 1806 308 1958 241 18 { m21} R[ 12 12] 0 sd 1 1 0 c 309 319 m 60 Y s 303 379 m 13 X s 309 293 m -60 Y s 303 233 m 13 X s 375 254 m 3 Y s 368 257 m 13 X s 375 228 m -4 Y s 368 224 m 13
 X s 455 480 m 130 Y s 449 610 m 13 X s 455 454 m -131 Y s 449 323 m 13 X s 629 248 m 4 Y s 622 252 m 13 X s 629 222 m -5 Y s 622 217 m 13 X s 835 253 m 2 Y s 828 255 m 13 X s 835 227 m -2 Y s 828 225 m 13 X s 1002 266 m 6 Y s 995 272 m 13 X s 1002
 240 m -5 Y s 995 235 m 13 X s 1099 321 m 24 Y s 1093 345 m 13 X s 1099 295 m -25 Y s 1093 270 m 13 X s 1268 255 m 3 Y s 1261 258 m 13 X s 1268 229 m -3 Y s 1261 226 m 13 X s 1806 260 m 5 Y s 1799 265 m 13 X s 1806 234 m -6 Y s 1799 228 m 13 X s
 black 1 1 0 c 309 306 m 66 -65 d 80 226 d 93 -230 d 81 -2 d 68 -20 d 78 15 d 60 10 d 73 -9 d 94 22 d 97 55 d 89 -108 d 80 42 d 88 -5 d 137 -3 d 165 2 d 148 11 d 152 4 d s[  ] 0 sd 309 306 375 241 455 467 548 237 629 235 697 215 775 230 835 240 908
 231 1002 253 1099 308 1188 200 1268 242 1356 237 1493 234 1658 236 1806 247 1958 251 18 { m21} R[ 12 12] 0 sd 1 0 1 c 309 251 m 5 Y s 303 256 m 13 X s 309 225 m -5 Y s 303 220 m 13 X s 548 271 m 20 Y s 541 291 m 13 X s 548 245 m -19 Y s 541 226 m 13
 X s 628 240 m 1 Y s 622 241 m 13 X s 628 214 m -1 Y s 622 213 m 13 X s 774 252 m 2 Y s 768 254 m 13 X s 774 226 m -3 Y s 768 223 m 13 X s 1002 262 m s 996 262 m 13 X s 1002 236 m -1 Y s 996 235 m 13 X s 1188 244 m s 1182 244 m 13 X s 1188 218 m s
 1182 218 m 13 X s 1268 245 m 1 Y s 1261 246 m 13 X s 1268 218 m -1 Y s 1261 217 m 13 X s 1356 268 m 4 Y s 1350 272 m 13 X s 1356 242 m -4 Y s 1350 238 m 13 X s black 1 0 1 c 309 238 m 66 -28 d 80 -4 d 93 52 d 80 -31 d 69 -15 d 77 27 d 61 -6 d 72 -9
 d 95 25 d 97 -24 d 89 6 d 80 X 88 24 d 136 -24 d 166 10 d 148 -5 d 152 -26 d s[  ] 0 sd 309 238 375 210 455 206 548 258 628 227 697 212 774 239 835 233 907 224 1002 249 1099 225 1188 231 1268 231 1356 255 1492 231 1658 241 1806 236 1958 210 18 {
 m21} R[ 12 12] 0 sd black
 gsave  2268 1538 0 0 C 325.821 1300.03 t 0 r /Helvetica-Bold findfont 58.6478 sf 0 0 m (Sct Disk \(left\)) show NC gr 
 gsave  2268 1538 0 0 C 430.084 1244.64 t 0 r /Helvetica-Bold findfont 58.6478 sf 0 0 m (Disk 0) show NC gr [  ] 0 sd 334 1256 m 80 X s 374 1256 m20
 gsave  2268 1538 0 0 C 430.084 1189.25 t 0 r /Helvetica-Bold findfont 58.6478 sf 0 0 m (Disk 1) show NC gr  1 0 0 c 334 1201 m 80 X s 374 1201 m20 black
 gsave  2268 1538 0 0 C 430.084 1133.86 t 0 r /Helvetica-Bold findfont 58.6478 sf 0 0 m (Disk 2) show NC gr  0 1 0 c 334 1146 m 80 X s 374 1146 m20 black
 gsave  2268 1538 0 0 C 430.084 1078.47 t 0 r /Helvetica-Bold findfont 58.6478 sf 0 0 m (Disk 3) show NC gr  0 0 1 c 334 1091 m 80 X s 374 1091 m20 black
 gsave  2268 1538 0 0 C 430.084 1026.34 t 0 r /Helvetica-Bold findfont 58.6478 sf 0 0 m (Disk 4) show NC gr  1 1 0 c 334 1036 m 80 X s 374 1036 m20 black
 gsave  2268 1538 0 0 C 430.084 970.948 t 0 r /Helvetica-Bold findfont 58.6478 sf 0 0 m (Disk 5) show NC gr  1 0 1 c 334 981 m 80 X s 374 981 m20 black
 gsave  2268 1538 0 0 C 915.558 1300.03 t 0 r /Helvetica-Bold findfont 58.6478 sf 0 0 m (  \(right\)) show NC gr 
 gsave  2268 1538 0 0 C 1019.82 1244.64 t 0 r /Helvetica-Bold findfont 58.6478 sf 0 0 m (Disk 0) show NC gr [ 12 12] 0 sd 924 1256 m 79 X s[  ] 0 sd 964 1256 m21[ 12 12] 0 sd
 gsave  2268 1538 0 0 C 1019.82 1189.25 t 0 r /Helvetica-Bold findfont 58.6478 sf 0 0 m (Disk 1) show NC gr  1 0 0 c 924 1201 m 79 X s[  ] 0 sd 964 1201 m21[ 12 12] 0 sd black
 gsave  2268 1538 0 0 C 1019.82 1133.86 t 0 r /Helvetica-Bold findfont 58.6478 sf 0 0 m (Disk 2) show NC gr  0 1 0 c 924 1146 m 79 X s[  ] 0 sd 964 1146 m21[ 12 12] 0 sd black
 gsave  2268 1538 0 0 C 1019.82 1078.47 t 0 r /Helvetica-Bold findfont 58.6478 sf 0 0 m (Disk 3) show NC gr  0 0 1 c 924 1091 m 79 X s[  ] 0 sd 964 1091 m21[ 12 12] 0 sd black
 gsave  2268 1538 0 0 C 1019.82 1026.34 t 0 r /Helvetica-Bold findfont 58.6478 sf 0 0 m (Disk 4) show NC gr  1 1 0 c 924 1036 m 79 X s[  ] 0 sd 964 1036 m21[ 12 12] 0 sd black
 gsave  2268 1538 0 0 C 1019.82 970.948 t 0 r /Helvetica-Bold findfont 58.6478 sf 0 0 m (Disk 5) show NC gr  1 0 1 c 924 981 m 79 X s[  ] 0 sd 964 981 m21[ 12 12] 0 sd
 gr  gr showpage
end
%%EOF
