%!PS-Adobe-2.0 EPSF-2.0
%%BoundingBox:  0 0 567 384
%%Title: outputDir/sct_occupancy/size_sctlayer_mg.eps: c1_n29
%%Creator: ROOT Version 6.04/12
%%CreationDate: Mon Apr 25 16:02:10 2016
%%DocumentNeededResources: ProcSet (FontSetInit)
%%EndComments
%%BeginProlog
80 dict begin
/s {stroke} def /l {lineto} def /m {moveto} def /t {translate} def
/r {rotate} def /rl {roll}  def /R {repeat} def
/d {rlineto} def /rm {rmoveto} def /gr {grestore} def /f {eofill} def
/c {setrgbcolor} def /black {0 setgray} def /sd {setdash} def
/cl {closepath} def /sf {scalefont setfont} def /lw {setlinewidth} def
/box {m dup 0 exch d exch 0 d 0 exch neg d cl} def
/NC{systemdict begin initclip end}def/C{NC box clip newpath}def
/bl {box s} def /bf {gsave box gsave f grestore 1 lw [] 0 sd s grestore} def /Y { 0 exch d} def /X { 0 d} def 
/K {{pop pop 0 moveto} exch kshow} bind def
/ita {/ang 15 def gsave [1 0 ang dup sin exch cos div 1 0 0] concat} def 
/mp {newpath /y exch def /x exch def} def
/side {[w .77 mul w .23 mul] .385 w mul sd w 0 l currentpoint t -144 r} def
/mr {mp x y w2 0 360 arc} def /m24 {mr s} def /m20 {mr f} def
/mb {mp x y w2 add m w2 neg 0 d 0 w neg d w 0 d 0 w d cl} def
/mt {mp x y w2 add m w2 neg w neg d w 0 d cl} def
/m21 {mb f} def /m25 {mb s} def /m22 {mt f} def /m26{mt s} def
/m23 {mp x y w2 sub m w2 w d w neg 0 d cl f} def
/m27 {mp x y w2 add m w3 neg w2 neg d w3 w2 neg d w3 w2 d cl s} def
/m28 {mp x w2 sub y w2 sub w3 add m w3 0 d  0 w3 neg d w3 0 d 0 w3 d w3 0 d  0 w3 d w3 neg 0 d 0 w3 d w3 neg 0 d 0 w3 neg d w3 neg 0 d cl s } def
/m29 {mp gsave x w2 sub y w2 add w3 sub m currentpoint t 4 {side} repeat cl fill gr} def
/m30 {mp gsave x w2 sub y w2 add w3 sub m currentpoint t 4 {side} repeat cl s gr} def
/m31 {mp x y w2 sub m 0 w d x w2 sub y m w 0 d x w2 sub y w2 add m w w neg d x w2 sub y w2 sub m w w d s} def
/m32 {mp x y w2 sub m w2 w d w neg 0 d cl s} def
/m33 {mp x y w2 add m w3 neg w2 neg d w3 w2 neg d w3 w2 d cl f} def
/m34 {mp x w2 sub y w2 sub w3 add m w3 0 d  0 w3 neg d w3 0 d 0 w3 d w3 0 d  0 w3 d w3 neg 0 d 0 w3 d w3 neg 0 d 0 w3 neg d w3 neg 0 d cl f } def
/m2 {mp x y w2 sub m 0 w d x w2 sub y m w 0 d s} def
/m5 {mp x w2 sub y w2 sub m w w d x w2 sub y w2 add m w w neg d s} def
%%IncludeResource: ProcSet (FontSetInit)
%%IncludeResource: font Times-Roman
%%IncludeResource: font Times-Italic
%%IncludeResource: font Times-Bold
%%IncludeResource: font Times-BoldItalic
%%IncludeResource: font Helvetica
%%IncludeResource: font Helvetica-Oblique
%%IncludeResource: font Helvetica-Bold
%%IncludeResource: font Helvetica-BoldOblique
%%IncludeResource: font Courier
%%IncludeResource: font Courier-Oblique
%%IncludeResource: font Courier-Bold
%%IncludeResource: font Courier-BoldOblique
%%IncludeResource: font Symbol
%%IncludeResource: font ZapfDingbats
/reEncode {exch findfont dup length dict begin {1 index /FID eq  {pop pop} {def} ifelse } forall /Encoding exch def currentdict end dup /FontName get exch definefont pop } def [/Times-Bold /Times-Italic /Times-BoldItalic /Helvetica /Helvetica-Oblique
 /Helvetica-Bold /Helvetica-BoldOblique /Courier /Courier-Oblique /Courier-Bold /Courier-BoldOblique /Times-Roman /AvantGarde-Book /AvantGarde-BookOblique /AvantGarde-Demi /AvantGarde-DemiOblique /Bookman-Demi /Bookman-DemiItalic /Bookman-Light
 /Bookman-LightItalic /Helvetica-Narrow /Helvetica-Narrow-Bold /Helvetica-Narrow-BoldOblique /Helvetica-Narrow-Oblique /NewCenturySchlbk-Roman /NewCenturySchlbk-Bold /NewCenturySchlbk-BoldItalic /NewCenturySchlbk-Italic /Palatino-Bold
 /Palatino-BoldItalic /Palatino-Italic /Palatino-Roman ] {ISOLatin1Encoding reEncode } forall
%%EndProlog
%%BeginSetup
%%EndSetup
newpath  gsave  .25 .25 scale  gsave  0 0 t black[  ] 0 sd 3 lw 1 1 1 c 2268 1538 0 0 bf black 1 1 1 c 1814 1230 227 154 bf black 1814 1230 227 154 bl 1 1 1 c 1814 1230 227 154 bf black 1814 1230 227 154 bl 227 154 m 1814 X s
 gsave  2268 1538 0 0 C 1772.47 32.5821 t 0 r /Helvetica-Bold findfont 58.6478 sf 0 0 m (moduleID) show NC gr  250 191 m -37 Y s 309 172 m -18 Y s 368 172 m -18 Y s 427 172 m -18 Y s 486 172 m -18 Y s 545 191 m -37 Y s 604 172 m -18 Y s 663 172 m -18
 Y s 722 172 m -18 Y s 780 172 m -18 Y s 839 191 m -37 Y s 898 172 m -18 Y s 957 172 m -18 Y s 1016 172 m -18 Y s 1075 172 m -18 Y s 1134 191 m -37 Y s 1193 172 m -18 Y s 1252 172 m -18 Y s 1311 172 m -18 Y s 1369 172 m -18 Y s 1428 191 m -37 Y s
 1487 172 m -18 Y s 1546 172 m -18 Y s 1605 172 m -18 Y s 1664 172 m -18 Y s 1723 191 m -37 Y s 1782 172 m -18 Y s 1841 172 m -18 Y s 1900 172 m -18 Y s 1958 172 m -18 Y s 2017 191 m -37 Y s 250 191 m -37 Y s 2017 191 m -37 Y s
 gsave  2268 1538 0 0 C 228.075 97.7464 t 0 r /Helvetica-Bold findfont 58.6478 sf 0 0 m (30) show NC gr 
 gsave  2268 1538 0 0 C 198.751 97.7464 t 0 r /Symbol findfont 58.6478 sf 0 0 m (-) show NC gr 
 gsave  2268 1538 0 0 C 524.572 97.7464 t 0 r /Helvetica-Bold findfont 58.6478 sf 0 0 m (20) show NC gr 
 gsave  2268 1538 0 0 C 495.248 97.7464 t 0 r /Symbol findfont 58.6478 sf 0 0 m (-) show NC gr 
 gsave  2268 1538 0 0 C 817.812 97.7464 t 0 r /Helvetica-Bold findfont 58.6478 sf 0 0 m (10) show NC gr 
 gsave  2268 1538 0 0 C 788.488 97.7464 t 0 r /Symbol findfont 58.6478 sf 0 0 m (-) show NC gr 
 gsave  2268 1538 0 0 C 1117.57 97.7464 t 0 r /Helvetica-Bold findfont 58.6478 sf 0 0 m (0) show NC gr 
 gsave  2268 1538 0 0 C 1394.52 97.7464 t 0 r /Helvetica-Bold findfont 58.6478 sf 0 0 m (10) show NC gr 
 gsave  2268 1538 0 0 C 1687.75 97.7464 t 0 r /Helvetica-Bold findfont 58.6478 sf 0 0 m (20) show NC gr 
 gsave  2268 1538 0 0 C 1984.25 97.7464 t 0 r /Helvetica-Bold findfont 58.6478 sf 0 0 m (30) show NC gr  227 1384 m 1814 X s 250 1347 m 37 Y s 309 1366 m 18 Y s 368 1366 m 18 Y s 427 1366 m 18 Y s 486 1366 m 18 Y s 545 1347 m 37 Y s 604 1366 m 18 Y s
 663 1366 m 18 Y s 722 1366 m 18 Y s 780 1366 m 18 Y s 839 1347 m 37 Y s 898 1366 m 18 Y s 957 1366 m 18 Y s 1016 1366 m 18 Y s 1075 1366 m 18 Y s 1134 1347 m 37 Y s 1193 1366 m 18 Y s 1252 1366 m 18 Y s 1311 1366 m 18 Y s 1369 1366 m 18 Y s 1428
 1347 m 37 Y s 1487 1366 m 18 Y s 1546 1366 m 18 Y s 1605 1366 m 18 Y s 1664 1366 m 18 Y s 1723 1347 m 37 Y s 1782 1366 m 18 Y s 1841 1366 m 18 Y s 1900 1366 m 18 Y s 1958 1366 m 18 Y s 2017 1347 m 37 Y s 250 1347 m 37 Y s 2017 1347 m 37 Y s 227 154
 m 1230 Y s
 gsave  2268 1538 0 0 C 104.263 1055.66 t 90 r /Helvetica-Bold findfont 58.6478 sf 0 0 m (Cluster size) show NC gr  281 271 m -54 X s 254 326 m -27 X s 254 381 m -27 X s 254 435 m -27 X s 281 490 m -54 X s 254 545 m -27 X s 254 600 m -27 X s 254 654
 m -27 X s 281 709 m -54 X s 254 764 m -27 X s 254 819 m -27 X s 254 873 m -27 X s 281 928 m -54 X s 254 983 m -27 X s 254 1038 m -27 X s 254 1093 m -27 X s 281 1147 m -54 X s 254 1202 m -27 X s 254 1257 m -27 X s 254 1312 m -27 X s 281 1366 m -54 X
 s 281 271 m -54 X s 254 216 m -27 X s 254 162 m -27 X s 281 1366 m -54 X s
 gsave  2268 1538 0 0 C 182.46 247.624 t 0 r /Helvetica-Bold findfont 58.6478 sf 0 0 m (2) show NC gr 
 gsave  2268 1538 0 0 C 182.46 469.183 t 0 r /Helvetica-Bold findfont 58.6478 sf 0 0 m (4) show NC gr 
 gsave  2268 1538 0 0 C 182.46 687.483 t 0 r /Helvetica-Bold findfont 58.6478 sf 0 0 m (6) show NC gr 
 gsave  2268 1538 0 0 C 182.46 905.783 t 0 r /Helvetica-Bold findfont 58.6478 sf 0 0 m (8) show NC gr 
 gsave  2268 1538 0 0 C 149.878 1127.34 t 0 r /Helvetica-Bold findfont 58.6478 sf 0 0 m (10) show NC gr 
 gsave  2268 1538 0 0 C 149.878 1342.38 t 0 r /Helvetica-Bold findfont 58.6478 sf 0 0 m (12) show NC gr  2041 154 m 1230 Y s 1987 271 m 54 X s 2014 326 m 27 X s 2014 381 m 27 X s 2014 435 m 27 X s 1987 490 m 54 X s 2014 545 m 27 X s 2014 600 m 27 X s
 2014 654 m 27 X s 1987 709 m 54 X s 2014 764 m 27 X s 2014 819 m 27 X s 2014 873 m 27 X s 1987 928 m 54 X s 2014 983 m 27 X s 2014 1038 m 27 X s 2014 1093 m 27 X s 1987 1147 m 54 X s 2014 1202 m 27 X s 2014 1257 m 27 X s 2014 1312 m 27 X s 1987 1366
 m 54 X s 1987 271 m 54 X s 2014 216 m 27 X s 2014 162 m 27 X s 1987 1366 m 54 X s 309 318 m 15 Y s 303 333 m 13 X s 309 292 m -16 Y s 303 276 m 13 X s 339 378 m 40 Y s 332 418 m 13 X s 339 352 m -41 Y s 332 311 m 13 X s 368 322 m 26 Y s 362 348 m 13
 X s 368 296 m -25 Y s 362 271 m 13 X s 398 310 m 24 Y s 391 334 m 13 X s 398 284 m -23 Y s 391 261 m 13 X s 427 264 m 1 Y s 421 265 m 13 X s 427 237 m -1 Y s 421 236 m 13 X s 486 362 m 59 Y s 479 421 m 13 X s 486 336 m -58 Y s 479 278 m 13 X s 515
 240 m 2 Y s 509 242 m 13 X s 515 214 m -2 Y s 509 212 m 13 X s 574 284 m 7 Y s 568 291 m 13 X s 574 258 m -7 Y s 568 251 m 13 X s 604 237 m s 597 237 m 13 X s 604 211 m -1 Y s 597 210 m 13 X s 633 327 m 25 Y s 627 352 m 13 X s 633 301 m -25 Y s 627
 276 m 13 X s 663 313 m 30 Y s 656 343 m 13 X s 663 287 m -30 Y s 656 257 m 13 X s 692 271 m 11 Y s 686 282 m 13 X s 692 245 m -10 Y s 686 235 m 13 X s 722 275 m 3 Y s 715 278 m 13 X s 722 249 m -4 Y s 715 245 m 13 X s 751 253 m 3 Y s 744 256 m 14 X
 s 751 227 m -2 Y s 744 225 m 14 X s 780 265 m 17 Y s 774 282 m 13 X s 780 239 m -17 Y s 774 222 m 13 X s 839 280 m 16 Y s 833 296 m 13 X s 839 254 m -16 Y s 833 238 m 13 X s 869 258 m 13 Y s 862 271 m 13 X s 869 232 m -14 Y s 862 218 m 13 X s 898
 270 m 4 Y s 892 274 m 13 X s 898 244 m -5 Y s 892 239 m 13 X s 928 276 m 5 Y s 921 281 m 13 X s 928 250 m -5 Y s 921 245 m 13 X s 957 272 m 12 Y s 951 284 m 13 X s 957 245 m -12 Y s 951 233 m 13 X s 987 268 m 4 Y s 980 272 m 13 X s 987 242 m -4 Y s
 980 238 m 13 X s 1046 302 m 13 Y s 1039 315 m 13 X s 1046 276 m -13 Y s 1039 263 m 13 X s 1222 233 m s 1216 233 m 13 X s 1222 207 m s 1216 207 m 13 X s 1281 243 m 2 Y s 1275 245 m 13 X s 1281 217 m -1 Y s 1275 216 m 13 X s 1340 322 m 20 Y s 1333 342
 m 14 X s 1340 296 m -20 Y s 1333 276 m 14 X s 1399 288 m 24 Y s 1392 312 m 13 X s 1399 262 m -23 Y s 1392 239 m 13 X s 1428 245 m 11 Y s 1422 256 m 13 X s 1428 219 m -11 Y s 1422 208 m 13 X s 1487 238 m 1 Y s 1481 239 m 13 X s 1487 212 m -1 Y s 1481
 211 m 13 X s 1517 264 m 2 Y s 1510 266 m 13 X s 1517 237 m -2 Y s 1510 235 m 13 X s 1605 302 m 20 Y s 1599 322 m 13 X s 1605 276 m -20 Y s 1599 256 m 13 X s 1635 282 m 10 Y s 1628 292 m 13 X s 1635 256 m -9 Y s 1628 247 m 13 X s 1664 266 m 11 Y s
 1657 277 m 13 X s 1664 240 m -11 Y s 1657 229 m 13 X s 1693 305 m 49 Y s 1687 354 m 13 X s 1693 279 m -49 Y s 1687 230 m 13 X s 1723 398 m 71 Y s 1716 469 m 13 X s 1723 372 m -71 Y s 1716 301 m 13 X s 1752 321 m 31 Y s 1746 352 m 13 X s 1752 295 m
 -32 Y s 1746 263 m 13 X s 1782 265 m 1 Y s 1775 266 m 13 X s 1782 239 m -2 Y s 1775 237 m 13 X s 1811 299 m 10 Y s 1805 309 m 13 X s 1811 273 m -10 Y s 1805 263 m 13 X s 1841 273 m 9 Y s 1834 282 m 13 X s 1841 247 m -9 Y s 1834 238 m 13 X s 1870 267
 m 10 Y s 1864 277 m 13 X s 1870 241 m -10 Y s 1864 231 m 13 X s 1900 261 m 11 Y s 1893 272 m 13 X s 1900 235 m -11 Y s 1893 224 m 13 X s 1929 271 m 4 Y s 1923 275 m 13 X s 1929 245 m -5 Y s 1923 240 m 13 X s 1958 722 m 274 Y s 1952 996 m 13 X s 1958
 696 m -274 Y s 1952 422 m 13 X s 309 305 m 30 60 d 29 -56 d 30 -12 d 29 -47 d 29 -14 d 30 113 d 29 -122 d 30 10 d 29 34 d 30 -47 d 29 90 d 30 -14 d 29 -42 d 30 4 d 29 -22 d 29 12 d 30 -34 d 29 49 d 30 -22 d 29 12 d 30 6 d 29 -5 d 30 -3 d 29 -32 d 30
 66 d 29 -83 d 29 -6 d 59 18 d 30 -15 d 29 17 d 30 6 d 29 4 d 30 -20 d 29 99 d 29 -86 d 30 52 d 29 -43 d 30 -4 d 29 -3 d 30 25 d 29 -15 d 30 -8 d 29 62 d 30 -20 d 29 -16 d 29 39 d 30 93 d 29 -77 d 30 -56 d 29 34 d 30 -26 d 29 -6 d 30 -6 d 29 10 d 29
 451 d s /w 26 def /w2 {w 2 div} def /w3 {w 3 div} def 309 305 339 365 368 309 398 297 427 250 456 236 486 349 515 227 545 237 574 271 604 224 633 314 663 300 692 258 722 262 751 240 780 252 810 218 839 267 869 245 898 257 928 263 957 258 987 255
 1016 223 1046 289 1075 206 1104 200 1163 218 1193 203 1222 220 1252 226 1281 230 1311 210 1340 309 1369 223 1399 275 1428 232 1458 228 1487 225 1517 250 1546 235 1576 227 1605 289 1635 269 1664 253 1693 292 1723 385 1752 308 1782 252 1811 286 1841
 260 1870 254 1900 248 1929 258 1958 709 56 { m20} R 1 0 0 c 309 288 m 16 Y s 303 304 m 13 X s 309 262 m -17 Y s 303 245 m 13 X s 339 327 m 30 Y s 332 357 m 13 X s 339 301 m -31 Y s 332 270 m 13 X s 368 348 m 31 Y s 362 379 m 13 X s 368 322 m -31 Y s
 362 291 m 13 X s 398 296 m 19 Y s 391 315 m 13 X s 398 270 m -20 Y s 391 250 m 13 X s 427 301 m 16 Y s 421 317 m 13 X s 427 275 m -15 Y s 421 260 m 13 X s 456 342 m 49 Y s 450 391 m 13 X s 456 316 m -49 Y s 450 267 m 13 X s 486 253 m 1 Y s 479 254 m
 13 X s 486 226 m -1 Y s 479 225 m 13 X s 515 336 m 22 Y s 509 358 m 13 X s 515 310 m -22 Y s 509 288 m 13 X s 574 261 m 12 Y s 568 273 m 13 X s 574 235 m -13 Y s 568 222 m 13 X s 604 276 m 3 Y s 597 279 m 13 X s 604 250 m -2 Y s 597 248 m 13 X s 633
 341 m 71 Y s 627 412 m 13 X s 633 315 m -72 Y s 627 243 m 13 X s 663 251 m 1 Y s 656 252 m 13 X s 663 225 m -2 Y s 656 223 m 13 X s 692 242 m 7 Y s 686 249 m 13 X s 692 216 m -7 Y s 686 209 m 13 X s 722 275 m 8 Y s 715 283 m 13 X s 722 249 m -7 Y s
 715 242 m 13 X s 751 278 m 11 Y s 744 289 m 14 X s 751 252 m -10 Y s 744 242 m 14 X s 780 282 m 15 Y s 774 297 m 13 X s 780 256 m -15 Y s 774 241 m 13 X s 898 239 m 2 Y s 892 241 m 13 X s 898 213 m -3 Y s 892 210 m 13 X s 928 246 m 5 Y s 921 251 m
 13 X s 928 220 m -5 Y s 921 215 m 13 X s 957 303 m 7 Y s 951 310 m 13 X s 957 277 m -8 Y s 951 269 m 13 X s 987 278 m 2 Y s 980 280 m 13 X s 987 252 m -3 Y s 980 249 m 13 X s 1046 239 m 1 Y s 1039 240 m 13 X s 1046 213 m -1 Y s 1039 212 m 13 X s
 1075 244 m 1 Y s 1068 245 m 13 X s 1075 218 m -1 Y s 1068 217 m 13 X s 1222 294 m 14 Y s 1216 308 m 13 X s 1222 268 m -14 Y s 1216 254 m 13 X s 1252 343 m 30 Y s 1245 373 m 13 X s 1252 317 m -31 Y s 1245 286 m 13 X s 1281 281 m 29 Y s 1275 310 m 13
 X s 1281 255 m -30 Y s 1275 225 m 13 X s 1311 266 m 9 Y s 1304 275 m 13 X s 1311 240 m -9 Y s 1304 231 m 13 X s 1340 272 m 18 Y s 1333 290 m 14 X s 1340 246 m -18 Y s 1333 228 m 14 X s 1369 250 m 5 Y s 1363 255 m 13 X s 1369 224 m -5 Y s 1363 219 m
 13 X s 1399 249 m 2 Y s 1392 251 m 13 X s 1399 223 m -1 Y s 1392 222 m 13 X s 1428 255 m 10 Y s 1422 265 m 13 X s 1428 229 m -9 Y s 1422 220 m 13 X s 1458 331 m 32 Y s 1451 363 m 13 X s 1458 305 m -33 Y s 1451 272 m 13 X s 1487 277 m 8 Y s 1481 285
 m 13 X s 1487 251 m -8 Y s 1481 243 m 13 X s 1517 259 m 6 Y s 1510 265 m 13 X s 1517 233 m -5 Y s 1510 228 m 13 X s 1546 329 m 23 Y s 1540 352 m 13 X s 1546 303 m -22 Y s 1540 281 m 13 X s 1576 272 m 1 Y s 1569 273 m 13 X s 1576 246 m -2 Y s 1569
 244 m 13 X s 1605 324 m 23 Y s 1599 347 m 13 X s 1605 298 m -24 Y s 1599 274 m 13 X s 1635 266 m 1 Y s 1628 267 m 13 X s 1635 240 m -2 Y s 1628 238 m 13 X s 1664 243 m 5 Y s 1657 248 m 13 X s 1664 217 m -4 Y s 1657 213 m 13 X s 1693 297 m 11 Y s
 1687 308 m 13 X s 1693 271 m -11 Y s 1687 260 m 13 X s 1723 306 m 25 Y s 1716 331 m 13 X s 1723 280 m -25 Y s 1716 255 m 13 X s 1752 275 m 7 Y s 1746 282 m 13 X s 1752 249 m -7 Y s 1746 242 m 13 X s 1782 282 m 6 Y s 1775 288 m 13 X s 1782 256 m -6 Y
 s 1775 250 m 13 X s 1811 253 m 2 Y s 1805 255 m 13 X s 1811 227 m -3 Y s 1805 224 m 13 X s 1841 331 m 54 Y s 1834 385 m 13 X s 1841 305 m -55 Y s 1834 250 m 13 X s 1870 293 m 15 Y s 1864 308 m 13 X s 1870 267 m -16 Y s 1864 251 m 13 X s 1900 271 m
 21 Y s 1893 292 m 13 X s 1900 245 m -21 Y s 1893 224 m 13 X s 1929 245 m 3 Y s 1923 248 m 13 X s 1929 219 m -3 Y s 1923 216 m 13 X s 1958 377 m 44 Y s 1952 421 m 13 X s 1958 351 m -43 Y s 1952 308 m 13 X s black 1 0 0 c 309 275 m 30 39 d 29 21 d 30
 -52 d 29 5 d 29 41 d 30 -90 d 29 84 d 30 -89 d 29 14 d 30 15 d 29 65 d 30 -90 d 29 -9 d 30 33 d 29 3 d 29 4 d 30 -41 d 29 -1 d 30 -8 d 29 7 d 30 7 d 29 57 d 30 -25 d 29 -60 d 30 21 d 29 5 d 29 5 d 59 -5 d 30 -20 d 29 70 d 30 49 d 29 -62 d 30 -15 d
 29 6 d 29 -22 d 30 -1 d 29 6 d 30 76 d 29 -54 d 30 -18 d 29 70 d 30 -57 d 29 52 d 30 -58 d 29 -23 d 29 54 d 30 9 d 29 -31 d 30 7 d 29 -29 d 30 78 d 29 -38 d 30 -22 d 29 -26 d 29 132 d s 309 275 339 314 368 335 398 283 427 288 456 329 486 239 515 323
 545 234 574 248 604 263 633 328 663 238 692 229 722 262 751 265 780 269 810 228 839 227 869 219 898 226 928 233 957 290 987 265 1016 205 1046 226 1075 231 1104 236 1163 231 1193 211 1222 281 1252 330 1281 268 1311 253 1340 259 1369 237 1399 236 1428
 242 1458 318 1487 264 1517 246 1546 316 1576 259 1605 311 1635 253 1664 230 1693 284 1723 293 1752 262 1782 269 1811 240 1841 318 1870 280 1900 258 1929 232 1958 364 56 { m20} R 0 1 0 c 780 270 m 7 Y s 774 277 m 13 X s 780 244 m -6 Y s 774 238 m 13
 X s 810 298 m 14 Y s 803 312 m 13 X s 810 272 m -14 Y s 803 258 m 13 X s 839 274 m 6 Y s 833 280 m 13 X s 839 248 m -6 Y s 833 242 m 13 X s 898 275 m 3 Y s 892 278 m 13 X s 898 249 m -3 Y s 892 246 m 13 X s 928 287 m 2 Y s 921 289 m 13 X s 928 261 m
 -2 Y s 921 259 m 13 X s 957 255 m s 951 255 m 13 X s 957 229 m s 951 229 m 13 X s 987 289 m 10 Y s 980 299 m 13 X s 987 263 m -9 Y s 980 254 m 13 X s 1016 300 m 32 Y s 1010 332 m 13 X s 1016 274 m -31 Y s 1010 243 m 13 X s 1046 262 m 2 Y s 1039 264
 m 13 X s 1046 236 m -3 Y s 1039 233 m 13 X s 1104 273 m 4 Y s 1098 277 m 13 X s 1104 247 m -5 Y s 1098 242 m 13 X s 1193 262 m 5 Y s 1186 267 m 13 X s 1193 236 m -5 Y s 1186 231 m 13 X s 1311 266 m 1 Y s 1304 267 m 13 X s 1311 240 m s 1304 240 m 13
 X s 1428 264 m s 1422 264 m 13 X s 1428 238 m -1 Y s 1422 237 m 13 X s 1458 339 m 18 Y s 1451 357 m 13 X s 1458 313 m -18 Y s 1451 295 m 13 X s 1487 345 m 20 Y s 1481 365 m 13 X s 1487 319 m -19 Y s 1481 300 m 13 X s 1517 358 m 32 Y s 1510 390 m 13
 X s 1517 332 m -32 Y s 1510 300 m 13 X s 1546 262 m 4 Y s 1540 266 m 13 X s 1546 236 m -3 Y s 1540 233 m 13 X s black 0 1 0 c 722 261 m 29 -36 d 29 32 d 30 28 d 29 -24 d 30 -28 d 29 29 d 30 12 d 29 -32 d 30 34 d 29 11 d 30 -38 d 29 -25 d 29 36 d 59
 -35 d 30 24 d 29 -7 d 30 -6 d 29 -5 d 30 22 d 29 -28 d 29 3 d 30 19 d 29 4 d 30 75 d 29 6 d 30 13 d 29 -96 d s 722 261 751 225 780 257 810 285 839 261 869 233 898 262 928 274 957 242 987 276 1016 287 1046 249 1075 224 1104 260 1163 225 1193 249 1222
 242 1252 236 1281 231 1311 253 1340 225 1369 228 1399 247 1428 251 1458 326 1487 332 1517 345 1546 249 28 { m20} R 0 0 1 c 722 265 m 1 Y s 715 266 m 13 X s 722 239 m -1 Y s 715 238 m 13 X s 751 280 m 27 Y s 744 307 m 14 X s 751 254 m -27 Y s 744 227
 m 14 X s 810 256 m 10 Y s 803 266 m 13 X s 810 230 m -10 Y s 803 220 m 13 X s 839 265 m 4 Y s 833 269 m 13 X s 839 239 m -3 Y s 833 236 m 13 X s 869 258 m 1 Y s 862 259 m 13 X s 869 232 m s 862 232 m 13 X s 898 318 m 19 Y s 892 337 m 13 X s 898 292
 m -19 Y s 892 273 m 13 X s 928 285 m 6 Y s 921 291 m 13 X s 928 259 m -6 Y s 921 253 m 13 X s 987 378 m 76 Y s 980 454 m 13 X s 987 352 m -76 Y s 980 276 m 13 X s 1016 248 m 1 Y s 1010 249 m 13 X s 1016 222 m -1 Y s 1010 221 m 13 X s 1046 248 m 1 Y
 s 1039 249 m 13 X s 1046 222 m -1 Y s 1039 221 m 13 X s 1075 303 m 11 Y s 1068 314 m 13 X s 1075 277 m -12 Y s 1068 265 m 13 X s 1104 288 m 18 Y s 1098 306 m 13 X s 1104 262 m -18 Y s 1098 244 m 13 X s 1193 278 m 11 Y s 1186 289 m 13 X s 1193 252 m
 -10 Y s 1186 242 m 13 X s 1222 254 m 5 Y s 1216 259 m 13 X s 1222 228 m -5 Y s 1216 223 m 13 X s 1252 250 m s 1245 250 m 13 X s 1252 224 m -1 Y s 1245 223 m 13 X s 1281 257 m 5 Y s 1275 262 m 13 X s 1281 231 m -4 Y s 1275 227 m 13 X s 1311 264 m 5 Y
 s 1304 269 m 13 X s 1311 238 m -5 Y s 1304 233 m 13 X s 1340 272 m 5 Y s 1333 277 m 14 X s 1340 246 m -5 Y s 1333 241 m 14 X s 1428 305 m 19 Y s 1422 324 m 13 X s 1428 279 m -18 Y s 1422 261 m 13 X s 1487 294 m 13 Y s 1481 307 m 13 X s 1487 268 m
 -12 Y s 1481 256 m 13 X s black 0 0 1 c 722 252 m 29 15 d 29 -36 d 30 12 d 29 9 d 30 -7 d 29 60 d 30 -33 d 29 -48 d 30 141 d 29 -130 d 30 X 29 55 d 29 -15 d 59 -53 d 30 43 d 29 -24 d 30 -4 d 29 7 d 30 7 d 29 8 d 29 -19 d 30 -23 d 29 75 d 30 -78 d 29
 67 d 30 -48 d 29 2 d s 722 252 751 267 780 231 810 243 839 252 869 245 898 305 928 272 957 224 987 365 1016 235 1046 235 1075 290 1104 275 1163 222 1193 265 1222 241 1252 237 1281 244 1311 251 1340 259 1369 240 1399 217 1428 292 1458 214 1487 281
 1517 233 1546 235 28 { m20} R black
 gsave  2268 1538 0 0 C 1531.36 1329.35 t 0 r /Helvetica-Bold findfont 58.6478 sf 0 0 m (SCT Barrel) show NC gr 
 gsave  2268 1538 0 0 C 1648.66 1254.41 t 0 r /Helvetica-Bold findfont 58.6478 sf 0 0 m (Layer 0) show NC gr  1539 1269 m 91 X s 1585 1269 m20
 gsave  2268 1538 0 0 C 1648.66 1176.21 t 0 r /Helvetica-Bold findfont 58.6478 sf 0 0 m (Layer 1) show NC gr  1 0 0 c 1539 1192 m 91 X s 1585 1192 m20 black
 gsave  2268 1538 0 0 C 1648.66 1098.02 t 0 r /Helvetica-Bold findfont 58.6478 sf 0 0 m (Layer 2) show NC gr  0 1 0 c 1539 1115 m 91 X s 1585 1115 m20 black
 gsave  2268 1538 0 0 C 1648.66 1023.08 t 0 r /Helvetica-Bold findfont 58.6478 sf 0 0 m (Layer 3) show NC gr  0 0 1 c 1539 1038 m 91 X s 1585 1038 m20
 gr  gr showpage
end
%%EOF
